%YAML 1.1
%TAG !u! tag:unity3d.com,2011:
--- !u!21 &2100000
Material:
  serializedVersion: 6
  m_ObjectHideFlags: 0
  m_PrefabParentObject: {fileID: 0}
  m_PrefabInternal: {fileID: 0}
  m_Name: TreeBranch03_01
  m_Shader: {fileID: 4800000, guid: 326392679aa90c44da1cfc13243882db, type: 3}
  m_ShaderKeywords: _ALPHATEST_ON
  m_LightmapFlags: 4
  m_CustomRenderQueue: 2450
  stringTagMap:
    RenderType: TransparentCutout
  m_SavedProperties:
    serializedVersion: 2
    m_TexEnvs:
    - first:
        name: _BumpMap
      second:
        m_Texture: {fileID: 0}
        m_Scale: {x: 1, y: 1}
        m_Offset: {x: 0, y: 0}
    - first:
        name: _DetailAlbedoMap
      second:
        m_Texture: {fileID: 0}
        m_Scale: {x: 1, y: 1}
        m_Offset: {x: 0, y: 0}
    - first:
        name: _DetailMask
      second:
        m_Texture: {fileID: 0}
        m_Scale: {x: 1, y: 1}
        m_Offset: {x: 0, y: 0}
    - first:
        name: _DetailNormalMap
      second:
        m_Texture: {fileID: 0}
        m_Scale: {x: 1, y: 1}
        m_Offset: {x: 0, y: 0}
    - first:
        name: _EmissionMap
      second:
        m_Texture: {fileID: 0}
        m_Scale: {x: 1, y: 1}
        m_Offset: {x: 0, y: 0}
    - first:
        name: _MainTex
      second:
        m_Texture: {fileID: 0}
        m_Scale: {x: 1, y: 1}
        m_Offset: {x: 0, y: 0}
    - first:
        name: _MetallicGlossMap
      second:
        m_Texture: {fileID: 0}
        m_Scale: {x: 1, y: 1}
        m_Offset: {x: 0, y: 0}
    - first:
        name: _OcclusionMap
      second:
        m_Texture: {fileID: 0}
        m_Scale: {x: 1, y: 1}
        m_Offset: {x: 0, y: 0}
    - first:
        name: _OpacityMap
      second:
        m_Texture: {fileID: 2800000, guid: 3d5c50564736e884cad3dabb41663f2e, type: 3}
        m_Scale: {x: 1, y: 1}
        m_Offset: {x: 0, y: 0}
    - first:
        name: _ParallaxMap
      second:
        m_Texture: {fileID: 0}
        m_Scale: {x: 1, y: 1}
        m_Offset: {x: 0, y: 0}
    - first:
        name: _SmoothnessMap
      second:
        m_Texture: {fileID: 0}
        m_Scale: {x: 1, y: 1}
        m_Offset: {x: 0, y: 0}
    - first:
        name: _WorldNoise
      second:
        m_Texture: {fileID: 2800000, guid: c3715659aaeb1604090700e84c4054cb, type: 3}
        m_Scale: {x: 4, y: 4}
        m_Offset: {x: 0, y: 0}
    m_Floats:
    - first:
        name: _AnimIntensity
      second: 3
    - first:
        name: _BumpScale
      second: 1
    - first:
        name: _Cutoff
      second: 3.4
    - first:
        name: _DetailNormalMapScale
      second: 1
    - first:
        name: _DstBlend
      second: 0
    - first:
        name: _EmissionLM
      second: 0
    - first:
        name: _Fresnel
      second: 1
    - first:
        name: _Glossiness
      second: 0
    - first:
        name: _InvertAxis
      second: 0
    - first:
        name: _LenghtAnim
      second: 0.5
    - first:
        name: _LengthOffset
      second: -0.57
    - first:
        name: _LightWrap
      second: 0
    - first:
        name: _MetalAlphaGloss
      second: 0
    - first:
        name: _Metallic
      second: 0
    - first:
        name: _Mode
      second: 1
    - first:
        name: _MovementAOMask
      second: 2.85
    - first:
        name: _OcclusionStrenght
      second: 1
    - first:
        name: _OcclusionStrength
      second: 1
    - first:
        name: _Parallax
      second: 0.02
    - first:
        name: _RimPower
      second: 0
    - first:
        name: _SrcBlend
      second: 1
    - first:
        name: _UVSec
      second: 0
    - first:
        name: _UpDownVelocity
      second: 2
    - first:
        name: _UseAlpha
      second: 0
    - first:
        name: _Velocity
      second: 10
    - first:
        name: _WeightAnim
      second: 0.05
    - first:
        name: _WeightOffset
      second: 0
    - first:
        name: _WorldNoiseVelocity
      second: 0.02
    - first:
        name: _WorldNoiseVelocity_copy
      second: 20.65
    - first:
        name: _ZWrite
      second: 1
    m_Colors:
    - first:
        name: _Color
      second: {r: 0.19117647, g: 0.15858337, b: 0.13354239, a: 1}
    - first:
        name: _ColorFade
      second: {r: 0.3602941, g: 0.34538543, b: 0.2967128, a: 1}
    - first:
        name: _EmissionColor
      second: {r: 0, g: 0, b: 0, a: 1}
    - first:
        name: _RimColor
      second: {r: 1, g: 0.31034485, b: 0, a: 1}
    - first:
        name: _node_532
      second: {r: 0.5, g: 0.5, b: 0.5, a: 1}
