# Blender v2.78 (sub 0) OBJ File: ''
# www.blender.org
mtllib Oak_Tree_m_06.mtl
o Oak_Tree_m_06
v 0.520055 6.139580 2.321836
v 1.135031 6.453510 2.126092
v 0.956065 6.922574 1.569630
v 0.196069 6.729663 1.223605
v -0.037982 6.314614 1.825990
v -0.066500 5.630226 1.831983
v 0.492960 5.198724 2.089378
v 1.451272 5.736378 2.031417
v 1.752270 6.350948 1.546859
v -0.383366 6.038524 1.215434
v 0.011853 6.420273 0.454635
v -0.138731 5.656618 0.076188
v 0.290237 4.797574 -0.142433
v -0.312013 5.218259 0.993672
v 0.343474 4.578678 1.153641
v 0.684669 5.544957 -0.686276
v 0.418932 6.216689 -0.316823
v 1.040771 6.278990 -0.447992
v 1.710306 5.515962 -0.605659
v 1.215369 6.780548 0.298368
v 2.267060 5.644292 -0.216349
v 1.506613 4.601589 -0.436498
v 1.770149 4.239089 0.166724
v 1.058409 4.213256 0.054877
v 2.333746 4.963810 0.086064
v 2.188187 6.066701 0.539336
v 1.607985 6.808191 0.843293
v 2.175535 5.526954 1.134072
v 2.002959 4.798026 0.868157
v 1.446951 4.474834 1.218810
v -0.326776 5.690283 -2.451159
v -1.051675 6.192242 -2.572491
v -0.929709 7.021624 -2.243349
v -0.087263 6.837495 -1.622907
v 0.176873 6.116953 -1.962399
v -0.183834 4.840271 -1.951753
v -0.828540 4.857028 -2.112274
v 0.306650 5.429764 -1.518102
v -1.347981 5.460442 -2.358019
v 0.383748 6.070321 -1.256666
v -0.126380 6.870783 -0.715515
v -0.051569 6.195901 -0.171672
v -0.693578 5.501743 0.433737
v 0.092578 5.193588 -0.555972
v -1.753352 6.390677 0.341523
v -0.798754 6.955692 -0.048769
v -1.525102 7.187718 -0.292006
v -1.968532 6.859076 -0.470473
v -1.623746 7.356244 -1.246342
v -2.357188 6.413769 -0.672499
v -1.777737 5.378195 0.372223
v -1.749406 4.813696 -0.153968
v -1.129011 4.852137 0.214339
v -2.321037 5.598026 -0.517424
v -0.870401 6.368299 0.437746
v -2.166456 6.397904 -1.758858
v -1.772026 7.159561 -1.841259
v -2.222044 5.593866 -1.667054
v -1.995380 5.077165 -1.218952
v -1.517802 4.600964 -1.335697
v -0.562356 4.399784 -1.050699
v -0.900580 7.387151 -1.051593
v -0.022059 0.353355 0.216121
v -0.209034 0.336045 0.038444
v -0.249761 0.031449 0.060428
v -0.025676 0.034412 0.265950
v -0.211075 0.328306 -0.148241
v -0.252152 0.030432 -0.168518
v 0.259475 0.319866 0.083808
v 0.299048 0.029386 0.109061
v -0.068841 1.133908 -0.258524
v 0.157822 1.112735 -0.168529
v 0.256368 0.308192 -0.189441
v -0.026255 0.337391 -0.333760
v -0.030647 0.032377 -0.382192
v 0.295519 0.027725 -0.212271
v -0.221880 1.122107 -0.137789
v -0.066604 1.148797 0.126539
v -0.220810 1.129348 0.011274
v 0.159701 1.123413 0.046111
v -0.470312 1.976326 -0.204054
v -0.358712 2.013551 -0.274229
v -0.238529 2.045141 -0.204749
v -0.246384 2.059959 -0.062088
v -0.367414 2.026805 0.001855
v -0.475051 1.982809 -0.071006
v -0.777522 2.787147 -0.033550
v -0.869315 2.757036 -0.085299
v -0.589244 2.630898 -0.167728
v -0.659259 2.791701 -0.069629
v -0.869214 2.752629 -0.198100
v -0.746753 2.764453 -0.239006
v -0.900423 4.030937 -0.524729
v -0.994250 4.123682 -0.455622
v -1.091077 4.018486 -0.380814
v -1.080983 4.100181 -0.561293
v -0.696861 2.936605 -0.174843
v -0.917501 4.008383 -0.600271
v -0.992797 4.009121 -0.636351
v -0.176116 3.028782 0.075820
v -0.196725 3.124657 0.033005
v -0.161693 3.112508 -0.050541
v -0.114553 3.020140 -0.034595
v 0.334547 4.004108 0.549910
v 0.437644 4.034859 0.481334
v 0.496023 3.903296 0.430488
v 0.434656 3.944086 0.577090
v 0.416041 4.595085 1.281250
v 0.384933 4.619984 1.252023
v 0.534670 4.111160 0.625727
v 0.450400 4.641020 1.263122
v 0.412306 4.647458 1.228331
v 1.100626 3.997076 0.480071
v 1.083910 4.072362 0.489627
v -0.705415 4.485327 -1.381953
v -0.686360 4.515104 -1.346188
v -0.781450 4.487103 -1.346579
v -0.715352 4.555359 -1.332394
v -1.039824 4.279394 -0.603026
v -1.385396 4.660742 -0.212450
v -1.334399 4.704763 -0.235222
v -0.755056 4.567423 -1.366571
v -1.318602 4.680877 -0.143409
v -1.376080 4.645521 -0.129550
v -1.362162 5.218385 -0.193136
v -1.323425 5.228888 -0.215838
v -1.313240 5.234364 -0.154489
v -1.354800 5.227716 -0.138726
v 1.067630 4.065949 0.410094
v 1.109636 4.026835 0.415941
v 1.501956 4.424399 0.207977
v 1.521416 4.407815 0.195897
v 1.501275 4.419323 0.238677
v 1.516808 4.397711 0.223131
v 0.339912 0.028556 -0.050576
v -1.451306 4.781722 0.093167
v 0.792807 4.048624 0.539028
v -0.469551 2.885508 -0.153708
v -0.422720 6.957687 -0.382561
v 2.376628 5.491876 0.314465
v -0.671493 2.341424 -0.189048
v -1.236830 7.356324 -0.633153
v 0.105905 5.677918 -0.364080
v 0.053159 1.137556 0.101440
v 0.122576 0.322897 -0.282574
v -0.460531 2.941691 -0.075720
v 1.773757 4.634736 1.074633
v -1.117922 4.425879 -1.162622
v -0.576535 2.385591 -0.003653
v 0.342156 5.641655 -0.924725
v 1.347063 4.223743 0.299893
v -0.302503 2.045801 -0.021044
v -0.131603 0.334211 -0.255152
v 0.268811 5.261676 -1.066121
v -0.037759 6.567535 -0.453718
v 0.221980 5.576772 -0.393866
v 2.027759 6.219452 1.042767
v -0.337709 5.838056 0.666568
v 1.088084 4.047590 0.405748
v -0.200075 1.593797 0.059620
v -1.286011 6.759497 0.243269
v 0.423892 5.729860 -1.382872
v -1.201590 4.452046 -0.382555
v 0.288523 0.136891 0.100307
v -0.720707 4.522892 -1.641931
v -0.953264 4.005371 -0.623520
v 0.209079 6.471225 -1.470756
v 0.887887 4.447082 1.212001
v -0.681888 2.913034 -0.122181
v 0.311699 5.791099 -1.784603
v -0.194658 5.201491 -2.195321
v -0.732966 4.492527 -1.393840
v -0.823588 3.426855 -0.262547
v -0.233749 0.145881 0.049811
v 1.351403 6.924397 1.134125
v 1.983571 4.710805 -0.245607
v -0.083604 4.976819 0.443996
v -1.508333 7.150668 -2.005025
v -1.252056 7.458636 -1.194567
v -1.620986 4.620195 -0.745598
v -0.930920 4.313434 -0.971487
v 0.420621 4.389190 0.895498
v -0.729730 2.899991 -0.215646
v -0.251146 6.187864 1.580632
v 1.798075 5.205019 1.450075
v -0.798726 4.334370 -0.966200
v -0.158857 0.032931 0.185664
v 1.264343 6.186273 2.165620
v -0.848417 6.638972 0.254695
v -0.103179 6.009906 1.887825
v -2.402373 5.972539 -1.140678
v -0.482807 6.292668 0.216561
v 1.872549 6.162383 -0.039408
v 0.168799 5.875250 2.158685
v -2.345740 6.411572 -1.144274
v -0.472225 2.410136 -0.060469
v -2.078223 5.491213 0.056156
v -0.436401 6.977711 -1.941028
v 0.435119 4.648803 1.242964
v -0.888929 5.128029 0.348738
v -1.313025 5.232169 -0.187854
v 0.394147 4.635587 1.236499
v -0.919389 3.397609 -0.407770
v 0.420795 4.316752 0.969812
v 2.111623 5.168949 1.028221
v -1.274158 7.363914 -1.760006
v 0.887673 6.358603 2.243294
v -0.839411 4.379187 -0.944318
v -1.248675 5.914315 0.526880
v 0.089109 3.547544 0.265433
v 1.343249 4.203912 0.344682
v -0.736408 4.566992 -1.346666
v 0.222420 0.680744 -0.175936
v -0.234246 1.124188 -0.062892
v -0.280014 5.795649 0.157113
v -2.072347 6.875494 -1.000741
v -1.025656 6.549973 -2.474767
v 1.819270 6.471491 0.364991
v -1.243640 4.360519 -0.268820
v -0.827702 2.771871 -0.052563
v -1.214545 7.103075 -0.137690
v 1.700524 6.620382 1.160188
v -0.697189 4.536723 -1.336118
v 0.117462 5.945997 -0.200989
v 1.317199 4.250435 0.304180
v -1.550803 7.346331 -0.746475
v 0.012237 5.229543 -0.078661
v -0.232908 2.056582 -0.133197
v -0.482684 7.165476 -1.408129
v 0.382544 4.359689 0.932847
v -0.588278 5.223848 -2.370357
v -1.451729 4.962344 -1.886018
v -2.140417 6.680701 -0.535675
v 0.258946 4.603374 0.473273
v -0.991846 3.405899 -0.354853
v -1.950058 4.926630 -0.658729
v -1.165898 4.690354 -1.769541
v 1.252384 4.240037 0.609822
v -0.830102 2.755803 -0.235543
v -0.025233 0.155828 0.252359
v -0.642826 2.647771 -0.201269
v -1.168083 5.875307 -2.527897
v 0.482186 5.920380 -0.534848
v -0.846919 4.581447 -0.328152
v 0.421041 4.843270 1.692570
v -1.595160 6.774848 -2.140709
v 1.449991 4.176788 0.085818
v 1.412599 6.438577 1.905160
v -2.197390 5.265166 -0.846602
v 0.059015 6.498280 -1.847991
v 0.894385 5.947165 -0.629746
v 0.480714 5.678801 2.283756
v 1.521205 4.400924 0.207314
v -1.788372 5.923684 -2.182353
v 1.462991 5.059838 1.694641
v 1.556460 6.169387 -0.264092
v -0.438546 2.854026 -0.008700
v -1.693522 7.253279 -1.674906
v 0.733364 6.569050 -0.048123
v 1.656513 6.077971 1.858761
v -1.104306 4.030163 -0.431569
v 0.809996 3.988003 0.456590
v 0.353374 4.020846 0.516286
v -0.902942 4.017254 -0.562804
v -0.691016 4.496105 -1.363714
v 0.690425 4.436835 -0.069553
v 0.050496 6.553527 1.551684
v 0.144926 0.030051 -0.332069
v 0.396721 4.602970 1.269400
v 0.285062 0.130329 -0.204319
v 1.086465 5.049801 -0.631686
v 0.675579 6.576948 2.039640
v -1.332858 5.232634 -0.139147
v -1.478112 5.084684 0.387625
v 2.323154 5.239057 0.628883
v -1.363788 5.222507 -0.163240
v 1.061307 7.002183 0.967165
v -1.020035 4.261530 -0.552075
v 0.716832 4.333982 0.549599
v 1.072428 4.074883 0.449942
v -1.346192 4.661304 -0.127930
v 0.137711 3.556290 0.189335
v -0.384234 6.635151 -0.062992
v -0.191765 3.077112 0.064172
v 0.507197 6.681708 0.383148
v 0.225250 0.692796 0.069057
v -0.260774 5.309717 0.015379
v 0.231823 6.108830 -0.710531
v -0.399561 5.622669 1.126344
v -0.031340 0.727575 0.174180
v -0.287753 5.403329 0.532965
v -0.026227 1.590702 -0.187225
v -0.717589 6.022213 -2.600711
v 2.000574 5.939678 1.387177
v -1.180334 4.411034 -0.278575
v 1.473302 6.867944 0.646365
v -0.877106 2.753291 -0.141350
v -0.453695 2.365288 -0.191868
v -1.950750 6.676755 -0.086442
v -0.844139 7.231207 -0.504985
v -2.108570 5.351308 -1.490136
v -0.984186 3.393975 -0.245732
v 0.149811 0.031899 0.221617
v -0.132504 6.065659 0.268448
v 1.938300 4.462106 0.505207
v -0.163698 6.416938 1.252250
v 0.050781 1.123410 -0.229007
v -1.728496 5.200592 -1.813148
v -0.289689 4.606842 -1.603551
v 1.512228 4.417069 0.198844
v -1.774544 7.032012 -0.360077
v 0.473031 5.138916 -0.486221
v 0.513740 4.062983 0.634365
v -1.012326 4.070688 -0.672576
v -0.236024 0.141568 -0.158466
v 2.361898 5.333327 -0.134849
v -1.386660 4.969044 -0.188466
v -0.276572 0.030941 -0.053319
v -0.006853 4.849849 -1.276989
v -2.334393 5.598498 -1.190265
v 0.041245 5.075169 -1.761476
v 0.092770 5.545441 -2.022215
v -2.238349 5.888374 -1.709374
v -1.328359 4.987592 -0.135505
v 1.704766 4.345074 -0.163065
v -0.299574 5.834715 1.562705
v -0.231070 5.384488 1.435093
v 0.514083 4.116441 0.578939
v -1.068076 4.248454 -0.608599
v -0.027786 1.599231 -0.010324
v -0.293469 2.030958 -0.248340
v -0.225477 0.330335 -0.054461
v 2.064337 4.520931 0.094731
v 0.187558 3.474311 0.203679
v 0.351197 6.078916 -1.647356
v 2.104097 5.136302 -0.364142
v 0.928194 5.960350 2.309762
v -1.054481 4.042685 -0.370398
v -1.778530 5.814077 0.391969
v 2.047146 5.593991 -0.388153
v 0.126610 0.338344 0.170501
v -1.222131 6.383770 0.474853
v 1.231039 5.497083 -0.722849
v 0.950122 5.442004 2.138454
v 0.472372 3.938131 0.415456
v -0.778592 5.996372 0.466187
v 1.313009 5.997975 -0.532652
v -1.294408 5.434569 0.489847
v -2.083937 5.168284 -0.253104
v 0.561342 6.881469 1.366693
v -0.727096 2.794526 -0.050284
v -0.570974 2.364558 -0.252803
v -2.016890 6.932730 -1.464933
v 1.322481 4.250484 0.358239
v -1.321190 4.696711 -0.191165
v 2.209955 4.806771 0.482715
v -1.361047 4.684648 -0.232385
v -0.162890 0.031405 -0.298860
v -0.505569 4.918993 -0.133869
v -0.328311 1.554510 -0.172645
v -0.203725 0.701384 -0.138438
v -0.765856 4.543431 -1.381854
v -0.182914 4.749752 -0.761564
v -2.387676 6.049050 -0.576739
v 1.863038 6.530108 0.707217
v -0.880597 4.410133 -1.011048
v -0.156184 1.129148 -0.207930
v -0.154353 1.140968 0.078161
v -1.840857 5.093876 0.180161
v -0.181824 3.128333 -0.011138
v -0.899836 3.433735 -0.216571
v 0.283586 0.310400 -0.052196
v -0.029912 0.146958 -0.369738
v -0.530158 6.365494 -2.465582
v -0.675080 2.349358 -0.066496
v 0.222077 6.334242 0.041547
v -0.201865 0.709306 0.027761
v -1.772120 4.834500 -1.263574
v 0.762167 4.040395 0.446170
v -0.908800 4.292562 -0.984201
v -1.886127 5.565677 -2.012505
v -1.636238 6.864737 0.068461
v -0.426385 2.003194 -0.025725
v -0.394230 2.806003 -0.122183
v -0.898378 7.317049 -1.684265
v 0.105261 6.607680 0.844516
v 1.499523 4.423700 0.225527
v 0.349721 3.966173 0.574183
v -0.839220 3.443950 -0.356947
v -0.482230 1.975536 -0.137751
v -0.235834 6.247870 0.809792
v -1.845683 7.107023 -0.785910
v -0.036262 5.967738 -2.211819
v -2.182337 6.352120 -0.158247
v -1.551752 6.305279 -2.291268
v -1.041801 5.132862 -2.290631
v -0.042661 4.893966 1.073870
v -0.084729 6.880314 -1.175955
v -1.386049 4.649241 -0.169150
v -0.330312 1.561159 -0.031635
v -0.128273 0.346966 0.140814
v 2.249144 5.841123 0.108329
v 1.248252 4.331187 -0.253543
v 0.779669 3.957116 0.532633
v -0.816892 4.302246 -1.020157
v -0.418909 1.992519 -0.248214
v 0.167902 6.504129 -0.977791
v 1.650611 4.270759 0.620513
v 0.068990 5.078636 1.578629
v -1.256260 4.390697 -0.363665
v -1.212340 4.505117 -0.504690
v -0.797150 5.559135 -2.542732
v 1.881013 5.641351 1.586511
v 0.188220 5.388233 2.014310
v 0.121092 3.460477 0.301263
v 0.180232 1.115038 -0.060691
v -0.470393 4.817300 -2.047736
v -1.341034 4.994296 -0.212670
v 0.437693 4.616187 1.275864
v 1.659095 5.031015 -0.575716
v 1.092817 4.033521 0.492119
v -0.275167 6.543908 -2.192204
v -0.594723 2.662259 -0.103638
v 1.392635 6.721568 1.580287
v 0.469025 4.386438 0.957256
v 1.130539 6.506546 -0.189161
v 0.393885 6.647117 1.772319
v -2.142845 5.966180 0.001128
v 0.957239 4.836126 1.744156
v 0.221387 6.261896 2.086962
v 1.108473 4.006227 0.447924
v -1.378505 4.968542 -0.119840
v -0.926134 4.051046 -0.500225
v 0.470400 3.882406 0.474531
v -0.142719 3.014710 0.022983
v 0.761040 6.298507 -0.400306
v 1.508499 4.407556 0.233997
v -0.196121 1.580297 -0.264649
v 1.068473 6.679309 1.932062
v -0.481628 7.164244 -0.852384
v -1.922769 6.929864 -1.822714
v -0.132778 3.065931 -0.052326
v -0.035167 0.711285 -0.291992
v 2.244263 5.756464 0.843206
v 0.883685 4.670298 -0.406527
v -1.343955 5.222043 -0.211947
v 0.639081 6.873472 0.841631
v 1.332936 4.226238 0.356256
v 1.347612 4.210274 0.321422
v 1.317384 4.254013 0.332075
v 1.332060 4.238049 0.297242
v 0.775804 4.051490 0.492404
v 0.449010 4.392625 0.923956
v 0.796516 3.965579 0.494807
v 0.786066 4.015298 0.443187
v -1.387228 4.966644 -0.152219
v -1.352422 4.977717 -0.120601
v -1.330051 4.993093 -0.176022
v -1.364857 4.982019 -0.207640
v -1.255672 4.370182 -0.314853
v -0.860403 4.399659 -0.976080
v -1.185240 4.436966 -0.331955
v -1.210344 4.382324 -0.264053
v -0.899274 4.381176 -1.022331
v -1.230568 4.424825 -0.382755
v -0.816620 4.356617 -0.949559
v -0.848854 4.308286 -1.036610
v -0.802973 4.315563 -0.993197
v 0.786253 4.001771 0.544024
v 0.397379 4.376656 0.909383
v 0.449114 4.349379 0.968323
v 0.397483 4.333409 0.953750
v 0.158294 3.459194 0.254905
v 0.099519 3.502915 0.291773
v 0.168216 3.516395 0.188082
v 0.109440 3.560117 0.224950
v -0.430178 2.840701 -0.147233
v -0.411668 2.821905 -0.060661
v -0.876848 3.421186 -0.388835
v -0.469761 2.921709 -0.119494
v -0.451251 2.902913 -0.032923
v -0.959444 3.400176 -0.388557
v -0.824489 3.437185 -0.309397
v -0.994951 3.398583 -0.299106
v -0.945100 3.413649 -0.224256
v -0.857233 3.431242 -0.234268
v -0.521002 2.401793 -0.023421
v -0.507017 2.363781 -0.231040
v -0.626421 2.352952 -0.228988
v -0.681982 2.342604 -0.127708
v -0.453055 2.388668 -0.125962
v -0.630526 2.366558 -0.027218
v -0.011497 1.595465 -0.098404
v -0.340537 1.555049 -0.102068
v -0.273093 1.577619 0.023045
v -0.108427 1.598449 0.036741
v -0.105453 1.586350 -0.238103
v -0.269826 1.566764 -0.228070
v -0.216957 0.703655 -0.054937
v 0.247403 0.683438 -0.052871
v 0.104212 0.711778 0.139444
v -0.128289 0.720521 0.112364
v -0.131327 0.707586 -0.227177
v 0.136019 0.138697 -0.310579
v 0.315611 0.131796 -0.051310
v -0.147496 0.144945 -0.279992
v 0.100532 0.696112 -0.252191
v 0.140518 0.147227 0.199393
v -0.252203 0.142804 -0.053837
v -0.143781 0.151987 0.166279
vt 0.7123 0.5575
vt 0.7162 0.5561
vt 0.7201 0.5598
vt 0.7280 0.5621
vt 0.7240 0.5660
vt 0.7194 0.5642
vt 0.7108 0.5664
vt 0.7067 0.5649
vt 0.7115 0.5619
vt 0.7074 0.5605
vt 0.7071 0.5567
vt 0.7135 0.5523
vt 0.7201 0.5547
vt 0.7175 0.5509
vt 0.7236 0.5509
vt 0.7069 0.5745
vt 0.7135 0.5723
vt 0.7127 0.5793
vt 0.6643 0.5324
vt 0.6714 0.5354
vt 0.6640 0.5381
vt 0.6638 0.5438
vt 0.6604 0.5483
vt 0.6565 0.5421
vt 0.6492 0.5403
vt 0.6532 0.5466
vt 0.6421 0.5472
vt 0.7047 0.5690
vt 0.7089 0.5705
vt 0.6658 0.5559
vt 0.6697 0.5537
vt 0.6706 0.5580
vt 0.6665 0.5605
vt 0.6671 0.5651
vt 0.6770 0.5658
vt 0.6672 0.5676
vt 0.6590 0.5629
vt 0.6557 0.5652
vt 0.6560 0.5616
vt 0.6636 0.5691
vt 0.6630 0.5640
vt 0.6595 0.5681
vt 0.6615 0.5544
vt 0.6648 0.5498
vt 0.6581 0.5579
vt 0.6697 0.5795
vt 0.6783 0.5730
vt 0.6773 0.5804
vt 0.6709 0.5865
vt 0.7271 0.5471
vt 0.7210 0.5470
vt 0.7231 0.5397
vt 0.7191 0.5324
vt 0.7169 0.5397
vt 0.7148 0.5345
vt 0.6648 0.5763
vt 0.6684 0.5748
vt 0.6557 0.5879
vt 0.6535 0.5829
vt 0.6579 0.5805
vt 0.6993 0.5374
vt 0.7070 0.5422
vt 0.7006 0.5466
vt 0.6942 0.5466
vt 0.6524 0.5675
vt 0.6562 0.5703
vt 0.6518 0.5727
vt 0.6869 0.5664
vt 0.6803 0.5589
vt 0.6827 0.5524
vt 0.7240 0.5584
vt 0.6711 0.5411
vt 0.6687 0.5476
vt 0.6568 0.5364
vt 0.7006 0.5732
vt 0.6944 0.5718
vt 0.6918 0.5638
vt 0.6984 0.5676
vt 0.6712 0.5626
vt 0.6624 0.5594
vt 0.7335 0.5525
vt 0.7276 0.5546
vt 0.6627 0.5837
vt 0.7049 0.5370
vt 0.6892 0.5558
vt 0.6956 0.5558
vt 0.6959 0.5597
vt 0.6389 0.5745
vt 0.6369 0.5642
vt 0.6459 0.5674
vt 0.6530 0.5602
vt 0.6439 0.5571
vt 0.6551 0.5565
vt 0.6457 0.5710
vt 0.6450 0.5762
vt 0.6812 0.5633
vt 0.7419 0.5705
vt 0.7301 0.5774
vt 0.7310 0.5703
vt 0.7350 0.5663
vt 0.7409 0.5641
vt 0.5842 0.5574
vt 0.5884 0.5559
vt 0.5925 0.5597
vt 0.6007 0.5619
vt 0.5960 0.5669
vt 0.5917 0.5644
vt 0.5790 0.5569
vt 0.5810 0.5535
vt 0.5826 0.5669
vt 0.5775 0.5668
vt 0.5834 0.5622
vt 0.5784 0.5620
vt 0.5856 0.5522
vt 0.5790 0.5746
vt 0.5851 0.5732
vt 0.5850 0.5806
vt 0.5365 0.5324
vt 0.5436 0.5353
vt 0.5362 0.5375
vt 0.5359 0.5427
vt 0.5326 0.5477
vt 0.5272 0.5423
vt 0.5757 0.5706
vt 0.5808 0.5707
vt 0.5391 0.5607
vt 0.5424 0.5561
vt 0.5433 0.5604
vt 0.5461 0.5673
vt 0.5523 0.5681
vt 0.5431 0.5701
vt 0.5312 0.5629
vt 0.5279 0.5652
vt 0.5282 0.5616
vt 0.5357 0.5669
vt 0.5351 0.5618
vt 0.5317 0.5681
vt 0.5342 0.5567
vt 0.5382 0.5572
vt 0.5374 0.5537
vt 0.5333 0.5532
vt 0.5367 0.5482
vt 0.5302 0.5579
vt 0.5432 0.5853
vt 0.5508 0.5771
vt 0.5502 0.5833
vt 0.6023 0.5446
vt 0.6015 0.5533
vt 0.5975 0.5495
vt 0.5947 0.5458
vt 0.5968 0.5385
vt 0.5913 0.5324
vt 0.5892 0.5397
vt 0.5870 0.5345
vt 0.5377 0.5792
vt 0.5416 0.5791
vt 0.5279 0.5879
vt 0.5250 0.5837
vt 0.5300 0.5805
vt 0.5732 0.5354
vt 0.5801 0.5412
vt 0.5755 0.5425
vt 0.5621 0.5536
vt 0.5673 0.5601
vt 0.5618 0.5630
vt 0.5063 0.5567
vt 0.5124 0.5493
vt 0.5158 0.5584
vt 0.5155 0.5621
vt 0.5094 0.5667
vt 0.5246 0.5675
vt 0.5284 0.5703
vt 0.5234 0.5735
vt 0.5601 0.5567
vt 0.5530 0.5540
vt 0.5554 0.5475
vt 0.6102 0.5784
vt 0.6055 0.5702
vt 0.6126 0.5735
vt 0.5432 0.5405
vt 0.5408 0.5470
vt 0.5275 0.5372
vt 0.5703 0.5735
vt 0.5416 0.5525
vt 0.5476 0.5601
vt 0.5530 0.5645
vt 0.5468 0.5637
vt 0.5396 0.5667
vt 0.6072 0.5512
vt 0.5355 0.5866
vt 0.5676 0.5445
vt 0.5699 0.5516
vt 0.5780 0.5360
vt 0.5680 0.5550
vt 0.5253 0.5602
vt 0.5220 0.5510
vt 0.5273 0.5565
vt 0.5125 0.5766
vt 0.5186 0.5720
vt 0.5173 0.5781
vt 0.5592 0.5628
vt 0.5538 0.5584
vt 0.6006 0.5825
vt 0.6007 0.5751
vt 0.6150 0.5686
vt 0.6079 0.5653
vt 0.6136 0.5632
vt 0.5426 0.5640
vt 0.8995 0.7741
vt 0.8957 0.7753
vt 0.8942 0.7718
vt 0.8983 0.7703
vt 0.8933 0.7763
vt 0.8910 0.7773
vt 0.8892 0.7742
vt 0.8917 0.7730
vt 0.9084 0.7719
vt 0.9033 0.7729
vt 0.9024 0.7689
vt 0.9078 0.7680
vt 0.9246 0.7863
vt 0.9208 0.7848
vt 0.9217 0.7745
vt 0.9263 0.7760
vt 0.9361 0.7752
vt 0.9323 0.7736
vt 0.9336 0.7698
vt 0.9376 0.7718
vt 0.9178 0.7709
vt 0.9135 0.7709
vt 0.9132 0.7672
vt 0.9178 0.7673
vt 0.9272 0.7723
vt 0.9220 0.7710
vt 0.9224 0.7675
vt 0.9280 0.7686
vt 0.9314 0.7888
vt 0.9284 0.7878
vt 0.9310 0.7774
vt 0.9345 0.7787
vt 0.9034 0.7881
vt 0.9004 0.7889
vt 0.8971 0.7788
vt 0.9007 0.7779
vt 0.9102 0.7861
vt 0.9064 0.7873
vt 0.9043 0.7770
vt 0.9090 0.7758
vt 0.9174 0.7848
vt 0.9139 0.7848
vt 0.9137 0.7745
vt 0.9177 0.7745
vt 0.8985 0.7896
vt 0.8965 0.7902
vt 0.8928 0.7804
vt 0.8949 0.7796
vt 0.9261 0.8101
vt 0.9283 0.8106
vt 0.9257 0.8215
vt 0.9240 0.8212
vt 0.9217 0.8087
vt 0.9240 0.8095
vt 0.9222 0.8208
vt 0.9205 0.8206
vt 0.9124 0.8086
vt 0.9147 0.8079
vt 0.9152 0.8206
vt 0.9134 0.8209
vt 0.9080 0.8099
vt 0.9101 0.8094
vt 0.9116 0.8211
vt 0.9098 0.8214
vt 0.9040 0.8107
vt 0.9058 0.8104
vt 0.9080 0.8217
vt 0.9061 0.8219
vt 0.9170 0.8078
vt 0.9142 0.7951
vt 0.9171 0.7951
vt 0.9107 0.8316
vt 0.9123 0.8313
vt 0.9130 0.8414
vt 0.9117 0.8419
vt 0.9171 0.8296
vt 0.9189 0.8289
vt 0.9190 0.8372
vt 0.9173 0.8386
vt 0.9075 0.8321
vt 0.9092 0.8320
vt 0.9103 0.8423
vt 0.9089 0.8423
vt 0.9234 0.8312
vt 0.9249 0.8317
vt 0.9241 0.8419
vt 0.9228 0.8413
vt 0.9204 0.8298
vt 0.9219 0.8307
vt 0.9215 0.8406
vt 0.9203 0.8389
vt 0.9138 0.8308
vt 0.9153 0.8303
vt 0.9155 0.8401
vt 0.9143 0.8407
vt 0.9653 0.7858
vt 0.9664 0.7859
vt 0.9658 0.8042
vt 0.9647 0.8043
vt 0.9627 0.7854
vt 0.9640 0.7858
vt 0.9637 0.8043
vt 0.9625 0.8036
vt 0.9600 0.7857
vt 0.9614 0.7851
vt 0.9614 0.8028
vt 0.9600 0.8038
vt 0.9675 0.7869
vt 0.9685 0.7879
vt 0.9680 0.8050
vt 0.9669 0.8046
vt 0.9726 0.7874
vt 0.9739 0.7873
vt 0.9726 0.8060
vt 0.9715 0.8059
vt 0.9521 0.7782
vt 0.9539 0.7781
vt 0.9533 0.7848
vt 0.9517 0.7853
vt 0.9493 0.7773
vt 0.9505 0.7784
vt 0.9500 0.7858
vt 0.9485 0.7856
vt 0.9700 0.7876
vt 0.9714 0.7874
vt 0.9704 0.8059
vt 0.9692 0.8054
vt 0.9559 0.7782
vt 0.9578 0.7783
vt 0.9572 0.7856
vt 0.9553 0.7852
vt 0.9466 0.7765
vt 0.9482 0.7763
vt 0.9470 0.7854
vt 0.9456 0.7847
vt 0.9471 0.8021
vt 0.9483 0.8023
vt 0.9467 0.8188
vt 0.9456 0.8187
vt 0.9443 0.8015
vt 0.9457 0.8020
vt 0.9445 0.8186
vt 0.9431 0.8183
vt 0.9499 0.8019
vt 0.9513 0.8014
vt 0.9494 0.8180
vt 0.9481 0.8184
vt 0.9532 0.8019
vt 0.9549 0.8024
vt 0.9527 0.8191
vt 0.9511 0.8185
vt 0.9509 0.8306
vt 0.9518 0.8304
vt 0.9543 0.8427
vt 0.9536 0.8428
vt 0.9531 0.8309
vt 0.9544 0.8314
vt 0.9559 0.8431
vt 0.9551 0.8429
vt 0.9491 0.8309
vt 0.9498 0.8308
vt 0.9530 0.8428
vt 0.9525 0.8431
vt 0.8984 0.8442
vt 0.8979 0.8428
vt 0.9062 0.8432
vt 0.9062 0.8444
vt 0.9676 0.8186
vt 0.9685 0.8188
vt 0.9690 0.8325
vt 0.9683 0.8325
vt 0.9705 0.8194
vt 0.9695 0.8190
vt 0.9706 0.8328
vt 0.9698 0.8326
vt 0.9659 0.8185
vt 0.9668 0.8184
vt 0.9677 0.8326
vt 0.9671 0.8328
vt 0.9817 0.7763
vt 0.9829 0.7759
vt 0.9824 0.7846
vt 0.9814 0.7850
vt 0.9626 0.8202
vt 0.9636 0.8205
vt 0.9651 0.8334
vt 0.9642 0.8334
vt 0.9762 0.7761
vt 0.9773 0.7764
vt 0.9770 0.7850
vt 0.9761 0.7847
vt 0.9789 0.7765
vt 0.9805 0.7766
vt 0.9803 0.7854
vt 0.9786 0.7852
vt 0.9644 0.8196
vt 0.9651 0.8187
vt 0.9665 0.8330
vt 0.9658 0.8332
vt 0.9844 0.7762
vt 0.9858 0.7764
vt 0.9849 0.7851
vt 0.9836 0.7849
vt 0.9802 0.7932
vt 0.9810 0.7930
vt 0.9796 0.8014
vt 0.9790 0.8013
vt 0.9781 0.7933
vt 0.9793 0.7933
vt 0.9784 0.8013
vt 0.9776 0.8015
vt 0.9761 0.7931
vt 0.9769 0.7933
vt 0.9767 0.8016
vt 0.9761 0.8016
vt 0.9820 0.7933
vt 0.9830 0.7937
vt 0.9811 0.8022
vt 0.9804 0.8018
vt 0.8990 0.8490
vt 0.8983 0.8483
vt 0.9066 0.8487
vt 0.9072 0.8493
vt 0.8989 0.8509
vt 0.8997 0.8498
vt 0.9078 0.8500
vt 0.9074 0.8510
vt 0.9476 0.8319
vt 0.9483 0.8310
vt 0.9520 0.8434
vt 0.9514 0.8438
vt 0.8986 0.8469
vt 0.8988 0.8456
vt 0.9063 0.8457
vt 0.9065 0.8472
vt 0.9158 0.8470
vt 0.9153 0.8465
vt 0.9241 0.8444
vt 0.9244 0.8447
vt 0.9152 0.8457
vt 0.9150 0.8449
vt 0.9236 0.8440
vt 0.9238 0.8442
vt 0.9159 0.8482
vt 0.9162 0.8476
vt 0.9246 0.8451
vt 0.9245 0.8454
vt 0.9150 0.8440
vt 0.9150 0.8433
vt 0.9238 0.8433
vt 0.9237 0.8436
vt 0.9156 0.8489
vt 0.9243 0.8458
vt 0.9069 0.8520
vt 0.8900 0.8479
vt 0.8907 0.8467
vt 0.8913 0.8455
vt 0.9470 0.8328
vt 0.9509 0.8442
vt 0.9430 0.8215
vt 0.9438 0.8201
vt 0.8980 0.8520
vt 0.8892 0.8520
vt 0.8904 0.8507
vt 0.8916 0.8495
vt 0.8908 0.8487
vt 0.9753 0.7930
vt 0.9754 0.8016
vt 0.9751 0.7843
vt 0.9835 0.7672
vt 0.9851 0.7675
vt 0.9868 0.7678
vt 0.9622 0.8077
vt 0.9629 0.8060
vt 0.9777 0.7678
vt 0.9791 0.7678
vt 0.9806 0.7678
vt 0.9751 0.7758
vt 0.9751 0.7673
vt 0.9764 0.7675
vt 0.9616 0.8198
vt 0.9634 0.8333
vt 0.9598 0.8062
vt 0.9610 0.8069
vt 0.9821 0.7675
vt 0.9716 0.8194
vt 0.8905 0.8439
vt 0.8897 0.8423
vt 0.9512 0.8189
vt 0.9529 0.8197
vt 0.9429 0.8010
vt 0.9417 0.8181
vt 0.9441 0.7840
vt 0.9450 0.7766
vt 0.9459 0.7693
vt 0.9477 0.7682
vt 0.9494 0.7672
vt 0.9544 0.7714
vt 0.9564 0.7712
vt 0.9585 0.7710
vt 0.9691 0.7707
vt 0.9708 0.7698
vt 0.9725 0.7689
vt 0.9502 0.7691
vt 0.9509 0.7710
vt 0.9527 0.7712
vt 0.9738 0.7688
vt 0.9751 0.7687
vt 0.9671 0.7676
vt 0.9681 0.7692
vt 0.9586 0.7864
vt 0.9587 0.8049
vt 0.9585 0.7679
vt 0.9599 0.7676
vt 0.9614 0.7673
vt 0.9629 0.7673
vt 0.9644 0.7672
vt 0.9657 0.7674
vt 0.9188 0.8205
vt 0.9059 0.8322
vt 0.9075 0.8423
vt 0.9043 0.8222
vt 0.9170 0.8205
vt 0.9194 0.8078
vt 0.9199 0.7951
vt 0.9022 0.8111
vt 0.9002 0.8000
vt 0.9020 0.7995
vt 0.9037 0.7990
vt 0.9061 0.7983
vt 0.9085 0.7977
vt 0.9114 0.7964
vt 0.9229 0.7966
vt 0.9258 0.7982
vt 0.9283 0.7990
vt 0.9308 0.7997
vt 0.9345 0.7898
vt 0.9381 0.7799
vt 0.9399 0.7768
vt 0.9417 0.7738
vt 0.5401 0.5728
vt 0.6064 0.5598
vt 0.6121 0.5578
vt 0.5912 0.5718
vt 0.5911 0.5792
vt 0.5910 0.5866
vt 0.5467 0.5558
vt 0.5458 0.5514
vt 0.5584 0.5689
vt 0.5221 0.5795
vt 0.5250 0.5638
vt 0.5239 0.5473
vt 0.5293 0.5528
vt 0.5186 0.5419
vt 0.5732 0.5615
vt 0.5725 0.5666
vt 0.5738 0.5564
vt 0.5758 0.5530
vt 0.5778 0.5496
vt 0.5849 0.5418
vt 0.5870 0.5470
vt 0.5827 0.5366
vt 0.5322 0.5732
vt 0.5898 0.5507
vt 0.5926 0.5543
vt 0.5493 0.5709
vt 0.5361 0.5730
vt 0.5670 0.5695
vt 0.5615 0.5724
vt 0.5482 0.5448
vt 0.5506 0.5383
vt 0.5869 0.5694
vt 0.5271 0.5763
vt 0.5824 0.5483
vt 0.5967 0.5581
vt 0.5577 0.5750
vt 0.5571 0.5812
vt 0.7340 0.5599
vt 0.7399 0.5578
vt 0.7201 0.5700
vt 0.7192 0.5771
vt 0.7184 0.5842
vt 0.6745 0.5558
vt 0.6736 0.5514
vt 0.6754 0.5601
vt 0.6512 0.5779
vt 0.6527 0.5638
vt 0.6460 0.5534
vt 0.6571 0.5528
vt 0.6349 0.5540
vt 0.7023 0.5597
vt 0.7025 0.5635
vt 0.7020 0.5558
vt 0.7127 0.5418
vt 0.7148 0.5470
vt 0.7105 0.5366
vt 0.6600 0.5732
vt 0.6639 0.5907
vt 0.6720 0.5936
vt 0.6770 0.5683
vt 0.6672 0.5701
vt 0.6636 0.5717
vt 0.6761 0.5449
vt 0.6785 0.5384
vt 0.7154 0.5682
vt 0.6556 0.5755
vt 0.7084 0.5514
vt 0.6784 0.5874
vt 0.6849 0.5812
vt 0.6859 0.5738
vn -0.2333 0.2506 0.9396
vn 0.0849 0.4442 0.8919
vn -0.1998 0.7250 0.6591
vn 0.0380 0.9333 0.3571
vn -0.3202 0.9336 0.1608
vn -0.3876 0.7930 0.4701
vn -0.6607 0.5177 0.5435
vn -0.7693 0.0774 0.6342
vn -0.5115 0.4633 0.7237
vn -0.5930 -0.0345 0.8044
vn -0.1937 -0.2415 0.9509
vn 0.2227 -0.0659 0.9727
vn 0.3594 0.5256 0.7710
vn 0.4966 0.1749 0.8502
vn 0.6108 0.5127 0.6034
vn -0.9675 0.2460 0.0587
vn -0.7662 0.6413 0.0416
vn -0.8440 0.5010 -0.1915
vn -0.9630 0.1290 -0.2368
vn -0.8804 0.0360 -0.4728
vn -0.8040 -0.2775 -0.5259
vn -0.9444 -0.2016 -0.2598
vn -0.9002 -0.4298 0.0704
vn -0.8147 -0.5401 -0.2112
vn -0.7196 -0.6689 0.1864
vn -0.9080 -0.0769 0.4119
vn -0.8651 0.3683 0.3405
vn -0.2906 -0.0252 -0.9565
vn -0.4452 0.3036 -0.8424
vn -0.0503 0.3563 -0.9330
vn 0.0943 0.0459 -0.9945
vn 0.3792 0.1786 -0.9079
vn 0.4288 0.6198 -0.6572
vn 0.5253 0.2880 -0.8007
vn 0.1725 -0.4930 -0.8528
vn 0.3838 -0.7324 -0.5624
vn -0.0822 -0.7514 -0.6548
vn 0.6296 -0.2089 -0.7483
vn 0.3000 -0.2597 -0.9179
vn 0.6094 -0.4638 -0.6430
vn -0.4808 -0.3257 -0.8141
vn -0.6736 -0.0191 -0.7389
vn -0.2823 -0.5349 -0.7964
vn 0.8826 0.4699 -0.0147
vn 0.6176 0.7002 -0.3581
vn 0.7619 0.6465 -0.0398
vn 0.8595 0.4527 0.2375
vn 0.7636 0.4762 0.4360
vn 0.7292 0.1738 0.6618
vn 0.8672 0.2010 0.4555
vn 0.8903 -0.0829 0.4477
vn 0.7598 -0.1547 0.6315
vn 0.7918 -0.3617 0.4921
vn 0.9926 0.1165 0.0335
vn 0.8533 0.4784 -0.2073
vn 0.9505 -0.1692 0.2606
vn 0.3046 -0.7822 0.5435
vn 0.4925 -0.4711 0.7318
vn 0.1301 -0.6833 0.7184
vn -0.1079 -0.9031 0.4156
vn 0.4638 -0.8829 -0.0730
vn 0.7596 -0.6250 -0.1797
vn 0.6973 -0.6661 0.2647
vn 0.1433 0.8849 -0.4433
vn -0.2357 0.8403 -0.4881
vn -0.3485 0.8718 -0.3441
vn 0.2295 0.7633 0.6039
vn -0.8299 0.3733 -0.4146
vn -0.7278 0.3142 -0.6096
vn -0.9892 -0.1200 0.0846
vn -0.8233 -0.3889 0.4134
vn 0.3069 0.4609 -0.8327
vn -0.0863 -0.3223 -0.9427
vn 0.7176 0.6492 0.2524
vn 0.5388 0.7344 0.4128
vn 0.9517 0.2022 0.2312
vn 0.6515 -0.5613 0.5104
vn -0.4740 -0.8371 0.2732
vn -0.3523 -0.7400 0.5730
vn -0.6686 -0.5715 0.4758
vn -0.0470 -0.9762 0.2119
vn -0.2511 -0.9456 -0.2070
vn -0.3583 -0.9319 0.0569
vn -0.4713 -0.7752 -0.4207
vn 0.3536 -0.8892 0.2904
vn 0.2061 0.7787 -0.5925
vn -0.3021 0.9302 -0.2086
vn -0.0080 0.9959 -0.0899
vn 0.3895 0.8812 -0.2679
vn 0.4763 -0.1205 -0.8710
vn 0.1506 0.0498 -0.9873
vn 0.3871 0.3217 -0.8641
vn 0.1109 0.6535 -0.7488
vn 0.5163 0.7150 -0.4713
vn 0.5794 0.4501 -0.6795
vn 0.5605 -0.3896 -0.7308
vn 0.1674 -0.4704 -0.8664
vn 0.7826 0.2151 -0.5842
vn 0.8849 -0.1047 -0.4538
vn 0.6702 0.0889 -0.7368
vn 0.7730 -0.2266 -0.5926
vn -0.0027 -0.2866 -0.9580
vn 0.9687 0.2325 0.0868
vn 0.8630 0.4912 -0.1178
vn 0.8763 0.4536 0.1626
vn 0.9193 0.1965 0.3410
vn 0.7921 0.2208 0.5691
vn 0.6860 -0.0036 0.7276
vn 0.8645 -0.0726 0.4974
vn 0.9934 -0.0996 -0.0573
vn 0.9331 0.2326 -0.2744
vn -0.4890 0.3078 0.8161
vn -0.0395 0.6239 0.7805
vn -0.3882 0.6570 0.6463
vn -0.7330 0.6253 0.2677
vn -0.7015 0.6979 0.1444
vn -0.7863 0.5671 0.2454
vn -0.5127 -0.1832 0.8388
vn -0.6381 -0.5187 0.5691
vn -0.1923 -0.4714 0.8607
vn -0.8375 0.0343 0.5454
vn -0.5037 0.0190 0.8636
vn -0.8395 -0.1788 0.5131
vn -0.0643 0.0230 0.9977
vn -0.0445 0.3220 0.9457
vn 0.2936 0.3356 0.8951
vn 0.3404 0.0767 0.9372
vn 0.5846 0.2918 0.7570
vn -0.0450 -0.1658 0.9851
vn -0.8332 0.2109 -0.5112
vn -0.8199 0.5566 -0.1338
vn -0.7573 0.4187 -0.5012
vn -0.4840 0.3110 -0.8180
vn -0.5210 0.1629 -0.8379
vn -0.6110 -0.0301 -0.7911
vn -0.8717 -0.0314 -0.4890
vn -0.8210 -0.3569 -0.4456
vn -0.6357 -0.3749 -0.6748
vn -0.7297 -0.5940 -0.3387
vn -0.9926 -0.0172 -0.1204
vn -0.9455 0.2995 -0.1280
vn -0.9378 -0.3210 -0.1326
vn -0.5102 -0.8084 -0.2937
vn -0.5247 -0.6139 -0.5898
vn -0.3072 -0.7932 -0.5259
vn 0.2990 -0.9519 0.0662
vn 0.7630 -0.6461 -0.0182
vn 0.6398 -0.7107 0.2924
vn 0.2449 -0.8685 0.4309
vn -0.1567 -0.9574 0.2426
vn -0.1922 -0.9743 -0.1176
vn -0.5640 -0.7751 0.2849
vn -0.8383 -0.4896 0.2400
vn -0.7450 -0.6667 0.0194
vn 0.3015 0.9510 0.0688
vn 0.2962 0.8834 0.3630
vn 0.5054 0.8499 0.1492
vn 0.3049 0.9096 -0.2821
vn -0.0214 0.9997 -0.0138
vn 0.7902 0.4421 0.4244
vn 0.6019 0.5002 0.6225
vn 0.9588 -0.0954 0.2675
vn 0.3173 0.5614 0.7643
vn -0.2960 0.8358 0.4625
vn -0.3873 0.8984 0.2071
vn -0.6383 0.6911 0.3392
vn -0.8390 0.2862 0.4627
vn 0.0097 -0.9154 -0.4024
vn -0.7055 -0.6523 -0.2771
vn 0.4920 -0.8322 -0.2555
vn 0.1412 -0.7248 0.6743
vn 0.5134 -0.6592 0.5494
vn 0.3048 -0.4843 0.8201
vn -0.5228 -0.8514 0.0430
vn 0.0374 0.9510 0.3070
vn 0.5113 0.8516 -0.1155
vn -0.4933 0.8693 -0.0329
vn -0.0573 0.9288 -0.3662
vn -0.5163 0.8295 -0.2129
vn -0.7040 0.5259 0.4773
vn -0.6842 0.1574 0.7121
vn -0.9030 0.1648 0.3967
vn -0.8962 0.1853 0.4031
vn -0.6782 0.1667 0.7157
vn -0.9865 0.1636 0.0082
vn -0.9107 0.1671 -0.3778
vn -0.9040 0.1885 -0.3837
vn -0.9826 0.1858 0.0087
vn 0.4340 0.1630 0.8861
vn -0.1514 0.1721 0.9734
vn -0.1454 0.1662 0.9753
vn 0.4327 0.1605 0.8871
vn 0.4212 0.0975 -0.9017
vn 0.8228 0.1169 -0.5561
vn 0.8283 0.1424 -0.5419
vn 0.4515 0.1325 -0.8824
vn -0.7001 0.1610 -0.6956
vn -0.1456 0.1766 -0.9734
vn -0.1404 0.1700 -0.9754
vn -0.6939 0.1709 -0.6995
vn 0.9846 0.1741 -0.0133
vn 0.8275 0.1792 0.5321
vn 0.8232 0.1770 0.5394
vn 0.9848 0.1734 -0.0109
vn 0.4600 0.1636 -0.8727
vn 0.8274 0.1780 -0.5327
vn 0.8240 0.1770 -0.5382
vn 0.4575 0.1613 -0.8744
vn -0.6711 0.0256 -0.7409
vn -0.1417 0.0781 -0.9868
vn -0.1449 0.1409 -0.9794
vn -0.6998 0.1030 -0.7069
vn -0.6510 0.0402 0.7580
vn -0.9003 0.0076 0.4352
vn -0.9085 0.0893 0.4082
vn -0.6824 0.1021 0.7238
vn 0.3928 0.1134 0.9126
vn -0.1460 0.0949 0.9847
vn -0.1508 0.1377 0.9789
vn 0.4244 0.1327 0.8957
vn 0.9921 0.1249 -0.0145
vn 0.8210 0.1288 0.5562
vn 0.8292 0.1442 0.5400
vn 0.9904 0.1374 -0.0152
vn -0.9999 -0.0082 0.0120
vn -0.9122 -0.0002 -0.4098
vn -0.9171 0.0902 -0.3883
vn -0.9965 0.0833 0.0087
vn -0.5352 -0.1995 -0.8208
vn -0.8367 -0.2765 -0.4727
vn -0.7883 -0.3537 -0.5035
vn -0.4799 -0.2162 -0.8503
vn 0.4106 0.1387 -0.9012
vn -0.0652 -0.0371 -0.9972
vn -0.0136 0.0189 -0.9997
vn 0.4301 0.2410 -0.8700
vn 0.3636 0.2644 0.8932
vn 0.7575 0.3866 0.5261
vn 0.7498 0.4486 0.4863
vn 0.3938 0.2703 0.8785
vn -0.5609 -0.0768 0.8243
vn -0.1066 0.1055 0.9887
vn -0.0508 0.0538 0.9973
vn -0.5008 -0.1766 0.8474
vn -0.9599 -0.2805 -0.0001
vn -0.8546 -0.2056 0.4768
vn -0.8087 -0.3362 0.4826
vn -0.9160 -0.4012 -0.0100
vn 0.9169 0.3989 -0.0123
vn 0.7962 0.2554 0.5485
vn 0.9661 0.2580 -0.0142
vn -0.4631 -0.2135 0.8602
vn -0.0419 0.0200 0.9989
vn -0.0505 0.1518 0.9871
vn -0.4746 -0.0140 0.8801
vn 0.8604 0.5079 -0.0413
vn 0.7272 0.4679 -0.5022
vn 0.8066 0.0613 -0.5879
vn 0.9245 -0.0417 0.3789
vn -0.8910 -0.4539 0.0063
vn -0.7770 -0.3852 0.4979
vn -0.8281 -0.1896 0.5276
vn -0.9534 -0.3005 0.0282
vn -0.4394 -0.2138 -0.8725
vn -0.7892 -0.4040 -0.4626
vn -0.8536 -0.3278 -0.4048
vn -0.4484 -0.2650 -0.8536
vn 0.4605 0.3093 -0.8320
vn 0.0631 0.0692 -0.9956
vn 0.0956 -0.0288 -0.9950
vn 0.4504 0.1344 -0.8826
vn 0.3683 0.2376 0.8988
vn 0.7419 0.4295 0.5150
vn 0.2154 0.1687 0.9618
vn 0.3501 0.2824 0.8931
vn 0.5191 0.3463 0.7814
vn 0.8147 0.3279 0.4783
vn 0.9152 0.2216 0.3365
vn 0.7136 0.3882 0.5831
vn -0.2902 0.1911 0.9377
vn 0.2803 0.3166 0.9062
vn 0.7142 0.3505 0.6058
vn 0.2061 0.0687 0.9761
vn -0.9854 -0.1691 0.0173
vn -0.8279 -0.0122 0.5607
vn -0.7447 -0.1975 0.6376
vn -0.9561 -0.2832 -0.0746
vn 0.9820 0.1500 -0.1146
vn 0.8498 -0.0405 -0.5255
vn 0.7598 -0.4417 -0.4771
vn 0.9802 -0.1572 -0.1208
vn -0.5030 -0.3243 -0.8011
vn -0.8870 -0.2476 -0.3898
vn -0.8879 -0.2013 -0.4136
vn -0.7427 -0.3872 -0.5463
vn -0.4178 0.4243 0.8034
vn -0.0896 -0.2525 0.9634
vn 0.0442 -0.4473 0.8933
vn -0.6055 0.2093 0.7678
vn -0.0737 0.7351 -0.6739
vn -0.4141 0.8877 0.2011
vn -0.7665 0.5969 0.2370
vn -0.5506 0.7317 -0.4018
vn 0.6093 -0.1522 -0.7782
vn 0.1952 -0.2623 -0.9450
vn -0.0882 -0.5089 -0.8563
vn 0.3135 -0.5762 -0.7548
vn 0.3819 -0.7348 0.5605
vn 0.6506 -0.6526 -0.3883
vn 0.7470 -0.5451 -0.3805
vn 0.5571 -0.7319 0.3925
vn 0.3427 -0.0780 -0.9362
vn 0.1764 0.2388 -0.9549
vn -0.0316 0.4834 -0.8748
vn 0.4328 0.0344 -0.9008
vn -0.6522 0.6392 -0.4076
vn -0.8881 0.4143 0.1993
vn -0.9654 0.2494 0.0767
vn -0.6404 0.6126 -0.4633
vn 0.4338 0.1801 -0.8828
vn -0.1746 0.5660 -0.8057
vn -0.1866 0.6732 -0.7155
vn 0.1770 0.2423 -0.9539
vn -0.6428 -0.0301 0.7654
vn 0.0544 -0.5120 0.8572
vn 0.0514 -0.6703 0.7403
vn -0.6552 -0.3054 0.6909
vn 0.6518 -0.6548 0.3825
vn 0.8463 -0.4008 -0.3508
vn 0.5034 -0.5785 -0.6419
vn 0.4886 -0.8225 0.2912
vn -0.7512 -0.4707 0.4627
vn 0.0418 -0.7246 0.6879
vn 0.1282 -0.7405 0.6597
vn -0.7888 -0.4668 0.3999
vn 0.7512 -0.4574 0.4760
vn 0.9924 0.1230 0.0084
vn 0.9979 0.0645 0.0046
vn 0.8030 -0.4337 0.4088
vn -0.7289 0.5368 -0.4248
vn -0.9980 0.0637 0.0055
vn -0.9998 -0.0127 0.0169
vn -0.7839 0.4841 -0.3889
vn 0.2123 -0.1739 0.9616
vn 0.1715 -0.7496 0.6393
vn 0.4174 -0.7788 0.4683
vn 0.3471 -0.0763 0.9347
vn 0.8886 -0.4575 -0.0323
vn 0.5059 -0.7937 -0.3376
vn 0.3507 -0.8744 -0.3352
vn 0.8373 -0.5465 -0.0161
vn -0.4969 -0.6323 -0.5943
vn -0.0946 -0.8434 -0.5289
vn -0.7781 -0.3828 -0.4981
vn -0.0891 -0.8728 -0.4799
vn 0.7705 0.4406 0.4607
vn 0.9608 0.0410 0.2743
vn 0.9637 -0.0555 0.2611
vn 0.7798 0.4410 0.4443
vn -0.6118 0.2200 -0.7598
vn -0.8748 -0.1793 -0.4501
vn -0.9194 -0.0849 -0.3841
vn -0.5274 0.1461 -0.8370
vn -0.9079 0.3642 -0.2074
vn -0.5422 0.8299 0.1314
vn -0.6514 0.7519 0.1020
vn -0.8938 0.4264 -0.1386
vn 0.3814 -0.1976 0.9031
vn 0.8212 0.1989 0.5349
vn 0.8125 0.0731 0.5784
vn 0.2673 -0.1453 0.9526
vn 0.8576 0.5093 0.0709
vn 0.2718 0.7348 -0.6215
vn 0.4369 0.3328 -0.8357
vn 0.9640 0.2534 -0.0803
vn 0.1365 0.9036 0.4060
vn 0.6368 0.5983 0.4862
vn 0.4153 0.7710 0.4828
vn -0.0756 0.9195 0.3859
vn -0.9122 -0.4077 -0.0400
vn -0.5319 -0.5104 0.6756
vn -0.5745 -0.3156 0.7552
vn -0.9686 -0.2353 0.0804
vn -0.4725 0.0535 -0.8797
vn -0.9167 0.0538 -0.3958
vn -0.9068 0.0774 -0.4144
vn -0.4185 0.0223 -0.9079
vn 0.9866 -0.0195 -0.1620
vn 0.5022 0.0065 -0.8647
vn 0.6309 -0.0613 -0.7735
vn 0.9837 -0.0739 -0.1638
vn 0.2667 0.0202 0.9636
vn 0.8765 -0.0004 0.4813
vn 0.9035 -0.0285 0.4277
vn 0.3430 0.0456 0.9382
vn -0.9911 0.0428 0.1261
vn -0.6068 0.0354 0.7941
vn -0.5039 0.1063 0.8572
vn -0.9851 0.1003 0.1396
vn -0.0139 -0.0918 -0.9957
vn -0.0807 0.6879 -0.7213
vn -0.3685 0.5370 -0.7588
vn -0.1615 -0.2902 -0.9432
vn 0.1510 -0.9674 -0.2031
vn 0.0757 -0.6930 -0.7169
vn 0.1337 -0.6976 -0.7039
vn 0.3377 -0.8892 -0.3086
vn 0.5601 0.6748 -0.4805
vn -0.1697 0.7636 -0.6230
vn -0.0482 0.7866 -0.6156
vn 0.6542 0.6042 -0.4549
vn 0.0107 0.9827 -0.1848
vn 0.2121 0.6920 0.6900
vn 0.0570 0.6118 0.7889
vn -0.3338 0.9426 0.0064
vn -0.3136 -0.1805 -0.9322
vn -0.6624 0.4342 -0.6105
vn -0.6671 0.3300 -0.6679
vn -0.3759 -0.1294 -0.9176
vn -0.6093 0.7893 0.0758
vn -0.0345 0.6266 0.7786
vn -0.1680 0.6819 0.7119
vn -0.6698 0.7418 0.0341
vn 0.5959 -0.7612 -0.2558
vn 0.1792 -0.6151 -0.7678
vn 0.0058 -0.4873 -0.8732
vn 0.5807 -0.7363 -0.3474
vn 0.5423 -0.0175 0.8400
vn 0.7427 -0.5247 0.4159
vn 0.7939 -0.5229 0.3102
vn 0.5906 -0.0283 0.8065
vn 0.2197 0.8653 -0.4505
vn 0.8249 0.4432 0.3510
vn -0.2337 0.9633 -0.1324
vn 0.7020 0.6523 0.2859
vn -0.8725 -0.1945 -0.4482
vn -0.8350 0.2459 -0.4922
vn 0.4822 -0.4101 0.7741
vn 0.6906 0.5405 -0.4805
vn 0.5368 0.1551 -0.8293
vn 0.5386 0.6419 0.5459
vn 0.7522 0.4134 -0.5131
vn 0.8698 0.4928 -0.0251
vn 0.7813 0.3094 -0.5421
vn 0.8084 0.2078 -0.5508
vn -0.8863 -0.1389 -0.4417
vn -0.9899 -0.1408 0.0141
vn -0.8764 -0.0917 0.4728
vn -0.6004 -0.0138 0.7996
vn -0.1178 0.1092 0.9870
vn 0.3695 0.1924 0.9091
vn 0.4022 0.1101 -0.9089
vn -0.1059 0.0120 -0.9943
vn -0.6109 -0.0954 -0.7859
vn -0.9328 0.3314 0.1419
vn -0.3165 0.6355 -0.7042
vn -0.6313 0.6403 -0.4376
vn 0.6930 0.6780 -0.2451
vn 0.7131 0.7010 0.0071
vn 0.7097 0.6608 0.2441
vn 0.0471 0.8159 0.5763
vn 0.3191 0.7260 0.6091
vn -0.7541 -0.6086 -0.2467
vn -0.2366 -0.8229 0.5166
vn 0.6688 -0.3813 0.6382
vn 0.3909 -0.1982 0.8989
vn 0.8064 -0.4342 0.4015
vn 0.8174 -0.4676 -0.3365
vn 0.8960 -0.3768 -0.2349
vn 0.5693 -0.6342 -0.5232
vn 0.1834 -0.7138 -0.6760
vn -0.1058 -0.7069 -0.6993
vn -0.6202 -0.5745 -0.5342
vn -0.4339 -0.3695 -0.8217
vn -0.9516 -0.2401 0.1918
vn -0.3350 -0.0971 -0.9372
vn -0.2232 0.1361 -0.9652
vn -0.7968 0.6033 0.0356
vn -0.9794 0.0110 0.2017
vn 0.8978 -0.4300 0.0954
vn 0.5433 0.7172 0.4364
vn 0.7500 0.4813 -0.4536
vn -0.8625 -0.5049 -0.0344
vn -0.2484 -0.5561 -0.7931
vn -0.1325 0.3596 -0.9237
vn 0.4090 0.8960 0.1729
vn 0.6241 0.7811 0.0162
vn -0.5173 0.8553 0.0282
vn -0.5763 0.7963 -0.1837
vn -0.6540 0.6784 -0.3347
vn -0.2009 0.6505 -0.7325
vn -0.4855 0.5861 -0.6487
vn 0.1307 0.6164 -0.7765
vn 0.7594 -0.4738 0.4459
vn 0.0738 -0.9835 -0.1651
vn -0.6241 -0.7746 -0.1030
vn -0.6376 -0.5668 -0.5218
vn -0.6041 -0.4055 0.6860
vn -0.7621 -0.2743 0.5865
vn -0.1844 -0.5471 0.8165
vn 0.6894 -0.3732 0.6208
vn 0.5507 -0.2029 0.8096
vn 0.9225 -0.3460 -0.1709
vn 0.5456 0.6517 -0.5269
vn 0.7659 0.3409 -0.5452
vn 0.9103 -0.0361 -0.4124
vn -0.5785 0.6592 -0.4805
vn -0.5926 0.7484 0.2979
vn 0.8493 -0.4660 0.2481
vn 0.2566 -0.4006 0.8796
usemtl None
s 1
f 1/1/1 207/2/2 272/3/3
f 3/4/4 350/5/5 427/6/6
f 5/7/7 190/8/8 430/9/9
f 1/1/1 194/10/10 252/11/11
f 1/1/1 337/12/12 207/2/2
f 2/13/13 188/14/14 248/15/15
f 1/1/1 252/11/11 337/12/12
f 10/16/16 306/17/17 391/18/18
f 10/19/16 391/20/18 158/21/19
f 12/22/20 227/23/21 291/24/22
f 14/25/23 177/26/24 397/27/25
f 10/16/16 326/28/26 184/29/27
f 16/30/28 243/31/29 251/32/30
f 16/30/28 251/32/30 343/33/31
f 19/34/32 256/35/33 340/36/34
f 22/37/35 325/38/36 403/39/37
f 19/34/32 336/40/38 420/41/39
f 22/37/35 176/42/40 325/38/36
f 16/30/28 312/43/41 156/44/42
f 22/37/35 403/39/37 445/45/43
f 26/46/44 218/47/45 365/48/46
f 26/46/44 365/48/46 157/49/47
f 9/50/48 260/51/49 294/52/50
f 28/53/51 413/54/52 205/55/53
f 26/46/44 140/56/54 402/57/55
f 28/58/51 205/59/53 275/60/56
f 30/61/57 255/62/58 429/63/59
f 30/61/57 429/63/59 168/64/60
f 23/65/61 333/66/62 305/67/63
f 20/68/64 259/69/65 285/70/66
f 2/13/13 248/15/15 439/71/67
f 1/1/1 272/3/3 430/9/9
f 10/16/16 184/29/27 306/17/17
f 12/22/20 304/72/68 224/73/69
f 10/19/16 158/21/19 289/74/70
f 10/16/16 289/75/70 326/28/26
f 14/76/23 397/77/25 327/78/71
f 16/30/28 156/44/42 243/31/29
f 19/34/32 347/79/72 256/35/33
f 16/30/28 343/33/31 271/80/73
f 19/34/32 340/36/34 336/40/38
f 16/30/28 271/80/73 312/43/41
f 26/46/44 402/57/55 218/47/45
f 9/50/48 222/81/74 424/82/75
f 26/46/44 157/49/47 444/83/76
f 26/46/44 444/83/76 140/56/54
f 30/61/57 147/84/77 255/62/58
f 15/85/78 245/86/79 409/87/80
f 30/88/57 168/89/60 238/90/81
f 24/91/82 279/92/83 266/93/84
f 30/88/57 238/90/81 408/94/85
f 30/88/57 408/94/85 147/95/77
f 20/68/64 426/96/86 259/69/65
f 20/97/64 285/98/66 447/99/87
f 20/97/64 447/99/87 277/100/88
f 20/97/64 277/100/88 296/101/89
f 31/102/90 293/103/91 374/104/92
f 33/105/93 198/106/94 422/107/95
f 31/102/90 171/108/96 231/109/97
f 35/110/98 170/111/99 393/112/100
f 31/102/90 322/113/101 171/108/96
f 31/102/90 412/114/102 293/103/91
f 31/102/90 231/109/97 412/114/102
f 40/115/103 167/116/104 407/117/105
f 40/118/103 407/119/105 288/120/106
f 42/121/107 215/122/108 143/123/109
f 40/115/103 162/124/110 335/125/111
f 45/126/112 161/127/113 382/128/114
f 48/129/115 392/130/116 233/131/117
f 51/132/118 369/133/119 274/134/120
f 45/126/112 428/135/121 339/136/122
f 51/132/118 197/137/123 369/133/119
f 45/126/112 209/138/124 342/139/125
f 55/140/126 346/141/127 192/142/128
f 51/132/118 274/134/120 348/143/129
f 56/144/130 353/145/131 441/146/132
f 56/147/130 246/148/133 395/149/134
f 56/147/130 254/150/135 323/151/136
f 58/152/137 381/153/138 301/154/139
f 56/144/130 191/155/140 195/156/141
f 58/157/137 301/158/139 320/159/142
f 60/160/143 232/161/144 237/162/145
f 61/163/146 319/164/147 363/165/148
f 61/166/146 363/167/148 244/168/149
f 61/166/146 411/169/150 148/170/151
f 52/171/152 349/172/153 236/173/154
f 62/174/155 300/175/156 440/176/157
f 62/177/155 385/178/158 179/179/159
f 31/102/90 374/104/92 393/112/100
f 40/115/103 335/125/111 167/116/104
f 42/121/107 155/180/160 283/181/161
f 40/118/103 288/120/106 150/182/162
f 40/115/103 150/183/162 162/124/110
f 45/126/112 342/139/125 161/127/113
f 55/140/126 192/142/128 189/184/163
f 47/185/164 226/186/165 311/187/166
f 45/126/112 394/188/167 428/135/121
f 45/126/112 339/136/122 209/138/124
f 56/144/130 195/156/141 353/145/131
f 56/147/130 441/189/132 246/148/133
f 56/147/130 395/149/134 254/150/135
f 56/144/130 323/190/136 191/155/140
f 61/163/146 148/191/151 165/192/168
f 60/160/143 378/193/169 232/161/144
f 61/163/146 165/192/168 309/194/170
f 61/163/146 309/194/170 319/164/147
f 53/195/171 359/196/172 200/197/173
f 61/166/146 244/168/149 411/169/150
f 60/198/143 180/199/174 378/200/169
f 62/174/155 179/201/159 142/202/175
f 62/174/155 142/202/175 300/175/156
f 62/177/155 440/203/157 229/204/176
f 62/177/155 229/204/176 385/178/158
f 49/205/177 206/206/178 258/207/179
f 45/126/112 299/208/180 394/188/167
f 45/126/112 382/128/114 299/208/180
f 510/209/181 174/210/182 65/211/183 187/212/184
f 509/213/185 315/214/186 68/215/187 318/216/188
f 508/217/189 240/218/190 66/219/191 303/220/192
f 507/221/193 213/222/194 73/223/195 145/224/196
f 506/225/197 373/226/198 75/227/199 358/228/200
f 505/229/201 164/230/202 70/231/203 135/232/204
f 504/233/205 270/234/206 76/235/207 268/236/208
f 503/237/209 443/238/210 74/239/211 153/240/212
f 502/241/213 377/242/214 64/243/215 401/244/216
f 501/245/217 290/246/218 63/247/219 341/248/220
f 500/249/221 286/250/222 69/251/223 372/252/224
f 499/253/225 361/254/226 67/255/227 332/256/228
f 498/257/229 360/258/230 81/259/231 406/260/232
f 497/261/233 438/262/234 82/263/235 331/264/236
f 496/265/237 330/266/238 84/267/239 152/268/240
f 495/269/241 160/270/242 85/271/243 383/272/244
f 494/273/245 400/274/246 86/275/247 390/276/248
f 493/277/249 330/266/238 80/278/250 416/279/251
f 492/280/252 149/281/253 87/282/254 220/283/255
f 491/284/256 298/285/257 89/286/258 423/287/259
f 490/288/260 375/289/261 88/290/262 297/291/263
f 489/292/264 141/293/265 91/294/266 239/295/267
f 488/296/268 352/297/269 92/298/270 241/299/271
f 487/300/272 196/301/273 90/302/274 351/303/275
f 486/304/276 173/305/277 93/306/278 433/307/279
f 485/308/280 371/309/281 94/310/282 338/311/283
f 484/312/284 302/313/285 95/314/286 261/315/287
f 483/316/288 389/317/289 98/318/290 264/319/291
f 482/320/292 235/321/293 96/322/294 314/323/295
f 481/324/296 257/325/297 100/326/298 284/327/299
f 480/328/300 146/329/301 101/330/302 370/331/303
f 479/332/304 203/333/305 99/334/306 166/335/307
f 478/336/308 384/337/309 103/338/310 435/339/311
f 477/340/312 138/341/313 102/342/314 442/343/315
f 476/344/316 210/345/317 104/346/318 263/347/319
f 475/348/320 282/349/321 105/350/322 345/351/323
f 474/352/324 415/353/325 107/354/326 388/355/327
f 473/356/328 334/357/329 106/358/330 434/359/331
f 472/360/332 204/361/333 108/362/334 269/363/335
f 471/364/336 425/365/337 111/366/338 419/367/339
f 470/368/340 230/369/341 109/370/342 202/371/343
f 469/372/344 404/373/345 113/374/346 421/375/347
f 468/376/348 405/377/349 115/378/350 265/379/351
f 99/334/306 314/323/295 380/380/352
f 467/381/353 380/380/352 117/382/354 172/383/355
f 466/384/356 186/385/357 116/386/358 223/387/359
f 465/388/360 410/389/361 120/390/362 357/391/363
f 464/392/364 366/393/365 122/394/366 362/395/367
f 463/396/368 295/397/369 123/398/370 281/399/371
f 462/400/372 163/401/373 121/402/374 355/403/375
f 461/404/376 208/405/377 118/406/378 212/407/379
f 460/408/380 219/409/381 124/410/382 399/411/383
f 459/412/384 317/413/385 125/414/386 446/415/387
f 458/416/388 418/417/389 126/418/390 201/419/391
f 457/420/392 324/421/393 127/422/394 273/423/395
f 456/424/396 432/425/397 128/426/398 276/427/399
f 455/428/400 379/429/401 129/430/402 159/431/403
f 454/432/404 262/433/405 130/434/406 431/435/407
f 453/436/408 182/437/409 112/438/410 199/439/411
f 452/440/412 137/441/413 114/442/414 280/443/415
f 451/444/416 225/445/417 131/446/418 310/447/419
f 450/448/420 354/449/421 133/450/422 387/451/423
f 449/452/424 151/453/425 132/454/426 253/455/427
f 448/456/428 211/457/429 134/458/430 437/459/431
f 354/449/421 448/456/428 437/459/431 133/450/422
f 114/442/414 421/375/347 448/456/428 354/449/421
f 421/375/347 113/374/346 211/457/429 448/456/428
f 211/460/429 449/452/424 253/455/427 134/461/430
f 113/462/346 431/435/407 449/452/424 211/460/429
f 431/435/407 130/434/406 151/453/425 449/452/424
f 225/445/417 450/448/420 387/451/423 131/446/418
f 129/430/402 280/443/415 450/448/420 225/445/417
f 280/443/415 114/442/414 354/449/421 450/448/420
f 151/453/425 451/444/416 310/447/419 132/454/426
f 130/434/406 159/431/403 451/444/416 151/453/425
f 159/431/403 129/430/402 225/445/417 451/444/416
f 379/429/401 452/440/412 280/443/415 129/430/402
f 105/463/322 328/464/432 452/440/412 379/429/401
f 328/464/432 110/465/433 137/441/413 452/440/412
f 425/466/337 453/436/408 199/439/411 111/467/338
f 110/468/433 328/469/432 453/436/408 425/466/337
f 328/469/432 105/350/322 182/437/409 453/436/408
f 404/470/345 454/432/404 431/435/407 113/462/346
f 107/471/326 434/472/331 454/432/404 404/470/345
f 434/472/331 106/473/330 262/433/405 454/432/404
f 262/433/405 455/428/400 159/431/403 130/434/406
f 106/473/330 345/474/323 455/428/400 262/433/405
f 345/474/323 105/463/322 379/429/401 455/428/400
f 317/413/385 456/424/396 276/427/399 125/414/386
f 120/390/362 399/411/383 456/424/396 317/413/385
f 399/411/383 124/410/382 432/425/397 456/424/396
f 432/475/397 457/420/392 273/423/395 128/476/398
f 124/477/382 281/399/371 457/420/392 432/475/397
f 281/399/371 123/398/370 324/421/393 457/420/392
f 324/421/393 458/416/388 201/419/391 127/422/394
f 123/398/370 355/403/375 458/416/388 324/421/393
f 355/403/375 121/402/374 418/417/389 458/416/388
f 418/417/389 459/412/384 446/415/387 126/418/390
f 121/402/374 357/391/363 459/412/384 418/417/389
f 357/391/363 120/390/362 317/413/385 459/412/384
f 410/389/361 460/408/380 399/411/383 120/390/362
f 96/478/294 261/479/287 460/408/380 410/389/361
f 261/479/287 95/480/286 219/409/381 460/408/380
f 366/393/365 461/404/376 212/407/379 122/394/366
f 119/481/434 278/482/435 461/404/376 366/393/365
f 278/482/435 94/310/282 208/405/377 461/404/376
f 295/397/369 462/400/372 355/403/375 123/398/370
f 94/483/282 278/484/435 462/400/372 295/397/369
f 278/484/435 119/485/434 163/401/373 462/400/372
f 219/486/381 463/396/368 281/399/371 124/477/382
f 95/487/286 338/488/283 463/396/368 219/486/381
f 338/488/283 94/483/282 295/397/369 463/396/368
f 181/489/436 464/392/364 362/395/367 117/490/354
f 96/491/294 329/492/437 464/392/364 181/489/436
f 329/492/437 119/481/434 366/393/365 464/392/364
f 163/401/373 465/388/360 357/391/363 121/402/374
f 119/485/434 329/493/437 465/388/360 163/401/373
f 329/493/437 96/478/294 410/389/361 465/388/360
f 208/405/377 466/384/356 223/387/359 118/406/378
f 94/310/282 433/307/279 466/384/356 208/405/377
f 433/307/279 93/306/278 186/385/357 466/384/356
f 405/377/349 467/381/353 172/383/355 115/378/350
f 98/318/290 166/335/307 467/381/353 405/377/349
f 166/335/307 99/334/306 380/380/352 467/381/353
f 380/380/352 181/494/436 117/382/354
f 380/380/352 314/323/295 181/494/436
f 314/323/295 96/322/294 181/494/436
f 186/385/357 468/376/348 265/379/351 116/386/358
f 93/306/278 264/319/291 468/376/348 186/385/357
f 264/319/291 98/318/290 405/377/349 468/376/348
f 137/441/413 469/372/344 421/375/347 114/442/414
f 110/465/433 313/495/438 469/372/344 137/441/413
f 313/495/438 107/496/326 404/373/345 469/372/344
f 182/437/409 470/368/340 202/371/343 112/438/410
f 105/350/322 263/347/319 470/368/340 182/437/409
f 263/347/319 104/346/318 230/369/341 470/368/340
f 204/361/333 471/364/336 419/367/339 108/362/334
f 107/354/326 313/497/438 471/364/336 204/361/333
f 313/497/438 110/498/433 425/365/337 471/364/336
f 230/369/341 472/360/332 269/363/335 109/370/342
f 104/346/318 388/355/327 472/360/332 230/369/341
f 388/355/327 107/354/326 204/361/333 472/360/332
f 415/353/325 473/356/328 434/359/331 107/354/326
f 100/326/298 435/339/311 473/356/328 415/353/325
f 435/339/311 103/338/310 334/357/329 473/356/328
f 210/345/317 474/352/324 388/355/327 104/346/318
f 101/330/302 284/327/299 474/352/324 210/345/317
f 284/327/299 100/326/298 415/353/325 474/352/324
f 334/499/329 475/348/320 345/351/323 106/500/330
f 103/501/310 442/343/315 475/348/320 334/499/329
f 442/343/315 102/342/314 282/349/321 475/348/320
f 282/349/321 476/344/316 263/347/319 105/350/322
f 102/342/314 370/331/303 476/344/316 282/349/321
f 370/331/303 101/330/302 210/345/317 476/344/316
f 384/502/309 477/340/312 442/343/315 103/501/310
f 89/503/258 241/504/271 477/340/312 384/502/309
f 241/504/271 92/505/270 138/341/313 477/340/312
f 257/325/297 478/336/308 435/339/311 100/326/298
f 90/506/274 423/507/259 478/336/308 257/325/297
f 423/507/259 89/508/258 384/337/309 478/336/308
f 389/317/289 479/332/304 166/335/307 98/318/290
f 97/509/439 183/510/440 479/332/304 389/317/289
f 183/510/440 92/511/270 203/333/305 479/332/304
f 138/341/313 480/328/300 370/331/303 102/342/314
f 92/505/270 183/512/440 480/328/300 138/341/313
f 183/512/440 97/513/439 146/329/301 480/328/300
f 146/329/301 481/324/296 284/327/299 101/330/302
f 97/513/439 169/514/441 481/324/296 146/329/301
f 169/514/441 90/506/274 257/325/297 481/324/296
f 203/333/305 482/320/292 314/323/295 99/334/306
f 92/511/270 239/515/267 482/320/292 203/333/305
f 239/515/267 91/516/266 235/321/293 482/320/292
f 173/305/277 483/316/288 264/319/291 93/306/278
f 90/517/274 169/518/441 483/316/288 173/305/277
f 169/518/441 97/509/439 389/317/289 483/316/288
f 235/519/293 484/312/284 261/315/287 96/520/294
f 91/521/266 297/522/263 484/312/284 235/519/293
f 297/522/263 88/523/262 302/313/285 484/312/284
f 302/313/285 485/308/280 338/311/283 95/314/286
f 88/523/262 220/524/255 485/308/280 302/313/285
f 220/524/255 87/525/254 371/309/281 485/308/280
f 371/309/281 486/304/276 433/307/279 94/310/282
f 87/525/254 351/526/275 486/304/276 371/309/281
f 351/526/275 90/517/274 173/305/277 486/304/276
f 149/281/253 487/300/272 351/303/275 87/282/254
f 85/271/243 152/268/240 487/300/272 149/281/253
f 152/268/240 84/267/239 196/301/273 487/300/272
f 298/285/257 488/296/268 241/299/271 89/286/258
f 83/527/442 331/264/236 488/296/268 298/285/257
f 331/264/236 82/263/235 352/297/269 488/296/268
f 352/297/269 489/292/264 239/295/267 92/298/270
f 82/263/235 406/260/232 489/292/264 352/297/269
f 406/260/232 81/259/231 141/293/265 489/292/264
f 141/528/265 490/288/260 297/291/263 91/529/266
f 81/530/231 390/276/248 490/288/260 141/528/265
f 390/276/248 86/275/247 375/289/261 490/288/260
f 196/301/273 491/284/256 423/287/259 90/302/274
f 84/267/239 228/531/443 491/284/256 196/301/273
f 228/531/443 83/527/442 298/285/257 491/284/256
f 375/289/261 492/280/252 220/283/255 88/290/262
f 86/275/247 383/272/244 492/280/252 375/289/261
f 383/272/244 85/271/243 149/281/253 492/280/252
f 292/532/444 493/277/249 416/279/251 72/533/445
f 83/527/442 228/531/443 493/277/249 292/532/444
f 228/531/443 84/267/239 330/266/238 493/277/249
f 360/534/230 494/273/245 390/276/248 81/530/231
f 77/535/446 214/536/447 494/273/245 360/534/230
f 214/536/447 79/537/448 400/274/246 494/273/245
f 400/274/246 495/269/241 383/272/244 86/275/247
f 79/537/448 368/538/449 495/269/241 400/274/246
f 368/538/449 78/539/450 160/270/242 495/269/241
f 160/270/242 496/265/237 152/268/240 85/271/243
f 78/539/450 144/540/451 496/265/237 160/270/242
f 144/540/451 80/278/250 330/266/238 496/265/237
f 292/532/444 497/261/233 331/264/236 83/527/442
f 72/533/445 307/541/452 497/261/233 292/532/444
f 307/541/452 71/542/453 438/262/234 497/261/233
f 438/262/234 498/257/229 406/260/232 82/263/235
f 71/542/453 367/543/454 498/257/229 438/262/234
f 367/543/454 77/544/446 360/258/230 498/257/229
f 377/242/214 499/253/225 332/256/228 64/243/215
f 79/537/448 214/536/447 499/253/225 377/242/214
f 214/536/447 77/535/446 361/254/226 499/253/225
f 213/222/194 500/249/221 372/252/224 73/223/195
f 72/533/445 416/279/251 500/249/221 213/222/194
f 416/279/251 80/278/250 286/250/222 500/249/221
f 286/250/222 501/245/217 341/248/220 69/251/223
f 80/278/250 144/540/451 501/245/217 286/250/222
f 144/540/451 78/539/450 290/246/218 501/245/217
f 290/246/218 502/241/213 401/244/216 63/247/219
f 78/539/450 368/538/449 502/241/213 290/246/218
f 368/538/449 79/537/448 377/242/214 502/241/213
f 361/545/226 503/237/209 153/240/212 67/546/227
f 77/544/446 367/543/454 503/237/209 361/545/226
f 367/543/454 71/542/453 443/238/210 503/237/209
f 373/226/198 504/233/205 268/236/208 75/227/199
f 74/239/211 145/224/196 504/233/205 373/226/198
f 145/224/196 73/223/195 270/234/206 504/233/205
f 270/234/206 505/229/201 135/232/204 76/235/207
f 73/223/195 372/252/224 505/229/201 270/234/206
f 372/252/224 69/251/223 164/230/202 505/229/201
f 315/547/186 506/225/197 358/228/200 68/548/187
f 67/546/227 153/240/212 506/225/197 315/547/186
f 153/240/212 74/239/211 373/226/198 506/225/197
f 443/238/210 507/221/193 145/224/196 74/239/211
f 71/542/453 307/541/452 507/221/193 443/238/210
f 307/541/452 72/533/445 213/222/194 507/221/193
f 164/230/202 508/217/189 303/220/192 70/231/203
f 69/251/223 341/248/220 508/217/189 164/230/202
f 341/248/220 63/247/219 240/218/190 508/217/189
f 174/210/182 509/213/185 318/216/188 65/211/183
f 64/243/215 332/256/228 509/213/185 174/210/182
f 332/256/228 67/255/227 315/214/186 509/213/185
f 240/218/190 510/209/181 187/212/184 66/219/191
f 63/247/219 401/244/216 510/209/181 240/218/190
f 401/244/216 64/243/215 174/210/182 510/209/181
f 299/208/180 311/187/166 48/129/115
f 299/208/180 382/128/114 311/187/166
f 382/128/114 47/185/164 311/187/166
f 394/188/167 233/131/117 50/549/455
f 394/188/167 299/208/180 233/131/117
f 299/208/180 48/129/115 233/131/117
f 258/207/179 178/550/456 57/551/457
f 258/207/179 206/206/178 178/550/456
f 206/206/178 33/105/93 178/550/456
f 385/178/158 198/106/94 33/105/93
f 385/178/158 229/204/176 198/106/94
f 229/204/176 34/552/458 198/106/94
f 229/204/176 398/553/459 34/552/458
f 229/204/176 440/203/157 398/553/459
f 440/203/157 41/554/460 398/553/459
f 300/175/156 221/555/461 46/556/462
f 300/175/156 142/202/175 221/555/461
f 142/202/175 47/185/164 221/555/461
f 142/202/175 226/186/165 47/185/164
f 142/202/175 179/201/159 226/186/165
f 179/201/159 49/557/177 226/186/165
f 378/200/169 236/173/154 59/558/463
f 378/200/169 180/199/174 236/173/154
f 180/199/174 52/171/152 236/173/154
f 411/169/150 136/559/464 52/171/152
f 411/169/150 244/168/149 136/559/464
f 244/168/149 53/195/171 136/559/464
f 200/197/173 287/560/465 43/561/466
f 200/197/173 359/196/172 287/560/465
f 359/196/172 44/562/467 287/560/465
f 319/164/147 321/563/468 38/564/469
f 319/164/147 309/194/170 321/563/468
f 309/194/170 36/565/470 321/563/468
f 309/194/170 417/566/471 36/565/470
f 309/194/170 165/192/168 417/566/471
f 165/192/168 37/567/472 417/566/471
f 232/161/144 308/568/473 39/569/474
f 232/161/144 378/193/169 308/568/473
f 378/193/169 59/570/463 308/568/473
f 165/192/168 237/162/145 37/567/472
f 165/192/168 148/191/151 237/162/145
f 148/191/151 60/160/143 237/162/145
f 191/155/140 320/159/142 54/571/475
f 191/155/140 323/190/136 320/159/142
f 323/190/136 58/157/137 320/159/142
f 254/150/135 242/572/476 39/569/474
f 254/150/135 395/149/134 242/572/476
f 395/149/134 32/573/477 242/572/476
f 246/148/133 178/550/456 33/105/93
f 246/148/133 441/189/132 178/550/456
f 441/189/132 57/551/457 178/550/456
f 353/145/131 216/574/478 49/557/177
f 353/145/131 195/156/141 216/574/478
f 195/156/141 50/549/455 216/574/478
f 209/138/124 348/143/129 43/561/466
f 209/138/124 339/136/122 348/143/129
f 339/136/122 51/132/118 348/143/129
f 428/135/121 364/575/479 54/571/475
f 428/135/121 394/188/167 364/575/479
f 394/188/167 50/549/455 364/575/479
f 311/187/166 392/130/116 48/129/115
f 311/187/166 226/186/165 392/130/116
f 226/186/165 49/557/177 392/130/116
f 189/184/163 283/181/161 46/556/462
f 189/184/163 192/142/128 283/181/161
f 192/142/128 42/121/107 283/181/161
f 161/127/113 189/184/163 46/556/462
f 161/127/113 342/139/125 189/184/163
f 342/139/125 55/140/126 189/184/163
f 162/124/110 154/576/480 38/564/469
f 162/124/110 150/183/162 154/576/480
f 150/183/162 44/577/467 154/576/480
f 150/182/162 143/123/109 44/562/467
f 150/182/162 288/120/106 143/123/109
f 288/120/106 42/121/107 143/123/109
f 283/181/161 139/578/481 46/556/462
f 283/181/161 155/180/160 139/578/481
f 155/180/160 41/579/460 139/578/481
f 167/116/104 250/580/482 34/552/458
f 167/116/104 335/125/111 250/580/482
f 335/125/111 35/110/98 250/580/482
f 393/112/100 422/107/95 35/110/98
f 393/112/100 374/104/92 422/107/95
f 374/104/92 33/105/93 422/107/95
f 179/179/159 206/206/178 49/205/177
f 179/179/159 385/178/158 206/206/178
f 385/178/158 33/105/93 206/206/178
f 440/176/157 139/578/481 41/579/460
f 440/176/157 300/175/156 139/578/481
f 300/175/156 46/556/462 139/578/481
f 236/173/154 249/581/483 59/558/463
f 236/173/154 349/172/153 249/581/483
f 349/172/153 54/571/475 249/581/483
f 148/170/151 180/199/174 60/198/143
f 148/170/151 411/169/150 180/199/174
f 411/169/150 52/171/152 180/199/174
f 244/168/149 359/196/172 53/195/171
f 244/168/149 363/167/148 359/196/172
f 363/167/148 44/562/467 359/196/172
f 363/165/148 154/576/480 44/577/467
f 363/165/148 319/164/147 154/576/480
f 319/164/147 38/564/469 154/576/480
f 237/162/145 396/582/484 37/567/472
f 237/162/145 232/161/144 396/582/484
f 232/161/144 39/569/474 396/582/484
f 320/159/142 249/581/483 54/571/475
f 320/159/142 301/158/139 249/581/483
f 301/158/139 59/558/463 249/581/483
f 195/156/141 364/575/479 50/549/455
f 195/156/141 191/155/140 364/575/479
f 191/155/140 54/571/475 364/575/479
f 301/154/139 308/568/473 59/570/463
f 301/154/139 381/153/138 308/568/473
f 381/153/138 39/569/474 308/568/473
f 323/151/136 381/153/138 58/152/137
f 323/151/136 254/150/135 381/153/138
f 254/150/135 39/569/474 381/153/138
f 395/149/134 217/583/485 32/573/477
f 395/149/134 246/148/133 217/583/485
f 246/148/133 33/105/93 217/583/485
f 441/146/132 258/584/179 57/585/457
f 441/146/132 353/145/131 258/584/179
f 353/145/131 49/557/177 258/584/179
f 348/143/129 200/197/173 43/561/466
f 348/143/129 274/134/120 200/197/173
f 274/134/120 53/195/171 200/197/173
f 192/142/128 215/122/108 42/121/107
f 192/142/128 346/141/127 215/122/108
f 346/141/127 43/561/466 215/122/108
f 342/139/125 346/141/127 55/140/126
f 342/139/125 209/138/124 346/141/127
f 209/138/124 43/561/466 346/141/127
f 369/133/119 349/172/153 52/171/152
f 369/133/119 197/137/123 349/172/153
f 197/137/123 54/571/475 349/172/153
f 339/136/122 197/137/123 51/132/118
f 339/136/122 428/135/121 197/137/123
f 428/135/121 54/571/475 197/137/123
f 274/134/120 136/559/464 53/195/171
f 274/134/120 369/133/119 136/559/464
f 369/133/119 52/171/152 136/559/464
f 233/131/117 216/574/478 50/549/455
f 233/131/117 392/130/116 216/574/478
f 392/130/116 49/557/177 216/574/478
f 382/128/114 221/555/461 47/185/164
f 382/128/114 161/127/113 221/555/461
f 161/127/113 46/556/462 221/555/461
f 335/125/111 170/111/99 35/110/98
f 335/125/111 162/124/110 170/111/99
f 162/124/110 38/564/469 170/111/99
f 143/123/109 287/560/465 44/562/467
f 143/123/109 215/122/108 287/560/465
f 215/122/108 43/561/466 287/560/465
f 288/120/106 155/180/160 42/121/107
f 288/120/106 407/119/105 155/180/160
f 407/119/105 41/579/460 155/180/160
f 407/117/105 398/553/459 41/554/460
f 407/117/105 167/116/104 398/553/459
f 167/116/104 34/552/458 398/553/459
f 412/114/102 396/582/484 39/569/474
f 412/114/102 231/109/97 396/582/484
f 231/109/97 37/567/472 396/582/484
f 293/103/91 242/572/476 32/573/477
f 293/103/91 412/114/102 242/572/476
f 412/114/102 39/569/474 242/572/476
f 171/108/96 321/563/468 36/565/470
f 171/108/96 322/113/101 321/563/468
f 322/113/101 38/564/469 321/563/468
f 393/112/100 322/113/101 31/102/90
f 393/112/100 170/111/99 322/113/101
f 170/111/99 38/564/469 322/113/101
f 231/109/97 417/566/471 37/567/472
f 231/109/97 171/108/96 417/566/471
f 171/108/96 36/565/470 417/566/471
f 422/107/95 250/580/482 35/110/98
f 422/107/95 198/106/94 250/580/482
f 198/106/94 34/552/458 250/580/482
f 374/104/92 217/583/485 33/105/93
f 374/104/92 293/103/91 217/583/485
f 293/103/91 32/573/477 217/583/485
f 296/101/89 175/586/486 27/587/487
f 296/101/89 277/100/88 175/586/486
f 277/100/88 3/4/4 175/586/486
f 277/100/88 350/5/5 3/4/4
f 277/100/88 447/99/87 350/5/5
f 447/99/87 4/588/488 350/5/5
f 447/99/87 386/589/489 4/588/488
f 447/99/87 285/98/66 386/589/489
f 285/98/66 11/590/490 386/589/489
f 259/69/65 436/591/491 17/592/492
f 259/69/65 426/96/86 436/591/491
f 426/96/86 18/593/493 436/591/491
f 147/95/77 305/67/63 29/594/494
f 147/95/77 408/94/85 305/67/63
f 408/94/85 23/65/61 305/67/63
f 408/94/85 247/595/495 23/65/61
f 408/94/85 238/90/81 247/595/495
f 238/90/81 24/91/82 247/595/495
f 266/93/84 234/596/496 13/597/497
f 266/93/84 279/92/83 234/596/496
f 279/92/83 15/598/78 234/596/496
f 238/90/81 279/92/83 24/91/82
f 238/90/81 168/89/60 279/92/83
f 168/89/60 15/598/78 279/92/83
f 409/87/80 414/599/498 6/600/499
f 409/87/80 245/86/79 414/599/498
f 245/86/79 7/601/500 414/599/498
f 255/62/58 185/602/501 8/603/502
f 255/62/58 147/84/77 185/602/501
f 147/84/77 29/604/494 185/602/501
f 140/56/54 275/60/56 25/605/503
f 140/56/54 444/83/76 275/60/56
f 444/83/76 28/58/51 275/60/56
f 444/83/76 294/606/50 28/58/51
f 444/83/76 157/49/47 294/606/50
f 157/49/47 9/607/48 294/606/50
f 424/82/75 175/586/486 3/4/4
f 424/82/75 222/81/74 175/586/486
f 222/81/74 27/587/487 175/586/486
f 218/47/45 193/608/504 20/68/64
f 218/47/45 402/57/55 193/608/504
f 402/57/55 21/609/505 193/608/504
f 312/43/41 445/45/43 13/597/497
f 312/43/41 271/80/73 445/45/43
f 271/80/73 22/37/35 445/45/43
f 336/40/38 316/610/506 25/605/503
f 336/40/38 340/36/34 316/610/506
f 340/36/34 21/609/505 316/610/506
f 271/80/73 420/41/39 22/37/35
f 271/80/73 343/33/31 420/41/39
f 343/33/31 19/34/32 420/41/39
f 256/35/33 426/96/86 20/68/64
f 256/35/33 347/79/72 426/96/86
f 347/79/72 18/593/493 426/96/86
f 243/31/29 224/73/69 17/592/492
f 243/31/29 156/44/42 224/73/69
f 156/44/42 12/22/20 224/73/69
f 327/78/71 409/87/80 6/600/499
f 327/78/71 397/77/25 409/87/80
f 397/77/25 15/85/78 409/87/80
f 326/28/26 327/78/71 6/600/499
f 326/28/26 289/75/70 327/78/71
f 289/75/70 14/76/23 327/78/71
f 289/74/70 291/24/22 14/25/23
f 289/74/70 158/21/19 291/24/22
f 158/21/19 12/22/20 291/24/22
f 224/73/69 376/611/507 17/592/492
f 224/73/69 304/72/68 376/611/507
f 304/72/68 11/612/490 376/611/507
f 306/17/17 267/613/508 4/588/488
f 306/17/17 184/29/27 267/613/508
f 184/29/27 5/7/7 267/613/508
f 430/9/9 427/6/6 5/7/7
f 430/9/9 272/3/3 427/6/6
f 272/3/3 3/4/4 427/6/6
f 439/71/67 424/82/75 3/4/4
f 439/71/67 248/15/15 424/82/75
f 248/15/15 9/50/48 424/82/75
f 285/70/66 376/611/507 11/612/490
f 285/70/66 259/69/65 376/611/507
f 259/69/65 17/592/492 376/611/507
f 305/67/63 356/614/509 29/594/494
f 305/67/63 333/66/62 356/614/509
f 333/66/62 25/605/503 356/614/509
f 168/64/60 245/86/79 15/85/78
f 168/64/60 429/63/59 245/86/79
f 429/63/59 7/601/500 245/86/79
f 429/63/59 344/615/510 7/601/500
f 429/63/59 255/62/58 344/615/510
f 255/62/58 8/603/502 344/615/510
f 275/60/56 356/614/509 25/605/503
f 275/60/56 205/59/53 356/614/509
f 205/59/53 29/594/494 356/614/509
f 402/57/55 316/610/506 21/609/505
f 402/57/55 140/56/54 316/610/506
f 140/56/54 25/605/503 316/610/506
f 205/55/53 185/602/501 29/604/494
f 205/55/53 413/54/52 185/602/501
f 413/54/52 8/603/502 185/602/501
f 294/52/50 413/54/52 28/53/51
f 294/52/50 260/51/49 413/54/52
f 260/51/49 8/603/502 413/54/52
f 157/49/47 222/616/74 9/607/48
f 157/49/47 365/48/46 222/616/74
f 365/48/46 27/617/487 222/616/74
f 365/48/46 296/618/89 27/617/487
f 365/48/46 218/47/45 296/618/89
f 218/47/45 20/68/64 296/618/89
f 445/45/43 266/93/84 13/597/497
f 445/45/43 403/39/37 266/93/84
f 403/39/37 24/91/82 266/93/84
f 156/44/42 227/23/21 12/22/20
f 156/44/42 312/43/41 227/23/21
f 312/43/41 13/597/497 227/23/21
f 325/38/36 333/66/62 23/65/61
f 325/38/36 176/42/40 333/66/62
f 176/42/40 25/605/503 333/66/62
f 420/41/39 176/42/40 22/37/35
f 420/41/39 336/40/38 176/42/40
f 336/40/38 25/605/503 176/42/40
f 403/39/37 247/595/495 24/91/82
f 403/39/37 325/38/36 247/595/495
f 325/38/36 23/65/61 247/595/495
f 340/36/34 193/608/504 21/609/505
f 340/36/34 256/35/33 193/608/504
f 256/35/33 20/68/64 193/608/504
f 343/33/31 347/79/72 19/34/32
f 343/33/31 251/32/30 347/79/72
f 251/32/30 18/593/493 347/79/72
f 251/32/30 436/591/491 18/593/493
f 251/32/30 243/31/29 436/591/491
f 243/31/29 17/592/492 436/591/491
f 184/29/27 190/8/8 5/7/7
f 184/29/27 326/28/26 190/8/8
f 326/28/26 6/600/499 190/8/8
f 397/27/25 234/596/496 15/598/78
f 397/27/25 177/26/24 234/596/496
f 177/26/24 13/597/497 234/596/496
f 291/24/22 177/26/24 14/25/23
f 291/24/22 227/23/21 177/26/24
f 227/23/21 13/597/497 177/26/24
f 158/21/19 304/72/68 12/22/20
f 158/21/19 391/20/18 304/72/68
f 391/20/18 11/612/490 304/72/68
f 391/18/18 386/589/489 11/590/490
f 391/18/18 306/17/17 386/589/489
f 306/17/17 4/588/488 386/589/489
f 337/12/12 344/615/510 8/603/502
f 337/12/12 252/11/11 344/615/510
f 252/11/11 7/601/500 344/615/510
f 248/15/15 260/51/49 9/50/48
f 248/15/15 188/14/14 260/51/49
f 188/14/14 8/603/502 260/51/49
f 207/2/2 188/14/14 2/13/13
f 207/2/2 337/12/12 188/14/14
f 337/12/12 8/603/502 188/14/14
f 252/11/11 414/599/498 7/601/500
f 252/11/11 194/10/10 414/599/498
f 194/10/10 6/600/499 414/599/498
f 430/9/9 194/10/10 1/1/1
f 430/9/9 190/8/8 194/10/10
f 190/8/8 6/600/499 194/10/10
f 427/6/6 267/613/508 5/7/7
f 427/6/6 350/5/5 267/613/508
f 350/5/5 4/588/488 267/613/508
f 272/3/3 439/71/67 3/4/4
f 272/3/3 207/2/2 439/71/67
f 207/2/2 2/13/13 439/71/67
