# Blender v2.78 (sub 0) OBJ File: ''
# www.blender.org
mtllib Oak_Tree_NoLeaves_l_04.mtl
o Oak_Tree_NoLeaves_l_04
v -0.196309 0.295004 0.386226
v -0.396674 0.295004 0.192687
v -0.524821 0.020951 0.282420
v -0.273210 0.020951 0.520454
v 0.187168 0.300012 0.236930
v 0.070686 0.799936 0.205341
v -0.189376 0.736737 0.335009
v -0.061821 0.295004 0.346271
v -0.385153 0.295004 0.081109
v -0.386664 0.735978 0.167631
v -0.367432 0.791349 -0.135220
v -0.336575 0.299315 -0.198620
v -0.523452 0.020951 0.112652
v -0.380616 0.021994 -0.233626
v 0.243610 0.021994 0.281828
v -0.056192 0.020951 0.475772
v 0.155890 0.859452 -0.107695
v -0.057332 2.029353 0.050619
v -0.146568 1.949106 0.263138
v -0.383686 1.904696 0.328197
v -0.518213 1.911953 0.221299
v -0.486325 1.961320 -0.017199
v -0.064886 0.890695 -0.270809
v -0.240179 2.070479 -0.114446
v -0.330408 3.815803 -0.094966
v -0.078046 3.741764 0.156594
v -0.207356 3.687876 0.322932
v -0.510186 3.628286 0.199513
v -0.621612 3.519629 -0.084891
v 0.734811 5.634097 0.526694
v 0.855655 5.426769 0.557992
v -0.447305 4.107095 0.045989
v 0.516968 5.590653 0.581497
v -1.383932 4.135471 -0.704948
v -1.403925 4.200645 -0.618566
v 0.782633 5.532317 0.684775
v 0.544924 5.506984 0.677833
v -1.462846 4.096005 -0.577079
v -1.450113 4.054751 -0.658148
v -2.030981 5.016422 -0.930141
v -2.074218 4.989085 -0.908332
v -2.081182 4.971652 -0.942626
v -2.046636 4.994196 -0.971172
v -2.101164 5.751309 -0.964889
v -2.078937 5.768061 -0.938683
v -2.129874 5.749332 -0.938310
v -2.115217 5.764632 -0.915554
v 0.406245 7.001724 0.618529
v 0.370611 7.019739 0.553279
v 0.474762 7.004499 0.617568
v 0.897334 5.786067 0.616663
v 0.495459 7.030309 0.554434
v 2.202585 6.012079 0.422331
v 2.179081 6.080315 0.390179
v 0.425191 7.034956 0.510248
v 0.037428 8.188108 1.127964
v 0.062179 8.186686 1.144577
v 0.019751 8.179951 1.143007
v 0.068897 8.106698 1.128547
v 2.167830 6.077999 0.341493
v 2.192305 6.019068 0.364772
v 2.882977 6.898194 0.613792
v 2.859385 6.867806 0.580609
v 2.893969 6.874125 0.605259
v 2.882624 6.843163 0.622186
v 0.011717 0.345944 -0.423466
v 0.269107 0.334888 -0.226025
v 0.331220 0.032999 -0.287341
v 0.034566 0.034314 -0.525047
v -0.125611 3.712113 0.253701
v 0.218623 0.562643 -0.170669
v 0.463745 7.034044 0.527301
v -0.425130 1.326071 -0.073007
v -0.476454 0.020951 -0.047412
v 0.311667 0.160372 -0.268775
v 2.896523 6.900115 0.601685
v 0.578330 6.343585 0.512707
v 0.891669 5.736522 0.660506
v -1.012999 3.876447 -0.215144
v -0.116391 2.861194 0.091435
v 0.863435 5.793685 0.579254
v -0.035712 1.321094 0.230243
v 0.098324 0.020951 0.411579
v 0.540810 6.276335 0.641324
v -0.369755 2.020708 -0.083187
v 0.260524 7.681729 0.852419
v -2.120449 5.427145 -0.923858
v -1.435000 4.153045 -0.590470
v 0.813272 5.472662 0.524252
v -0.167032 0.020951 0.523041
v 1.526149 5.749217 0.551574
v 0.558468 5.601287 0.544135
v -0.379889 0.473312 0.178116
v -0.518888 1.932164 0.101786
v 0.063440 0.295846 0.310156
v 0.231869 4.601522 0.515469
v -0.524548 2.648012 0.229637
v -2.088826 5.782221 -0.951981
v -0.152316 1.430347 -0.185722
v -0.305285 0.774924 0.271726
v 2.583647 6.501435 0.452872
v -0.134367 2.058418 -0.045281
v 0.135438 0.515253 0.215511
v -2.065210 4.981323 -0.960222
v 0.324340 0.027496 0.003233
v 0.083083 4.785536 0.348433
v 2.179048 6.048859 0.348110
v -0.133211 0.320821 0.374206
v -0.115578 0.473985 0.342557
v 1.534631 5.755521 0.468045
v 0.503234 6.317768 0.560793
v -1.756644 4.580746 -0.803403
v -0.262897 1.922871 0.309299
v 0.016528 8.218569 1.155504
v 0.018118 8.212724 1.173552
v -2.123419 5.780171 -0.925267
v 0.042143 8.216537 1.174314
v -0.457267 0.136463 0.097292
v 0.241977 7.582232 0.850664
v -2.096124 5.789768 -0.925745
v -0.056070 0.136463 0.413375
v -0.410896 0.020951 0.412462
v -0.942395 4.054564 -0.297159
v -0.388265 4.060202 -0.036553
v -0.397761 0.778019 0.013305
v 2.891549 6.910831 0.605455
v 2.904075 6.898685 0.627244
v 0.048551 1.393069 -0.026247
v -0.234044 0.136463 0.462804
v -0.173394 0.323123 -0.330861
v 2.171159 6.085238 0.363343
v 0.179807 7.674398 0.851639
v 0.201348 4.721151 0.247659
v 0.382815 7.009871 0.588138
v -0.317017 3.684036 0.310378
v -0.229906 2.790867 0.277973
v 2.191853 6.045872 0.411277
v 1.521827 5.839621 0.498547
v -2.035214 5.007289 -0.952887
v -1.759231 4.542645 -0.864325
v 0.214577 0.034699 -0.463073
v -1.011777 3.815447 -0.361831
v -0.302816 0.295004 0.295865
v -1.461870 4.067084 -0.613781
v -0.225709 0.842898 -0.223713
v 0.213820 7.685392 0.823042
v 0.414687 7.088542 0.654269
v -1.807603 4.522084 -0.777259
v -0.486685 4.006753 0.122924
v -0.286255 1.283673 0.333689
v -0.547695 0.020951 0.201806
v 2.909049 6.887969 0.623474
v 0.028272 0.165011 -0.491513
v -2.080161 5.438655 -0.946626
v 2.587397 6.506117 0.489873
v -0.884258 3.942124 -0.420664
v -0.452639 1.287196 0.197576
v -0.140003 3.773524 0.046174
v 0.491695 7.017303 0.587987
v 0.659916 6.340670 0.567999
v -2.116121 5.772624 -0.951504
v -1.415407 4.090392 -0.688901
v -2.051298 5.004354 -0.915914
v -0.055532 0.785504 0.286426
v 0.250047 0.316957 0.011627
v 0.072779 4.623654 0.476103
v -0.522938 2.772838 -0.019509
v -2.101716 5.420555 -0.978699
v -0.288127 2.900867 -0.100578
v -2.133116 5.411390 -0.951178
v 0.521611 5.547867 0.631540
v 0.602776 5.496364 0.693306
v 0.063164 0.882960 -0.208217
v 0.134541 0.828660 0.049910
v -0.184061 0.028154 -0.414524
v 0.223926 0.138516 0.270115
v -0.019776 0.584079 -0.348196
v -1.388537 4.176352 -0.665590
v -0.397570 0.320821 0.140500
v 0.159780 0.344234 -0.356714
v -0.469122 2.010581 0.284929
v -0.182841 0.473312 0.357571
v -0.363040 0.139010 -0.218500
v 1.484760 5.835426 0.440022
v -0.344460 0.508865 -0.171258
v 0.269498 7.584211 0.849913
v -2.081295 4.978389 -0.923249
v -0.083502 1.989338 0.161009
v 2.945252 6.962923 0.634234
v 2.612548 6.458144 0.511496
v 0.631339 6.275775 0.644807
v 0.328146 4.636969 0.372386
v -0.374673 0.295004 -0.051752
v 2.199742 6.009493 0.396044
v -1.801751 4.494425 -0.827395
v 0.839816 5.411709 0.618196
v -0.468145 0.136463 0.236096
v 2.600864 6.463316 0.472494
v -0.380945 0.473312 0.117797
v -0.631781 3.531696 0.028225
v -0.523831 3.588135 -0.139275
v 0.037383 8.222172 1.156386
v 0.392770 7.028296 0.526619
v -0.462943 2.647265 0.282757
v -0.381270 1.282555 0.282055
v 0.292598 0.149198 0.006003
v 0.198611 0.538184 0.026051
v -0.177005 0.152257 -0.378111
v -0.192375 0.547657 -0.279985
v 0.117938 0.579213 -0.284899
v 0.191534 0.164991 -0.417458
v 2.591514 6.482399 0.459030
v 2.600715 6.482108 0.504337
v 2.608742 6.456592 0.493978
v 2.583486 6.507915 0.469390
v 1.500689 5.845709 0.465389
v 1.532995 5.744184 0.513705
v 0.623884 6.346321 0.534687
v 1.508321 5.795576 0.447206
v -0.008238 8.321335 1.224651
v 0.256218 7.675015 0.874283
v 0.190338 7.669466 0.874494
v 0.193327 7.680438 0.834035
v 0.239556 7.684683 0.834572
v 0.535315 6.332493 0.530569
v 1.525362 5.794317 0.531888
v 0.653404 6.308135 0.609089
v 0.586478 6.271040 0.650172
v 0.514548 6.296145 0.603113
v -2.105596 5.849783 -0.936420
v -2.130228 5.418274 -0.935101
v -2.098660 5.434527 -0.932388
v -2.119061 5.414346 -0.967793
v -2.087493 5.430599 -0.965080
v -1.780334 4.515375 -0.851198
v -1.753445 4.566833 -0.836895
v -1.809170 4.503117 -0.799295
v -1.782280 4.554575 -0.784993
v -0.980550 3.973842 -0.243165
v 0.065615 4.708545 0.415155
v -0.945164 3.870450 -0.404233
v -1.021910 3.831297 -0.281718
v 0.293332 4.615252 0.451756
v 0.147105 4.603109 0.507769
v -0.903804 4.012993 -0.365681
v 0.136883 4.764995 0.286732
v 0.274290 4.676933 0.298637
v -0.296750 1.381551 -0.148396
v -0.543678 2.763730 0.098680
v -0.155379 2.824731 0.193739
v -0.413310 2.838723 -0.079493
v -0.344673 2.775069 0.291853
v -0.186478 2.890509 -0.016433
v -0.035857 1.419902 -0.122151
v -0.458085 1.301746 0.061411
v -0.157808 1.299076 0.299006
v -0.476210 0.136463 0.169462
v -0.146734 0.136463 0.453092
v 0.026270 1.356618 0.104607
v -0.291373 0.501407 0.276947
v 0.086042 0.136463 0.363315
v -0.426216 0.136463 -0.052199
v -0.375464 0.501408 -0.023805
v 0.011613 0.506628 0.291972
v -0.358712 0.136463 0.356789
vt 0.9378 0.7666
vt 0.9360 0.7659
vt 0.9366 0.7641
vt 0.9385 0.7648
vt 0.9168 0.7716
vt 0.9176 0.7738
vt 0.9161 0.7744
vt 0.9155 0.7723
vt 0.9325 0.7698
vt 0.9324 0.7724
vt 0.9305 0.7720
vt 0.9308 0.7695
vt 0.9331 0.7657
vt 0.9326 0.7673
vt 0.9311 0.7670
vt 0.9313 0.7655
vt 0.9150 0.7682
vt 0.9160 0.7694
vt 0.9149 0.7702
vt 0.9137 0.7692
vt 0.9364 0.7707
vt 0.9348 0.7702
vt 0.9353 0.7677
vt 0.9371 0.7684
vt 0.9219 0.7793
vt 0.9235 0.7792
vt 0.9241 0.7860
vt 0.9227 0.7858
vt 0.9403 0.7679
vt 0.9397 0.7673
vt 0.9405 0.7655
vt 0.9412 0.7663
vt 0.9370 0.7732
vt 0.9380 0.7711
vt 0.9385 0.7716
vt 0.9354 0.7659
vt 0.9348 0.7659
vt 0.9354 0.7641
vt 0.9360 0.7641
vt 0.9342 0.7676
vt 0.9347 0.7677
vt 0.9343 0.7702
vt 0.9188 0.7797
vt 0.9199 0.7857
vt 0.9184 0.7858
vt 0.9173 0.7801
vt 0.9321 0.7787
vt 0.9317 0.7850
vt 0.9303 0.7853
vt 0.9304 0.7787
vt 0.9251 0.7794
vt 0.9245 0.7725
vt 0.9262 0.7727
vt 0.9266 0.7796
vt 0.9263 0.7963
vt 0.9270 0.8063
vt 0.9253 0.8066
vt 0.9247 0.7963
vt 0.9204 0.7958
vt 0.9218 0.7959
vt 0.9222 0.8061
vt 0.9209 0.8059
vt 0.9294 0.7954
vt 0.9309 0.7946
vt 0.9314 0.8038
vt 0.9301 0.8049
vt 0.9233 0.7961
vt 0.9238 0.8063
vt 0.9323 0.7946
vt 0.9338 0.7946
vt 0.9345 0.8044
vt 0.9330 0.8041
vt 0.9331 0.7847
vt 0.9340 0.7846
vt 0.9285 0.7791
vt 0.9283 0.7724
vt 0.9282 0.8181
vt 0.9295 0.8183
vt 0.9303 0.8305
vt 0.9295 0.8299
vt 0.9305 0.8184
vt 0.9315 0.8186
vt 0.9316 0.8298
vt 0.9309 0.8302
vt 0.9480 0.7702
vt 0.9492 0.7700
vt 0.9492 0.7770
vt 0.9485 0.7771
vt 0.9238 0.8178
vt 0.9247 0.8179
vt 0.9273 0.8297
vt 0.9267 0.8298
vt 0.9259 0.8180
vt 0.9269 0.8180
vt 0.9286 0.8294
vt 0.9280 0.8296
vt 0.9526 0.7703
vt 0.9535 0.7701
vt 0.9516 0.7771
vt 0.9511 0.7770
vt 0.9504 0.7703
vt 0.9516 0.7706
vt 0.9506 0.7768
vt 0.9499 0.7769
vt 0.9326 0.8177
vt 0.9337 0.8169
vt 0.9330 0.8290
vt 0.9323 0.8294
vt 0.9455 0.7703
vt 0.9469 0.7704
vt 0.9478 0.7771
vt 0.9470 0.7771
vt 0.9478 0.7834
vt 0.9483 0.7835
vt 0.9489 0.7898
vt 0.9486 0.7897
vt 0.9506 0.7832
vt 0.9510 0.7833
vt 0.9504 0.7896
vt 0.9502 0.7896
vt 0.9488 0.7834
vt 0.9493 0.7833
vt 0.9494 0.7897
vt 0.9491 0.7897
vt 0.9498 0.7832
vt 0.9503 0.7831
vt 0.9500 0.7895
vt 0.9497 0.7896
vt 0.9493 0.7943
vt 0.9495 0.7942
vt 0.9496 0.7987
vt 0.9494 0.7988
vt 0.9498 0.7942
vt 0.9501 0.7941
vt 0.9502 0.7988
vt 0.9499 0.7987
vt 0.9488 0.7944
vt 0.9490 0.7944
vt 0.9492 0.7990
vt 0.9489 0.7990
vt 0.9503 0.7942
vt 0.9505 0.7943
vt 0.9505 0.7990
vt 0.9504 0.7989
vt 0.9421 0.8049
vt 0.9421 0.8052
vt 0.9418 0.8052
vt 0.9418 0.8049
vt 0.9322 0.8385
vt 0.9328 0.8383
vt 0.9326 0.8476
vt 0.9321 0.8476
vt 0.9276 0.8387
vt 0.9281 0.8386
vt 0.9289 0.8475
vt 0.9284 0.8476
vt 0.9286 0.8389
vt 0.9291 0.8391
vt 0.9297 0.8474
vt 0.9293 0.8475
vt 0.9507 0.8002
vt 0.9504 0.7996
vt 0.9590 0.8001
vt 0.9590 0.8006
vt 0.9311 0.8389
vt 0.9316 0.8388
vt 0.9316 0.8477
vt 0.9312 0.8476
vt 0.9305 0.8562
vt 0.9309 0.8562
vt 0.9309 0.8649
vt 0.9307 0.8649
vt 0.9311 0.8562
vt 0.9314 0.8563
vt 0.9312 0.8649
vt 0.9311 0.8649
vt 0.9317 0.8563
vt 0.9320 0.8563
vt 0.9315 0.8650
vt 0.9313 0.8650
vt 0.9280 0.8477
vt 0.9291 0.8564
vt 0.9298 0.8562
vt 0.9301 0.8562
vt 0.9305 0.8649
vt 0.9303 0.8650
vt 0.9431 0.8048
vt 0.9429 0.8048
vt 0.9429 0.8047
vt 0.9431 0.8047
vt 0.9506 0.8023
vt 0.9505 0.8016
vt 0.9591 0.8017
vt 0.9590 0.8022
vt 0.9299 0.8390
vt 0.9305 0.8390
vt 0.9308 0.8475
vt 0.9303 0.8475
vt 0.9506 0.8034
vt 0.9508 0.8029
vt 0.9589 0.8026
vt 0.9590 0.8030
vt 0.9507 0.8012
vt 0.9510 0.8009
vt 0.9591 0.8011
vt 0.9591 0.8014
vt 0.9661 0.8011
vt 0.9661 0.8009
vt 0.9731 0.8006
vt 0.9730 0.8008
vt 0.9660 0.8022
vt 0.9659 0.8019
vt 0.9729 0.8013
vt 0.9729 0.8015
vt 0.9660 0.8005
vt 0.9660 0.8002
vt 0.9729 0.8002
vt 0.9730 0.8004
vt 0.9660 0.8016
vt 0.9660 0.8013
vt 0.9729 0.8009
vt 0.9729 0.8011
vt 0.9428 0.8050
vt 0.9427 0.8051
vt 0.9426 0.8049
vt 0.9428 0.8046
vt 0.9428 0.8048
vt 0.9426 0.8047
vt 0.9239 0.7650
vt 0.9220 0.7653
vt 0.9217 0.7636
vt 0.9238 0.7632
vt 0.9243 0.7697
vt 0.9226 0.7697
vt 0.9223 0.7670
vt 0.9241 0.7668
vt 0.9284 0.7696
vt 0.9260 0.7697
vt 0.9259 0.7667
vt 0.9285 0.7668
vt 0.9286 0.7651
vt 0.9259 0.7648
vt 0.9258 0.7629
vt 0.9287 0.7634
vt 0.9203 0.7703
vt 0.9229 0.7724
vt 0.9210 0.7728
vt 0.9191 0.7663
vt 0.9196 0.7678
vt 0.9349 0.7788
vt 0.9338 0.7787
vt 0.9357 0.7729
vt 0.9344 0.7727
vt 0.9360 0.7789
vt 0.9350 0.7846
vt 0.9162 0.7673
vt 0.9170 0.7686
vt 0.9155 0.7660
vt 0.9186 0.7648
vt 0.9180 0.7709
vt 0.9191 0.7731
vt 0.9316 0.7639
vt 0.9424 0.8049
vt 0.9425 0.8051
vt 0.9426 0.8052
vt 0.9661 0.8025
vt 0.9730 0.8016
vt 0.9591 0.8033
vt 0.9419 0.8016
vt 0.9424 0.8011
vt 0.9428 0.8006
vt 0.9505 0.8040
vt 0.9418 0.8046
vt 0.9423 0.8039
vt 0.9427 0.8032
vt 0.9286 0.8308
vt 0.9295 0.8306
vt 0.9423 0.8024
vt 0.9432 0.8047
vt 0.9432 0.8046
vt 0.9432 0.8049
vt 0.9431 0.8049
vt 0.9429 0.8049
vt 0.9295 0.8563
vt 0.9302 0.8650
vt 0.9423 0.7998
vt 0.9418 0.7990
vt 0.9280 0.8303
vt 0.9270 0.8388
vt 0.9261 0.8298
vt 0.9421 0.8046
vt 0.9418 0.8046
vt 0.9424 0.8046
vt 0.9424 0.8048
vt 0.9424 0.8051
vt 0.9485 0.7944
vt 0.9487 0.7990
vt 0.9483 0.7897
vt 0.9473 0.7834
vt 0.9463 0.7771
vt 0.9441 0.7703
vt 0.9418 0.7635
vt 0.9439 0.7636
vt 0.9459 0.7637
vt 0.9314 0.8074
vt 0.9329 0.8061
vt 0.9344 0.8047
vt 0.9492 0.7629
vt 0.9509 0.7637
vt 0.9526 0.7644
vt 0.9541 0.7638
vt 0.9555 0.7631
vt 0.9228 0.8177
vt 0.9195 0.8057
vt 0.9475 0.7633
vt 0.9287 0.8060
vt 0.9301 0.8067
vt 0.9287 0.7859
vt 0.9271 0.7865
vt 0.9347 0.7945
vt 0.9214 0.7856
vt 0.9279 0.7962
vt 0.9189 0.7958
vt 0.9256 0.7862
vt 0.9202 0.7794
vt 0.9395 0.7695
vt 0.9401 0.7700
vt 0.9389 0.7691
vt 0.9410 0.7685
vt 0.9418 0.7670
vt 0.9140 0.7671
vt 0.9125 0.7681
vt 0.9335 0.7640
vn -0.5997 0.5019 0.6233
vn -0.7751 0.5059 0.3785
vn -0.7417 0.5462 0.3893
vn -0.5823 0.5389 0.6087
vn 0.4156 0.1468 0.8976
vn 0.4121 0.0902 0.9067
vn -0.1000 0.0359 0.9943
vn 0.2783 0.1278 0.9519
vn -0.9924 -0.0209 -0.1210
vn -0.9920 -0.0797 -0.0974
vn -0.8244 -0.0034 -0.5661
vn -0.8379 0.0378 -0.5445
vn -0.9076 0.3247 -0.2660
vn -0.9692 0.1606 -0.1868
vn -0.8236 0.1536 -0.5460
vn -0.7969 0.2443 -0.5525
vn 0.4358 0.3449 0.8313
vn 0.4087 0.2583 0.8753
vn 0.3475 0.2588 0.9013
vn 0.3457 0.3932 0.8520
vn -0.6667 0.0585 0.7430
vn -0.9317 0.0543 0.3591
vn -0.8584 0.3232 0.3984
vn -0.6572 0.3004 0.6913
vn 0.9273 0.1452 0.3451
vn 0.9543 0.2076 -0.2148
vn 0.9774 0.1339 -0.1633
vn 0.8997 0.0947 0.4261
vn 0.2223 0.4260 0.8770
vn -0.2616 0.4998 0.8257
vn -0.2900 0.5328 0.7950
vn 0.1698 0.4680 0.8673
vn -0.1930 0.1202 0.9738
vn -0.8896 0.4541 -0.0497
vn -0.8901 0.3981 -0.2218
vn -0.8658 0.4464 -0.2260
vn -0.8614 0.5079 0.0049
vn -0.9605 0.2179 -0.1732
vn -0.9749 0.2055 -0.0858
vn -0.9997 0.0151 -0.0180
vn 0.3608 0.0474 0.9314
vn 0.2257 0.0354 0.9735
vn -0.1998 -0.0093 0.9798
vn -0.1335 -0.0223 0.9908
vn -0.9892 -0.0953 -0.1117
vn -0.9933 -0.0576 -0.1003
vn -0.8046 -0.0254 -0.5933
vn -0.8062 -0.0226 -0.5912
vn 0.6377 0.2101 -0.7410
vn 0.6070 0.2633 -0.7498
vn 0.0666 0.2047 -0.9766
vn 0.1138 0.1493 -0.9822
vn 0.7299 0.0385 -0.6824
vn 0.7094 -0.0508 -0.7030
vn 0.9638 -0.2167 -0.1553
vn 0.9933 0.0178 -0.1146
vn -0.0791 0.0154 0.9967
vn 0.4648 -0.0004 0.8854
vn 0.3158 -0.1723 0.9331
vn -0.2721 -0.0154 0.9622
vn -0.2637 -0.0515 -0.9632
vn -0.8016 -0.0846 -0.5918
vn -0.6297 -0.5375 -0.5609
vn 0.0874 -0.2658 -0.9601
vn 0.8583 -0.0012 0.5131
vn 0.8175 -0.2689 0.5092
vn -0.9952 -0.0498 0.0844
vn -0.8710 0.0010 0.4912
vn -0.6300 0.0306 0.7760
vn -0.8960 -0.3108 0.3171
vn -0.9273 -0.0758 0.3665
vn -0.6291 -0.0211 0.7771
vn -0.4049 0.0606 -0.9124
vn -0.4432 0.0952 -0.8913
vn 0.6019 -0.1043 -0.7918
vn 0.2306 0.1935 -0.9536
vn -0.0019 0.1151 -0.9934
vn 0.2775 -0.1595 -0.9474
vn -0.3060 0.4871 -0.8180
vn -0.7994 0.5720 -0.1838
vn -0.9378 0.2365 -0.2540
vn -0.4158 0.2182 -0.8829
vn 0.4528 0.7056 -0.5450
vn 0.4976 0.0643 -0.8651
vn 0.4349 0.0119 -0.9004
vn 0.6477 0.6518 -0.3945
vn -0.2309 -0.0890 0.9689
vn 0.2996 -0.3381 0.8921
vn 0.2135 -0.1724 0.9616
vn -0.0969 -0.0563 0.9937
vn 0.7172 -0.4966 0.4890
vn 0.8670 -0.4198 -0.2685
vn 0.5565 -0.6616 -0.5026
vn 0.5714 -0.6390 0.5150
vn -0.6681 -0.6741 0.3151
vn -0.6673 -0.0778 0.7407
vn -0.6629 -0.1615 0.7310
vn -0.7080 -0.6705 0.2216
vn 0.2222 -0.5303 -0.8182
vn -0.2860 -0.8746 -0.3916
vn -0.4177 -0.7989 -0.4327
vn 0.0245 -0.5371 -0.8431
vn -0.8021 0.3687 0.4699
vn -0.5836 0.1325 0.8012
vn -0.5382 0.0947 0.8375
vn -0.8854 0.1875 0.4254
vn -0.4706 0.4696 0.7470
vn -0.0563 0.9743 0.2183
vn 0.3415 0.8525 0.3957
vn -0.2298 0.4592 0.8581
vn 0.0482 0.3808 0.9234
vn 0.6306 0.6390 0.4404
vn 0.8690 0.3298 0.3689
vn 0.2872 0.2220 0.9318
vn -0.8385 -0.5037 0.2079
vn -0.5662 -0.0752 0.8209
vn -0.4830 -0.0163 0.8755
vn -0.9195 -0.2728 0.2830
vn 0.7901 0.4926 -0.3649
vn 0.3657 0.0195 -0.9305
vn 0.1619 -0.0030 -0.9868
vn 0.8431 0.2553 -0.4732
vn -0.2416 -0.4336 -0.8681
vn -0.6572 -0.6047 -0.4500
vn -0.8505 -0.3636 -0.3801
vn -0.4971 -0.2571 -0.8287
vn 0.8287 0.0597 -0.5564
vn 0.0883 0.0314 -0.9956
vn 0.0602 0.0871 -0.9944
vn 0.6793 0.3217 -0.6596
vn -0.6439 -0.0293 -0.7645
vn -0.9595 -0.0590 -0.2754
vn -0.9778 0.0560 -0.2021
vn -0.6234 0.2265 -0.7484
vn 0.4817 0.0286 0.8759
vn 0.9659 0.0531 0.2535
vn 0.9723 0.0690 0.2233
vn 0.5625 0.2497 0.7882
vn -0.9060 -0.0447 0.4210
vn -0.2845 0.0008 0.9587
vn -0.1777 0.0386 0.9833
vn -0.8281 0.2783 0.4867
vn -0.0639 0.9974 -0.0327
vn -0.9263 -0.0765 0.3688
vn -0.6510 -0.0377 0.7582
vn -0.6432 -0.2156 0.7348
vn -0.8611 -0.2975 0.4123
vn -0.0412 0.0403 0.9983
vn 0.3257 0.1209 0.9377
vn 0.6321 0.0892 0.7697
vn 0.0242 -0.3130 0.9495
vn 0.7503 0.2651 0.6056
vn 0.9329 0.2831 -0.2225
vn 0.8953 0.3173 -0.3127
vn 0.8907 0.1770 0.4188
vn 0.0627 0.4247 0.9031
vn 0.2866 -0.2939 0.9119
vn 0.4408 -0.5194 0.7321
vn -0.2275 0.3421 0.9117
vn -0.4779 -0.0806 -0.8747
vn -0.9428 -0.1133 -0.3135
vn -0.9371 -0.1697 -0.3050
vn -0.5918 0.0288 -0.8056
vn 0.4773 0.5396 -0.6935
vn -0.0785 0.4528 -0.8882
vn -0.1032 0.4973 -0.8614
vn 0.4992 0.6540 -0.5684
vn -0.6644 0.1764 -0.7263
vn -0.9629 -0.1878 -0.1938
vn -0.9673 -0.2141 -0.1361
vn -0.7560 0.2595 -0.6009
vn -0.7284 -0.4820 0.4869
vn -0.3036 -0.4648 0.8318
vn 0.0970 -0.4230 0.9009
vn -0.6406 -0.4258 0.6390
vn 0.8578 0.0556 0.5110
vn 0.8767 0.4350 -0.2052
vn 0.8880 0.4398 -0.1340
vn 0.7323 0.0655 0.6778
vn -0.2805 0.8433 0.4584
vn 0.0025 -0.3090 -0.9511
vn -0.1983 0.3122 -0.9291
vn -0.1656 0.4041 -0.8996
vn 0.2222 -0.2838 -0.9328
vn 0.5322 0.1296 -0.8366
vn 0.0575 0.0073 -0.9983
vn -0.0156 0.2176 -0.9759
vn 0.5221 0.3147 -0.7927
vn 0.4039 -0.9071 0.1188
vn 0.2378 -0.7524 -0.6143
vn 0.4276 -0.6241 -0.6540
vn 0.5619 -0.8111 -0.1626
vn -0.2455 0.9648 -0.0946
vn -0.0927 0.8055 0.5853
vn -0.4537 0.6423 0.6177
vn -0.5442 0.8386 0.0261
vn -0.7606 0.6490 0.0152
vn -0.7065 0.4387 0.5553
vn -0.7336 0.4218 0.5329
vn -0.4645 0.7297 -0.5017
vn 0.7837 -0.5665 -0.2548
vn 0.6844 -0.3940 -0.6135
vn 0.7439 -0.3201 -0.5866
vn 0.8237 -0.4331 0.3660
vn -0.4748 0.1680 0.8639
vn 0.4394 -0.4891 0.7535
vn 0.4212 -0.4896 0.7635
vn -0.1901 0.0046 0.9818
vn 0.5044 -0.1698 -0.8466
vn -0.1593 0.4476 -0.8799
vn -0.1828 0.4580 -0.8699
vn 0.4565 0.1054 -0.8835
vn 0.5718 0.7842 0.2410
vn 0.5832 0.3240 -0.7449
vn 0.9210 0.2724 -0.2784
vn 0.9247 0.2488 -0.2881
vn 0.5772 0.3005 -0.7593
vn 0.5878 0.3103 -0.7471
vn 0.9280 0.2689 -0.2580
vn 0.9186 0.2893 -0.2691
vn 0.5797 0.3392 -0.7409
vn -0.4978 0.1335 -0.8569
vn 0.0106 0.2649 -0.9642
vn -0.0274 0.3167 -0.9481
vn -0.5410 0.1938 -0.8183
vn -0.5596 0.2331 -0.7953
vn -0.0478 0.3187 -0.9467
vn -0.0477 0.2989 -0.9531
vn -0.5564 0.2307 -0.7982
vn 0.9515 0.2044 0.2301
vn 0.9398 0.2440 -0.2392
vn 0.9425 0.1780 0.2828
vn 0.9605 0.2224 0.1670
vn 0.9552 0.2271 0.1899
vn -0.6310 -0.0959 0.7698
vn -0.9259 -0.1175 0.3592
vn -0.6424 -0.0615 0.7639
vn -0.9357 -0.0734 0.3450
vn 0.7835 0.2762 0.5566
vn 0.7695 0.2634 0.5818
vn 0.8033 0.2573 0.5372
vn 0.9660 0.2061 0.1560
vn 0.7584 0.2039 0.6190
vn 0.7444 0.1491 0.6508
vn -0.7823 0.2526 -0.5694
vn 0.2772 0.4953 -0.8233
vn 0.4855 0.7738 0.4068
vn 0.4579 -0.2177 0.8619
vn 0.2583 0.2639 0.9293
vn -0.6505 0.3827 0.6560
vn -0.5475 0.8361 -0.0355
vn 0.4487 0.0765 -0.8904
vn 0.1061 0.5975 -0.7948
vn -0.3718 0.0185 -0.9281
vn 0.1748 0.0749 -0.9818
vn -0.3901 0.0303 0.9203
vn 0.6077 0.0642 0.7916
vn 0.3134 0.0139 -0.9495
vn 0.6893 0.1264 -0.7133
vn 0.7010 0.0992 0.7062
vn 0.2664 0.2425 0.9329
vn -0.2689 0.3396 0.9013
vn 0.3426 0.4327 0.8339
vn 0.4539 0.3602 0.8150
vn -0.8839 0.3598 -0.2989
usemtl None
s 1
f 265/1/1 197/2/2 3/3/3 122/4/4
f 264/5/5 164/6/6 7/7/7 109/8/8
f 263/9/9 125/10/10 11/11/11 185/12/12
f 262/13/13 193/14/14 12/15/15 183/16/16
f 261/17/17 95/18/18 8/19/19 121/20/20
f 260/21/21 93/22/22 2/23/23 143/24/24
f 259/25/25 128/26/26 18/27/27 188/28/28
f 258/29/29 129/30/30 4/31/31 90/32/32
f 7/33/7 182/34/33 109/35/8
f 257/36/34 118/37/35 13/38/36 151/39/37
f 9/40/38 179/41/39 199/42/40
f 256/43/41 113/44/42 20/45/43 150/46/44
f 255/47/45 94/48/46 22/49/47 73/50/48
f 254/51/49 173/52/50 23/53/51 99/54/52
f 253/55/53 158/56/54 26/57/55 80/58/56
f 252/59/57 136/60/58 27/61/59 135/62/60
f 251/63/61 167/64/62 29/65/63 201/66/64
f 250/67/65 80/58/56 26/57/55 70/68/66
f 249/69/67 97/70/68 28/71/69 200/72/70
f 21/73/71 181/74/72 97/70/68
f 248/75/73 145/76/74 11/11/11 73/50/48
f 247/77/75 133/78/76 30/79/77 89/80/78
f 246/81/79 106/82/80 33/83/81 92/84/82
f 245/85/83 156/86/84 34/87/85 178/88/86
f 244/89/87 96/90/88 36/91/89 172/92/90
f 243/93/91 192/94/92 31/95/93 196/96/94
f 242/97/95 79/98/96 38/99/97 144/100/98
f 241/101/99 142/102/100 39/103/101 162/104/102
f 240/105/103 166/106/104 37/107/105 171/108/106
f 239/109/107 123/110/108 35/111/109 88/112/110
f 238/113/111 112/114/112 40/115/113 163/116/114
f 237/117/115 148/118/116 41/119/117 187/120/118
f 236/121/119 140/122/120 43/123/121 139/124/122
f 235/125/123 195/126/124 42/127/125 104/128/126
f 234/129/127 168/130/128 44/131/129 98/132/130
f 233/133/131 170/134/132 46/135/133 161/136/134
f 232/137/135 154/138/136 45/139/137 120/140/138
f 231/141/139 87/142/140 47/143/141 116/144/142
f 230/145/143 120/146/138 45/147/137 98/148/130
f 229/149/144 84/150/145 48/151/146 134/152/147
f 228/153/148 191/154/149 50/155/150 147/156/151
f 227/157/152 160/158/153 52/159/154 159/160/155
f 226/161/156 91/162/157 53/163/158 137/164/159
f 225/165/160 111/166/161 49/167/162 203/168/163
f 224/169/164 146/170/165 56/171/166 202/172/167
f 223/173/168 132/174/169 58/175/170 114/176/171
f 222/177/172 119/178/173 59/179/174 115/180/175
f 48/181/146 147/156/151 119/182/173
f 221/183/176 86/184/177 57/185/178 117/186/179
f 220/187/180 114/188/171 58/189/170 115/190/175
f 219/191/181 184/192/182 60/193/183 107/194/184
f 218/195/185 77/196/186 55/197/187 72/198/188
f 217/199/189 110/200/190 61/201/191 194/202/192
f 216/203/193 138/204/194 54/205/195 131/206/196
f 215/207/197 155/208/198 62/209/199 126/210/200
f 214/211/201 198/212/202 64/213/203 152/214/204
f 213/215/205 190/216/206 65/217/207 127/218/208
f 212/219/209 101/220/210 63/221/211 76/222/212
f 64/223/203 76/224/212 189/225/213
f 65/226/207 152/227/204 127/228/208
f 211/229/214 75/230/215 68/231/216 141/232/217
f 210/233/218 71/234/219 67/235/220 180/236/221
f 209/237/222 177/238/223 66/239/224 130/240/225
f 208/241/226 153/242/227 69/243/228 175/244/229
f 207/245/230 71/234/219 17/246/231 174/247/232
f 206/248/233 75/230/215 67/235/220 165/249/234
f 205/250/235 181/74/72 21/73/71 157/251/236
f 100/252/237 205/250/235 157/251/236 10/253/238
f 7/33/7 150/254/44 205/250/235 100/252/237
f 150/254/44 20/255/43 181/74/72 205/250/235
f 176/256/239 206/248/233 165/249/234 5/257/240
f 15/258/241 105/259/242 206/248/233 176/256/239
f 105/259/242 68/231/216 75/230/215 206/248/233
f 103/260/243 207/245/230 174/247/232 6/261/244
f 5/257/240 165/249/234 207/245/230 103/260/243
f 165/249/234 67/235/220 71/234/219 207/245/230
f 183/16/16 208/241/226 175/244/229 14/262/245
f 12/15/15 130/240/225 208/241/226 183/16/16
f 130/240/225 66/239/224 153/242/227 208/241/226
f 185/12/12 209/237/222 130/240/225 12/15/15
f 11/11/11 145/76/74 209/237/222 185/12/12
f 145/76/74 23/53/51 177/238/223 209/237/222
f 177/238/223 210/233/218 180/236/221 66/239/224
f 23/53/51 173/52/50 210/233/218 177/238/223
f 173/52/50 17/246/231 71/234/219 210/233/218
f 153/242/227 211/229/214 141/232/217 69/243/228
f 66/239/224 180/236/221 211/229/214 153/242/227
f 180/236/221 67/235/220 75/230/215 211/229/214
f 127/228/208 189/225/213 62/263/199
f 127/228/208 152/227/204 189/225/213
f 152/227/204 64/223/203 189/225/213
f 189/225/213 126/264/200 62/263/199
f 189/225/213 76/224/212 126/264/200
f 76/224/212 63/265/211 126/264/200
f 198/212/202 212/219/209 76/222/212 64/213/203
f 61/201/191 107/194/184 212/219/209 198/212/202
f 107/194/184 60/193/183 101/220/210 212/219/209
f 155/208/198 213/215/205 127/218/208 62/209/199
f 54/205/195 137/164/159 213/215/205 155/208/198
f 137/164/159 53/163/158 190/216/206 213/215/205
f 190/266/206 214/211/201 152/214/204 65/267/207
f 53/268/158 194/202/192 214/211/201 190/266/206
f 194/202/192 61/201/191 198/212/202 214/211/201
f 101/220/210 215/207/197 126/210/200 63/221/211
f 60/193/183 131/206/196 215/207/197 101/220/210
f 131/206/196 54/205/195 155/208/198 215/207/197
f 184/192/182 216/203/193 131/206/196 60/193/183
f 30/269/77 81/270/246 216/203/193 184/192/182
f 81/270/246 51/271/247 138/204/194 216/203/193
f 91/272/157 217/199/189 194/202/192 53/268/158
f 36/273/89 196/274/94 217/199/189 91/272/157
f 196/274/94 31/275/93 110/200/190 217/199/189
f 160/158/153 218/195/185 72/198/188 52/159/154
f 51/276/247 81/277/246 218/195/185 160/158/153
f 81/277/246 30/79/77 77/196/186 218/195/185
f 110/200/190 219/191/181 107/194/184 61/201/191
f 31/275/93 89/278/78 219/191/181 110/200/190
f 89/278/78 30/269/77 184/192/182 219/191/181
f 117/279/179 220/187/180 115/190/175 59/280/174
f 57/281/178 202/282/167 220/187/180 117/279/179
f 202/282/167 56/283/166 114/188/171 220/187/180
f 186/284/248 221/183/176 117/186/179 59/285/174
f 50/155/150 159/160/155 221/183/176 186/284/248
f 159/160/155 52/159/154 86/184/177 221/183/176
f 119/182/173 186/284/248 59/285/174
f 119/182/173 147/156/151 186/284/248
f 147/156/151 50/155/150 186/284/248
f 132/174/169 222/177/172 115/180/175 58/175/170
f 49/167/162 134/152/147 222/177/172 132/174/169
f 134/152/147 48/151/146 119/178/173 222/177/172
f 146/170/165 223/173/168 114/176/171 56/171/166
f 55/197/187 203/168/163 223/173/168 146/170/165
f 203/168/163 49/167/162 132/174/169 223/173/168
f 86/184/177 224/169/164 202/172/167 57/185/178
f 52/159/154 72/198/188 224/169/164 86/184/177
f 72/198/188 55/197/187 146/170/165 224/169/164
f 77/196/186 225/165/160 203/168/163 55/197/187
f 30/79/77 92/84/82 225/165/160 77/196/186
f 92/84/82 33/83/81 111/166/161 225/165/160
f 138/204/194 226/161/156 137/164/159 54/205/195
f 51/271/247 78/286/249 226/161/156 138/204/194
f 78/286/249 36/287/89 91/162/157 226/161/156
f 191/154/149 227/157/152 159/160/155 50/155/150
f 36/91/89 78/288/249 227/157/152 191/154/149
f 78/288/249 51/276/247 160/158/153 227/157/152
f 84/289/145 228/153/148 147/156/151 48/181/146
f 37/290/105 172/92/90 228/153/148 84/289/145
f 172/92/90 36/91/89 191/154/149 228/153/148
f 111/166/161 229/149/144 134/152/147 49/167/162
f 33/83/81 171/108/106 229/149/144 111/166/161
f 171/108/106 37/107/105 84/150/145 229/149/144
f 161/291/134 230/145/143 98/148/130 44/292/129
f 46/293/133 116/294/142 230/145/143 161/291/134
f 116/294/142 47/295/141 120/146/138 230/145/143
f 170/134/132 231/141/139 116/144/142 46/135/133
f 42/127/125 187/120/118 231/141/139 170/134/132
f 187/120/118 41/119/117 87/142/140 231/141/139
f 87/296/140 232/137/135 120/140/138 47/297/141
f 41/298/117 163/116/114 232/137/135 87/296/140
f 163/116/114 40/115/113 154/138/136 232/137/135
f 168/130/128 233/133/131 161/136/134 44/131/129
f 43/123/121 104/128/126 233/133/131 168/130/128
f 104/128/126 42/127/125 170/134/132 233/133/131
f 154/138/136 234/129/127 98/132/130 45/139/137
f 40/115/113 139/124/122 234/129/127 154/138/136
f 139/124/122 43/123/121 168/130/128 234/129/127
f 140/122/120 235/125/123 104/128/126 43/123/121
f 34/87/85 162/104/102 235/125/123 140/122/120
f 162/104/102 39/103/101 195/126/124 235/125/123
f 112/114/112 236/121/119 139/124/122 40/115/113
f 35/111/109 178/88/86 236/121/119 112/114/112
f 178/88/86 34/87/85 140/122/120 236/121/119
f 195/126/124 237/117/115 187/120/118 42/127/125
f 39/103/101 144/100/98 237/117/115 195/126/124
f 144/100/98 38/99/97 148/118/116 237/117/115
f 148/299/116 238/113/111 163/116/114 41/298/117
f 38/300/97 88/112/110 238/113/111 148/299/116
f 88/112/110 35/111/109 112/114/112 238/113/111
f 79/301/96 239/109/107 88/112/110 38/300/97
f 28/302/69 149/303/250 239/109/107 79/301/96
f 149/303/250 32/304/251 123/110/108 239/109/107
f 106/82/80 240/105/103 171/108/106 33/83/81
f 32/305/251 149/306/250 240/105/103 106/82/80
f 149/306/250 28/307/69 166/106/104 240/105/103
f 156/86/84 241/101/99 162/104/102 34/87/85
f 25/308/252 201/309/64 241/101/99 156/86/84
f 201/309/64 29/310/63 142/102/100 241/101/99
f 142/102/100 242/97/95 144/100/98 39/103/101
f 29/310/63 200/311/70 242/97/95 142/102/100
f 200/311/70 28/312/69 79/98/96 242/97/95
f 96/90/88 243/93/91 196/96/94 36/91/89
f 27/61/59 70/68/66 243/93/91 96/90/88
f 70/68/66 26/57/55 192/94/92 243/93/91
f 166/313/104 244/89/87 172/92/90 37/290/105
f 28/314/69 135/62/60 244/89/87 166/313/104
f 135/62/60 27/61/59 96/90/88 244/89/87
f 123/110/108 245/85/83 178/88/86 35/111/109
f 32/304/251 124/315/253 245/85/83 123/110/108
f 124/315/253 25/308/252 156/86/84 245/85/83
f 133/78/76 246/81/79 92/84/82 30/79/77
f 25/316/252 124/317/253 246/81/79 133/78/76
f 124/317/253 32/305/251 106/82/80 246/81/79
f 192/94/92 247/77/75 89/80/78 31/95/93
f 26/57/55 158/56/54 247/77/75 192/94/92
f 158/56/54 25/316/252 133/78/76 247/77/75
f 85/318/254 248/75/73 73/50/48 22/49/47
f 24/319/255 99/54/52 248/75/73 85/318/254
f 99/54/52 23/53/51 145/76/74 248/75/73
f 97/70/68 204/320/256 28/71/69
f 97/70/68 181/74/72 204/320/256
f 181/74/72 20/255/43 204/320/256
f 167/64/62 249/69/67 200/72/70 29/65/63
f 22/49/47 94/48/46 249/69/67 167/64/62
f 94/48/46 21/73/71 97/70/68 249/69/67
f 136/60/58 250/67/65 70/68/66 27/61/59
f 19/321/257 188/28/28 250/67/65 136/60/58
f 188/28/28 18/27/27 80/58/56 250/67/65
f 169/322/258 251/63/61 201/66/64 25/316/252
f 24/319/255 85/318/254 251/63/61 169/322/258
f 85/318/254 22/49/47 167/64/62 251/63/61
f 204/323/256 252/59/57 135/62/60 28/314/69
f 20/45/43 113/44/42 252/59/57 204/323/256
f 113/44/42 19/321/257 136/60/58 252/59/57
f 102/324/259 253/55/53 80/58/56 18/27/27
f 24/319/255 169/322/258 253/55/53 102/324/259
f 169/322/258 25/316/252 158/56/54 253/55/53
f 102/324/259 254/51/49 99/54/52 24/319/255
f 18/27/27 128/26/26 254/51/49 102/324/259
f 128/26/26 17/246/231 173/52/50 254/51/49
f 125/10/10 255/47/45 73/50/48 11/11/11
f 10/253/238 157/251/236 255/47/45 125/10/10
f 157/251/236 21/73/71 94/48/46 255/47/45
f 164/6/6 256/43/41 150/46/44 7/7/7
f 6/261/244 82/325/260 256/43/41 164/6/6
f 82/325/260 19/321/257 113/44/42 256/43/41
f 199/42/40 93/22/22 10/253/238
f 199/42/40 179/41/39 93/22/22
f 179/41/39 2/23/23 93/22/22
f 197/2/2 257/36/34 151/39/37 3/3/3
f 2/23/23 179/41/39 257/36/34 197/2/2
f 179/41/39 9/40/38 118/37/35 257/36/34
f 109/35/8 108/326/261 8/327/19
f 109/35/8 182/34/33 108/326/261
f 182/34/33 1/328/262 108/326/261
f 121/329/20 258/29/29 90/32/32 16/330/263
f 8/327/19 108/326/261 258/29/29 121/329/20
f 108/326/261 1/328/262 129/30/30 258/29/29
f 82/325/260 259/25/25 188/28/28 19/321/257
f 6/261/244 174/247/232 259/25/25 82/325/260
f 174/247/232 17/246/231 128/26/26 259/25/25
f 182/34/33 260/21/21 143/24/24 1/328/262
f 7/33/7 100/252/237 260/21/21 182/34/33
f 100/252/237 10/253/238 93/22/22 260/21/21
f 83/331/264 261/17/17 121/20/20 16/332/263
f 15/258/241 176/256/239 261/17/17 83/331/264
f 176/256/239 5/257/240 95/18/18 261/17/17
f 74/333/265 262/13/13 183/16/16 14/262/245
f 13/38/36 118/37/35 262/13/13 74/333/265
f 118/37/35 9/40/38 193/14/14 262/13/13
f 193/14/14 263/9/9 185/12/12 12/15/15
f 9/40/38 199/42/40 263/9/9 193/14/14
f 199/42/40 10/253/238 125/10/10 263/9/9
f 95/18/18 264/5/5 109/8/8 8/19/19
f 5/257/240 103/260/243 264/5/5 95/18/18
f 103/260/243 6/261/244 164/6/6 264/5/5
f 129/30/30 265/1/1 122/4/4 4/31/31
f 1/328/262 143/24/24 265/1/1 129/30/30
f 143/24/24 2/23/23 197/2/2 265/1/1
