# Blender v2.78 (sub 0) OBJ File: ''
# www.blender.org
mtllib Birch_Tree_NoLeaves_crk_m_01.mtl
o Birch_Tree_NoLeaves_crk_m_01
v 0.813665 0.019847 0.491552
v 0.816759 0.101309 0.502313
v 1.813948 0.073730 1.477767
v 1.812490 0.025291 1.470772
v 0.745482 0.018808 0.559435
v 1.771683 0.024808 1.511640
v 0.762721 0.095272 0.547115
v 1.782281 0.070018 1.503721
v 2.823276 0.090803 2.339266
v 2.852026 0.108701 2.354461
v 2.839807 0.109938 2.326018
v 2.862370 0.093385 2.343177
v 0.008035 0.143595 -0.169306
v 0.085030 1.653744 -0.146478
v 0.188483 1.701774 -0.068910
v 0.127148 0.146023 -0.082511
v 0.081465 0.134038 0.058018
v 0.157860 1.518988 0.041687
v 0.045247 1.664275 0.039649
v -0.065580 0.142094 0.057925
v -0.006018 1.631052 -0.077791
v -0.111077 0.141167 -0.082511
v 0.093574 2.754283 -0.073874
v 0.020532 2.751769 -0.129192
v -0.131955 6.033335 -0.086389
v -0.084708 6.103191 -0.040739
v -0.024678 2.750215 0.015739
v 0.065352 2.758700 0.014952
v -0.068460 5.924488 0.004837
v -0.128358 6.089410 -0.006922
v -0.052551 2.749255 -0.073807
v -0.161026 6.024508 -0.063958
v 0.353138 1.809132 0.135869
v 0.259983 1.869822 0.134721
v -0.382015 7.940626 -0.059394
v -0.372934 7.943987 -0.066091
v -0.109432 6.327752 -0.001496
v 0.248486 6.754381 0.420306
v 0.249930 6.760820 0.412007
v -0.378360 7.941978 -0.048285
v -0.354318 7.865509 -0.053448
v 0.259808 6.746204 0.420143
v 0.259698 6.753406 0.406843
v 0.152391 1.885518 0.032324
v 0.276285 1.944468 0.078508
v 0.373079 1.897144 0.039677
v 0.366169 2.209590 0.212181
v 0.354487 2.231360 0.143004
v 0.447786 2.188178 0.221494
v 0.438002 2.208587 0.122971
v 0.060680 2.753026 -0.106674
v 0.007942 0.138066 0.071691
v 2.344885 0.058666 1.967999
v 1.815791 0.049659 1.471898
v 0.728929 0.057275 0.532703
v 0.082905 6.489837 0.211049
v 0.318690 2.094536 0.112082
v 0.094330 6.453568 0.216199
v -0.044429 2.749735 -0.027024
v 0.305369 1.833518 0.140858
v -0.049352 4.357802 -0.107991
v 0.047734 0.853040 -0.160855
v 1.774409 0.047264 1.510052
v 0.110834 2.208488 0.024063
v 0.370188 1.849264 0.086522
v 2.872513 0.110420 2.360827
v 0.085277 2.756492 -0.027518
v 0.268232 6.764101 0.424006
v 0.254473 1.700423 0.084614
v 1.209193 0.018234 0.997577
v -0.061906 5.940247 -0.012781
v -0.100617 4.352794 -0.068930
v 0.409526 2.207216 0.220919
v -0.080958 4.353365 -0.005749
v 2.868931 0.093794 2.362328
v 0.009517 2.140466 0.025033
v 0.446631 2.206207 0.174067
v -0.230098 7.030977 -0.056924
v -0.383066 7.983970 -0.062697
v 0.285187 1.809069 -0.011975
v 0.113522 0.803781 0.048682
v 0.756074 0.017086 0.503097
v 0.413263 2.061263 0.084173
v 0.261054 1.911019 0.107865
v 0.158667 1.774242 0.087653
v 0.004455 1.633349 -0.019879
v 1.791658 0.021726 1.491239
v 0.182669 1.569530 -0.012221
v 0.155673 0.862060 -0.080969
v -0.021931 2.131407 -0.075938
v 0.409380 2.008905 0.184439
v 0.325874 1.926765 0.053529
v 0.101432 1.829239 0.042380
v -0.116176 6.038208 -0.076906
v 0.001991 4.361468 -0.068951
v 1.269275 0.087778 0.949425
v -0.147784 6.028443 -0.077072
v 1.798542 0.075198 1.490711
v 0.060525 2.144575 -0.138388
v 1.224240 0.082508 0.986351
v 0.320479 2.049042 0.178164
v 2.928632 0.105016 2.406387
v 1.267183 0.018927 0.939513
v 0.117355 0.140031 -0.008007
v -0.019088 0.840756 0.048233
v -0.059585 0.142381 -0.137008
v 0.179062 1.850676 -0.016690
v 2.864200 0.100798 2.367488
v -0.375031 7.986943 -0.060562
v 0.020316 2.754458 0.021708
v 2.351919 0.088713 1.962752
v -0.378434 7.986733 -0.050600
v -0.019616 2.750512 -0.106674
v 0.360250 2.228437 0.179321
v -0.060274 0.839873 -0.081004
v 0.134829 1.666348 -0.118268
v -0.238049 7.038788 -0.043163
v -0.385750 7.982976 -0.053889
v -0.016585 4.342338 -0.006021
v 0.263082 6.771019 0.419609
v 0.072819 6.469442 0.217250
v -0.120645 6.313140 0.001548
v 2.877244 0.103415 2.355667
v 2.372972 0.091176 1.945490
v 0.766908 0.101235 0.502266
v 0.035231 1.641139 -0.118268
v 0.075656 0.144809 -0.137008
v 0.257677 6.771798 0.426386
v -0.260013 7.121508 -0.074562
v 0.794053 0.061045 0.472660
v 0.397355 2.227428 0.132469
v 0.142934 2.161771 -0.076013
v 0.097973 6.475755 0.194972
v 0.262828 6.764880 0.430783
v -0.157567 6.025419 -0.045086
v -0.101377 0.141631 -0.008054
v -0.271007 7.118488 -0.039688
v 0.214325 1.881651 0.053704
v 0.102180 1.548094 0.048796
v -0.114687 6.386766 -0.021858
v -0.277331 7.115098 -0.061273
v -0.087392 5.932595 0.007091
v 2.371994 0.058990 1.940856
v 0.408930 2.241002 0.182037
v 0.105693 2.151787 -0.112816
v 0.060152 2.176492 0.031499
v 0.015356 2.137362 -0.112816
v -0.012559 2.132904 -0.023255
v 0.133236 2.188162 -0.023853
v -0.011431 0.845827 -0.128159
v 0.417949 2.032432 0.133525
v 0.366052 2.081434 0.092118
v 0.364854 2.025439 0.187310
v 0.312957 2.074440 0.145904
v 0.275850 1.749458 0.033837
v -0.003294 4.351620 -0.036146
v 0.252876 1.853165 0.016149
v 0.180476 1.833235 0.073161
v 0.288378 6.810690 0.456309
v 0.090935 6.484334 0.202020
v 0.097473 6.463580 0.204967
v 0.083079 6.459968 0.217715
v -0.397338 8.109887 -0.056982
v -0.262420 7.128932 -0.039470
v -0.250849 7.124898 -0.067902
v -0.275356 7.115829 -0.049922
v 0.076541 6.480721 0.214768
v -0.269476 7.118005 -0.069219
v -0.094790 4.353363 -0.035978
v 0.203450 1.729528 0.090849
v -0.077434 4.355059 -0.091996
v -0.048732 4.347181 -0.001525
v -0.021270 4.360545 -0.091996
v -0.047997 0.841370 -0.013642
v 0.142914 0.831865 -0.013365
v 0.047182 0.820195 0.057410
v 0.106899 0.860253 -0.128159
v 0.691993 0.060215 0.435416
v 2.362735 0.092192 1.954099
v 2.358150 0.056580 1.954449
v 2.374222 0.075184 1.941569
v 2.346662 0.073588 1.966980
v 1.212995 0.050156 0.995395
v 1.247377 0.089952 0.967840
v 1.237569 0.013772 0.968592
v 1.271951 0.053568 0.941038
vt 0.1734 0.7356
vt 0.1781 0.7360
vt 0.1779 0.8211
vt 0.1746 0.8207
vt 0.1629 0.7357
vt 0.1687 0.7352
vt 0.1714 0.8203
vt 0.1675 0.8202
vt 0.1818 0.7357
vt 0.1856 0.7355
vt 0.1830 0.8203
vt 0.1804 0.8207
vt 0.1902 0.7357
vt 0.1948 0.7358
vt 0.1894 0.8201
vt 0.1862 0.8202
vt 0.1829 0.8999
vt 0.1853 0.8999
vt 0.1812 0.9796
vt 0.1797 0.9797
vt 0.1743 0.9004
vt 0.1766 0.9007
vt 0.1753 0.9803
vt 0.1738 0.9801
vt 0.1692 0.9000
vt 0.1719 0.9001
vt 0.1724 0.9799
vt 0.1709 0.9798
vt 0.1786 0.9004
vt 0.1806 0.9000
vt 0.1782 0.9798
vt 0.1768 0.9800
vt 0.0129 0.8881
vt 0.0129 0.8892
vt 0.0121 0.8892
vt 0.0104 0.8884
vt 0.0116 0.8882
vt 0.0108 0.8893
vt 0.3174 0.9373
vt 0.3336 0.9390
vt 0.3350 0.9526
vt 0.3181 0.9543
vt 0.0795 0.2110
vt 0.0775 0.2946
vt 0.0705 0.2960
vt 0.0712 0.2118
vt 0.1299 0.2092
vt 0.1205 0.2886
vt 0.1130 0.2922
vt 0.1213 0.2104
vt 0.0627 0.2082
vt 0.0633 0.2890
vt 0.0561 0.2820
vt 0.0542 0.2046
vt 0.1129 0.2097
vt 0.1058 0.2914
vt 0.0987 0.2907
vt 0.1046 0.2089
vt 0.0795 0.5196
vt 0.0865 0.5197
vt 0.0711 0.7603
vt 0.0658 0.7609
vt 0.1218 0.5200
vt 0.1289 0.5188
vt 0.1033 0.7547
vt 0.0978 0.7575
vt 0.0935 0.5198
vt 0.1005 0.5200
vt 0.0817 0.7590
vt 0.0764 0.7596
vt 0.1967 0.5831
vt 0.2045 0.5829
vt 0.2073 0.5978
vt 0.1995 0.5984
vt 0.1076 0.5206
vt 0.1147 0.5212
vt 0.0923 0.7603
vt 0.0870 0.7596
vt 0.1292 0.8321
vt 0.1320 0.8314
vt 0.1396 0.9864
vt 0.1369 0.9870
vt 0.0880 0.9417
vt 0.0891 0.9407
vt 0.0880 0.9903
vt 0.0872 0.9901
vt 0.1349 0.8315
vt 0.1377 0.8316
vt 0.1450 0.9865
vt 0.1423 0.9865
vt 0.1236 0.8334
vt 0.1264 0.8328
vt 0.1343 0.9876
vt 0.1316 0.9880
vt 0.1405 0.8334
vt 0.1432 0.8353
vt 0.1504 0.9873
vt 0.1477 0.9869
vt 0.0149 0.9090
vt 0.0148 0.9083
vt 0.0156 0.9082
vt 0.0156 0.9089
vt 0.0909 0.9406
vt 0.0926 0.9405
vt 0.0898 0.9902
vt 0.0889 0.9902
vt 0.0819 0.9409
vt 0.0839 0.9412
vt 0.0847 0.9897
vt 0.0838 0.9900
vt 0.1065 0.6841
vt 0.1095 0.6817
vt 0.1177 0.8363
vt 0.0854 0.9419
vt 0.0869 0.9427
vt 0.0864 0.9899
vt 0.0856 0.9898
vt 0.0297 0.8955
vt 0.0304 0.8955
vt 0.0304 0.8962
vt 0.0298 0.8962
vt 0.1840 0.5900
vt 0.1888 0.5833
vt 0.1916 0.5990
vt 0.1851 0.6025
vt 0.1704 0.5948
vt 0.1793 0.5968
vt 0.1787 0.6060
vt 0.1695 0.6072
vt 0.0655 0.5170
vt 0.0724 0.5196
vt 0.0605 0.7616
vt 0.0556 0.7566
vt 0.1518 0.5892
vt 0.1616 0.5927
vt 0.1603 0.6084
vt 0.1513 0.6054
vt 0.1842 0.6266
vt 0.1899 0.6248
vt 0.1882 0.6506
vt 0.1832 0.6508
vt 0.1969 0.6248
vt 0.2038 0.6247
vt 0.2003 0.6516
vt 0.1942 0.6511
vt 0.1708 0.6288
vt 0.1785 0.6285
vt 0.1782 0.6509
vt 0.1720 0.6505
vt 0.1548 0.6283
vt 0.1631 0.6292
vt 0.1659 0.6501
vt 0.1583 0.6513
vt 0.0963 0.2096
vt 0.0916 0.2919
vt 0.0845 0.2932
vt 0.0879 0.2102
vt 0.0761 0.2239
vt 0.0857 0.2202
vt 0.0844 0.2776
vt 0.0755 0.2774
vt 0.1344 0.2210
vt 0.1442 0.2223
vt 0.1372 0.2821
vt 0.1283 0.2815
vt 0.1149 0.2198
vt 0.1247 0.2198
vt 0.1194 0.2809
vt 0.1107 0.2800
vt 0.1534 0.2282
vt 0.1627 0.2341
vt 0.1545 0.2829
vt 0.1459 0.2825
vt 0.0955 0.2201
vt 0.1052 0.2199
vt 0.1020 0.2791
vt 0.0932 0.2783
vt 0.3248 0.9333
vt 0.3419 0.9324
vt 0.3419 0.9494
vt 0.3281 0.9493
vt 0.3078 0.9343
vt 0.3144 0.9492
vt 0.3012 0.9194
vt 0.3216 0.9173
vt 0.3419 0.9153
vt 0.0871 0.1629
vt 0.0978 0.1618
vt 0.1084 0.1606
vt 0.1512 0.1625
vt 0.1610 0.1738
vt 0.1709 0.1852
vt 0.1191 0.1596
vt 0.1299 0.1587
vt 0.1405 0.1606
vt 0.0664 0.2277
vt 0.0665 0.2771
vt 0.0664 0.1782
vt 0.0767 0.1706
vt 0.1010 0.1272
vt 0.0914 0.1272
vt 0.1105 0.1272
vt 0.1465 0.6274
vt 0.1507 0.6525
vt 0.1424 0.6023
vt 0.1421 0.5857
vt 0.1418 0.5691
vt 0.1523 0.5731
vt 0.1628 0.5770
vt 0.0586 0.5143
vt 0.0506 0.7515
vt 0.1714 0.5823
vt 0.1799 0.5876
vt 0.1830 0.5776
vt 0.1860 0.5676
vt 0.0290 0.8955
vt 0.0292 0.8962
vt 0.0288 0.8948
vt 0.0296 0.8948
vt 0.0304 0.8948
vt 0.0831 0.8926
vt 0.0852 0.8941
vt 0.0874 0.8955
vt 0.1208 0.8340
vt 0.1289 0.9885
vt 0.1126 0.6794
vt 0.0800 0.9406
vt 0.0830 0.9903
vt 0.0770 0.8909
vt 0.0800 0.8917
vt 0.0903 0.8911
vt 0.0929 0.8910
vt 0.0955 0.8909
vt 0.0150 0.9096
vt 0.0156 0.9097
vt 0.0144 0.9096
vt 0.0143 0.9090
vt 0.0141 0.9084
vt 0.1305 0.6767
vt 0.1333 0.6799
vt 0.1361 0.6832
vt 0.1155 0.6787
vt 0.1185 0.6779
vt 0.1244 0.6764
vt 0.1275 0.6766
vt 0.0888 0.8933
vt 0.1214 0.6772
vt 0.1939 0.5678
vt 0.2018 0.5680
vt 0.1200 0.1279
vt 0.1295 0.1286
vt 0.0620 0.1274
vt 0.0522 0.1273
vt 0.0718 0.1275
vt 0.1392 0.1299
vt 0.1489 0.1312
vt 0.1385 0.2081
vt 0.1281 0.2849
vt 0.0816 0.1274
vt 0.3012 0.9356
vt 0.3012 0.9560
vt 0.3012 0.9152
vt 0.3167 0.9202
vt 0.3321 0.9253
vt 0.0112 0.8903
vt 0.0121 0.8903
vt 0.0129 0.8903
vt 0.1665 0.8999
vt 0.1694 0.9797
vt 0.1636 0.8201
vt 0.1882 0.6506
vt 0.1942 0.6511
vt 0.2003 0.6516
vt 0.1782 0.6509
vt 0.1832 0.6508
vt 0.1572 0.7363
vt 0.1507 0.6525
vt 0.1583 0.6513
vt 0.1659 0.6501
vt 0.1720 0.6505
vn 0.6986 0.0751 -0.7116
vn 0.4648 0.7591 -0.4558
vn 0.4290 0.7629 -0.4837
vn 0.6681 0.0840 -0.7393
vn 0.0078 -1.0000 -0.0027
vn 0.5101 -0.6863 -0.5184
vn 0.4976 -0.6960 -0.5176
vn 0.0236 -0.9996 0.0172
vn -0.0488 0.9957 0.0787
vn -0.4333 0.7631 0.4796
vn -0.4301 0.7555 0.4942
vn -0.0608 0.9959 0.0666
vn -0.6565 0.2667 0.7057
vn -0.5356 -0.6162 0.5774
vn -0.5004 -0.6146 0.6098
vn -0.6301 0.2658 0.7296
vn -0.6026 0.2780 0.7480
vn -0.4652 -0.6098 0.6416
vn -0.4559 -0.6029 0.6547
vn -0.5043 -0.1204 0.8551
vn 0.6342 0.0868 -0.7683
vn 0.3944 0.7645 -0.5098
vn 0.3911 0.7678 -0.5075
vn 0.6647 0.2998 -0.6843
vn 0.0455 -0.9986 0.0258
vn 0.4919 -0.6853 -0.5370
vn 0.5041 -0.6815 -0.5305
vn -0.0554 -0.9462 0.3188
vn -0.0760 0.9957 0.0527
vn -0.4199 0.7608 0.4948
vn -0.4066 0.7632 0.5022
vn 0.1777 0.9787 -0.1025
vn 0.7848 0.0440 0.6182
vn -0.7088 0.0527 -0.7035
vn -0.2178 0.9475 -0.2341
vn 0.3981 0.7525 -0.5247
vn 0.3974 0.0449 -0.9165
vn 0.5939 -0.0149 -0.8044
vn 0.5923 0.0139 -0.8056
vn 0.7619 -0.0493 -0.6458
vn 0.9408 -0.0351 -0.3372
vn -0.0012 0.0148 0.9999
vn -0.0713 -0.0634 0.9954
vn -0.5971 -0.0070 0.8022
vn -0.5739 0.0513 0.8173
vn 0.9612 -0.0433 0.2726
vn 0.9735 -0.2283 0.0151
vn 0.5882 -0.1657 0.7915
vn 0.5938 -0.0192 0.8044
vn -0.9448 0.0700 0.3200
vn -0.9390 0.0228 0.3431
vn -0.9513 0.0215 -0.3074
vn -0.9500 0.0694 -0.3045
vn 0.6051 0.0398 -0.7951
vn 0.0003 0.0131 -0.9999
vn 0.0206 0.0117 -0.9997
vn 0.6151 0.0570 -0.7864
vn -0.0234 0.0041 0.9997
vn 0.5989 0.0333 0.8001
vn 0.6117 -0.1480 0.7771
vn -0.1829 -0.1156 0.9763
vn -0.6042 -0.0164 -0.7967
vn -0.9527 -0.0305 -0.3023
vn -0.9499 -0.0650 -0.3058
vn -0.5988 -0.0395 -0.7999
vn -0.1665 -0.2105 0.9633
vn 0.5627 -0.5653 0.6032
vn 0.6020 -0.5696 0.5597
vn -0.1454 -0.2438 0.9589
vn -0.9418 -0.0298 0.3348
vn -0.5950 -0.0150 0.8036
vn -0.6953 -0.0765 0.7146
vn -0.9209 -0.0558 0.3857
vn -0.5886 -0.0657 -0.8057
vn -0.9462 -0.1088 -0.3048
vn -0.9450 -0.1171 -0.3053
vn -0.5000 -0.0009 -0.8660
vn -0.8546 0.4346 0.2841
vn -0.6756 -0.0817 0.7327
vn -0.7470 -0.0019 0.6649
vn -0.8214 0.5330 0.2028
vn -0.9210 -0.1076 0.3745
vn -0.5870 -0.0570 0.8076
vn -0.5026 -0.0538 0.8628
vn -0.9121 -0.0578 0.4059
vn 0.7555 0.1116 -0.6456
vn 0.0556 0.0179 -0.9983
vn 0.0991 0.0268 -0.9947
vn 0.8581 0.1859 -0.4787
vn 0.2097 0.0448 0.9767
vn 0.7015 0.1435 0.6981
vn 0.9359 0.1451 0.3210
vn 0.3881 0.1228 0.9134
vn -0.1726 0.9849 -0.0109
vn -0.3462 -0.3322 0.8774
vn 0.5756 -0.5414 0.6128
vn 0.5246 -0.6572 0.5411
vn -0.0639 -0.4213 0.9047
vn 0.9229 -0.2541 -0.2892
vn 0.7518 0.0633 -0.6564
vn 0.6392 0.2054 -0.7411
vn 0.9501 -0.3015 -0.0800
vn -0.3531 0.5133 0.7822
vn 0.9288 0.3021 -0.2144
vn -0.1846 0.7287 -0.6595
vn -0.7534 0.6508 -0.0940
vn -0.5988 0.6884 -0.4093
vn 0.1715 0.6350 -0.7532
vn 0.4594 0.7283 0.5084
vn -0.5407 0.4270 0.7248
vn -0.4095 0.0604 0.9103
vn -0.5229 0.0662 0.8498
vn -0.8489 0.4089 0.3349
vn 0.0414 0.5852 -0.8098
vn -0.4146 0.9055 -0.0907
vn -0.6930 0.5175 -0.5019
vn -0.1501 0.4100 -0.8996
vn 0.9728 0.0459 0.2269
vn 0.9170 0.0510 -0.3957
vn 0.7581 0.0537 -0.6499
vn 0.9950 -0.0745 -0.0668
vn 0.8090 -0.4718 -0.3505
vn 0.5405 0.0177 -0.8411
vn 0.6507 -0.0033 -0.7593
vn 0.8935 -0.4035 -0.1972
vn -0.9535 0.2497 0.1687
vn -0.6612 0.0400 0.7491
vn -0.5305 0.3621 0.7665
vn -0.6222 0.7375 0.2626
vn -0.1412 -0.1732 0.9747
vn 0.6484 -0.3077 0.6963
vn 0.7043 0.1030 0.7024
vn 0.0918 0.4284 0.8989
vn -0.1821 0.2857 -0.9409
vn -0.7628 0.3497 -0.5439
vn -0.6039 0.6807 -0.4146
vn 0.0495 0.7624 -0.6452
vn 0.9777 -0.1972 -0.0724
vn 0.6297 0.0769 -0.7730
vn 0.6471 0.4152 -0.6394
vn 0.9074 0.4190 0.0330
vn -0.5961 0.0465 -0.8016
vn -0.5990 0.0148 -0.8006
vn 0.0126 0.0139 -0.9998
vn -0.0019 0.0168 -0.9999
vn 0.9627 0.1040 0.2496
vn 0.9228 0.0875 -0.3752
vn 0.9486 0.0681 -0.3090
vn 0.9541 0.0685 0.2917
vn -0.9440 -0.0412 0.3274
vn -0.5724 -0.0113 0.8199
vn -0.5977 -0.0157 0.8016
vn -0.9537 -0.0378 0.2985
vn -0.6006 -0.0206 -0.7993
vn -0.9519 -0.0377 -0.3042
vn -0.9527 -0.0370 -0.3018
vn -0.6031 -0.0203 -0.7974
vn 0.0028 0.0266 0.9996
vn 0.5959 0.0755 0.7995
vn 0.5926 0.0508 0.8039
vn 0.0039 0.0103 0.9999
vn 0.5906 0.0494 -0.8055
vn 0.0004 0.0156 -0.9999
vn -0.0045 0.0139 -0.9999
vn 0.5995 0.0456 -0.7991
vn 0.2269 0.9510 0.2101
vn -0.2289 0.1519 0.9615
vn 0.3590 0.4931 0.7925
vn 0.8056 0.4723 -0.3577
vn -0.5979 0.0483 -0.8001
vn -0.0225 0.0166 -0.9996
vn -0.9515 0.0724 -0.2989
vn 0.9708 0.1584 -0.1802
vn -0.4867 0.1110 0.8665
vn -0.9503 0.0721 0.3028
vn -0.5925 0.0538 0.8038
vn 0.9500 -0.0356 0.3102
vn 0.5768 -0.0127 0.8168
vn 0.9520 -0.0348 -0.3042
vn 0.0008 0.0181 0.9998
vn 0.5872 -0.0183 -0.8092
vn -0.2743 -0.9253 -0.2618
vn 0.4104 -0.6867 -0.6000
vn -0.6302 -0.6199 0.4674
vn -0.9062 0.1120 0.4078
vn -0.5067 0.7595 0.4078
usemtl None
s 1
f 186/1/1 96/2/2 3/3/3 54/4/4
f 185/5/5 103/6/6 4/7/7 87/8/8
f 184/9/9 100/10/10 8/11/11 98/12/12
f 183/13/13 70/14/14 6/15/15 63/16/16
f 182/17/17 53/18/18 9/19/19 108/20/20
f 181/21/21 124/22/22 11/23/23 123/24/24
f 180/25/25 143/26/26 12/27/27 75/28/28
f 179/29/29 111/30/30 10/31/31 66/32/32
f 12/33/27 123/34/24 102/35/33
f 9/36/19 75/37/28 108/38/20
f 178/39/34 125/40/35 2/41/36 130/42/37
f 177/43/38 116/44/39 15/45/40 89/46/41
f 176/47/42 139/48/43 19/49/44 105/50/45
f 175/51/46 88/52/47 18/53/48 81/54/49
f 174/55/50 86/56/51 21/57/52 115/58/53
f 173/59/54 61/60/55 25/61/56 94/62/57
f 172/63/58 119/64/59 29/65/60 142/66/61
f 171/67/62 72/68/63 32/69/64 97/70/65
f 170/71/66 69/72/67 33/73/68 60/74/69
f 169/75/70 74/76/71 30/77/72 135/78/73
f 168/79/74 141/80/75 35/81/76 79/82/77
f 167/83/78 121/84/79 38/85/80 128/86/81
f 166/87/82 137/88/83 40/89/84 118/90/85
f 165/91/86 129/92/87 36/93/88 109/94/89
f 164/95/90 117/96/91 41/97/92 112/98/93
f 163/99/94 112/100/93 41/101/92 109/102/89
f 162/103/95 58/104/96 42/105/97 134/106/98
f 161/107/99 133/108/100 43/109/101 68/110/102
f 37/111/103 140/112/104 117/113/91
f 160/114/105 56/115/106 39/116/107 120/117/108
f 159/118/109 120/119/108 39/120/107 128/121/81
f 158/122/110 85/123/111 34/124/112 84/125/113
f 157/126/114 138/127/115 45/128/116 92/129/117
f 156/130/118 95/131/119 26/132/120 71/133/121
f 155/134/122 80/135/123 46/136/124 65/137/125
f 154/138/126 101/139/127 47/140/128 114/141/129
f 153/142/130 91/143/131 49/144/132 73/145/133
f 152/146/134 57/147/135 48/148/136 131/149/137
f 151/150/138 83/151/139 50/152/140 77/153/141
f 150/154/142 126/155/143 14/156/144 62/157/145
f 149/158/146 132/159/147 23/160/148 67/161/149
f 148/162/150 76/163/151 27/164/152 59/165/153
f 147/166/154 90/167/155 31/168/156 113/169/157
f 146/170/158 64/171/159 28/172/160 110/173/161
f 145/174/162 99/175/163 24/176/164 51/177/165
f 144/178/166 131/179/137 48/180/136 114/181/129
f 73/182/133 144/178/166 114/181/129 47/183/128
f 49/184/132 77/185/141 144/178/166 73/182/133
f 77/185/141 50/186/140 131/179/137 144/178/166
f 132/159/147 145/174/162 51/177/165 23/160/148
f 15/187/40 116/188/39 145/174/162 132/159/147
f 116/188/39 14/189/144 99/175/163 145/174/162
f 76/163/151 146/170/158 110/173/161 27/164/152
f 19/190/44 93/191/167 146/170/158 76/163/151
f 93/191/167 44/192/168 64/171/159 146/170/158
f 99/175/163 147/166/154 113/169/157 24/176/164
f 14/189/144 126/193/143 147/166/154 99/175/163
f 126/193/143 21/194/52 90/167/155 147/166/154
f 90/167/155 148/162/150 59/165/153 31/168/156
f 21/194/52 86/195/51 148/162/150 90/167/155
f 86/195/51 19/190/44 76/163/151 148/162/150
f 64/196/159 149/158/146 67/161/149 28/197/160
f 44/198/168 107/199/169 149/158/146 64/196/159
f 107/199/169 15/187/40 132/159/147 149/158/146
f 106/200/170 150/154/142 62/157/145 13/201/171
f 22/202/172 115/58/53 150/154/142 106/200/170
f 115/58/53 21/57/52 126/155/143 150/154/142
f 91/203/131 151/150/138 77/153/141 49/204/132
f 33/205/68 65/137/125 151/150/138 91/203/131
f 65/137/125 46/136/124 83/151/139 151/150/138
f 83/151/139 152/146/134 131/149/137 50/152/140
f 46/136/124 92/129/117 152/146/134 83/151/139
f 92/129/117 45/128/116 57/147/135 152/146/134
f 101/139/127 153/142/130 73/145/133 47/140/128
f 34/124/112 60/74/69 153/142/130 101/139/127
f 60/74/69 33/73/68 91/143/131 153/142/130
f 57/147/135 154/138/126 114/141/129 48/148/136
f 45/128/116 84/125/113 154/138/126 57/147/135
f 84/125/113 34/124/112 101/139/127 154/138/126
f 69/206/67 155/134/122 65/137/125 33/205/68
f 18/207/48 88/208/47 155/134/122 69/206/67
f 88/208/47 15/209/40 80/135/123 155/134/122
f 119/210/59 156/130/118 71/133/121 29/211/60
f 28/197/160 67/161/149 156/130/118 119/210/59
f 67/161/149 23/160/148 95/131/119 156/130/118
f 80/135/123 157/126/114 92/129/117 46/136/124
f 15/209/40 107/212/169 157/126/114 80/135/123
f 107/212/169 44/213/168 138/127/115 157/126/114
f 138/127/115 158/122/110 84/125/113 45/128/116
f 44/213/168 93/214/167 158/122/110 138/127/115
f 93/214/167 19/215/44 85/123/111 158/122/110
f 134/216/98 159/118/109 128/121/81 38/217/80
f 42/218/97 68/219/102 159/118/109 134/216/98
f 68/219/102 43/220/101 120/119/108 159/118/109
f 133/108/100 160/114/105 120/117/108 43/109/101
f 26/221/120 140/222/104 160/114/105 133/108/100
f 140/222/104 37/223/103 56/115/106 160/114/105
f 117/113/91 78/224/173 41/225/92
f 117/113/91 140/112/104 78/224/173
f 140/112/104 26/226/120 78/224/173
f 58/227/96 161/107/99 68/110/102 42/228/97
f 29/229/60 71/230/121 161/107/99 58/227/96
f 71/230/121 26/221/120 133/108/100 161/107/99
f 121/84/79 162/103/95 134/106/98 38/85/80
f 30/231/72 142/232/61 162/103/95 121/84/79
f 142/232/61 29/233/60 58/104/96 162/103/95
f 79/234/77 163/99/94 109/102/89 36/235/88
f 35/236/76 118/237/85 163/99/94 79/234/77
f 118/237/85 40/238/84 112/100/93 163/99/94
f 137/88/83 164/95/90 112/98/93 40/89/84
f 30/239/72 122/240/174 164/95/90 137/88/83
f 122/240/174 37/241/103 117/96/91 164/95/90
f 78/224/173 165/91/86 109/94/89 41/225/92
f 26/226/120 94/242/57 165/91/86 78/224/173
f 94/242/57 25/243/56 129/92/87 165/91/86
f 141/80/75 166/87/82 118/90/85 35/81/76
f 32/244/64 135/245/73 166/87/82 141/80/75
f 135/245/73 30/239/72 137/88/83 166/87/82
f 56/115/106 167/83/78 128/86/81 39/116/107
f 37/223/103 122/246/174 167/83/78 56/115/106
f 122/246/174 30/231/72 121/84/79 167/83/78
f 129/92/87 168/79/74 79/82/77 36/93/88
f 25/243/56 97/247/65 168/79/74 129/92/87
f 97/247/65 32/244/64 141/80/75 168/79/74
f 72/68/63 169/75/70 135/78/73 32/69/64
f 31/168/156 59/165/153 169/75/70 72/68/63
f 59/165/153 27/164/152 74/76/71 169/75/70
f 85/123/111 170/71/66 60/74/69 34/124/112
f 19/215/44 139/248/43 170/71/66 85/123/111
f 139/248/43 18/249/48 69/72/67 170/71/66
f 61/60/55 171/67/62 97/70/65 25/61/56
f 24/176/164 113/169/157 171/67/62 61/60/55
f 113/169/157 31/168/156 72/68/63 171/67/62
f 74/76/71 172/63/58 142/66/61 30/77/72
f 27/164/152 110/173/161 172/63/58 74/76/71
f 110/173/161 28/172/160 119/64/59 172/63/58
f 95/131/119 173/59/54 94/62/57 26/132/120
f 23/160/148 51/177/165 173/59/54 95/131/119
f 51/177/165 24/176/164 61/60/55 173/59/54
f 136/250/175 174/55/50 115/58/53 22/202/172
f 20/251/176 105/50/45 174/55/50 136/250/175
f 105/50/45 19/49/44 86/56/51 174/55/50
f 104/252/177 175/51/46 81/54/49 17/253/178
f 16/254/179 89/46/41 175/51/46 104/252/177
f 89/46/41 15/45/40 88/52/47 175/51/46
f 52/255/180 176/47/42 105/50/45 20/251/176
f 17/256/178 81/257/49 176/47/42 52/255/180
f 81/257/49 18/258/48 139/48/43 176/47/42
f 127/259/181 177/43/38 89/46/41 16/254/179
f 13/201/171 62/157/145 177/43/38 127/259/181
f 62/157/145 14/156/144 116/44/39 177/43/38
f 82/260/182 178/39/34 130/42/37 1/261/183
f 5/262/184 55/263/185 178/39/34 82/260/182
f 55/263/185 7/264/186 125/40/35 178/39/34
f 108/38/20 102/35/33 10/265/31
f 108/38/20 75/37/28 102/35/33
f 75/37/28 12/33/27 102/35/33
f 102/35/33 66/266/32 10/265/31
f 102/35/33 123/34/24 66/266/32
f 123/34/24 11/267/23 66/266/32
f 124/22/22 179/29/29 66/32/32 11/23/23
f 3/3/3 98/12/12 179/29/29 124/22/22
f 98/12/12 8/11/11 111/30/30 179/29/29
f 53/268/18 180/25/25 75/28/28 9/269/19
f 6/270/15 87/8/8 180/25/25 53/268/18
f 87/8/8 4/7/7 143/26/26 180/25/25
f 143/26/26 181/21/21 123/24/24 12/27/27
f 4/7/7 54/4/4 181/21/21 143/26/26
f 54/4/4 3/3/3 124/22/22 181/21/21
f 111/30/30 182/17/17 108/20/20 10/31/31
f 8/11/11 63/16/16 182/17/17 111/30/30
f 63/16/16 6/15/15 53/18/18 182/17/17
f 100/10/10 183/13/13 63/16/16 8/11/11
f 7/271/186 55/272/185 183/13/13 100/10/10
f 55/272/185 5/273/184 70/14/14 183/13/13
f 96/2/2 184/9/9 98/12/12 3/3/3
f 2/274/36 125/275/35 184/9/9 96/2/2
f 125/275/35 7/271/186 100/10/10 184/9/9
f 70/276/14 185/5/5 87/8/8 6/270/15
f 5/277/184 82/278/182 185/5/5 70/276/14
f 82/278/182 1/279/183 103/6/6 185/5/5
f 103/6/6 186/1/1 54/4/4 4/7/7
f 1/279/183 130/280/37 186/1/1 103/6/6
f 130/280/37 2/274/36 96/2/2 186/1/1
