# Blender v2.78 (sub 0) OBJ File: ''
# www.blender.org
mtllib Birch_Tree_NoLeaves_crk_l_03.mtl
o Birch_Tree_NoLeaves_crk_l_03
v -0.176196 0.056677 0.201841
v -0.167120 0.686724 0.188461
v -0.262700 0.686729 -0.093100
v -0.312507 0.056677 -0.071125
v 0.044360 0.056677 -0.239827
v -0.012468 0.686716 -0.267152
v 0.237764 0.686703 -0.093159
v 0.401227 0.056677 -0.071125
v 0.264916 0.056677 0.201841
v 0.142184 0.686708 0.188425
v 0.383064 2.133717 -0.140041
v 0.242119 3.855706 -0.206030
v 0.163929 3.893709 -0.034108
v 0.310484 2.134022 0.083508
v 0.076206 2.125874 0.084466
v -0.002893 3.769159 -0.016934
v -0.057026 3.904688 -0.195042
v 0.003032 2.135313 -0.139366
v 0.193048 2.134516 -0.277785
v 0.086726 3.863279 -0.319199
v 2.389757 0.163114 2.203734
v 3.327846 0.104263 3.526130
v 3.544770 0.216751 3.588974
v 2.448585 0.297798 2.033790
v 2.555882 0.267887 1.955539
v 3.659559 0.185188 3.419918
v 3.654230 0.037285 3.415011
v 2.546726 0.132282 1.956655
v 3.531802 -0.019861 3.581096
v 2.482177 0.022815 2.149771
v 4.806140 0.063865 4.291655
v 4.718175 0.024765 4.367105
v 3.149327 0.043411 4.448414
v 3.249364 0.123443 4.458820
v 4.793868 0.185467 4.283392
v 4.659027 0.119417 4.407701
v 3.629878 0.077723 3.807047
v 4.703942 0.218614 4.347452
v 5.987209 0.525955 5.803885
v 5.993930 0.416177 5.736482
v 6.046918 0.421779 5.929324
v 5.996904 0.495624 5.963367
v 7.979593 0.887788 8.251050
v 7.946409 0.890015 8.176033
v 6.216898 0.485507 6.017326
v 8.009395 0.882606 8.237716
v 7.942941 0.864454 8.189502
v 3.226465 -0.053888 4.471350
v 3.318618 0.035090 4.493251
v 3.401834 0.082199 5.428146
v 3.321794 0.029967 5.463305
v 3.268161 0.100212 5.471902
v 3.345325 0.145011 5.436386
v 3.764870 0.721931 6.550876
v 3.804826 0.677639 6.542462
v 3.710037 0.691504 6.579727
v 3.747741 0.642107 6.571283
v 4.634855 1.091597 7.873460
v 4.612504 1.077700 7.884751
v 4.597722 1.097028 7.888058
v 4.619213 1.108971 7.876756
v 6.486013 0.230629 6.098375
v 6.425620 0.183625 6.104491
v 7.477938 0.009518 6.876434
v 7.498168 0.031373 6.867964
v 6.462321 0.186456 6.055895
v 7.494562 0.006625 6.855141
v 3.664459 0.111654 3.409735
v 0.163451 3.902749 -0.267787
v 6.440377 0.180852 6.078603
v 0.254062 3.063074 0.027680
v 6.260530 0.349517 5.961514
v 6.977739 0.085843 6.507103
v 3.504762 0.322077 6.001212
v 3.248417 -0.035953 4.960603
v 7.071031 0.734120 7.120519
v 5.418166 0.244571 5.022666
v 2.401103 0.232777 2.109588
v 3.302482 0.127753 5.455069
v 0.092273 1.366601 -0.271475
v 0.043785 3.014604 0.031124
v 7.062962 0.670121 7.149829
v 4.816424 0.224879 4.386201
v 3.613890 0.215532 3.470878
v 2.419641 0.226124 1.877614
v 3.366076 0.050942 5.444800
v -0.012468 0.686716 0.209794
v 3.379722 0.117225 5.429101
v 4.675364 0.173937 4.381260
v 2.853884 0.136718 2.821717
v 0.249125 0.056677 -0.178136
v 5.965036 0.475822 5.733716
v 8.015133 0.887149 8.283010
v 5.289377 0.293856 5.121330
v 3.272202 0.109364 4.939425
v 6.210059 0.464198 6.062160
v 2.960408 0.270077 2.756086
v 0.210280 0.686705 0.054231
v 2.407820 0.090857 2.146727
v 0.008299 0.314875 -0.257580
v 6.182776 0.304334 5.965184
v 7.030959 0.705464 7.160273
v 3.367961 -0.038866 4.025211
v 4.630691 1.112783 7.915680
v 4.243837 0.911598 7.261745
v 0.322247 0.314875 -0.081752
v 0.146873 3.070391 -0.301915
v 4.645894 1.094444 7.912381
v 4.649246 1.110069 7.908385
v 8.028295 0.884813 8.276876
v 4.204971 0.887399 7.281368
v 3.734352 0.710459 6.565975
v 3.291703 0.086001 4.477230
v 0.010659 3.910431 -0.267758
v 0.210666 3.900375 -0.122072
v 6.224709 0.314364 5.908619
v -0.305649 0.314875 -0.081752
v 4.179304 0.921036 7.287116
v 4.132603 0.206179 3.943643
v 3.193466 0.090611 4.451357
v 6.455206 0.209096 6.105407
v 4.806952 0.124823 4.282331
v -0.150134 0.686723 -0.197399
v 7.016738 0.121144 6.499134
v -0.025785 3.070270 -0.175608
v -0.286958 0.056677 0.074014
v 0.039703 4.024632 -0.114297
v 3.617762 0.019481 3.756687
v 2.502402 0.069043 2.038473
v 3.278421 -0.016583 4.484560
v 3.066169 0.077412 2.656685
v 3.525574 0.419068 5.976415
v -0.041249 1.366656 0.139586
v 0.193345 2.129948 0.100450
v 0.297733 2.134108 -0.222252
v 6.164402 0.528673 5.983625
v -0.185732 0.314874 0.202743
v 5.281469 0.350533 4.971098
v 3.435829 0.055667 4.098074
v 3.387424 0.165932 4.026289
v 2.521202 0.213215 1.910925
v 7.531292 0.012839 6.904192
v 6.084338 0.457282 5.847945
v 3.458955 0.382111 6.011471
v 8.137765 0.914252 8.414586
v 3.384139 0.168955 3.531419
v 5.347871 0.213746 5.093745
v 3.056824 0.229837 2.641616
v 7.530032 0.001831 6.898880
v 3.288836 0.061470 5.470768
v 8.029895 0.896307 8.270534
v 4.134203 -0.013193 3.945400
v -0.030302 3.882076 -0.097667
v 5.954419 0.389541 5.747331
v 3.272403 0.070956 4.001842
v 0.308316 1.366514 -0.114708
v 0.125198 0.686710 -0.197429
v 3.376118 0.035131 3.527245
v 2.961414 -0.000872 2.790191
v 2.478953 0.284544 1.944228
v 3.184424 0.047716 4.952937
v 8.016732 0.898644 8.276665
v 5.322567 0.335396 4.942486
v 4.110011 0.086494 4.029583
v 4.227274 0.168825 3.854532
v 4.765112 0.036195 4.328611
v 0.044360 0.056677 0.229851
v 7.538574 0.011392 6.894897
v 3.338160 0.035085 4.948866
v 0.225795 1.366547 0.139341
v -0.123770 1.366689 -0.114312
v 0.023962 2.130608 -0.022330
v 4.627339 1.097157 7.919675
v 0.375677 0.056677 0.074014
v 7.004396 0.084882 6.472314
v 0.319828 3.065943 -0.176275
v 6.016195 0.462004 5.958093
v 0.088364 2.134923 -0.221874
v 3.789318 0.702419 6.544365
v 3.625680 0.149365 3.763309
v 3.180185 -0.011973 4.458687
v 4.683478 0.066912 4.392119
v 0.362431 2.133855 -0.023212
v -0.160406 0.056677 -0.178136
v 6.022426 0.525683 5.932627
v 3.604323 -0.000324 3.463939
v -0.235216 0.686727 0.054278
v 3.779385 0.656131 6.556200
v 7.119023 0.694130 7.141026
v 0.202329 0.314874 0.202743
v 4.216632 0.941744 7.267474
v 4.228245 0.033155 3.855622
v 0.066334 3.877228 -0.027277
v 3.574129 0.365265 5.966190
v 3.724419 0.664171 6.577808
v 6.478372 0.210761 6.074750
v 0.100412 4.035841 -0.200293
v 2.372592 0.155922 1.967190
v 3.012442 0.260464 2.696020
v 6.988895 0.082334 6.488911
v 7.013346 0.104466 6.483914
v 6.198936 0.305949 5.934818
v 6.247684 0.334277 5.932517
v 6.221395 0.327989 5.967981
v 7.098778 0.716180 7.128879
v 6.996633 0.105069 6.505726
v 4.704951 1.132981 8.013853
v 4.195905 0.933879 7.277742
v 4.233208 0.928423 7.263077
v 4.189165 0.902466 7.285773
v 4.226467 0.897010 7.271110
v 3.476553 0.348967 6.009075
v 3.543127 0.339230 5.982903
v 3.488583 0.405031 5.994742
v 3.555157 0.395294 5.968569
v 3.223242 0.084703 4.945514
v 3.312107 0.077402 4.943160
v 3.209494 0.000704 4.957755
v 3.298359 -0.006597 4.955402
v 3.407512 -0.000187 4.065355
v 3.418762 0.118193 4.065978
v 4.116954 0.151422 3.993125
v 3.313046 0.008651 4.009730
v 7.043210 0.685737 7.156945
v 7.094114 0.679186 7.145821
v 7.047873 0.722731 7.140003
v 5.312449 0.336190 5.093015
v 5.386190 0.222117 5.057001
v 5.313833 0.249844 5.112614
v 5.411561 0.298702 5.019229
v 4.180555 0.197046 3.895688
v 4.117837 0.030456 3.994092
v 4.235016 0.101277 3.848616
v 3.324296 0.127031 4.010352
v 4.181973 0.001259 3.897258
v 2.899640 0.059983 2.813345
v 3.018415 0.027456 2.722955
v 3.068686 0.155133 2.639734
v 2.899515 0.210135 2.794242
v 0.211408 1.366553 -0.208398
v 0.285037 1.366523 0.018142
v -0.026862 1.366650 -0.208179
v -0.100491 1.366680 0.018496
v 0.092273 1.366601 0.158370
v 0.051499 3.072843 -0.251149
v 0.149072 3.036555 0.044695
v 0.242248 3.067938 -0.251368
v -0.005247 3.040523 -0.067406
v 0.301192 3.066422 -0.069765
v 0.288418 0.314875 0.067040
v -0.164825 0.314875 -0.186800
v 0.008299 0.314874 0.223922
v 0.181422 0.314875 -0.186800
v -0.271821 0.314875 0.067040
vt 0.1971 0.0482
vt 0.1922 0.0784
vt 0.1762 0.0762
vt 0.1807 0.0457
vt 0.1224 0.0431
vt 0.1249 0.0766
vt 0.1067 0.0764
vt 0.1030 0.0410
vt 0.0486 0.0492
vt 0.0525 0.0803
vt 0.0353 0.0824
vt 0.0284 0.0534
vt 0.1612 0.0455
vt 0.1596 0.0765
vt 0.1431 0.0768
vt 0.1418 0.0452
vt 0.0859 0.0430
vt 0.0882 0.0773
vt 0.0696 0.0783
vt 0.0688 0.0451
vt 0.1023 0.3280
vt 0.1050 0.4238
vt 0.0940 0.4244
vt 0.0908 0.3282
vt 0.1723 0.3255
vt 0.1687 0.4194
vt 0.1579 0.4260
vt 0.1603 0.3285
vt 0.1253 0.3280
vt 0.1266 0.4239
vt 0.1160 0.4233
vt 0.1138 0.3278
vt 0.0791 0.3258
vt 0.0830 0.4190
vt 0.0720 0.4135
vt 0.0674 0.3234
vt 0.1486 0.3284
vt 0.1476 0.4252
vt 0.1372 0.4245
vt 0.1367 0.3282
vt 0.0638 0.1565
vt 0.0751 0.2327
vt 0.0627 0.2333
vt 0.0490 0.1578
vt 0.1840 0.1550
vt 0.1759 0.2316
vt 0.1628 0.2311
vt 0.1695 0.1537
vt 0.1546 0.1540
vt 0.1495 0.2315
vt 0.1363 0.2319
vt 0.1397 0.1544
vt 0.0939 0.1548
vt 0.0996 0.2323
vt 0.0876 0.2321
vt 0.0786 0.1552
vt 0.1244 0.1544
vt 0.1240 0.2322
vt 0.1117 0.2324
vt 0.1092 0.1544
vt 0.1631 0.5314
vt 0.1608 0.6283
vt 0.1519 0.6344
vt 0.1524 0.5325
vt 0.1281 0.5282
vt 0.1270 0.6299
vt 0.1188 0.6288
vt 0.1199 0.5287
vt 0.1092 0.5314
vt 0.1107 0.6299
vt 0.1025 0.6310
vt 0.0985 0.5340
vt 0.0890 0.5325
vt 0.0939 0.6270
vt 0.0853 0.6230
vt 0.0794 0.5310
vt 0.0646 0.6887
vt 0.0650 0.7516
vt 0.0592 0.7506
vt 0.0578 0.6873
vt 0.1948 0.6746
vt 0.2027 0.6755
vt 0.2011 0.7172
vt 0.1945 0.7170
vt 0.0785 0.6905
vt 0.0768 0.7526
vt 0.0709 0.7527
vt 0.0714 0.6900
vt 0.0510 0.6898
vt 0.0532 0.7499
vt 0.0473 0.7491
vt 0.0443 0.6923
vt 0.0923 0.6901
vt 0.0888 0.7515
vt 0.0828 0.7525
vt 0.0855 0.6910
vt 0.0761 0.8421
vt 0.0754 0.9317
vt 0.0697 0.9312
vt 0.0703 0.8419
vt 0.0547 0.8413
vt 0.0560 0.9328
vt 0.0514 0.9326
vt 0.0494 0.8408
vt 0.0948 0.7506
vt 0.0879 0.8414
vt 0.0651 0.8419
vt 0.0652 0.9321
vt 0.0607 0.9330
vt 0.0600 0.8418
vt 0.0938 0.8416
vt 0.0867 0.9327
vt 0.0810 0.9322
vt 0.1406 0.8326
vt 0.1447 0.8332
vt 0.1333 0.9850
vt 0.1307 0.9847
vt 0.1246 0.8344
vt 0.1282 0.8363
vt 0.1229 0.9850
vt 0.1204 0.9848
vt 0.0311 0.8457
vt 0.0323 0.8467
vt 0.0311 0.8469
vt 0.0331 0.8458
vt 0.0333 0.8468
vt 0.0321 0.8457
vt 0.1335 0.6785
vt 0.1391 0.6791
vt 0.1335 0.6831
vt 0.1175 0.8321
vt 0.1211 0.8324
vt 0.1178 0.9846
vt 0.1152 0.9843
vt 0.1509 0.6757
vt 0.1587 0.6751
vt 0.1591 0.7196
vt 0.1524 0.7191
vt 0.1061 0.6914
vt 0.1132 0.6937
vt 0.1070 0.7503
vt 0.1009 0.7505
vt 0.1804 0.6775
vt 0.1868 0.6737
vt 0.1878 0.7169
vt 0.1815 0.7183
vt 0.1663 0.6782
vt 0.1739 0.6813
vt 0.1753 0.7196
vt 0.1672 0.7196
vt 0.1680 0.7666
vt 0.1746 0.7664
vt 0.1739 0.8131
vt 0.1687 0.8135
vt 0.1556 0.7671
vt 0.1613 0.7667
vt 0.1635 0.8139
vt 0.1589 0.8151
vt 0.1799 0.7661
vt 0.1852 0.7659
vt 0.1826 0.8150
vt 0.1782 0.8140
vt 0.1912 0.7665
vt 0.1972 0.7671
vt 0.1932 0.8169
vt 0.1879 0.8160
vt 0.1768 0.8787
vt 0.1806 0.8794
vt 0.1785 0.9438
vt 0.1754 0.9434
vt 0.1850 0.8797
vt 0.1894 0.8800
vt 0.1856 0.9431
vt 0.1820 0.9434
vt 0.1685 0.8779
vt 0.1731 0.8780
vt 0.1723 0.9430
vt 0.1684 0.9423
vt 0.1600 0.8786
vt 0.1640 0.8777
vt 0.1645 0.9415
vt 0.1611 0.9421
vt 0.0434 0.5236
vt 0.0460 0.5241
vt 0.0447 0.6062
vt 0.0434 0.6059
vt 0.0384 0.5234
vt 0.0408 0.5231
vt 0.0421 0.6056
vt 0.0407 0.6056
vt 0.0482 0.5243
vt 0.0505 0.5245
vt 0.0474 0.6061
vt 0.0461 0.6062
vt 0.0530 0.5242
vt 0.0555 0.5238
vt 0.0504 0.6056
vt 0.0489 0.6058
vt 0.0235 0.8134
vt 0.0235 0.8120
vt 0.0246 0.8123
vt 0.0245 0.8137
vt 0.0385 0.3380
vt 0.0419 0.3378
vt 0.0418 0.4145
vt 0.0399 0.4143
vt 0.1323 0.8342
vt 0.1364 0.8320
vt 0.1280 0.9843
vt 0.1255 0.9847
vt 0.0372 0.2370
vt 0.0424 0.2356
vt 0.0420 0.2610
vt 0.0371 0.2617
vt 0.0281 0.2369
vt 0.0320 0.2384
vt 0.0323 0.2623
vt 0.0283 0.2618
vt 0.0465 0.2355
vt 0.0508 0.2354
vt 0.0494 0.2612
vt 0.0457 0.2611
vt 0.0345 0.8826
vt 0.0324 0.8826
vt 0.0331 0.8814
vt 0.0323 0.3381
vt 0.0351 0.3382
vt 0.0380 0.4141
vt 0.0363 0.4145
vt 0.0445 0.3379
vt 0.0471 0.3379
vt 0.0448 0.4147
vt 0.0433 0.4146
vt 0.1443 0.5301
vt 0.1436 0.6327
vt 0.1353 0.6309
vt 0.1362 0.5277
vt 0.3063 0.9590
vt 0.2969 0.9624
vt 0.2912 0.9541
vt 0.2955 0.9403
vt 0.2760 0.9491
vt 0.2818 0.9359
vt 0.3158 0.9321
vt 0.3286 0.9268
vt 0.3365 0.9358
vt 0.3344 0.9480
vt 0.3573 0.9395
vt 0.3512 0.9510
vt 0.3322 0.9602
vt 0.3450 0.9625
vt 0.3194 0.9579
vt 0.3176 0.9450
vt 0.3493 0.9305
vt 0.3413 0.9215
vt 0.2998 0.9266
vt 0.2876 0.9227
vt 0.3121 0.9306
vt 0.3092 0.9448
vt 0.2817 0.9574
vt 0.2875 0.9657
vt 0.1450 0.4276
vt 0.1372 0.4245
vt 0.1529 0.4307
vt 0.0295 0.3381
vt 0.0346 0.4149
vt 0.0244 0.2613
vt 0.0310 0.8814
vt 0.0317 0.8801
vt 0.0303 0.8826
vt 0.0427 0.2102
vt 0.0474 0.2099
vt 0.0521 0.2096
vt 0.0242 0.2354
vt 0.0240 0.2096
vt 0.0279 0.2120
vt 0.0317 0.2144
vt 0.0372 0.2123
vt 0.1334 0.6877
vt 0.1391 0.6837
vt 0.1448 0.6798
vt 0.0234 0.8147
vt 0.0245 0.8150
vt 0.0224 0.8144
vt 0.0224 0.8131
vt 0.0224 0.8118
vt 0.0535 0.4429
vt 0.0571 0.4425
vt 0.0606 0.4421
vt 0.0473 0.4420
vt 0.0504 0.4424
vt 0.0360 0.5236
vt 0.0393 0.6056
vt 0.0327 0.4417
vt 0.0361 0.4411
vt 0.0395 0.4405
vt 0.0434 0.4412
vt 0.1560 0.8795
vt 0.1577 0.9427
vt 0.1543 0.8162
vt 0.1499 0.7674
vt 0.1456 0.7185
vt 0.1584 0.6305
vt 0.1655 0.6367
vt 0.1725 0.6430
vt 0.1792 0.6367
vt 0.1858 0.6305
vt 0.0990 0.6892
vt 0.1032 0.6279
vt 0.1113 0.6324
vt 0.1194 0.6370
vt 0.1431 0.6764
vt 0.1405 0.6343
vt 0.1495 0.6324
vt 0.1138 0.8318
vt 0.1126 0.9840
vt 0.1151 0.6795
vt 0.1197 0.6798
vt 0.1244 0.6802
vt 0.0335 0.8477
vt 0.0323 0.8479
vt 0.0311 0.8481
vt 0.1289 0.6839
vt 0.1505 0.6805
vt 0.1561 0.6813
vt 0.0997 0.8418
vt 0.0924 0.9333
vt 0.0819 0.8424
vt 0.0958 0.6287
vt 0.0883 0.6294
vt 0.0488 0.6297
vt 0.0413 0.6354
vt 0.0563 0.6240
vt 0.0801 0.6284
vt 0.0720 0.6273
vt 0.1951 0.6322
vt 0.2043 0.6339
vt 0.0641 0.6257
vt 0.0840 0.4381
vt 0.0735 0.4390
vt 0.0946 0.4371
vt 0.1078 0.4329
vt 0.1210 0.4286
vt 0.1291 0.4266
vt 0.1655 0.4345
vt 0.1782 0.4384
vt 0.1739 0.5303
vt 0.1696 0.6221
vt 0.2082 0.0806
vt 0.1986 0.1564
vt 0.1890 0.2322
vt 0.1842 0.3225
vt 0.1794 0.4129
vt 0.0836 0.0088
vt 0.0680 0.0119
vt 0.0992 0.0056
vt 0.1628 0.0144
vt 0.1404 0.0135
vt 0.1853 0.0153
vt 0.0448 0.0181
vt 0.0215 0.0243
vt 0.1198 0.0095
vt 0.2021 0.0180
vt 0.2188 0.0207
vt 0.2135 0.0507
vn -0.9226 0.0653 0.3802
vn -0.9319 0.1486 0.3309
vn -0.9390 0.1288 -0.3189
vn -0.9372 0.0464 -0.3458
vn 0.4908 0.0653 -0.8688
vn 0.5456 -0.0155 -0.8379
vn 0.9400 0.0349 -0.3393
vn 0.9081 0.2230 -0.3545
vn -0.0031 0.0296 0.9996
vn -0.0085 0.0610 0.9981
vn -0.5733 0.1156 0.8112
vn -0.5317 0.0373 0.8461
vn -0.4984 -0.0256 -0.8666
vn -0.5576 0.0462 -0.8288
vn -0.0297 -0.0018 -0.9996
vn -0.0070 -0.0193 -0.9998
vn 0.8956 0.2377 0.3759
vn 0.9389 0.0568 0.3395
vn 0.5364 0.0598 0.8418
vn 0.5096 0.1326 0.8501
vn 0.9404 0.0991 0.3252
vn 0.8507 0.4749 0.2254
vn 0.4890 0.4006 0.7749
vn 0.5751 0.1038 0.8114
vn -0.9537 -0.0205 0.3000
vn -0.8295 0.2514 0.4987
vn -0.9218 0.3098 -0.2331
vn -0.9560 -0.0414 -0.2905
vn 0.5877 0.0221 -0.8088
vn 0.5430 0.4326 -0.7197
vn 0.9185 0.2597 -0.2980
vn 0.9503 0.0706 -0.3031
vn 0.0123 0.0704 0.9974
vn -0.1985 0.3200 0.9264
vn -0.5878 0.0941 0.8035
vn -0.5821 0.0278 0.8127
vn -0.6056 -0.0483 -0.7943
vn -0.4959 0.3853 -0.7783
vn -0.0174 0.1843 -0.9827
vn 0.0001 -0.0195 -0.9998
vn 0.0019 0.0753 0.9972
vn 0.0097 0.0676 0.9977
vn -0.5651 0.0900 0.8201
vn -0.5721 0.1556 0.8053
vn -0.9328 0.1848 0.3093
vn -0.9461 0.0781 0.3142
vn -0.9479 0.0518 -0.3143
vn -0.9367 0.1630 -0.3098
vn -0.5808 0.0823 -0.8099
vn -0.5837 0.0120 -0.8119
vn 0.0255 -0.0190 -0.9995
vn 0.0020 -0.0069 -1.0000
vn 0.9467 -0.0833 0.3110
vn 0.9519 -0.0010 0.3063
vn 0.6059 0.0360 0.7947
vn 0.5871 -0.0096 0.8094
vn 0.5812 -0.0833 -0.8095
vn 0.5921 -0.0353 -0.8051
vn 0.9532 -0.0241 -0.3013
vn 0.9453 -0.1058 -0.3084
vn -0.5565 0.7152 0.4229
vn -0.5564 0.8016 0.2189
vn -0.0958 0.9872 0.1273
vn -0.1886 0.9657 0.1785
vn 0.7959 -0.0155 -0.6053
vn 0.7059 -0.0045 -0.7083
vn 0.5618 -0.5903 -0.5795
vn 0.6511 -0.5444 -0.5288
vn 0.3145 -0.9062 -0.2827
vn 0.2249 -0.9437 -0.2424
vn -0.0722 -0.9974 -0.0079
vn -0.1794 -0.9797 0.0891
vn -0.6397 -0.6367 0.4305
vn -0.6273 -0.7642 0.1498
vn -0.9554 0.0693 0.2872
vn -0.8137 0.0611 0.5780
vn 0.2116 -0.9458 -0.2462
vn 0.2983 -0.9417 -0.1555
vn -0.0917 -0.9597 0.2655
vn -0.0769 -0.9808 0.1792
vn -0.5880 0.8063 -0.0639
vn -0.9789 0.0827 -0.1870
vn -0.9897 0.0981 -0.1045
vn -0.6220 0.7820 -0.0398
vn 0.6068 0.0001 -0.7949
vn 0.6863 0.0520 -0.7254
vn 0.6188 -0.5588 -0.5521
vn 0.5024 -0.5818 -0.6396
vn -0.3556 -0.6867 0.6341
vn -0.4729 -0.6114 0.6344
vn -0.6614 0.0002 0.7500
vn -0.5037 -0.0300 0.8634
vn 0.1485 0.9685 -0.2001
vn 0.1419 0.9402 -0.3096
vn 0.5238 0.5761 -0.6274
vn 0.4887 0.5864 -0.6460
vn 0.7252 0.2590 -0.6380
vn 0.6826 0.3696 -0.6305
vn 0.6408 -0.2878 -0.7118
vn 0.7353 -0.4740 -0.4845
vn -0.5315 -0.5943 0.6036
vn -0.5411 -0.6018 0.5874
vn -0.7645 0.1921 0.6153
vn -0.7630 0.0966 0.6392
vn -0.2440 0.9526 0.1818
vn -0.2088 0.9778 -0.0173
vn 0.3573 -0.9316 -0.0661
vn 0.2268 -0.9671 -0.1155
vn -0.4563 -0.7366 0.4992
vn -0.1096 -0.9373 0.3309
vn -0.5586 0.7696 0.3095
vn -0.4523 0.8631 0.2247
vn 0.1209 0.9515 -0.2828
vn -0.4145 0.8854 0.2106
vn -0.7546 0.2219 0.6175
vn -0.7510 0.2210 0.6222
vn -0.2016 0.9765 0.0765
vn 0.3911 -0.9081 -0.1497
vn 0.7620 -0.3316 -0.5563
vn 0.7582 -0.3524 -0.5486
vn 0.2130 -0.9761 0.0427
vn 0.6362 0.1255 0.7612
vn -0.0859 -0.9633 0.2545
vn -0.3594 -0.7861 0.5029
vn 0.6579 0.3934 -0.6422
vn -0.5301 -0.6276 0.5702
vn -0.0914 -0.9596 0.2660
vn -0.6688 -0.7178 -0.1935
vn -0.0421 -0.9988 -0.0264
vn -0.1229 -0.9924 -0.0025
vn -0.7698 -0.6318 -0.0909
vn -0.4071 0.6231 0.6679
vn -0.5520 0.6395 0.5351
vn 0.6739 0.6426 0.3647
vn 0.0152 0.9903 0.1380
vn 0.0279 0.9970 0.0721
vn 0.7641 0.6315 0.1315
vn 0.6208 -0.7461 0.2407
vn 0.9101 -0.0863 0.4054
vn 0.9880 -0.1004 0.1173
vn 0.6686 -0.7388 0.0845
vn 0.6213 -0.7836 0.0011
vn 0.9880 -0.1345 -0.0754
vn 0.9675 -0.2146 -0.1340
vn 0.5870 -0.8009 0.1181
vn -0.7871 -0.6036 0.1268
vn -0.1183 -0.9885 0.0937
vn -0.0897 -0.9460 0.3115
vn -0.7163 -0.5941 0.3660
vn 0.7584 0.6456 -0.0899
vn 0.0949 0.9950 -0.0318
vn 0.0376 0.9585 -0.2824
vn 0.6912 0.6390 -0.3375
vn -0.5774 0.8159 0.0301
vn -0.9838 0.1465 0.1038
vn -0.9677 0.1252 0.2187
vn -0.5684 0.8167 -0.0997
vn 0.5837 0.6112 -0.5345
vn -0.0178 0.8901 -0.4554
vn -0.0100 0.9273 -0.3742
vn 0.5606 0.6184 -0.5507
vn -0.5620 0.8020 -0.2022
vn -0.9410 0.2112 0.2645
vn -0.8911 0.2758 0.3604
vn -0.5215 0.8497 -0.0774
vn 0.5925 -0.7789 0.2054
vn 0.9536 -0.1644 -0.2524
vn 0.9035 -0.1654 -0.3953
vn 0.5570 -0.8265 0.0813
vn -0.6276 -0.5550 0.5460
vn -0.0080 -0.8752 0.4836
vn -0.0395 -0.8979 0.4384
vn -0.6138 -0.5420 0.5740
vn 0.5127 -0.8570 -0.0523
vn 0.8569 -0.2099 -0.4707
vn 0.8561 -0.2085 -0.4729
vn 0.5873 -0.8094 0.0051
vn -0.5999 -0.5505 0.5806
vn -0.0500 -0.9371 0.3454
vn -0.0463 -0.9399 0.3383
vn -0.5626 -0.4620 0.6857
vn 0.5723 0.6132 -0.5445
vn 0.0465 0.9513 -0.3046
vn 0.0629 0.9540 -0.2931
vn 0.7124 0.5372 -0.4516
vn -0.4669 0.8831 0.0474
vn -0.8333 0.2729 0.4808
vn -0.8202 0.2725 0.5030
vn -0.4734 0.8530 0.2198
vn 0.5097 0.2219 0.8312
vn -0.3976 0.6117 0.6839
vn -0.5769 -0.4291 0.6950
vn -0.5699 -0.4024 0.7164
vn 0.2501 0.3175 0.9147
vn 0.6452 0.4704 -0.6021
vn 0.1443 0.9536 -0.2644
vn 0.1485 0.9539 -0.2610
vn 0.4889 0.7459 -0.4523
vn -0.1229 0.0711 0.9899
vn -0.5416 -0.6406 0.5444
vn -0.5647 -0.5363 0.6273
vn -0.3323 0.5341 0.7774
vn 0.6373 0.3693 -0.6764
vn 0.7866 0.6172 0.0173
vn 0.2836 0.9578 0.0479
vn 0.6226 0.3413 -0.7042
vn -0.2912 -0.9296 -0.2261
vn 0.4022 -0.3685 -0.8381
vn 0.3376 -0.5508 -0.7633
vn -0.1976 -0.9560 -0.2167
vn 0.2310 0.9725 -0.0313
vn 0.9896 0.1244 -0.0726
vn 0.6143 0.3370 -0.7135
vn 0.2134 0.9766 -0.0254
vn -0.1165 -0.9911 -0.0643
vn 0.4268 -0.5950 -0.6811
vn 0.4371 -0.6114 -0.6597
vn 0.2682 -0.8797 0.3926
vn 0.2271 0.9662 -0.1218
vn 0.1824 0.9741 -0.1337
vn 0.5687 0.6190 -0.5417
vn 0.6528 0.6009 -0.4613
vn -0.4346 0.9006 0.0006
vn -0.0057 0.8780 -0.4786
vn -0.4410 0.1590 -0.8833
vn -0.8510 -0.3104 -0.4237
vn 0.4185 -0.5799 -0.6990
vn -0.0272 -0.9041 -0.4263
vn -0.2845 0.8890 0.3588
vn 0.1809 0.9394 -0.2912
vn -0.8151 -0.5675 0.1165
vn -0.2691 -0.9627 -0.0278
vn -0.8906 0.0820 0.4474
vn -0.8442 0.4894 0.2187
vn 0.4794 0.0375 -0.8768
vn 0.5745 0.5991 -0.5577
vn 0.9107 0.1244 -0.3939
vn 0.4377 -0.8823 0.1733
vn 0.6321 0.5007 -0.5914
vn 0.1102 -0.8962 0.4297
vn 0.2936 -0.0997 0.9507
vn 0.0719 0.8133 0.5774
vn -0.1661 0.9490 0.2680
vn 0.4786 0.6940 -0.5378
vn 0.8822 0.2790 0.3794
vn 0.5353 0.1586 0.8296
vn 0.9115 0.2696 -0.3107
vn -0.4629 -0.0513 -0.8849
vn 0.0296 -0.0255 -0.9992
vn -0.9372 0.0136 -0.3485
vn 0.0104 0.0173 0.9998
vn -0.4932 0.0080 0.8699
vn 0.4810 0.0867 -0.8724
vn -0.9124 0.0329 0.4080
usemtl None
s 1
f 254/1/1 187/2/2 3/3/3 117/4/4
f 253/5/5 157/6/6 7/7/7 106/8/8
f 252/9/9 87/10/10 2/11/11 137/12/12
f 251/13/13 123/14/14 6/15/15 100/16/16
f 250/17/17 98/18/18 10/19/19 190/20/20
f 249/21/21 115/22/22 13/23/23 71/24/24
f 248/25/25 153/26/26 17/27/27 125/28/28
f 247/29/29 69/30/30 12/31/31 176/32/32
f 246/33/33 193/34/34 16/35/35 81/36/36
f 245/37/37 114/38/38 20/39/39 107/40/40
f 244/41/41 134/42/42 15/43/43 133/44/44
f 243/45/45 172/46/46 18/47/47 171/48/48
f 242/49/49 178/50/50 19/51/51 80/52/52
f 241/53/53 183/54/54 14/55/55 170/56/56
f 240/57/57 135/58/58 11/59/59 156/60/60
f 239/61/61 146/62/62 23/63/63 97/64/64
f 238/65/65 68/66/66 27/67/67 131/68/68
f 237/69/69 186/70/70 29/71/71 159/72/72
f 236/73/73 158/74/74 22/75/75 90/76/76
f 235/77/77 166/78/78 32/79/79 152/80/80
f 234/81/81 155/82/82 33/83/83 120/84/84
f 233/85/85 122/86/86 31/87/87 192/88/88
f 232/89/89 182/90/90 36/91/91 164/92/92
f 231/93/93 83/94/94 35/95/95 165/96/96
f 230/97/97 92/98/98 40/99/99 77/100/100
f 229/101/101 177/102/102 42/103/103 94/104/104
f 38/105/105 138/106/106 83/94/94
f 228/107/107 154/108/108 41/109/109 147/110/110
f 227/111/111 185/112/112 39/113/113 138/106/106
f 226/114/114 102/115/115 43/116/116 162/117/117
f 225/118/118 189/119/119 46/120/120 110/121/121
f 43/122/116 145/123/122 162/124/117
f 47/125/123 110/126/121 93/127/124
f 40/128/99 92/129/98 143/130/125
f 224/131/126 82/132/127 47/133/123 93/134/124
f 223/135/128 103/136/129 48/137/130 181/138/131
f 222/139/132 164/140/92 36/141/91 89/142/133
f 221/143/134 140/144/135 34/145/136 113/146/137
f 220/147/138 139/148/139 49/149/140 130/150/141
f 219/151/142 169/152/143 50/153/144 86/154/145
f 218/155/146 75/156/147 51/157/148 150/158/149
f 217/159/150 95/160/151 53/161/152 88/162/153
f 216/163/154 161/164/155 52/165/156 79/166/157
f 215/167/158 132/168/159 54/169/160 179/170/161
f 214/171/162 144/172/163 56/173/164 112/174/165
f 213/175/166 194/176/167 55/177/168 188/178/169
f 212/179/170 74/180/171 57/181/172 195/182/173
f 211/183/174 105/184/175 58/185/176 108/186/177
f 210/187/178 111/188/179 59/189/180 173/190/181
f 209/191/182 191/192/183 61/193/184 109/194/185
f 208/195/186 118/196/187 60/197/188 104/198/189
f 207/199/190 173/200/181 59/201/180 108/202/177
f 206/203/191 73/204/192 64/205/193 142/206/194
f 205/207/195 76/208/196 44/209/197 151/210/198
f 204/211/199 101/212/200 63/213/201 121/214/202
f 203/215/203 72/216/204 62/217/205 196/218/206
f 202/219/207 116/220/208 66/221/209 70/222/210
f 65/223/211 142/224/194 168/225/212
f 201/226/213 124/227/214 65/228/211 168/229/212
f 200/230/215 175/231/216 67/232/217 149/233/218
f 199/234/219 84/235/220 26/236/221 148/237/222
f 24/238/223 160/239/224 85/240/225
f 198/241/226 85/240/225 28/242/227 129/243/228
f 17/244/27 153/245/26 127/246/229
f 197/247/230 127/246/229 13/248/23 115/249/22
f 69/250/30 197/247/230 115/249/22 12/251/31
f 20/252/39 114/253/38 197/247/230 69/250/30
f 114/253/38 17/244/27 127/246/229 197/247/230
f 127/246/229 193/254/34 13/248/23
f 127/246/229 153/245/26 193/254/34
f 153/245/26 16/255/35 193/254/34
f 99/256/231 198/241/226 129/243/228 30/257/232
f 21/258/233 78/259/234 198/241/226 99/256/231
f 78/259/234 24/238/223 85/240/225 198/241/226
f 85/240/225 141/260/235 28/242/227
f 85/240/225 160/239/224 141/260/235
f 160/239/224 25/261/236 141/260/235
f 160/262/224 199/234/219 148/237/222 25/263/236
f 24/264/223 97/64/64 199/234/219 160/262/224
f 97/64/64 23/63/63 84/235/220 199/234/219
f 73/204/192 200/230/215 149/233/218 64/205/193
f 63/213/201 70/222/210 200/230/215 73/204/192
f 70/222/210 66/221/209 175/231/216 200/230/215
f 175/265/216 201/226/213 168/229/212 67/266/217
f 66/267/209 196/218/206 201/226/213 175/265/216
f 196/218/206 62/217/205 124/227/214 201/226/213
f 168/225/212 149/268/218 67/269/217
f 168/225/212 142/224/194 149/268/218
f 142/224/194 64/270/193 149/268/218
f 101/212/200 202/219/207 70/222/210 63/213/201
f 41/271/109 154/272/108 202/219/207 101/212/200
f 154/272/108 40/273/99 116/220/208 202/219/207
f 116/274/208 203/215/203 196/218/206 66/267/209
f 40/275/99 143/276/125 203/215/203 116/274/208
f 143/276/125 45/277/237 72/216/204 203/215/203
f 72/216/204 204/211/199 121/214/202 62/217/205
f 45/277/237 96/278/238 204/211/199 72/216/204
f 96/278/238 41/271/109 101/212/200 204/211/199
f 189/119/119 205/207/195 151/210/198 46/120/120
f 45/279/237 136/280/239 205/207/195 189/119/119
f 136/280/239 39/281/113 76/208/196 205/207/195
f 124/227/214 206/203/191 142/206/194 65/228/211
f 62/217/205 121/214/202 206/203/191 124/227/214
f 121/214/202 63/213/201 73/204/192 206/203/191
f 109/282/185 207/199/190 108/202/177 58/283/176
f 61/284/184 104/285/189 207/199/190 109/282/185
f 104/285/189 60/286/188 173/200/181 207/199/190
f 191/192/183 208/195/186 104/198/189 61/193/184
f 54/287/160 112/288/165 208/195/186 191/192/183
f 112/288/165 56/289/164 118/196/187 208/195/186
f 105/184/175 209/191/182 109/194/185 58/185/176
f 55/290/168 179/291/161 209/191/182 105/184/175
f 179/291/161 54/287/160 191/192/183 209/191/182
f 118/292/187 210/187/178 173/190/181 60/293/188
f 56/294/164 195/295/173 210/187/178 118/292/187
f 195/295/173 57/296/172 111/188/179 210/187/178
f 111/188/179 211/183/174 108/186/177 59/189/180
f 57/296/172 188/297/169 211/183/174 111/188/179
f 188/297/169 55/290/168 105/184/175 211/183/174
f 144/298/163 212/179/170 195/182/173 56/299/164
f 52/300/156 150/158/149 212/179/170 144/298/163
f 150/158/149 51/157/148 74/180/171 212/179/170
f 74/180/171 213/175/166 188/178/169 57/181/172
f 51/157/148 86/154/145 213/175/166 74/180/171
f 86/154/145 50/153/144 194/176/167 213/175/166
f 132/168/159 214/171/162 112/174/165 54/169/160
f 53/161/152 79/166/157 214/171/162 132/168/159
f 79/166/157 52/165/156 144/172/163 214/171/162
f 194/176/167 215/167/158 179/170/161 55/177/168
f 50/153/144 88/162/153 215/167/158 194/176/167
f 88/162/153 53/161/152 132/168/159 215/167/158
f 95/160/151 216/163/154 79/166/157 53/161/152
f 34/145/136 120/84/84 216/163/154 95/160/151
f 120/84/84 33/83/83 161/164/155 216/163/154
f 169/152/143 217/159/150 88/162/153 50/153/144
f 49/149/140 113/146/137 217/159/150 169/152/143
f 113/146/137 34/145/136 95/160/151 217/159/150
f 161/301/155 218/155/146 150/158/149 52/300/156
f 33/302/83 181/138/131 218/155/146 161/301/155
f 181/138/131 48/137/130 75/156/147 218/155/146
f 75/156/147 219/151/142 86/154/145 51/157/148
f 48/137/130 130/150/141 219/151/142 75/156/147
f 130/150/141 49/149/140 169/152/143 219/151/142
f 103/136/129 220/147/138 130/150/141 48/137/130
f 29/303/71 128/304/240 220/147/138 103/136/129
f 128/304/240 37/305/241 139/148/139 220/147/138
f 139/148/139 221/143/134 113/146/137 49/149/140
f 37/305/241 180/306/242 221/143/134 139/148/139
f 180/306/242 23/307/63 140/144/135 221/143/134
f 119/308/243 222/139/132 89/142/133 38/105/105
f 23/309/63 180/310/242 222/139/132 119/308/243
f 180/310/242 37/311/241 164/140/92 222/139/132
f 155/312/82 223/135/128 181/138/131 33/302/83
f 22/313/75 158/314/74 223/135/128 155/312/82
f 158/314/74 29/303/71 103/136/129 223/135/128
f 102/315/115 224/131/126 93/134/124 43/316/116
f 42/317/103 177/318/102 224/131/126 102/315/115
f 177/318/102 41/319/109 82/132/127 224/131/126
f 143/130/125 136/280/239 45/279/237
f 143/130/125 92/129/98 136/280/239
f 92/129/98 39/281/113 136/280/239
f 93/127/124 145/123/122 43/122/116
f 93/127/124 110/126/121 145/123/122
f 110/126/121 46/320/120 145/123/122
f 162/124/117 151/321/198 44/322/197
f 162/124/117 145/123/122 151/321/198
f 145/123/122 46/320/120 151/321/198
f 82/132/127 225/118/118 110/121/121 47/133/123
f 41/319/109 96/323/238 225/118/118 82/132/127
f 96/323/238 45/279/237 189/119/119 225/118/118
f 76/208/196 226/114/114 162/117/117 44/209/197
f 39/281/113 185/324/112 226/114/114 76/208/196
f 185/324/112 42/325/103 102/115/115 226/114/114
f 89/142/133 227/111/111 138/106/106 38/105/105
f 36/141/91 94/326/104 227/111/111 89/142/133
f 94/326/104 42/327/103 185/112/112 227/111/111
f 166/78/78 228/107/107 147/110/110 32/79/79
f 31/87/87 77/100/100 228/107/107 166/78/78
f 77/100/100 40/99/99 154/108/108 228/107/107
f 83/94/94 163/328/244 35/95/95
f 83/94/94 138/106/106 163/328/244
f 138/106/106 39/113/113 163/328/244
f 182/90/90 229/101/101 94/104/104 36/91/91
f 32/79/79 147/110/110 229/101/101 182/90/90
f 147/110/110 41/109/109 177/102/102 229/101/101
f 122/86/86 230/97/97 77/100/100 31/87/87
f 35/95/95 163/328/244 230/97/97 122/86/86
f 163/328/244 39/113/113 92/98/98 230/97/97
f 84/329/220 231/93/93 165/96/96 26/330/221
f 23/309/63 119/308/243 231/93/93 84/329/220
f 119/308/243 38/105/105 83/94/94 231/93/93
f 128/331/240 232/89/89 164/92/92 37/332/241
f 29/333/71 152/80/80 232/89/89 128/331/240
f 152/80/80 32/79/79 182/90/90 232/89/89
f 68/334/66 233/85/85 192/88/88 27/335/67
f 26/330/221 165/96/96 233/85/85 68/334/66
f 165/96/96 35/95/95 122/86/86 233/85/85
f 140/144/135 234/81/81 120/84/84 34/145/136
f 23/307/63 146/336/62 234/81/81 140/144/135
f 146/336/62 22/337/75 155/82/82 234/81/81
f 186/338/70 235/77/77 152/80/80 29/333/71
f 27/335/67 192/88/88 235/77/77 186/338/70
f 192/88/88 31/87/87 166/78/78 235/77/77
f 99/339/231 236/73/73 90/76/76 21/340/233
f 30/341/232 159/72/72 236/73/73 99/339/231
f 159/72/72 29/71/71 158/74/74 236/73/73
f 129/342/228 237/69/69 159/72/72 30/341/232
f 28/343/227 131/68/68 237/69/69 129/342/228
f 131/68/68 27/67/67 186/70/70 237/69/69
f 141/344/235 238/65/65 131/68/68 28/343/227
f 25/263/236 148/237/222 238/65/65 141/344/235
f 148/237/222 26/236/221 68/66/66 238/65/65
f 78/345/234 239/61/61 97/64/64 24/264/223
f 21/346/233 90/347/76 239/61/61 78/345/234
f 90/347/76 22/348/75 146/62/62 239/61/61
f 157/6/6 240/57/57 156/60/60 7/7/7
f 6/15/15 80/52/52 240/57/57 157/6/6
f 80/52/52 19/51/51 135/58/58 240/57/57
f 98/18/18 241/53/53 170/56/56 10/19/19
f 7/7/7 156/60/60 241/53/53 98/18/18
f 156/60/60 11/59/59 183/54/54 241/53/53
f 123/14/14 242/49/49 80/52/52 6/15/15
f 3/3/3 171/48/48 242/49/49 123/14/14
f 171/48/48 18/47/47 178/50/50 242/49/49
f 187/2/2 243/45/45 171/48/48 3/3/3
f 2/349/11 133/350/44 243/45/45 187/2/2
f 133/350/44 15/351/43 172/46/46 243/45/45
f 87/10/10 244/41/41 133/44/44 2/11/11
f 10/19/19 170/56/56 244/41/41 87/10/10
f 170/56/56 14/55/55 134/42/42 244/41/41
f 178/50/50 245/37/37 107/40/40 19/51/51
f 18/47/47 125/28/28 245/37/37 178/50/50
f 125/28/28 17/27/27 114/38/38 245/37/37
f 134/42/42 246/33/33 81/36/36 15/43/43
f 14/55/55 71/24/24 246/33/33 134/42/42
f 71/24/24 13/23/23 193/34/34 246/33/33
f 135/58/58 247/29/29 176/32/32 11/59/59
f 19/51/51 107/40/40 247/29/29 135/58/58
f 107/40/40 20/39/39 69/30/30 247/29/29
f 172/46/46 248/25/25 125/28/28 18/47/47
f 15/351/43 81/352/36 248/25/25 172/46/46
f 81/352/36 16/353/35 153/26/26 248/25/25
f 183/54/54 249/21/21 71/24/24 14/55/55
f 11/59/59 176/32/32 249/21/21 183/54/54
f 176/32/32 12/31/31 115/22/22 249/21/21
f 174/354/245 250/17/17 190/20/20 9/355/246
f 8/356/247 106/8/8 250/17/17 174/354/245
f 106/8/8 7/7/7 98/18/18 250/17/17
f 184/357/248 251/13/13 100/16/16 5/358/249
f 4/359/250 117/4/4 251/13/13 184/357/248
f 117/4/4 3/3/3 123/14/14 251/13/13
f 167/360/251 252/9/9 137/12/12 1/361/252
f 9/355/246 190/20/20 252/9/9 167/360/251
f 190/20/20 10/19/19 87/10/10 252/9/9
f 91/362/253 253/5/5 106/8/8 8/356/247
f 5/358/249 100/16/16 253/5/5 91/362/253
f 100/16/16 6/15/15 157/6/6 253/5/5
f 126/363/254 254/1/1 117/4/4 4/359/250
f 1/364/252 137/365/12 254/1/1 126/363/254
f 137/365/12 2/349/11 187/2/2 254/1/1
