# Blender v2.78 (sub 0) OBJ File: ''
# www.blender.org
mtllib Dead_Pine_Tree_crk_OneSided_l_03.mtl
o Dead_Pine_Tree_crk_OneSided_l_03
v -0.587997 2.063311 -0.255594
v -0.780843 1.989150 -0.208176
v -0.645340 2.066627 -0.064740
v -0.245734 2.246152 -0.051868
v -1.076757 1.842483 -0.294535
v -1.140033 1.809138 -0.065511
v -1.003034 1.801567 -0.519130
v -1.526052 1.525553 -0.794449
v -1.624460 1.579434 -0.454523
v -1.876189 1.264231 -0.946563
v -2.013040 1.321972 -0.733817
v -1.728819 1.532848 -0.114639
v -2.071118 1.249585 -0.415974
v -2.103996 1.267030 -0.171289
v -1.908944 1.432705 -0.537447
v -2.361992 1.113781 -0.668025
v -1.206200 1.573022 -0.838250
v -1.496457 1.584682 0.093349
v 0.673987 2.959352 -0.327526
v 0.769110 2.882531 -0.492612
v 0.583104 2.969593 -0.497653
v 0.311679 3.159157 -0.231599
v 1.021735 2.725165 -0.637039
v 0.906598 2.701569 -0.837667
v 1.122140 2.677555 -0.432827
v 1.651408 2.377248 -0.604082
v 1.489931 2.442029 -0.904195
v 1.979045 2.103737 -0.741359
v 1.930992 2.164624 -0.980545
v 1.326400 2.409415 -1.209075
v 1.749241 2.107767 -1.238807
v 1.605707 2.135214 -1.429000
v 1.732380 2.285206 -1.043153
v 2.112247 1.953084 -1.266073
v 1.465207 2.433299 -0.354711
v 1.028408 2.478514 -1.192254
v 0.228760 2.961660 0.151909
v 0.518685 3.158944 0.573479
v 0.499648 3.144745 0.599727
v 0.194910 2.936282 0.194188
v 0.489700 3.175362 0.585494
v 0.181370 2.990833 0.173834
v -0.282118 0.256344 -0.028408
v -0.127907 3.379916 -0.108695
v 0.037830 3.250220 -0.336426
v -0.053615 0.249779 -0.311954
v 0.286818 0.254849 0.179194
v 0.282421 3.304447 0.082565
v -0.004953 3.370400 0.145878
v -0.079506 0.255038 0.279530
v 0.269708 3.434788 -0.202839
v 0.280096 0.257925 -0.178695
v 1.333299 2.530796 -0.392479
v 0.958518 2.721631 -0.731644
v 0.282067 3.422044 -0.047481
v 1.569223 2.417372 -0.751542
v -0.787651 1.941981 -0.373100
v -0.412015 2.173305 -0.053247
v 0.514110 3.173102 0.593817
v -1.032751 1.830120 -0.402744
v -0.223843 1.785494 -0.064587
v 1.744349 2.197977 -1.134053
v -2.075229 1.265367 -0.267034
v -1.961031 1.372832 -0.153307
v 0.214728 2.944963 0.172958
v 0.463338 3.077608 -0.267675
v -1.133574 1.664526 -0.709718
v -1.919605 1.299428 -0.855802
v 0.067381 3.578473 -0.160879
v -2.221449 1.206446 -0.693424
v -1.099777 1.833996 -0.179659
v 0.987564 2.567478 -1.050976
v 1.651299 2.130077 -1.343654
v 1.812351 2.260168 -0.793961
v 1.405125 2.433216 -1.055918
v 1.256081 2.583447 -0.770758
v -1.673594 1.563665 -0.282507
v -1.964187 1.382081 -0.628390
v -0.053875 1.779757 0.229340
v 1.961798 2.013366 -1.251625
v -1.571120 1.580963 0.014122
v 0.505398 3.166607 0.605913
v 1.133418 2.468222 -1.189065
v 1.855148 2.214687 -0.692869
v -0.066255 3.417050 0.017906
v 0.184262 2.963739 0.187074
v 0.740567 2.844781 -0.652106
v -0.009598 1.748161 -0.331866
v 1.384571 2.528944 -0.499821
v -1.429639 1.675015 -0.072226
v -0.712625 2.028610 -0.135531
v 0.311796 0.256387 0.001534
v 0.294241 1.795270 -0.203083
v 1.829219 2.229730 -1.018969
v -1.316301 1.569141 -0.814403
v -1.249290 1.665148 -0.668715
v 0.375198 3.060234 0.361525
v -1.786609 1.414042 -0.778866
v -0.385945 2.171798 -0.140016
v 0.721338 2.921623 -0.409074
v 0.151174 3.407965 0.109659
v 1.549228 2.246913 -1.241037
v 0.112450 0.254944 0.256198
v -1.745971 1.370770 -0.886155
v -1.571993 1.560383 -0.624932
v -0.205021 0.255691 0.141125
v -0.189601 0.253061 -0.188014
v 0.206049 2.980074 0.159900
v -0.913993 1.922928 -0.247030
v 0.122050 0.253852 -0.271177
v 0.675199 2.926822 -0.495443
v -0.877848 1.947196 -0.072894
v 0.291349 1.779240 0.135585
v 0.422019 3.082264 -0.345021
v -1.350898 1.710819 -0.374614
v 1.524076 2.426478 -0.446475
v 1.948943 2.140502 -0.833077
v -1.360049 1.674709 0.024468
v 0.346943 3.039090 0.398134
v 1.101277 2.560429 -1.032306
v 0.882764 2.811503 -0.557603
v -1.782074 1.500517 -0.500507
v 0.883522 2.828673 -0.384505
v 2.039035 2.046861 -1.151765
v -2.239299 1.166148 -0.566057
v 0.518742 3.159094 0.600425
v 1.064749 2.709661 -0.532787
v -0.683514 2.026927 -0.232424
v 0.133278 3.577046 -0.025044
v 0.147376 3.392801 -0.283209
v 0.334395 3.084589 0.379657
v 1.624430 2.357440 -0.981138
v 1.502013 2.243888 -1.342690
v -1.921227 1.379804 -0.261720
v -0.034527 3.385089 -0.234549
v -1.987500 1.342963 -0.484266
v 0.311671 1.788747 -0.032741
v -0.155177 1.783892 0.092883
v 0.148546 1.771061 -0.285040
v 0.123614 1.778677 0.200818
v -0.130380 1.765545 -0.210530
v 0.355299 3.074547 0.368826
v 0.338457 3.061943 0.390649
v 0.362780 3.047423 0.379841
v 0.887446 2.819227 -0.466747
v 1.180286 2.578331 -0.898168
v 1.578694 2.311875 -1.103837
v 1.903479 2.114654 -1.144822
v 1.709807 2.321730 -0.884506
v 1.319197 2.562678 -0.638134
v 0.810451 2.827902 -0.610877
v 0.559834 3.009088 -0.373198
v -0.850855 1.931881 -0.316384
v -1.388727 1.699631 -0.226716
v -1.840037 1.449672 -0.379992
v -2.114780 1.267463 -0.596420
v -1.775337 1.470054 -0.635000
v -1.301080 1.694563 -0.518432
v -0.899434 1.934690 -0.154693
v -0.536030 2.106729 -0.136665
vt 0.6872 0.3490
vt 0.6893 0.3418
vt 0.6914 0.3459
vt 0.6893 0.3562
vt 0.6905 0.3336
vt 0.6939 0.3356
vt 0.6812 0.3121
vt 0.6751 0.3121
vt 0.6723 0.2989
vt 0.6797 0.2989
vt 0.6710 0.2888
vt 0.6768 0.2888
vt 0.7021 0.2989
vt 0.6975 0.2888
vt 0.7033 0.2888
vt 0.6820 0.2909
vt 0.6814 0.2787
vt 0.6843 0.2828
vt 0.6872 0.2763
vt 0.6843 0.2696
vt 0.6691 0.3043
vt 0.6963 0.3253
vt 0.6992 0.3121
vt 0.7024 0.3172
vt 0.6924 0.2909
vt 0.6872 0.2930
vt 0.6872 0.2870
vt 0.6901 0.2828
vt 0.6932 0.3121
vt 0.6872 0.3121
vt 0.6872 0.2989
vt 0.6946 0.2989
vt 0.6839 0.3336
vt 0.6872 0.3315
vt 0.6872 0.3377
vt 0.6851 0.3418
vt 0.9351 0.3490
vt 0.9372 0.3418
vt 0.9393 0.3459
vt 0.9372 0.3562
vt 0.9384 0.3336
vt 0.9418 0.3356
vt 0.9291 0.3121
vt 0.9232 0.3121
vt 0.9203 0.2989
vt 0.9277 0.2989
vt 0.9190 0.2888
vt 0.9248 0.2888
vt 0.9500 0.2989
vt 0.9455 0.2888
vt 0.9513 0.2888
vt 0.9299 0.2909
vt 0.9293 0.2787
vt 0.9322 0.2828
vt 0.9351 0.2763
vt 0.9322 0.2696
vt 0.9171 0.3043
vt 0.9443 0.3253
vt 0.9471 0.3121
vt 0.9503 0.3172
vt 0.9403 0.2909
vt 0.9351 0.2930
vt 0.9351 0.2870
vt 0.9381 0.2828
vt 0.9411 0.3121
vt 0.9351 0.3121
vt 0.9351 0.2989
vt 0.9426 0.2989
vt 0.9318 0.3336
vt 0.9351 0.3315
vt 0.9351 0.3377
vt 0.9331 0.3418
vt 0.9720 0.9236
vt 0.9678 0.9238
vt 0.9678 0.9235
vt 0.9720 0.9232
vt 0.9720 0.9251
vt 0.9678 0.9249
vt 0.9679 0.9246
vt 0.9720 0.9247
vt 0.9721 0.9243
vt 0.9679 0.9244
vt 0.9679 0.9241
vt 0.9721 0.9239
vt 0.9678 0.9333
vt 0.9678 0.9331
vt 0.9680 0.9332
vt 0.9516 0.9374
vt 0.9500 0.9831
vt 0.9458 0.9819
vt 0.9468 0.9367
vt 0.9231 0.9378
vt 0.9249 0.9839
vt 0.9204 0.9840
vt 0.9181 0.9379
vt 0.9422 0.9375
vt 0.9419 0.9834
vt 0.9379 0.9849
vt 0.9376 0.9383
vt 0.9612 0.9381
vt 0.9584 0.9843
vt 0.9543 0.9843
vt 0.9564 0.9380
vt 0.9329 0.9380
vt 0.9337 0.9843
vt 0.9294 0.9838
vt 0.9282 0.9377
vt 0.7956 0.8262
vt 0.7956 0.8124
vt 0.8082 0.8084
vt 0.8384 0.8100
vt 0.8295 0.8203
vt 0.8296 0.8004
vt 0.8206 0.8305
vt 0.8081 0.8284
vt 0.8207 0.8106
vt 0.8208 0.7907
vt 0.8082 0.7946
vt 0.7956 0.7985
vt 0.9322 0.8916
vt 0.9269 0.8916
vt 0.9374 0.8916
vt 0.9639 0.8918
vt 0.9585 0.8916
vt 0.9693 0.8921
vt 0.9660 0.9381
vt 0.9626 0.9842
vt 0.9426 0.8916
vt 0.9478 0.8916
vt 0.9214 0.8917
vt 0.9158 0.8918
vt 0.9532 0.8916
vt 0.9680 0.9330
vt 0.9682 0.9331
vt 0.9678 0.9328
vt 0.9762 0.9244
vt 0.9763 0.9238
vt 0.9762 0.9249
vt 0.9762 0.9254
vt 0.9761 0.9259
vt 0.9720 0.9255
vt 0.9678 0.9252
vt 0.9762 0.9233
vt 0.9761 0.9228
vt 0.9285 0.3356
vt 0.9310 0.3459
vt 0.9260 0.3253
vt 0.9305 0.3253
vt 0.9351 0.3253
vt 0.9397 0.3253
vt 0.9410 0.2787
vt 0.9532 0.3040
vt 0.9564 0.3091
vt 0.9200 0.3174
vt 0.9139 0.3096
vt 0.9381 0.2696
vt 0.9351 0.2606
vt 0.9468 0.2787
vt 0.9526 0.2787
vt 0.9235 0.2787
vt 0.9177 0.2787
vt 0.9331 0.3562
vt 0.9351 0.3666
vt 0.6805 0.3356
vt 0.6830 0.3459
vt 0.6780 0.3253
vt 0.6826 0.3253
vt 0.6872 0.3253
vt 0.6918 0.3253
vt 0.6930 0.2787
vt 0.7053 0.3040
vt 0.7084 0.3091
vt 0.6720 0.3174
vt 0.6660 0.3096
vt 0.6901 0.2696
vt 0.6872 0.2606
vt 0.6988 0.2787
vt 0.7046 0.2787
vt 0.6755 0.2787
vt 0.6697 0.2787
vt 0.6851 0.3562
vt 0.6872 0.3666
vn -0.3986 0.9071 -0.1355
vn -0.4245 0.9016 -0.0836
vn -0.4167 0.9042 -0.0936
vn -0.3982 0.9079 -0.1312
vn -0.4481 0.8936 -0.0260
vn -0.4547 0.8905 -0.0141
vn -0.3448 0.9023 -0.2588
vn -0.2531 0.8842 -0.3927
vn -0.3409 0.8776 -0.3372
vn -0.3656 0.8943 -0.2581
vn -0.3905 0.7905 -0.4719
vn -0.3968 0.8321 -0.3874
vn -0.5129 0.8581 0.0254
vn -0.6023 0.7962 -0.0569
vn -0.5649 0.8095 -0.1600
vn -0.3980 0.8790 -0.2625
vn -0.4858 0.8435 -0.2293
vn -0.5238 0.8437 -0.1177
vn -0.5893 0.8026 0.0925
vn -0.5579 0.8223 0.1120
vn -0.1940 0.8548 -0.4813
vn -0.4352 0.8985 0.0578
vn -0.4230 0.8918 0.1604
vn -0.4035 0.8645 0.2998
vn -0.5920 0.8036 0.0618
vn -0.4789 0.8746 -0.0759
vn -0.5427 0.8399 -0.0029
vn -0.6342 0.7628 0.1264
vn -0.4256 0.9049 -0.0006
vn -0.3946 0.9093 -0.1321
vn -0.4247 0.8974 -0.1193
vn -0.4940 0.8694 -0.0007
vn -0.3797 0.8897 -0.2537
vn -0.4130 0.9000 -0.1397
vn -0.4124 0.9002 -0.1396
vn -0.3917 0.8997 -0.1929
vn 0.4345 0.8827 -0.1790
vn 0.4159 0.8788 -0.2341
vn 0.4176 0.8812 -0.2214
vn 0.4313 0.8837 -0.1817
vn 0.3915 0.8728 -0.2915
vn 0.3876 0.8700 -0.3047
vn 0.4831 0.8739 -0.0538
vn 0.5115 0.8528 0.1056
vn 0.5340 0.8455 0.0042
vn 0.4968 0.8651 -0.0690
vn 0.6585 0.7499 0.0639
vn 0.6061 0.7954 -0.0001
vn 0.3988 0.8373 -0.3740
vn 0.5160 0.7679 -0.3794
vn 0.5631 0.7776 -0.2799
vn 0.5218 0.8484 -0.0889
vn 0.5582 0.8111 -0.1747
vn 0.5064 0.8154 -0.2805
vn 0.4020 0.7823 -0.4759
vn 0.3673 0.8042 -0.4673
vn 0.5303 0.8214 0.2099
vn 0.3236 0.8823 -0.3418
vn 0.2423 0.8813 -0.4058
vn 0.1285 0.8617 -0.4908
vn 0.4256 0.7816 -0.4560
vn 0.4472 0.8501 -0.2781
vn 0.4387 0.8166 -0.3751
vn 0.4073 0.7424 -0.5319
vn 0.3585 0.8862 -0.2936
vn 0.4294 0.8853 -0.1786
vn 0.4409 0.8729 -0.2090
vn 0.4046 0.8481 -0.3421
vn 0.5033 0.8602 -0.0821
vn 0.4472 0.8748 -0.1862
vn 0.4467 0.8751 -0.1860
vn 0.4696 0.8727 -0.1335
vn 0.5844 -0.8114 -0.0143
vn 0.8248 -0.2157 0.5227
vn -0.1259 -0.7165 0.6861
vn -0.2171 -0.7876 0.5767
vn -0.8005 0.0198 0.5990
vn -0.1319 0.3435 0.9298
vn -0.4866 0.8609 0.1488
vn -0.5589 0.8274 0.0554
vn 0.2431 0.8078 -0.5370
vn 0.5342 0.8376 0.1143
vn 0.8885 0.0453 -0.4566
vn 0.8284 -0.0031 -0.5602
vn -0.7833 0.0255 -0.6212
vn -0.6089 0.3543 -0.7098
vn -0.2350 0.1178 -0.9648
vn -0.2456 0.0050 -0.9693
vn 0.2553 0.0379 0.9661
vn 0.3265 0.4237 0.8449
vn -0.3850 0.3175 0.8666
vn -0.3800 0.0536 0.9234
vn 0.4112 -0.0093 -0.9115
vn 0.1920 0.3370 -0.9217
vn 0.7642 0.4121 -0.4962
vn 0.8389 -0.0004 -0.5443
vn -0.8652 0.0535 0.4986
vn -0.7661 0.4901 0.4158
vn -0.9386 0.3295 -0.1023
vn -0.9958 0.0489 -0.0773
vn 0.9999 0.0061 -0.0082
vn 0.8912 0.4125 0.1889
vn 0.7714 0.1825 0.6097
vn 0.7898 0.0250 0.6128
vn 0.1719 0.9259 0.3364
vn -0.1938 0.9104 -0.3654
vn 1.0000 -0.0026 -0.0019
vn 0.7881 0.0175 0.6153
vn 0.8288 -0.0137 -0.5593
vn -0.8486 0.0419 0.5274
vn -0.9975 0.0376 -0.0592
vn -0.3622 0.0413 0.9312
vn 0.3777 -0.0173 -0.9258
vn -0.2599 -0.0016 -0.9656
vn 0.2622 0.0306 0.9645
vn -0.7792 0.0184 -0.6265
vn 0.2440 0.8044 -0.5417
vn 0.8186 0.0176 -0.5741
vn -0.5409 0.8407 0.0249
vn -0.8045 0.0258 0.5933
vn -0.2156 -0.7949 0.5671
vn 0.5874 -0.8090 -0.0233
vn 0.5119 0.8560 -0.0719
vn 0.4602 0.8764 -0.1417
vn 0.5077 0.8615 0.0029
vn 0.4981 0.8652 -0.0578
vn 0.4375 0.8809 -0.1807
vn 0.3687 0.8797 -0.3002
vn 0.4141 0.7524 -0.5122
vn 0.1728 0.8612 -0.4779
vn 0.0992 0.8547 -0.5095
vn 0.5211 0.8188 0.2407
vn 0.5199 0.8093 0.2734
vn 0.3193 0.7836 -0.5329
vn 0.3184 0.7968 -0.5135
vn 0.5619 0.7684 -0.3063
vn 0.5834 0.7675 -0.2655
vn 0.6707 0.7398 0.0529
vn 0.6804 0.7296 0.0691
vn 0.4350 0.8833 -0.1747
vn 0.4328 0.8837 -0.1780
vn -0.3787 0.8861 -0.2672
vn -0.3906 0.9027 -0.1803
vn -0.3226 0.8919 -0.3169
vn -0.3586 0.8945 -0.2670
vn -0.4019 0.9054 -0.1365
vn -0.4378 0.8991 -0.0035
vn -0.6247 0.7733 0.1082
vn -0.4257 0.8669 0.2594
vn -0.3963 0.8555 0.3333
vn -0.1658 0.8519 -0.4967
vn -0.1422 0.8426 -0.5195
vn -0.5711 0.7983 0.1913
vn -0.5563 0.8115 0.1788
vn -0.5831 0.8001 -0.1409
vn -0.5695 0.8009 -0.1850
vn -0.4073 0.7812 -0.4732
vn -0.4031 0.7716 -0.4920
vn -0.3959 0.9077 -0.1389
vn -0.3967 0.9080 -0.1350
usemtl None
s 1
f 160/1/1 91/2/2 3/3/3 58/4/4
f 159/5/5 112/6/6 3/3/3 91/2/2
f 158/7/7 96/8/8 8/9/9 105/10/10
f 8/9/9 104/11/11 98/12/12
f 12/13/13 134/14/14 64/15/15
f 157/16/16 98/12/12 11/17/17 78/18/18
f 156/19/19 78/18/18 11/17/17 70/20/20
f 8/9/9 96/8/8 95/21/21
f 6/22/22 90/23/23 118/24/24
f 155/25/25 122/26/26 15/27/27 136/28/28
f 154/29/29 115/30/30 9/31/31 77/32/32
f 153/33/33 109/34/34 2/35/35 128/36/36
f 152/37/37 111/38/38 21/39/39 114/40/40
f 151/41/41 87/42/42 21/39/39 111/38/38
f 150/43/43 89/44/44 26/45/45 56/46/46
f 26/45/45 84/47/47 74/48/48
f 30/49/49 102/50/50 133/51/51
f 149/52/52 74/48/48 29/53/53 94/54/54
f 148/55/55 94/54/54 29/53/53 124/56/56
f 26/45/45 89/44/44 116/57/57
f 24/58/58 120/59/59 72/60/60
f 147/61/61 132/62/62 33/63/63 62/64/64
f 146/65/65 76/66/66 27/67/67 75/68/68
f 145/69/69 121/70/70 20/71/71 100/72/72
f 144/73/73 126/74/74 39/75/75 119/76/76
f 143/77/77 82/78/78 41/79/79 131/80/80
f 142/81/81 59/82/82 38/83/83 97/84/84
f 41/85/79 82/86/78 59/87/82
f 141/88/85 135/89/86 45/90/87 88/91/88
f 140/92/89 101/93/90 49/94/91 79/95/92
f 139/96/93 130/97/94 51/98/95 93/99/96
f 138/100/97 85/101/98 44/102/99 61/103/100
f 137/104/101 55/105/102 48/106/103 113/107/104
f 49/108/91 101/109/90 129/110/105
f 45/111/87 135/112/86 130/113/94
f 44/114/99 85/115/98 69/116/106
f 69/116/106 129/110/105 51/117/95
f 69/116/106 85/115/98 129/110/105
f 85/115/98 49/108/91 129/110/105
f 130/113/94 69/116/106 51/117/95
f 130/113/94 135/112/86 69/116/106
f 135/112/86 44/114/99 69/116/106
f 129/110/105 55/118/102 51/117/95
f 129/110/105 101/109/90 55/118/102
f 101/109/90 48/119/103 55/118/102
f 92/120/107 137/104/101 113/107/104 47/121/108
f 52/122/109 93/99/96 137/104/101 92/120/107
f 93/99/96 51/98/95 55/105/102 137/104/101
f 106/123/110 138/100/97 61/103/100 43/124/111
f 50/125/112 79/126/92 138/100/97 106/123/110
f 79/126/92 49/127/91 85/101/98 138/100/97
f 110/128/113 139/96/93 93/99/96 52/122/109
f 46/129/114 88/91/88 139/96/93 110/128/113
f 88/91/88 45/90/87 130/97/94 139/96/93
f 103/130/115 140/92/89 79/95/92 50/131/112
f 47/121/108 113/107/104 140/92/89 103/130/115
f 113/107/104 48/106/103 101/93/90 140/92/89
f 107/132/116 141/88/85 88/91/88 46/129/114
f 43/124/111 61/103/100 141/88/85 107/132/116
f 61/103/100 44/102/99 135/89/86 141/88/85
f 59/87/82 126/133/74 38/134/83
f 59/87/82 82/86/78 126/133/74
f 82/86/78 39/135/75 126/133/74
f 108/136/117 142/81/81 97/84/84 37/137/118
f 42/138/119 131/80/80 142/81/81 108/136/117
f 131/80/80 41/79/79 59/82/82 142/81/81
f 86/139/120 143/77/77 131/80/80 42/138/119
f 40/140/121 119/141/76 143/77/77 86/139/120
f 119/141/76 39/142/75 82/78/78 143/77/77
f 65/143/122 144/73/73 119/76/76 40/144/121
f 37/137/118 97/84/84 144/73/73 65/143/122
f 97/84/84 38/83/83 126/74/74 144/73/73
f 123/145/123 145/69/69 100/72/72 19/146/124
f 25/147/125 127/148/126 145/69/69 123/145/123
f 127/148/126 23/149/127 121/70/70 145/69/69
f 120/59/59 146/65/65 75/68/68 30/49/49
f 24/58/58 54/150/128 146/65/65 120/59/59
f 54/150/128 23/149/127 76/66/66 146/65/65
f 102/50/50 147/61/61 62/64/64 31/151/129
f 30/49/49 75/68/68 147/61/61 102/50/50
f 75/68/68 27/67/67 132/62/62 147/61/61
f 72/60/60 83/152/130 36/153/131
f 72/60/60 120/59/59 83/152/130
f 120/59/59 30/49/49 83/152/130
f 116/57/57 53/154/132 35/155/133
f 116/57/57 89/44/44 53/154/132
f 89/44/44 25/147/125 53/154/132
f 80/156/134 148/55/55 124/56/56 34/157/135
f 31/151/129 62/64/64 148/55/55 80/156/134
f 62/64/64 33/63/63 94/54/54 148/55/55
f 132/62/62 149/52/52 94/54/54 33/63/63
f 27/67/67 56/46/46 149/52/52 132/62/62
f 56/46/46 26/45/45 74/48/48 149/52/52
f 133/51/51 73/158/136 32/159/137
f 133/51/51 102/50/50 73/158/136
f 102/50/50 31/151/129 73/158/136
f 74/48/48 117/160/138 29/53/53
f 74/48/48 84/47/47 117/160/138
f 84/47/47 28/161/139 117/160/138
f 76/66/66 150/43/43 56/46/46 27/67/67
f 23/149/127 127/148/126 150/43/43 76/66/66
f 127/148/126 25/147/125 89/44/44 150/43/43
f 121/70/70 151/41/41 111/38/38 20/71/71
f 23/149/127 54/150/128 151/41/41 121/70/70
f 54/150/128 24/58/58 87/42/42 151/41/41
f 66/162/140 152/37/37 114/40/40 22/163/141
f 19/146/124 100/72/72 152/37/37 66/162/140
f 100/72/72 20/71/71 111/38/38 152/37/37
f 57/164/142 153/33/33 128/36/36 1/165/143
f 7/166/144 60/167/145 153/33/33 57/164/142
f 60/167/145 5/168/146 109/34/34 153/33/33
f 90/23/23 154/29/29 77/32/32 12/13/13
f 6/22/22 71/169/147 154/29/29 90/23/23
f 71/169/147 5/168/146 115/30/30 154/29/29
f 134/14/14 155/25/25 136/28/28 13/170/148
f 12/13/13 77/32/32 155/25/25 134/14/14
f 77/32/32 9/31/31 122/26/26 155/25/25
f 118/24/24 81/171/149 18/172/150
f 118/24/24 90/23/23 81/171/149
f 90/23/23 12/13/13 81/171/149
f 95/21/21 67/173/151 17/174/152
f 95/21/21 96/8/8 67/173/151
f 96/8/8 7/166/144 67/173/151
f 125/175/153 156/19/19 70/20/20 16/176/154
f 13/170/148 136/28/28 156/19/19 125/175/153
f 136/28/28 15/27/27 78/18/18 156/19/19
f 122/26/26 157/16/16 78/18/18 15/27/27
f 9/31/31 105/10/10 157/16/16 122/26/26
f 105/10/10 8/9/9 98/12/12 157/16/16
f 64/15/15 63/177/155 14/178/156
f 64/15/15 134/14/14 63/177/155
f 134/14/14 13/170/148 63/177/155
f 98/12/12 68/179/157 11/17/17
f 98/12/12 104/11/11 68/179/157
f 104/11/11 10/180/158 68/179/157
f 115/30/30 158/7/7 105/10/10 9/31/31
f 5/168/146 60/167/145 158/7/7 115/30/30
f 60/167/145 7/166/144 96/8/8 158/7/7
f 109/34/34 159/5/5 91/2/2 2/35/35
f 5/168/146 71/169/147 159/5/5 109/34/34
f 71/169/147 6/22/22 112/6/6 159/5/5
f 99/181/159 160/1/1 58/4/4 4/182/160
f 1/165/143 128/36/36 160/1/1 99/181/159
f 128/36/36 2/35/35 91/2/2 160/1/1
