# Blender v2.78 (sub 0) OBJ File: ''
# www.blender.org
mtllib Dead_Pine_Tree_OneSided_l_05.mtl
o Dead_Pine_Tree_OneSided_l_05
v -0.069988 5.733453 -0.191199
v -0.393232 6.020456 -0.761956
v -0.414434 6.009951 -0.756587
v -0.111524 5.709126 -0.175784
v -0.079585 5.686917 -0.208038
v -0.400230 6.001093 -0.774117
v -0.057168 7.697651 0.059849
v -0.270816 7.869849 0.432827
v -0.297935 7.858702 0.427430
v -0.099897 7.678742 0.049465
v -0.289837 7.884396 0.415045
v -0.088251 7.722044 0.032825
v -0.206978 7.014470 -0.125081
v -0.179083 10.436107 -0.138017
v -0.073776 10.429065 -0.182255
v 0.000475 6.973319 -0.196107
v 0.110454 6.970758 -0.072939
v -0.000196 10.429196 -0.100161
v -0.056281 10.424904 -0.001011
v -0.002959 6.930572 0.103927
v -0.212220 6.999425 0.055036
v -0.169450 10.434809 -0.027481
v -0.124928 15.606910 0.136287
v -0.161480 15.622058 0.156188
v -0.056121 17.873116 0.377790
v -0.040936 17.838026 0.366395
v -0.109471 15.606796 0.208926
v -0.092090 15.608608 0.160629
v -0.026609 17.900753 0.386957
v -0.033982 17.860588 0.402035
v -0.155626 15.626109 0.194457
v -0.046619 17.938818 0.404594
v 0.091119 0.321072 0.242648
v -0.017572 3.434755 0.168928
v -0.298241 3.387933 0.110188
v -0.238037 0.312849 0.173276
v 0.025605 0.319200 -0.311909
v -0.046784 3.432221 -0.271855
v 0.147971 3.432965 -0.054901
v 0.260772 0.319437 -0.052375
v -0.309025 3.457925 -0.156393
v -0.267978 0.323053 -0.158015
v -0.046301 13.079830 0.103811
v -0.132353 13.105269 0.069319
v -0.079683 13.080044 -0.030918
v -0.020842 13.073119 0.033577
v -0.144874 13.113609 -0.005310
v 0.354857 9.574353 -0.207908
v 0.449466 9.477695 -0.374918
v 0.263365 9.583964 -0.391029
v 0.006053 9.812744 -0.135794
v 0.714776 9.270336 -0.518356
v 0.595020 9.243100 -0.739546
v 0.817356 9.220234 -0.292642
v 1.351079 8.840254 -0.450991
v 1.188258 8.912567 -0.773696
v 1.669472 8.525759 -0.574521
v 1.640402 8.565818 -0.825911
v 1.022978 8.868664 -1.101270
v 1.445083 8.513532 -1.114837
v 1.294316 8.551006 -1.305560
v 1.442087 8.705479 -0.911383
v 1.801618 8.322458 -1.111115
v 1.147862 8.944374 -0.197624
v 0.713352 8.985005 -1.086838
v -0.423401 8.760680 -0.434213
v -0.609900 8.677579 -0.447834
v -0.540978 8.769984 -0.278765
v -0.205147 8.968582 -0.159104
v -0.852690 8.496924 -0.620663
v -0.992543 8.470786 -0.426267
v -0.705173 8.448595 -0.804807
v -1.080789 8.117224 -1.206063
v -1.284891 8.186186 -0.928974
v -1.333540 7.836796 -1.436048
v -1.534235 7.879785 -1.304172
v -1.497226 8.144672 -0.651502
v -1.701348 7.827878 -1.017591
v -1.799345 7.860989 -0.807446
v -1.517947 8.005085 -1.094414
v -1.856013 7.663425 -1.329672
v -0.774704 8.199986 -1.135828
v -1.350006 8.239902 -0.389519
v 0.568881 6.513387 1.319528
v 0.233199 6.440368 1.463797
v 0.594843 6.177016 1.789298
v 0.692895 6.313579 1.591025
v 0.105399 6.806385 0.903544
v -0.009646 6.535937 1.238515
v 0.911104 6.468994 1.176606
v 0.900263 6.122716 1.613709
v 1.102467 6.158963 1.473625
v 0.339419 6.857305 0.814046
v 0.339854 6.133726 1.802641
v 0.047263 7.149423 0.420894
v 0.210392 7.056967 0.530574
v 0.238081 7.159137 0.340881
v -0.004499 7.379042 0.057194
v 0.571030 6.829525 0.709249
v 0.874426 5.940016 1.978602
v 0.916353 6.577296 0.860007
v 0.168184 0.319318 -0.207169
v -0.032299 17.896502 0.378666
v -0.190143 8.757881 -0.135175
v -0.575345 8.724834 -0.362044
v 0.141079 9.723805 -0.157492
v -0.156210 14.372993 0.071706
v -0.561893 8.618908 -0.599713
v 0.647858 9.269423 -0.621722
v 0.128587 5.198602 -0.062480
v -0.034150 8.734943 -0.191560
v -0.106438 15.607638 0.145694
v -0.011453 1.711531 -0.301791
v -0.083834 16.839008 0.259847
v 0.100840 9.728031 -0.238030
v 0.423911 9.428123 -0.544243
v -0.144580 13.112144 0.031460
v -0.188669 8.753848 0.008054
v 1.018967 6.154713 1.508638
v 1.034294 6.269275 1.376428
v -1.738880 7.753658 -1.321626
v 1.744710 8.423035 -1.007039
v 0.207046 0.320255 0.113361
v 0.212919 1.711794 -0.053291
v -0.759398 8.289341 -1.018429
v -1.747894 7.856917 -0.875469
v -0.286878 0.317951 0.012437
v -0.068968 7.714167 0.045940
v 0.786379 6.220344 1.606632
v -0.144646 15.614088 0.144107
v -0.077176 7.683498 0.057641
v 0.772122 6.038448 1.911106
v -0.869576 8.189898 -1.148618
v -1.252778 7.939719 -1.357373
v 1.206149 8.663784 -1.233356
v -0.078095 11.789334 -0.112347
v -0.869180 8.285744 -1.013338
v 1.664722 8.390318 -1.109521
v -0.147047 14.370230 0.127341
v -0.239428 5.842434 -0.492354
v 0.791044 6.667698 0.815534
v 0.070576 6.522970 1.300472
v 0.809222 8.967134 -1.081027
v -0.275180 1.682889 0.148246
v 1.334352 8.546802 -1.225428
v 1.524087 8.685211 -0.639257
v -0.162048 7.783607 0.247320
v 0.654500 6.251948 1.688002
v 0.639450 6.403176 1.474445
v -1.794288 7.721258 -1.211295
v -0.159965 11.808938 -0.078120
v -0.226261 7.012717 -0.034533
v -0.029324 8.708607 0.045026
v -0.412034 6.024550 -0.793788
v -1.695784 7.962106 -0.758915
v 0.266673 6.969473 0.654176
v -0.081066 0.316961 0.242344
v -1.225142 8.322845 -0.411209
v -0.114540 10.429857 -0.006438
v -1.247422 8.314798 -0.515491
v 0.066006 6.947086 0.021993
v 0.904134 6.561950 0.956788
v -0.745937 8.633471 -0.356389
v -0.912935 8.495409 -0.520086
v -0.115036 13.097527 -0.023543
v -0.011953 11.785275 -0.038499
v -0.264743 5.859478 -0.465042
v -0.050648 17.936323 0.393973
v 0.039467 1.716332 0.214130
v 1.035034 9.042996 -0.240165
v -0.421237 6.020096 -0.791595
v 0.881368 6.004559 1.838456
v 0.397915 6.488120 1.389982
v 0.054237 8.734148 -0.092705
v -0.302411 7.879358 0.439010
v -0.092376 5.726205 -0.180090
v 0.127478 7.104235 0.475372
v -0.012793 5.177601 0.137557
v 1.333215 8.798162 -0.852124
v 0.383513 7.008610 0.517865
v 0.009227 7.293443 0.197461
v 0.401925 9.527081 -0.290071
v -0.147852 11.803563 0.013230
v -0.022923 5.199135 -0.231765
v -0.097752 15.607061 0.186158
v 0.224830 7.109191 0.434550
v 0.454311 6.685104 1.067142
v -0.129664 10.432585 -0.167437
v -0.335890 8.895216 -0.199742
v -0.230325 5.878588 -0.476444
v 0.756970 9.257963 -0.403334
v 0.067328 3.430535 -0.176301
v -0.073544 16.851027 0.311457
v -1.396929 7.868044 -1.378681
v 1.268541 8.887616 -0.609307
v -0.186077 3.448810 -0.233148
v -1.417643 8.086426 -1.023414
v -0.284179 8.891125 -0.268109
v 0.084825 6.993406 0.643110
v -1.320865 7.982953 -1.279552
v 1.203228 8.928741 -0.280754
v 0.951849 9.091200 -0.646205
v -0.027779 13.075167 0.072801
v -0.080334 14.346919 0.153072
v 0.220691 6.844357 0.849097
v -0.046009 17.912964 0.377635
v -0.028816 18.092789 0.413706
v 0.068014 6.972551 -0.144334
v 0.083837 3.437032 0.067896
v -0.290346 7.884279 0.441358
v 0.739724 6.502124 1.244346
v -0.036676 17.962257 0.409263
v -1.533608 7.948756 -1.192421
v 0.567124 9.413082 -0.257603
v 0.565135 9.386850 -0.437477
v 1.448541 8.611677 -1.003361
v -0.028146 17.946047 0.401583
v -0.324527 3.421291 -0.020709
v -0.161699 15.625288 0.175482
v -0.089727 13.092340 0.092176
v -0.108595 16.864347 0.275324
v -0.103205 16.872358 0.304350
v -1.179283 8.162227 -1.067471
v 0.355247 9.531983 -0.383497
v 0.143264 6.626780 1.178341
v -1.069094 8.341337 -0.775035
v -0.164212 3.408131 0.158229
v -0.031042 10.429131 -0.146540
v -1.386015 8.227413 -0.474374
v -1.603305 7.918541 -1.064264
v 1.249032 8.672038 -1.130842
v -0.293980 7.872928 0.446948
v -0.515359 8.720088 -0.441352
v 1.538589 8.642159 -0.879091
v -0.112154 6.962413 0.093581
v -0.182209 10.435457 -0.081929
v -0.050760 11.789463 0.043389
v -0.189536 7.804969 0.222739
v -1.625869 7.969457 -0.838381
v 1.102277 8.901539 -0.937125
v 0.428950 6.166393 1.784423
v -0.135807 0.321126 -0.267347
v -0.296744 1.725369 -0.161072
v -0.021331 10.427050 -0.046581
v 0.039761 6.632907 1.124719
v 1.080806 9.034087 -0.345814
v 0.680476 9.077249 -0.961482
v -0.099128 5.692964 -0.191943
v -0.069593 5.710329 -0.202989
v 0.755925 6.657067 0.922964
v 0.927872 6.277369 1.412409
v -0.099172 7.700772 0.038559
v 1.646440 8.557501 -0.661704
v -0.105847 14.348237 0.049307
v -0.418084 6.028259 -0.786120
v 0.413111 6.291522 1.655713
v 1.563564 8.640398 -0.537825
v -0.046930 13.074693 -0.002414
v -0.260461 5.235912 -0.139579
v 0.448258 6.855939 0.753675
v 0.093149 7.297715 0.162270
v -0.200367 7.767117 0.238662
v -0.772714 8.484315 -0.705471
v -0.133060 15.616404 0.205047
v -0.106834 6.993776 -0.171872
v 0.788526 9.064008 -0.933849
v -0.061798 16.841789 0.276968
v 0.308682 6.245919 1.689929
v -0.059693 14.345365 0.093448
v -0.259277 5.189398 0.083258
v -1.388873 8.175643 -0.787183
v -0.715790 8.598400 -0.523188
v 0.169052 6.980089 0.654109
v 0.333770 6.988473 0.585040
v 0.780068 6.117268 1.775090
v 0.600447 6.680209 0.997473
v 0.106730 7.212334 0.302219
v 0.303268 6.665082 1.122084
v 0.774902 6.355129 1.431871
v 0.523690 6.366593 1.553709
v -0.635988 8.607433 -0.569086
v -1.155417 8.336666 -0.649317
v -1.508877 8.041596 -0.925413
v -1.679648 7.825036 -1.205945
v -1.361406 8.052543 -1.143176
v -0.972303 8.322178 -0.891410
v -0.737483 8.615463 -0.434901
v -0.414650 8.817956 -0.308553
v 0.571934 9.398552 -0.341275
v 0.873150 9.086611 -0.785709
v 1.280735 8.750238 -0.982278
v 1.612229 8.504877 -1.006918
v 1.418156 8.761082 -0.742649
v 1.015639 9.071646 -0.500519
v 0.492956 9.406847 -0.499349
v 0.235567 9.639320 -0.259567
v -0.033622 18.089256 0.403907
v -0.133128 14.360766 0.056726
v -0.122026 11.799486 -0.101599
v -0.065603 14.345169 0.126004
v -0.025006 11.786716 0.006501
v -0.156185 14.373567 0.099330
v -0.160863 11.807602 -0.032307
v -0.080068 14.345798 0.068124
v -0.040386 11.786360 -0.079961
v -0.114146 14.358444 0.144690
v -0.100343 11.796408 0.035018
v -0.147570 5.219333 -0.200823
v -0.163668 1.720319 -0.253088
v 0.073345 5.187899 0.046229
v 0.147174 1.715650 0.092695
v -0.278647 5.214721 -0.026719
v -0.309110 1.703310 -0.003414
v 0.067474 5.198096 -0.158490
v 0.118474 1.710634 -0.193387
v -0.141470 5.180600 0.126792
v -0.123861 1.698004 0.203417
v -0.088625 16.862297 0.310389
v -0.071407 16.839088 0.266439
v -0.108009 16.870243 0.290117
v -0.065662 16.845711 0.295157
v -0.097273 16.851191 0.265845
v -0.112116 8.729935 0.037494
v 0.019291 8.734801 -0.149704
v -0.201708 8.758749 -0.062906
v 0.022040 8.719587 -0.018587
v -0.115555 8.746353 -0.172657
v -0.173615 7.796695 0.234707
v -0.197867 7.786259 0.229228
v -0.180470 7.772738 0.244786
v -0.254014 5.848507 -0.478898
v -0.232230 5.860602 -0.486115
v -0.248252 5.871389 -0.468828
vt 0.8444 0.9086
vt 0.8382 0.9086
vt 0.8381 0.9084
vt 0.8444 0.9082
vt 0.8444 0.9094
vt 0.8381 0.9090
vt 0.8382 0.9088
vt 0.8444 0.9090
vt 0.8380 0.9264
vt 0.8381 0.9262
vt 0.8382 0.9264
vt 0.8444 0.9079
vt 0.8381 0.9082
vt 0.8380 0.9080
vt 0.8443 0.9075
vt 0.8425 0.9128
vt 0.8469 0.9125
vt 0.8469 0.9128
vt 0.8425 0.9132
vt 0.8425 0.9111
vt 0.8469 0.9114
vt 0.8468 0.9116
vt 0.8424 0.9115
vt 0.8424 0.9119
vt 0.8468 0.9119
vt 0.8468 0.9122
vt 0.8424 0.9123
vt 0.8380 0.9240
vt 0.8382 0.9238
vt 0.8383 0.9240
vt 0.8196 0.9141
vt 0.8192 0.9394
vt 0.8181 0.9394
vt 0.8181 0.9139
vt 0.8280 0.9140
vt 0.8262 0.9397
vt 0.8250 0.9396
vt 0.8266 0.9137
vt 0.8224 0.9143
vt 0.8216 0.9395
vt 0.8204 0.9394
vt 0.8211 0.9143
vt 0.8170 0.9139
vt 0.8169 0.9394
vt 0.8158 0.9394
vt 0.8158 0.9139
vt 0.8251 0.9140
vt 0.8239 0.9395
vt 0.8227 0.9395
vt 0.8237 0.9143
vt 0.8346 0.9416
vt 0.8350 0.9422
vt 0.8353 0.9597
vt 0.8350 0.9590
vt 0.8372 0.9414
vt 0.8377 0.9417
vt 0.8373 0.9583
vt 0.8370 0.9587
vt 0.8354 0.9424
vt 0.8357 0.9426
vt 0.8361 0.9600
vt 0.8357 0.9598
vt 0.8334 0.9414
vt 0.8341 0.9410
vt 0.8347 0.9583
vt 0.8344 0.9584
vt 0.8362 0.9419
vt 0.8368 0.9412
vt 0.8366 0.9591
vt 0.8363 0.9596
vt 0.8057 0.9125
vt 0.8041 0.9370
vt 0.8019 0.9363
vt 0.8032 0.9121
vt 0.8025 0.9622
vt 0.8009 0.9873
vt 0.7992 0.9880
vt 0.8005 0.9621
vt 0.7907 0.9124
vt 0.7908 0.9370
vt 0.7884 0.9371
vt 0.7880 0.9124
vt 0.7912 0.9621
vt 0.7917 0.9872
vt 0.7905 0.9872
vt 0.7894 0.9621
vt 0.8008 0.9124
vt 0.7997 0.9370
vt 0.7976 0.9377
vt 0.7983 0.9127
vt 0.7988 0.9625
vt 0.7978 0.9880
vt 0.7964 0.9880
vt 0.7970 0.9628
vt 0.8108 0.9132
vt 0.8086 0.9378
vt 0.8064 0.9378
vt 0.8083 0.9130
vt 0.8065 0.9625
vt 0.8044 0.9872
vt 0.8027 0.9866
vt 0.8045 0.9622
vt 0.7958 0.9125
vt 0.7954 0.9373
vt 0.7932 0.9370
vt 0.7933 0.9123
vt 0.7950 0.9624
vt 0.7947 0.9876
vt 0.7929 0.9871
vt 0.7931 0.9620
vt 0.8227 0.9577
vt 0.8237 0.9577
vt 0.8223 0.9757
vt 0.8216 0.9758
vt 0.8361 0.9061
vt 0.8368 0.9055
vt 0.8369 0.9232
vt 0.8361 0.9243
vt 0.8173 0.9574
vt 0.8183 0.9574
vt 0.8185 0.9754
vt 0.8177 0.9754
vt 0.8324 0.9061
vt 0.8333 0.9057
vt 0.8335 0.9236
vt 0.8325 0.9244
vt 0.8209 0.9578
vt 0.8218 0.9577
vt 0.8208 0.9760
vt 0.8202 0.9761
vt 0.8349 0.9067
vt 0.8354 0.9068
vt 0.8354 0.9253
vt 0.8350 0.9250
vt 0.8245 0.9577
vt 0.8254 0.9577
vt 0.8235 0.9756
vt 0.8229 0.9757
vt 0.8374 0.9060
vt 0.8380 0.9064
vt 0.8380 0.9251
vt 0.8375 0.9241
vt 0.8191 0.9576
vt 0.8200 0.9578
vt 0.8196 0.9761
vt 0.8190 0.9757
vt 0.8338 0.9061
vt 0.8344 0.9066
vt 0.8347 0.9247
vt 0.8341 0.9241
vt 0.8386 0.9224
vt 0.8388 0.9221
vt 0.8391 0.9228
vt 0.8389 0.9232
vt 0.8380 0.9228
vt 0.8380 0.9223
vt 0.8383 0.9232
vt 0.8144 0.3490
vt 0.8165 0.3418
vt 0.8186 0.3459
vt 0.8165 0.3562
vt 0.8177 0.3336
vt 0.8210 0.3356
vt 0.8084 0.3121
vt 0.8023 0.3121
vt 0.7995 0.2989
vt 0.8069 0.2989
vt 0.7982 0.2888
vt 0.8040 0.2888
vt 0.8293 0.2989
vt 0.8248 0.2888
vt 0.8305 0.2888
vt 0.8092 0.2909
vt 0.8086 0.2787
vt 0.8115 0.2828
vt 0.8144 0.2763
vt 0.8115 0.2696
vt 0.7964 0.3043
vt 0.8235 0.3253
vt 0.8264 0.3121
vt 0.8296 0.3172
vt 0.8196 0.2909
vt 0.8144 0.2930
vt 0.8144 0.2870
vt 0.8173 0.2828
vt 0.8204 0.3121
vt 0.8144 0.3121
vt 0.8144 0.2989
vt 0.8219 0.2989
vt 0.8110 0.3336
vt 0.8144 0.3315
vt 0.8144 0.3377
vt 0.8123 0.3418
vt 0.6872 0.3490
vt 0.6893 0.3418
vt 0.6914 0.3459
vt 0.6893 0.3562
vt 0.6905 0.3336
vt 0.6939 0.3356
vt 0.6812 0.3121
vt 0.6751 0.3121
vt 0.6723 0.2989
vt 0.6797 0.2989
vt 0.6710 0.2888
vt 0.6768 0.2888
vt 0.7021 0.2989
vt 0.6975 0.2888
vt 0.7033 0.2888
vt 0.6820 0.2909
vt 0.6814 0.2787
vt 0.6843 0.2828
vt 0.6872 0.2763
vt 0.6843 0.2696
vt 0.6691 0.3043
vt 0.6963 0.3253
vt 0.6992 0.3121
vt 0.7024 0.3172
vt 0.6924 0.2909
vt 0.6872 0.2930
vt 0.6872 0.2870
vt 0.6901 0.2828
vt 0.6932 0.3121
vt 0.6872 0.3121
vt 0.6872 0.2989
vt 0.6946 0.2989
vt 0.6839 0.3336
vt 0.6872 0.3315
vt 0.6872 0.3377
vt 0.6851 0.3418
vt 0.8092 0.2909
vt 0.8040 0.2888
vt 0.8086 0.2787
vt 0.8115 0.2828
vt 0.7995 0.2989
vt 0.8023 0.3121
vt 0.7964 0.3043
vt 0.8196 0.2909
vt 0.8144 0.2930
vt 0.8144 0.2870
vt 0.8173 0.2828
vt 0.8293 0.2989
vt 0.8248 0.2888
vt 0.8305 0.2888
vt 0.8084 0.3121
vt 0.8069 0.2989
vt 0.7982 0.2888
vt 0.8144 0.3490
vt 0.8165 0.3418
vt 0.8186 0.3459
vt 0.8165 0.3562
vt 0.8204 0.3121
vt 0.8144 0.3121
vt 0.8144 0.2989
vt 0.8219 0.2989
vt 0.8144 0.2763
vt 0.8115 0.2696
vt 0.8177 0.3336
vt 0.8210 0.3356
vt 0.8235 0.3253
vt 0.8264 0.3121
vt 0.8296 0.3172
vt 0.8110 0.3336
vt 0.8144 0.3315
vt 0.8144 0.3377
vt 0.8123 0.3418
vt 0.8077 0.3356
vt 0.8102 0.3459
vt 0.8052 0.3253
vt 0.8098 0.3253
vt 0.8144 0.3253
vt 0.8325 0.3040
vt 0.8356 0.3091
vt 0.8189 0.3253
vt 0.8173 0.2696
vt 0.8144 0.2606
vt 0.8202 0.2787
vt 0.8123 0.3562
vt 0.8144 0.3666
vt 0.8027 0.2787
vt 0.7969 0.2787
vt 0.8260 0.2787
vt 0.8318 0.2787
vt 0.7992 0.3174
vt 0.7932 0.3096
vt 0.6805 0.3356
vt 0.6830 0.3459
vt 0.6780 0.3253
vt 0.6826 0.3253
vt 0.6872 0.3253
vt 0.6918 0.3253
vt 0.6930 0.2787
vt 0.7053 0.3040
vt 0.7084 0.3091
vt 0.6720 0.3174
vt 0.6660 0.3096
vt 0.6901 0.2696
vt 0.6872 0.2606
vt 0.6988 0.2787
vt 0.7046 0.2787
vt 0.6755 0.2787
vt 0.6697 0.2787
vt 0.6851 0.3562
vt 0.6872 0.3666
vt 0.8077 0.3356
vt 0.8102 0.3459
vt 0.8052 0.3253
vt 0.8098 0.3253
vt 0.8144 0.3253
vt 0.8189 0.3253
vt 0.8202 0.2787
vt 0.8325 0.3040
vt 0.8356 0.3091
vt 0.7992 0.3174
vt 0.7932 0.3096
vt 0.8173 0.2696
vt 0.8144 0.2606
vt 0.8260 0.2787
vt 0.8318 0.2787
vt 0.8027 0.2787
vt 0.7969 0.2787
vt 0.8123 0.3562
vt 0.8144 0.3666
vt 0.8383 0.9226
vt 0.8387 0.9235
vt 0.8380 0.9218
vt 0.8383 0.9216
vt 0.8385 0.9214
vt 0.8330 0.8878
vt 0.8335 0.8881
vt 0.8341 0.8885
vt 0.8368 0.8878
vt 0.8374 0.8878
vt 0.8380 0.8877
vt 0.8273 0.9398
vt 0.8347 0.8884
vt 0.8353 0.8883
vt 0.8316 0.9065
vt 0.8315 0.9252
vt 0.8316 0.8878
vt 0.8323 0.8878
vt 0.8164 0.9574
vt 0.8170 0.9754
vt 0.8361 0.8880
vt 0.7962 0.8877
vt 0.7935 0.8877
vt 0.7990 0.8877
vt 0.8107 0.9379
vt 0.8083 0.9628
vt 0.8060 0.9878
vt 0.8130 0.8885
vt 0.8101 0.8882
vt 0.8158 0.8888
vt 0.8133 0.9133
vt 0.8018 0.8878
vt 0.8045 0.8878
vt 0.7905 0.8878
vt 0.7875 0.8878
vt 0.8073 0.8880
vt 0.8328 0.9419
vt 0.8341 0.9585
vt 0.8263 0.8885
vt 0.8246 0.8892
vt 0.8281 0.8877
vt 0.8170 0.8884
vt 0.8158 0.8884
vt 0.8182 0.8883
vt 0.8232 0.8892
vt 0.8218 0.8892
vt 0.8298 0.8883
vt 0.8314 0.8889
vt 0.8293 0.9144
vt 0.8200 0.8887
vt 0.8384 0.9238
vt 0.8386 0.9240
vt 0.8383 0.9235
vt 0.8380 0.9119
vt 0.8380 0.9125
vt 0.8380 0.9114
vt 0.8381 0.9109
vt 0.8382 0.9103
vt 0.8425 0.9107
vt 0.8469 0.9111
vt 0.8381 0.9131
vt 0.8382 0.9136
vt 0.8507 0.9075
vt 0.8507 0.9070
vt 0.8508 0.9081
vt 0.8383 0.9262
vt 0.8384 0.9264
vt 0.8382 0.9261
vt 0.8507 0.9097
vt 0.8507 0.9092
vt 0.8507 0.9103
vt 0.8443 0.9097
vt 0.8380 0.9092
vt 0.8507 0.9087
vn -0.2612 0.7984 0.5425
vn -0.4671 0.8837 -0.0305
vn -0.8983 0.0265 0.4386
vn -0.8856 0.0159 0.4641
vn 0.8669 -0.0004 -0.4985
vn 0.3036 0.3437 -0.8886
vn 0.5921 0.8054 0.0272
vn 0.6040 0.7953 0.0518
vn -0.6175 -0.7814 -0.0905
vn -0.7664 -0.1922 -0.6129
vn 0.2354 -0.7609 -0.6046
vn 0.2471 -0.7779 -0.5778
vn 0.2318 -0.8210 0.5218
vn -0.1382 -0.2326 0.9627
vn -0.6773 -0.7253 0.1232
vn -0.6385 -0.7685 0.0418
vn -0.8790 0.0483 -0.4743
vn -0.8968 0.3536 0.2658
vn -0.2951 0.8616 -0.4130
vn -0.2573 0.8374 -0.4822
vn 0.6145 0.7889 -0.0022
vn 0.1579 0.8326 0.5309
vn 0.8135 0.0009 0.5816
vn 0.8566 -0.0314 0.5151
vn -0.3445 -0.0007 -0.9388
vn -0.3699 0.0236 -0.9288
vn 0.2182 0.0300 -0.9754
vn 0.2170 0.0090 -0.9761
vn 0.8521 0.0318 0.5224
vn 0.8735 0.0075 0.4867
vn 0.3947 0.0021 0.9188
vn 0.3899 0.0343 0.9202
vn -0.9998 0.0126 0.0180
vn -0.9972 0.0117 0.0734
vn -0.8416 0.0201 -0.5397
vn -0.8112 0.0046 -0.5848
vn 0.7460 0.0206 -0.6656
vn 0.7434 0.0302 -0.6681
vn 0.9932 0.0226 -0.1142
vn 0.9970 0.0311 -0.0710
vn -0.2207 0.0280 0.9749
vn -0.2431 -0.0010 0.9700
vn -0.7630 0.0059 0.6464
vn -0.7662 0.0242 0.6421
vn -0.4427 0.1094 -0.8900
vn -0.8808 0.0886 -0.4651
vn -0.8955 0.0948 -0.4348
vn -0.3972 0.1744 -0.9010
vn 0.9400 -0.0594 0.3359
vn 0.9695 -0.0035 -0.2449
vn 0.9832 0.0068 -0.1825
vn 0.8742 -0.0288 0.4846
vn -0.9807 0.0293 0.1932
vn -0.7341 -0.0265 0.6785
vn -0.7144 -0.0020 0.6997
vn -0.9940 0.1009 -0.0417
vn 0.6335 0.0576 -0.7716
vn 0.0946 0.0980 -0.9907
vn 0.1282 0.1024 -0.9864
vn 0.5566 0.0989 -0.8249
vn -0.2943 -0.0717 0.9530
vn 0.4594 -0.0916 0.8835
vn 0.4686 -0.0948 0.8783
vn 0.1020 -0.0420 0.9939
vn -0.2080 0.0217 0.9779
vn -0.2177 0.0198 0.9758
vn -0.7600 0.0110 0.6499
vn -0.7506 0.0007 0.6607
vn -0.2159 0.0236 0.9761
vn -0.2180 0.0266 0.9756
vn -0.7679 0.0293 0.6399
vn -0.7641 0.0282 0.6445
vn 0.7418 0.0291 -0.6700
vn 0.7439 0.0182 -0.6681
vn 0.9979 0.0247 -0.0605
vn 0.9955 0.0393 -0.0857
vn 0.7463 0.0066 -0.6656
vn 0.7480 0.0122 -0.6636
vn 0.9984 0.0207 -0.0517
vn 0.9987 0.0095 -0.0497
vn -0.9977 -0.0132 0.0670
vn -0.9990 0.0088 0.0446
vn -0.8449 0.0138 -0.5347
vn -0.8650 -0.0095 -0.5017
vn -0.9995 0.0279 0.0151
vn -0.9998 0.0214 -0.0058
vn -0.7967 0.0160 -0.6042
vn -0.8158 0.0289 -0.5777
vn 0.8386 0.0397 0.5433
vn 0.8169 0.0250 0.5762
vn 0.3532 0.0229 0.9353
vn 0.3768 0.0355 0.9256
vn 0.8200 0.0112 0.5722
vn 0.8368 0.0218 0.5470
vn 0.3774 0.0253 0.9257
vn 0.3615 0.0171 0.9322
vn -0.4384 0.0006 -0.8988
vn -0.4032 0.0147 -0.9150
vn 0.2031 0.0189 -0.9790
vn 0.1927 0.0178 -0.9811
vn -0.3615 0.0235 -0.9321
vn -0.3355 0.0104 -0.9420
vn 0.2213 0.0122 -0.9751
vn 0.2167 0.0172 -0.9761
vn -0.2999 -0.0329 0.9534
vn 0.3871 -0.0361 0.9213
vn 0.3865 -0.0330 0.9217
vn -0.3555 -0.0419 0.9337
vn -0.3608 -0.0478 0.9314
vn 0.3970 -0.0282 0.9174
vn 0.4230 -0.0580 0.9043
vn -0.3270 -0.0607 0.9431
vn 0.7432 0.0406 -0.6678
vn 0.2384 0.0553 -0.9696
vn 0.2477 0.0638 -0.9667
vn 0.7319 0.0503 -0.6795
vn 0.6882 0.0589 -0.7232
vn 0.1930 0.0676 -0.9789
vn 0.1018 0.0812 -0.9915
vn 0.6242 0.0613 -0.7789
vn -0.9922 0.0085 0.1245
vn -0.7629 -0.0144 0.6464
vn -0.7686 -0.0289 0.6391
vn -0.9887 -0.0065 0.1501
vn -0.9879 -0.0154 0.1546
vn -0.7682 -0.0389 0.6390
vn -0.7625 -0.0323 0.6462
vn -0.9881 0.0085 0.1533
vn 0.9026 -0.0165 0.4301
vn 0.9871 0.0152 -0.1593
vn 0.9778 0.0282 -0.2078
vn 0.9293 -0.0027 0.3693
vn 0.9408 0.0106 0.3389
vn 0.9688 0.0402 -0.2445
vn 0.9629 0.0210 -0.2692
vn 0.9416 -0.0228 0.3360
vn -0.3694 0.0527 -0.9278
vn -0.8620 0.0368 -0.5056
vn -0.8678 0.0297 -0.4960
vn -0.3603 0.0563 -0.9311
vn -0.3933 0.0562 -0.9177
vn -0.8751 0.0256 -0.4833
vn -0.8792 0.0569 -0.4730
vn -0.4341 0.0810 -0.8972
vn -0.3575 0.5914 -0.7228
vn 0.5154 0.8298 -0.2139
vn 0.4959 0.8255 -0.2695
vn 0.4956 0.8280 -0.2622
vn 0.5113 0.8313 -0.2179
vn 0.4738 0.8184 -0.3251
vn 0.4670 0.8162 -0.3402
vn 0.5616 0.8229 -0.0859
vn 0.5858 0.8074 0.0702
vn 0.6086 0.7931 -0.0248
vn 0.5748 0.8124 -0.0980
vn 0.7151 0.6980 0.0374
vn 0.6730 0.7392 -0.0254
vn 0.4765 0.7767 -0.4119
vn 0.5812 0.7039 -0.4082
vn 0.6293 0.7110 -0.3138
vn 0.5979 0.7920 -0.1238
vn 0.6330 0.7487 -0.1968
vn 0.5840 0.7522 -0.3054
vn 0.4901 0.7209 -0.4900
vn 0.4549 0.7404 -0.4948
vn 0.5995 0.7837 0.1626
vn 0.4067 0.8300 -0.3818
vn 0.3337 0.8311 -0.4450
vn 0.2264 0.8215 -0.5233
vn 0.5022 0.7222 -0.4756
vn 0.5259 0.7910 -0.3125
vn 0.5186 0.7531 -0.4049
vn 0.4878 0.6833 -0.5432
vn 0.4421 0.8327 -0.3334
vn 0.5107 0.8325 -0.2147
vn 0.5198 0.8186 -0.2444
vn 0.4803 0.7915 -0.3780
vn 0.5786 0.8074 -0.1154
vn 0.5278 0.8202 -0.2207
vn 0.5272 0.8207 -0.2203
vn 0.5478 0.8200 -0.1656
vn -0.3805 0.8603 -0.3392
vn -0.4219 0.8565 -0.2974
vn -0.4151 0.8588 -0.3003
vn -0.3822 0.8617 -0.3338
vn -0.4623 0.8498 -0.2533
vn -0.4729 0.8476 -0.2406
vn -0.2863 0.8524 -0.4375
vn -0.1577 0.8340 -0.5287
vn -0.2536 0.8234 -0.5077
vn -0.3035 0.8429 -0.4443
vn -0.2490 0.7322 -0.6339
vn -0.2849 0.7729 -0.5669
vn -0.5433 0.8106 -0.2187
vn -0.5895 0.7431 -0.3167
vn -0.5256 0.7501 -0.4013
vn -0.3376 0.8244 -0.4543
vn -0.4206 0.7849 -0.4551
vn -0.4962 0.7887 -0.3630
vn -0.6219 0.7576 -0.1983
vn -0.6098 0.7754 -0.1639
vn -0.0819 0.8086 -0.5826
vn -0.4831 0.8594 -0.1677
vn -0.5075 0.8584 -0.0742
vn -0.5310 0.8455 0.0562
vn -0.6142 0.7591 -0.2155
vn -0.4753 0.8247 -0.3065
vn -0.5566 0.7889 -0.2603
vn -0.6703 0.7214 -0.1740
vn -0.4552 0.8626 -0.2207
vn -0.3789 0.8628 -0.3347
vn -0.4102 0.8501 -0.3301
vn -0.5139 0.8246 -0.2367
vn -0.3209 0.8386 -0.4402
vn -0.3924 0.8515 -0.3477
vn -0.3918 0.8520 -0.3473
vn -0.3519 0.8509 -0.3900
vn 0.0730 0.8106 0.5810
vn -0.0296 0.7586 0.6509
vn 0.1440 0.7694 0.6223
vn 0.2556 0.7730 0.5806
vn -0.0265 0.8106 0.5850
vn -0.1199 0.8228 0.5555
vn -0.2127 0.7982 0.5636
vn 0.4313 0.7432 0.5115
vn 0.2662 0.8103 0.5221
vn 0.3593 0.7735 0.5221
vn 0.5003 0.7049 0.5028
vn 0.3689 0.7960 0.4799
vn 0.3590 0.7262 0.5863
vn 0.2615 0.7333 0.6277
vn 0.0373 0.8400 0.5414
vn 0.0486 0.8300 0.5556
vn -0.0946 0.7177 0.6899
vn 0.1681 0.8473 0.5037
vn 0.2249 0.8432 0.4882
vn 0.2176 0.8456 0.4874
vn 0.1723 0.8487 0.4999
vn 0.2922 0.8498 0.4386
vn 0.1691 0.8499 0.4991
vn 0.1983 0.8367 0.5105
vn 0.3346 0.8104 0.4810
vn 0.4466 0.7417 0.5004
vn 0.4535 0.7603 0.4650
vn 0.2819 0.8364 0.4701
vn 0.2974 0.8342 0.4644
vn 0.3429 0.8468 0.4067
vn 0.4109 0.8467 0.3381
vn 0.4965 0.8352 0.2367
vn 0.0657 0.8254 0.5608
vn 0.1741 0.8382 0.5169
vn 0.1738 0.8386 0.5162
vn 0.1178 0.8378 0.5332
vn 0.0510 0.8216 0.5677
vn 0.1221 0.8408 0.5274
vn -0.0229 0.8281 0.5601
vn 0.0436 0.8311 0.5543
vn 0.1696 0.8451 0.5070
vn 0.4778 0.8306 0.2861
vn 0.5264 0.8269 0.1976
vn 0.2923 0.8438 0.4501
vn 0.5231 0.7399 0.4229
vn 0.5108 0.7514 0.4176
vn 0.4880 0.7099 0.5078
vn 0.1623 0.8482 0.5041
vn 0.1671 0.8488 0.5016
vn -0.0826 0.7040 0.7054
vn -0.1065 0.6898 0.7161
vn 0.2927 0.7211 0.6279
vn 0.2366 0.7205 0.6518
vn -0.2462 0.7982 0.5497
vn -0.2925 0.7868 0.5435
vn -0.3117 0.8349 -0.4537
vn -0.3526 0.8538 -0.3829
vn -0.2438 0.8404 -0.4840
vn -0.2984 0.8440 -0.4457
vn -0.3834 0.8582 -0.3414
vn -0.4611 0.8569 -0.2306
vn -0.6621 0.7264 -0.1844
vn -0.5397 0.8418 0.0041
vn -0.5375 0.8367 0.1050
vn -0.0460 0.8080 -0.5874
vn -0.0030 0.7959 -0.6054
vn -0.6493 0.7548 -0.0930
vn -0.6358 0.7661 -0.0943
vn -0.5530 0.7383 -0.3860
vn -0.5165 0.7377 -0.4348
vn -0.2675 0.7190 -0.6415
vn -0.2525 0.7048 -0.6629
vn -0.3756 0.8612 -0.3425
vn -0.3785 0.8617 -0.3379
vn 0.5864 0.8037 -0.1011
vn 0.5420 0.8231 -0.1695
vn 0.5840 0.8113 -0.0269
vn 0.5738 0.8137 -0.0929
vn 0.5185 0.8275 -0.2156
vn 0.4533 0.8263 -0.3342
vn 0.4937 0.6884 -0.5314
vn 0.2768 0.8157 -0.5080
vn 0.1851 0.8141 -0.5505
vn 0.5880 0.7845 0.1970
vn 0.5845 0.7739 0.2438
vn 0.4076 0.7205 -0.5611
vn 0.4034 0.7323 -0.5487
vn 0.6271 0.6984 -0.3448
vn 0.6547 0.6978 -0.2905
vn 0.7294 0.6836 0.0246
vn 0.7413 0.6695 0.0479
vn 0.5162 0.8308 -0.2082
vn 0.5134 0.8313 -0.2129
vn -0.1196 0.9701 -0.2114
vn -0.4488 -0.0036 -0.8936
vn 0.1952 0.0158 -0.9806
vn -0.8734 -0.0152 -0.4867
vn 0.8543 0.0408 0.5182
vn 0.3966 0.0358 0.9173
vn 0.9943 0.0397 -0.0993
vn -0.9962 -0.0182 0.0852
vn -0.7434 -0.0032 0.6689
vn 0.7419 0.0295 -0.6699
vn -0.2062 0.0172 0.9783
vn 0.6199 0.7846 -0.0046
vn 0.8667 -0.0127 0.4986
vn -0.2222 0.8479 -0.4813
vn -0.8740 0.0562 -0.4826
vn -0.6287 -0.7768 0.0364
vn 0.2450 -0.8182 0.5202
vn -0.6251 -0.7764 -0.0799
vn 0.2120 -0.7998 -0.5617
vn -0.8873 -0.0060 0.4612
vn 0.8676 -0.0044 -0.4972
vn 0.5935 0.8018 0.0690
vn -0.2716 0.7911 0.5481
usemtl None
s 1
f 333/1/1 255/2/2 3/3/3 167/4/4
f 332/5/5 154/6/6 2/7/7 190/8/8
f 2/9/7 154/10/6 255/11/2
f 331/12/9 171/13/10 6/14/11 140/15/12
f 330/16/13 232/17/14 9/18/15 262/19/16
f 329/20/17 175/21/18 11/22/19 238/23/20
f 328/24/21 210/25/22 8/26/23 147/27/24
f 11/28/19 175/29/18 210/30/22
f 327/31/25 188/32/26 15/33/27 111/34/28
f 326/35/29 244/36/30 19/37/31 153/38/32
f 325/39/33 236/40/34 14/41/35 104/42/36
f 324/43/37 228/44/38 18/45/39 174/46/40
f 323/47/41 159/48/42 22/49/43 118/50/44
f 322/51/45 221/52/46 25/53/47 206/54/48
f 321/55/49 267/56/50 29/57/51 217/58/52
f 320/59/53 222/60/54 32/61/55 168/62/56
f 319/63/57 114/64/58 26/65/59 103/66/60
f 318/67/61 193/68/62 30/69/63 212/70/64
f 317/71/65 227/72/66 35/73/67 144/74/68
f 316/75/69 235/76/70 21/77/71 270/78/72
f 315/79/73 192/80/74 39/81/75 124/82/76
f 314/83/77 208/84/78 17/85/79 110/86/80
f 313/87/81 218/88/82 41/89/83 243/90/84
f 312/91/85 152/92/86 13/93/87 259/94/88
f 311/95/89 209/96/90 34/97/91 169/98/92
f 310/99/93 161/100/94 20/101/95 178/102/96
f 309/103/97 196/104/98 38/105/99 113/106/100
f 308/107/101 265/108/102 16/109/103 184/110/104
f 307/111/105 237/112/106 43/113/107 220/114/108
f 306/115/109 204/116/110 27/117/111 264/118/112
f 305/119/113 136/120/114 45/121/115 258/122/116
f 304/123/117 254/124/118 23/125/119 112/126/120
f 303/127/121 183/128/122 44/129/123 117/130/124
f 302/131/125 139/132/126 31/133/127 219/134/128
f 301/135/129 166/136/130 46/137/131 203/138/132
f 300/139/133 269/140/134 28/141/135 185/142/136
f 299/143/137 151/144/138 47/145/139 165/146/140
f 298/147/141 107/148/142 24/149/143 130/150/144
f 297/151/145 206/152/48 25/153/47 168/154/56
f 30/155/63 217/156/52 212/157/64
f 296/158/146 224/159/147 50/160/148 115/161/149
f 295/162/150 116/163/151 50/160/148 224/159/147
f 294/164/152 246/165/153 55/166/154 195/167/155
f 55/166/154 257/168/156 146/169/157
f 59/170/158 231/171/159 135/172/160
f 293/173/161 146/169/157 58/174/162 234/175/163
f 292/176/164 234/175/163 58/174/162 122/177/165
f 55/166/154 246/165/153 201/178/166
f 53/179/167 266/180/168 247/181/169
f 291/182/170 179/183/171 62/184/172 216/185/173
f 290/186/174 202/187/175 56/188/176 240/189/177
f 289/190/178 215/191/179 49/192/180 182/193/181
f 288/194/182 105/195/183 68/196/184 189/197/185
f 287/198/186 163/199/187 68/196/184 105/195/183
f 286/200/188 137/201/189 73/202/190 223/203/191
f 73/202/190 134/204/192 200/205/193
f 77/206/194 239/207/195 155/208/196
f 285/209/197 200/205/193 76/210/198 213/211/199
f 284/212/200 213/211/199 76/210/198 121/213/201
f 73/202/190 137/201/189 133/214/202
f 71/215/203 160/216/204 158/217/205
f 283/218/206 197/219/207 80/220/208 230/221/209
f 282/222/210 226/223/211 74/224/212 271/225/213
f 281/226/214 272/227/215 67/228/216 233/229/217
f 280/230/218 256/231/219 86/232/220 148/233/221
f 85/234/222 225/235/223 142/236/224
f 279/237/225 149/238/226 87/239/227 129/240/228
f 90/241/229 251/242/230 120/243/231
f 278/244/232 225/235/223 85/234/222 173/245/233
f 85/234/222 268/246/234 256/231/219
f 277/247/235 186/248/236 97/249/237 261/250/238
f 276/251/239 187/252/240 84/253/241 211/254/242
f 275/255/243 148/233/221 86/232/220 132/256/244
f 274/257/245 180/258/246 97/249/237 186/248/236
f 99/259/247 250/260/248 141/261/249
f 273/262/250 156/263/251 96/264/252 177/265/253
f 199/266/254 273/262/250 177/265/253 95/267/255
f 88/268/256 205/269/257 273/262/250 199/266/254
f 205/269/257 93/270/258 156/263/251 273/262/250
f 141/261/249 162/271/259 101/272/260
f 141/261/249 250/260/248 162/271/259
f 250/260/248 90/241/229 162/271/259
f 156/263/251 274/257/245 186/248/236 96/264/252
f 93/270/258 260/273/261 274/257/245 156/263/251
f 260/273/261 99/259/247 180/258/246 274/257/245
f 172/274/262 275/255/243 132/256/244 100/275/263
f 91/276/264 129/240/228 275/255/243 172/274/262
f 129/240/228 87/239/227 148/233/221 275/255/243
f 250/260/248 276/251/239 211/254/242 90/241/229
f 99/259/247 260/273/261 276/251/239 250/260/248
f 260/273/261 93/270/258 187/252/240 276/251/239
f 181/277/265 277/247/235 261/250/238 98/278/266
f 95/267/255 177/265/253 277/247/235 181/277/265
f 177/265/253 96/264/252 186/248/236 277/247/235
f 256/231/219 241/279/267 86/232/220
f 256/231/219 268/246/234 241/279/267
f 268/246/234 94/280/268 241/279/267
f 187/252/240 278/244/232 173/245/233 84/253/241
f 93/270/258 205/269/257 278/244/232 187/252/240
f 205/269/257 88/268/256 225/235/223 278/244/232
f 120/243/231 119/281/269 92/282/270
f 120/243/231 251/242/230 119/281/269
f 251/242/230 91/276/264 119/281/269
f 251/242/230 279/237/225 129/240/228 91/276/264
f 90/241/229 211/254/242 279/237/225 251/242/230
f 211/254/242 84/253/241 149/238/226 279/237/225
f 142/236/224 245/283/271 89/284/272
f 142/236/224 225/235/223 245/283/271
f 225/235/223 88/268/256 245/283/271
f 149/238/226 280/230/218 148/233/221 87/239/227
f 84/253/241 173/245/233 280/230/218 149/238/226
f 173/245/233 85/234/222 256/231/219 280/230/218
f 108/285/273 281/226/214 233/229/217 66/286/274
f 72/287/275 263/288/276 281/226/214 108/285/273
f 263/288/276 70/289/277 272/227/215 281/226/214
f 160/216/204 282/222/210 271/225/213 77/206/194
f 71/215/203 164/290/278 282/222/210 160/216/204
f 164/290/278 70/289/277 226/223/211 282/222/210
f 239/207/195 283/218/206 230/221/209 78/291/279
f 77/206/194 271/225/213 283/218/206 239/207/195
f 271/225/213 74/224/212 197/219/207 283/218/206
f 158/217/205 229/292/280 83/293/281
f 158/217/205 160/216/204 229/292/280
f 160/216/204 77/206/194 229/292/280
f 133/214/202 125/294/282 82/295/283
f 133/214/202 137/201/189 125/294/282
f 137/201/189 72/287/275 125/294/282
f 150/296/284 284/212/200 121/213/201 81/297/285
f 78/291/279 230/221/209 284/212/200 150/296/284
f 230/221/209 80/220/208 213/211/199 284/212/200
f 197/219/207 285/209/197 213/211/199 80/220/208
f 74/224/212 223/203/191 285/209/197 197/219/207
f 223/203/191 73/202/190 200/205/193 285/209/197
f 155/208/196 126/298/286 79/299/287
f 155/208/196 239/207/195 126/298/286
f 239/207/195 78/291/279 126/298/286
f 200/205/193 194/300/288 76/210/198
f 200/205/193 134/204/192 194/300/288
f 134/204/192 75/301/289 194/300/288
f 226/223/211 286/200/188 223/203/191 74/224/212
f 70/289/277 263/288/276 286/200/188 226/223/211
f 263/288/276 72/287/275 137/201/189 286/200/188
f 272/227/215 287/198/186 105/195/183 67/228/216
f 70/289/277 164/290/278 287/198/186 272/227/215
f 164/290/278 71/215/203 163/199/187 287/198/186
f 198/302/290 288/194/182 189/197/185 69/303/291
f 66/286/274 233/229/217 288/194/182 198/302/290
f 233/229/217 67/228/216 105/195/183 288/194/182
f 214/304/292 289/190/178 182/193/181 48/305/293
f 54/306/294 191/307/295 289/190/178 214/304/292
f 191/307/295 52/308/296 215/191/179 289/190/178
f 266/180/168 290/186/174 240/189/177 59/170/158
f 53/179/167 109/309/297 290/186/174 266/180/168
f 109/309/297 52/308/296 202/187/175 290/186/174
f 231/171/159 291/182/170 216/185/173 60/310/298
f 59/170/158 240/189/177 291/182/170 231/171/159
f 240/189/177 56/188/176 179/183/171 291/182/170
f 247/181/169 143/311/299 65/312/300
f 247/181/169 266/180/168 143/311/299
f 266/180/168 59/170/158 143/311/299
f 201/178/166 170/313/301 64/314/302
f 201/178/166 246/165/153 170/313/301
f 246/165/153 54/306/294 170/313/301
f 138/315/303 292/176/164 122/177/165 63/316/304
f 60/310/298 216/185/173 292/176/164 138/315/303
f 216/185/173 62/184/172 234/175/163 292/176/164
f 179/183/171 293/173/161 234/175/163 62/184/172
f 56/188/176 195/167/155 293/173/161 179/183/171
f 195/167/155 55/166/154 146/169/157 293/173/161
f 135/172/160 145/317/305 61/318/306
f 135/172/160 231/171/159 145/317/305
f 231/171/159 60/310/298 145/317/305
f 146/169/157 253/319/307 58/174/162
f 146/169/157 257/168/156 253/319/307
f 257/168/156 57/320/308 253/319/307
f 202/187/175 294/164/152 195/167/155 56/188/176
f 52/308/296 191/307/295 294/164/152 202/187/175
f 191/307/295 54/306/294 246/165/153 294/164/152
f 215/191/179 295/162/150 224/159/147 49/192/180
f 52/308/296 109/309/297 295/162/150 215/191/179
f 109/309/297 53/179/167 116/163/151 295/162/150
f 106/321/309 296/158/146 115/161/149 51/322/310
f 48/305/293 182/193/181 296/158/146 106/321/309
f 182/193/181 49/192/180 224/159/147 296/158/146
f 212/157/64 207/323/311 32/324/55
f 212/157/64 217/156/52 207/323/311
f 217/156/52 29/325/51 207/323/311
f 207/323/311 297/151/145 168/154/56 32/324/55
f 29/325/51 103/326/60 297/151/145 207/323/311
f 103/326/60 26/327/59 206/152/48 297/151/145
f 254/124/118 298/147/141 130/150/144 23/125/119
f 45/328/115 165/329/140 298/147/141 254/124/118
f 165/329/140 47/330/139 107/148/142 298/147/141
f 136/120/114 299/143/137 165/146/140 45/121/115
f 15/33/27 188/32/26 299/143/137 136/120/114
f 188/32/26 14/41/35 151/144/138 299/143/137
f 204/116/110 300/139/133 185/142/136 27/117/111
f 43/331/107 203/332/132 300/139/133 204/116/110
f 203/332/132 46/333/131 269/140/134 300/139/133
f 237/112/106 301/135/129 203/138/132 43/113/107
f 19/37/31 244/36/30 301/135/129 237/112/106
f 244/36/30 18/334/39 166/136/130 301/135/129
f 107/148/142 302/131/125 219/134/128 24/149/143
f 47/330/139 117/335/124 302/131/125 107/148/142
f 117/335/124 44/336/123 139/132/126 302/131/125
f 151/144/138 303/127/121 117/130/124 47/145/139
f 14/41/35 236/40/34 303/127/121 151/144/138
f 236/40/34 22/49/43 183/128/122 303/127/121
f 269/337/134 304/123/117 112/126/120 28/338/135
f 46/339/131 258/340/116 304/123/117 269/337/134
f 258/340/116 45/328/115 254/124/118 304/123/117
f 166/341/130 305/119/113 258/122/116 46/342/131
f 18/45/39 228/44/38 305/119/113 166/341/130
f 228/44/38 15/33/27 136/120/114 305/119/113
f 139/132/126 306/115/109 264/118/112 31/133/127
f 44/336/123 220/343/108 306/115/109 139/132/126
f 220/343/108 43/331/107 204/116/110 306/115/109
f 183/128/122 307/111/105 220/114/108 44/129/123
f 22/49/43 159/48/42 307/111/105 183/128/122
f 159/48/42 19/37/31 237/112/106 307/111/105
f 196/104/98 308/107/101 184/110/104 38/105/99
f 41/89/83 259/94/88 308/107/101 196/104/98
f 259/94/88 13/93/87 265/108/102 308/107/101
f 242/344/312 309/103/97 113/106/100 37/345/313
f 42/346/314 243/90/84 309/103/97 242/344/312
f 243/90/84 41/89/83 196/104/98 309/103/97
f 209/96/90 310/99/93 178/102/96 34/97/91
f 39/347/75 110/348/80 310/99/93 209/96/90
f 110/348/80 17/349/79 161/100/94 310/99/93
f 123/350/315 311/95/89 169/98/92 33/351/316
f 40/352/317 124/353/76 311/95/89 123/350/315
f 124/353/76 39/347/75 209/96/90 311/95/89
f 218/88/82 312/91/85 259/94/88 41/89/83
f 35/73/67 270/78/72 312/91/85 218/88/82
f 270/78/72 21/77/71 152/92/86 312/91/85
f 127/354/318 313/87/81 243/90/84 42/346/314
f 36/355/319 144/74/68 313/87/81 127/354/318
f 144/74/68 35/73/67 218/88/82 313/87/81
f 192/80/74 314/83/77 110/86/80 39/81/75
f 38/105/99 184/110/104 314/83/77 192/80/74
f 184/110/104 16/109/103 208/84/78 314/83/77
f 102/356/320 315/79/73 124/82/76 40/357/317
f 37/345/313 113/106/100 315/79/73 102/356/320
f 113/106/100 38/105/99 192/80/74 315/79/73
f 227/72/66 316/75/69 270/78/72 35/73/67
f 34/97/91 178/102/96 316/75/69 227/72/66
f 178/102/96 20/101/95 235/76/70 316/75/69
f 157/358/321 317/71/65 144/74/68 36/355/319
f 33/351/316 169/98/92 317/71/65 157/358/321
f 169/98/92 34/97/91 227/72/66 317/71/65
f 222/60/54 318/67/61 212/70/64 32/61/55
f 31/133/127 264/118/112 318/67/61 222/60/54
f 264/118/112 27/117/111 193/68/62 318/67/61
f 267/359/50 319/63/57 103/66/60 29/360/51
f 28/338/135 112/126/120 319/63/57 267/359/50
f 112/126/120 23/125/119 114/64/58 319/63/57
f 221/52/46 320/59/53 168/62/56 25/53/47
f 24/149/143 219/134/128 320/59/53 221/52/46
f 219/134/128 31/133/127 222/60/54 320/59/53
f 193/68/62 321/55/49 217/58/52 30/69/63
f 27/117/111 185/142/136 321/55/49 193/68/62
f 185/142/136 28/141/135 267/56/50 321/55/49
f 114/64/58 322/51/45 206/54/48 26/65/59
f 23/125/119 130/150/144 322/51/45 114/64/58
f 130/150/144 24/149/143 221/52/46 322/51/45
f 235/361/70 323/47/41 118/50/44 21/362/71
f 20/363/95 153/38/32 323/47/41 235/361/70
f 153/38/32 19/37/31 159/48/42 323/47/41
f 208/364/78 324/43/37 174/46/40 17/365/79
f 16/366/103 111/34/28 324/43/37 208/364/78
f 111/34/28 15/33/27 228/44/38 324/43/37
f 152/367/86 325/39/33 104/42/36 13/368/87
f 21/362/71 118/50/44 325/39/33 152/367/86
f 118/50/44 22/49/43 236/40/34 325/39/33
f 161/369/94 326/35/29 153/38/32 20/363/95
f 17/370/79 174/371/40 326/35/29 161/369/94
f 174/371/40 18/334/39 244/36/30 326/35/29
f 265/372/102 327/31/25 111/34/28 16/366/103
f 13/368/87 104/42/36 327/31/25 265/372/102
f 104/42/36 14/41/35 188/32/26 327/31/25
f 210/30/22 232/373/14 8/374/23
f 210/30/22 175/29/18 232/373/14
f 175/29/18 9/375/15 232/373/14
f 128/376/322 328/24/21 147/27/24 7/377/323
f 12/378/324 238/23/20 328/24/21 128/376/322
f 238/23/20 11/22/19 210/25/22 328/24/21
f 252/379/325 329/20/17 238/23/20 12/378/324
f 10/380/326 262/381/16 329/20/17 252/379/325
f 262/381/16 9/382/15 175/21/18 329/20/17
f 131/383/327 330/16/13 262/19/16 10/384/326
f 7/377/323 147/27/24 330/16/13 131/383/327
f 147/27/24 8/26/23 232/17/14 330/16/13
f 248/385/328 331/12/9 140/15/12 5/386/329
f 4/387/330 167/4/4 331/12/9 248/385/328
f 167/4/4 3/3/3 171/13/10 331/12/9
f 255/11/2 171/388/10 3/389/3
f 255/11/2 154/10/6 171/388/10
f 154/10/6 6/390/11 171/388/10
f 249/391/331 332/5/5 190/8/8 1/392/332
f 5/393/329 140/394/12 332/5/5 249/391/331
f 140/394/12 6/395/11 154/6/6 332/5/5
f 176/396/333 333/1/1 167/4/4 4/387/330
f 1/392/332 190/8/8 333/1/1 176/396/333
f 190/8/8 2/7/7 255/2/2 333/1/1
