# Blender v2.78 (sub 0) OBJ File: ''
# www.blender.org
mtllib Dead_Pine_Tree_crk_OneSided_l_02.mtl
o Dead_Pine_Tree_crk_OneSided_l_02
v -0.587675 3.862244 -0.255653
v -0.780993 3.787807 -0.208223
v -0.645100 3.865564 -0.064526
v -0.243446 4.045979 -0.051203
v -1.076410 3.641484 -0.294439
v -1.139410 3.608191 -0.065455
v -1.002494 3.600617 -0.518855
v -1.525894 3.324474 -0.794957
v -1.624892 3.378061 -0.454654
v -1.876828 3.061915 -0.947681
v -2.013476 3.120729 -0.733651
v -1.728994 3.331890 -0.114151
v -2.071174 3.047838 -0.416284
v -2.105262 3.064991 -0.170717
v -1.908896 3.231797 -0.537442
v -2.363960 2.911477 -0.668601
v -1.205922 3.371105 -0.839377
v -1.496911 3.382774 0.094440
v -0.386501 5.857117 0.347687
v -0.426387 5.775226 0.546551
v -0.237082 5.868008 0.488254
v -0.052930 6.070365 0.126705
v -0.631270 5.608469 0.777259
v -0.447217 5.583471 0.939819
v -0.801379 5.557972 0.605725
v -1.276792 5.238830 0.957706
v -1.012324 5.307326 1.205645
v -1.560775 4.947003 1.207505
v -1.430028 5.012848 1.432326
v -0.743606 5.273158 1.457021
v -1.159688 4.951933 1.629973
v -0.950404 4.980780 1.774180
v -1.208844 5.141273 1.427407
v -1.516843 4.786983 1.782257
v -1.174502 5.297473 0.643137
v -0.448931 5.345589 1.339469
v 0.546918 4.926392 -0.224443
v 0.643095 4.854247 -0.411274
v 0.440446 4.944940 -0.402943
v 0.155770 5.130205 -0.091923
v 0.910633 4.697965 -0.587093
v 0.777132 4.681269 -0.798653
v 1.029233 4.637579 -0.374654
v 1.597366 4.333690 -0.600407
v 1.407872 4.416392 -0.912941
v 1.949506 4.051692 -0.779073
v 1.884052 4.130602 -1.031555
v 1.216870 4.395146 -1.235377
v 1.676796 4.079291 -1.303484
v 1.512634 4.116178 -1.501456
v 1.664720 4.260323 -1.082360
v 2.070854 3.920741 -1.359894
v 1.408133 4.375860 -0.319607
v 0.895060 4.461832 -1.200040
v 0.109472 7.683595 0.481419
v 0.264520 7.603152 0.612308
v 0.304051 7.693681 0.417669
v 0.075582 7.892228 0.081375
v 0.368499 7.439734 0.903815
v 0.598881 7.413780 0.820625
v 0.136883 7.390184 0.971290
v 0.217610 7.077817 1.559312
v 0.561282 7.144777 1.445549
v 0.300408 6.790433 1.930531
v 0.559881 6.855909 1.922850
v 0.909936 7.109269 1.330781
v 0.862238 6.793456 1.781249
v 1.088642 6.820909 1.666622
v 0.661427 6.981939 1.725445
v 0.824710 6.632928 2.168589
v -0.008946 7.133950 1.318681
v 0.947948 7.178226 1.015736
v 0.269740 9.266603 -0.492538
v 0.225215 9.186884 -0.688628
v 0.077763 9.276599 -0.558252
v 0.057761 9.473359 -0.155848
v 0.316962 9.024937 -0.981295
v 0.085058 8.999215 -1.053003
v 0.540463 8.975834 -0.896420
v 0.827595 8.666279 -1.409770
v 0.487823 8.732635 -1.524915
v 0.983678 8.381480 -1.752851
v 0.773833 8.446367 -1.901655
v 0.143509 8.697447 -1.642239
v 0.450127 8.384475 -1.970118
v 0.202604 8.411682 -2.014583
v 0.575672 8.571263 -1.806108
v 0.711020 8.225394 -2.254128
v 0.863182 8.721906 -1.084183
v -0.074613 8.765782 -1.415709
v -0.000953 6.919351 -0.497866
v -0.173102 6.801075 -0.612885
v -0.207705 6.924738 -0.411978
v 0.050897 7.206755 -0.099115
v -0.295933 6.573245 -0.894279
v -0.536705 6.539864 -0.778887
v -0.045773 6.527557 -0.982108
v -0.155036 6.096574 -1.564474
v -0.524490 6.159314 -1.418502
v -0.250534 5.724689 -1.916279
v -0.537382 5.776517 -1.892572
v -0.890139 6.111210 -1.256416
v -0.848117 5.706890 -1.702117
v -1.086684 5.736149 -1.560774
v -0.642234 5.934135 -1.687816
v -0.825659 5.478812 -2.100799
v 0.106133 6.210464 -1.334410
v -0.911044 6.229636 -0.922680
v 0.063107 7.068346 0.031447
v 0.429727 7.303935 0.598399
v 0.449798 7.293362 0.591628
v 0.105241 7.041705 0.010845
v 0.072037 7.017149 0.045533
v 0.436704 7.284412 0.609177
v -0.075678 8.799688 -0.064688
v -0.420783 8.821665 -0.426457
v -0.404465 8.805714 -0.449333
v -0.045981 8.772203 -0.101634
v -0.399710 8.837241 -0.445382
v -0.041834 8.826707 -0.098260
v -0.048552 4.382080 0.113854
v -0.415128 4.508028 0.377179
v -0.446305 4.489291 0.353742
v -0.098444 4.336279 0.051559
v -0.430364 4.526765 0.341274
v -0.096993 4.427882 0.050424
v -0.786344 4.663175 0.657166
v -0.804425 4.653066 0.644761
v -0.794028 4.673285 0.636629
v 0.072205 5.188159 0.137219
v 0.336708 5.368212 0.522028
v 0.319335 5.355253 0.545993
v 0.041192 5.164908 0.175948
v 0.310245 5.383193 0.532991
v 0.028793 5.214888 0.157308
v -0.087232 6.018678 -0.059035
v -0.588744 6.312671 -0.484960
v -0.583687 6.302734 -0.505822
v -0.071112 5.991472 -0.102723
v -0.571441 6.321288 -0.498630
v -0.052735 6.041288 -0.093793
v 0.188931 6.633910 -0.116333
v 0.127925 9.747933 -0.100614
v 0.129411 9.686941 0.041038
v 0.157453 6.591879 0.097729
v 0.003906 6.592002 0.138492
v -0.004548 9.687484 0.076903
v -0.072801 9.742212 -0.046901
v -0.103191 6.547194 -0.039169
v 0.034323 6.622106 -0.201205
v 0.008405 9.690222 -0.154762
v -0.261927 0.228861 -0.016435
v -0.195196 3.263823 0.029159
v -0.021876 3.209810 -0.188040
v -0.053542 0.223032 -0.274969
v 0.256957 0.227534 0.172820
v 0.199065 3.257286 0.197309
v -0.076829 3.258415 0.271291
v -0.077117 0.227702 0.264338
v 0.213376 3.285265 -0.080073
v 0.250700 0.230265 -0.153461
v -0.737157 5.822453 -1.698454
v 0.445448 7.302346 0.621953
v -0.874511 5.097480 1.650772
v -1.043098 5.400002 0.762669
v -0.589728 6.037360 -1.567896
v 0.464990 7.292103 1.174961
v 1.674784 4.171074 -1.185722
v 0.248011 9.227440 -0.589684
v 0.604858 4.821874 -0.583751
v 0.233438 1.626327 0.190023
v 0.667889 8.513737 -1.857462
v -0.057683 6.567060 0.055328
v 0.200704 9.020487 -1.008846
v 0.143102 8.256198 0.066939
v -0.421577 8.829535 -0.447708
v 0.520389 8.479427 -1.885374
v 0.025491 9.920107 -0.077474
v 0.293509 8.529125 -1.827085
v 0.838066 4.697900 -0.686162
v 0.278993 0.228899 0.010821
v 0.536537 8.645763 -1.680446
v 0.837050 6.695867 2.006614
v -0.821994 5.457743 0.991673
v -0.091697 8.230337 -0.043423
v -0.069907 6.033627 -0.073966
v 0.386617 6.955947 1.763056
v -0.036055 4.923364 0.206615
v 0.925037 7.168368 1.126070
v 1.016922 6.936082 1.539920
v -0.235814 1.632101 0.007716
v -0.337718 6.137051 -1.490665
v 0.008142 4.913388 -0.193124
v 0.718168 6.732229 2.068718
v 0.402822 6.829613 1.915419
v 0.085721 7.806577 0.248994
v -0.311175 6.182392 -0.296570
v -1.429528 3.473969 -0.072369
v -2.076177 3.063310 -0.267521
v 0.658385 8.707372 -1.464319
v 0.594821 4.890980 -0.316766
v -0.614497 4.590581 0.527313
v 0.921698 8.497860 -1.624559
v 0.181471 6.612811 -0.007951
v -0.439683 4.508028 0.345784
v -1.099493 3.632833 -0.179591
v -0.330739 5.822406 0.517407
v -0.338796 6.165740 -0.270746
v -0.624820 4.604162 0.499725
v -0.877762 3.745975 -0.072579
v -0.190921 6.863839 -0.511550
v 0.009369 8.756014 -1.489314
v 0.031549 5.190059 0.169348
v 0.278721 7.167492 0.300355
v 0.391088 9.131551 -0.687478
v 0.266583 9.113619 -0.820626
v 1.260867 4.481499 -0.348938
v 0.085336 7.058607 0.018887
v 0.055516 7.236997 1.185416
v -0.801529 4.672590 0.655547
v -1.498671 4.986484 1.290500
v -0.430859 4.497072 0.366961
v 1.763075 4.221313 -0.819273
v -1.373655 5.114669 1.203648
v -0.683449 3.825705 -0.232464
v -0.981966 5.733420 -1.604275
v 0.183711 8.525819 -1.871542
v 1.159509 4.557033 -0.750185
v 0.116660 6.632098 -0.169460
v 0.604574 8.287766 -2.133361
v 0.424758 9.008821 -0.932152
v -1.781909 3.299505 -0.500465
v 0.062710 9.745436 0.060365
v 1.566561 4.106783 -1.411046
v -1.964307 3.180895 -0.628473
v 0.133428 9.746583 -0.027885
v 0.220869 3.273925 0.059551
v -0.809913 4.667902 0.649794
v 1.911592 4.096196 -0.875386
v 0.059268 5.172974 0.156503
v 0.272358 6.907870 1.789520
v -0.041933 9.743927 0.019056
v 0.735687 8.323801 -2.111528
v -1.920848 3.178717 -0.261714
v 0.313832 8.722694 -1.580851
v 0.174401 7.811174 0.219939
v -0.220065 8.833399 -0.272322
v 0.179966 5.258816 0.362015
v 0.540788 4.900393 -0.407353
v -0.059955 8.816994 -0.079623
v -0.725550 6.332054 -1.002160
v 0.158647 7.235551 1.259690
v 1.401967 4.227707 -1.396482
v -1.987562 3.141593 -0.484243
v -0.577486 5.433435 1.202157
v -0.343095 5.735284 0.697327
v -0.085997 6.861106 -0.555136
v 0.735429 7.134746 1.384855
v 0.311426 7.529222 0.743776
v 0.815515 8.545506 -1.671825
v 0.130210 7.547317 0.712199
v -0.147412 4.902385 -0.003511
v -0.029185 9.779984 -0.105081
v -0.638786 4.577001 0.510649
v -0.356066 6.744754 -0.590378
v 1.994644 4.014905 -1.227095
v -0.535584 5.604544 0.851054
v -1.032474 3.628958 -0.402653
v 0.176894 4.922471 0.149805
v 1.009805 4.452545 -1.202169
v -0.596761 6.326033 -0.505588
v -0.004743 8.859613 -1.275604
v -0.787403 3.740750 -0.373324
v -1.317241 3.367182 -0.815266
v 0.022375 8.275459 -0.179530
v 0.324312 5.375042 0.551303
v -0.406567 5.816878 0.446071
v -1.358992 3.473798 0.024796
v -1.572206 3.358973 -0.625242
v -0.411286 6.567109 -0.830829
v -0.102324 4.382081 0.045104
v -1.202912 5.290150 0.756712
v -0.177034 0.225946 -0.161537
v -0.249349 8.810686 -0.244329
v -0.191018 0.228282 0.137771
v -0.071196 4.352705 0.085650
v 0.062298 9.393034 -0.324446
v 0.855894 4.550117 -1.039357
v -0.914238 3.721592 -0.247106
v 0.038188 6.336579 -1.199124
v 0.149792 9.388477 -0.294497
v 0.806512 7.272910 0.945349
v 1.814942 4.167384 -0.714163
v -0.806349 4.663214 0.659318
v 0.454538 7.297640 0.619006
v -1.572399 3.379014 0.014336
v -0.259588 4.404993 0.190823
v -0.363925 5.761342 -1.895782
v -0.344775 5.921654 -1.750884
v 0.251801 7.423471 0.929749
v 1.311833 4.486222 -0.467755
v 0.695393 8.822592 -1.137553
v -1.960714 3.171964 -0.152537
v 0.097728 0.227618 0.242408
v 0.001588 8.256602 0.104648
v -1.026084 4.975264 1.702984
v 0.106402 0.226649 -0.237171
v -0.081625 6.001650 -0.079643
v -1.481120 4.887475 1.641037
v 1.309078 4.413556 -1.072859
v -1.369061 4.851760 1.715608
v -2.221862 3.004938 -0.693803
v -0.081049 1.626815 0.275434
v -1.673969 3.362324 -0.282377
v 0.387064 7.119283 1.500406
v -0.040684 1.597983 -0.235719
v -1.745168 3.169634 -0.886604
v 0.336524 5.368169 0.546283
v -0.556876 5.334538 1.372260
v -2.239782 2.964484 -0.565941
v -0.059546 6.016161 -0.101943
v -0.414101 8.822199 -0.458275
v -0.030735 6.736277 -0.725524
v 0.990090 6.815800 1.698911
v 0.320550 5.046407 -0.143330
v -0.423840 8.815038 -0.449589
v 1.771372 4.200861 -1.064069
v 0.732642 8.824024 -1.017239
v -0.228491 6.698075 -0.739759
v 0.893641 8.420308 -1.802027
v 0.272025 5.054860 -0.224682
v -0.709969 5.591832 0.686999
v -0.894577 6.204329 -1.042505
v -0.710455 5.609087 -2.017303
v -0.518780 5.699789 0.650608
v 0.164056 8.278889 -0.111330
v -0.831038 5.569923 -1.933806
v -0.578211 5.718146 0.476140
v -0.421256 4.518984 0.359450
v 1.550020 4.332511 -1.006444
v 0.616573 7.057116 1.600438
v -0.327504 6.145936 -0.305166
v 0.091016 7.025751 0.027850
v -0.169989 6.560821 -0.931067
v -1.249295 3.464096 -0.668554
v -0.041885 6.582817 -0.127594
v 0.168507 5.300365 0.345143
v -1.121159 5.217891 1.328263
v -0.411530 3.972294 -0.052925
v -0.385359 3.970781 -0.140032
v 0.051373 5.204922 0.144624
v 0.245552 7.187336 0.314951
v -1.008435 5.884870 -1.447266
v -0.410330 6.366066 -1.156661
v 1.467913 4.374671 -0.422668
v 0.100936 3.246376 -0.148035
v 0.402481 8.878635 -1.253385
v 0.076936 7.127422 1.397953
v 0.186020 7.644076 0.546463
v -0.707529 6.144105 -1.335002
v -0.455853 5.441123 1.181697
v -1.314650 5.082055 1.436048
v -1.143998 5.281101 1.078644
v -0.148869 3.263368 0.158520
v 1.906836 3.982621 -1.333190
v -0.957193 5.100430 1.564085
v 1.501089 4.383012 -0.753459
v 0.236012 1.641016 -0.118412
v 0.150585 9.232512 -0.623032
v -1.190041 5.048149 1.523054
v 0.962327 4.676253 -0.477836
v 0.061877 9.782272 -0.129452
v 0.478890 7.435244 0.855346
v 0.082858 6.592304 0.129191
v -0.040968 8.799435 -0.103208
v 0.436385 7.563188 0.611885
v 0.205766 5.278124 0.328585
v 0.299840 8.406619 -1.981300
v 0.063922 3.256391 0.249025
v -0.062571 8.782170 -0.081750
v -0.218688 5.874619 -1.783493
v -0.079880 6.316008 -1.269228
v 0.096575 8.853243 -1.343646
v 0.772394 4.792689 -0.302874
v -1.920724 3.097501 -0.855915
v 0.033423 7.088552 -0.266829
v 0.754135 6.889269 1.755693
v 1.458232 4.226063 -1.288563
v -1.786351 3.213107 -0.778695
v 0.618359 6.923891 1.822860
v 0.763752 4.783531 -0.490591
v -0.118319 3.234539 -0.089414
v -0.224812 8.787525 -0.276227
v 0.766257 7.266481 1.061738
v 0.201265 4.959850 -0.096239
v -0.760029 6.353225 -0.873663
v -1.350934 3.509637 -0.374629
v -0.126565 5.987745 0.279797
v 0.842561 8.715436 -1.198155
v -1.132492 3.463623 -0.709423
v -0.070470 4.411454 0.085083
v 0.064033 7.042842 0.041087
v 0.901459 6.939419 1.570844
v -0.194663 5.982780 0.215733
v -0.594573 6.321651 -0.515037
v 0.254034 7.149626 0.328209
v 0.089006 9.147280 -0.790880
v 0.451271 7.306292 0.613965
v -0.602444 6.317833 -0.508960
v 0.332282 5.380984 0.540233
v -0.060805 7.091006 -0.227686
v -1.027320 5.402171 0.636299
v -0.598507 5.860285 -1.788777
v 0.980475 4.543584 -1.025438
v -0.875214 5.298016 1.329620
v -0.216687 4.439455 0.236676
v -0.712591 3.827390 -0.135469
v 0.284766 7.649195 0.514111
v -0.885997 5.892765 -1.492105
v -1.451347 5.066147 1.115646
v -0.250855 4.473918 0.183993
v 0.006821 6.184993 -1.410828
v 0.044706 9.920107 -0.005766
v 0.200543 4.942443 0.027925
v 0.251486 1.634996 0.036700
v -0.102182 4.912730 0.108532
v -0.172921 1.630583 0.150905
v 0.109813 4.938084 -0.157016
v 0.103191 1.618918 -0.192663
v 0.072911 4.922369 0.191113
v 0.080525 1.625841 0.249027
v -0.078252 4.905831 -0.107008
v -0.150378 1.613903 -0.124926
v -0.041356 8.251982 -0.117585
v 0.074424 8.256582 0.095025
v 0.097102 8.279219 -0.154343
v -0.052280 8.242201 0.035527
v 0.161535 8.267501 -0.021320
v -0.324829 6.175818 -0.282318
v -0.318127 6.164065 -0.302745
v -0.334520 6.154183 -0.287419
v 0.187583 5.291141 0.335297
v 0.172272 5.279682 0.355136
v 0.194384 5.266483 0.345310
v -0.618466 4.598641 0.513698
v -0.632881 4.590581 0.503808
v -0.626755 4.582521 0.520181
v -0.232163 4.459908 0.211551
v -0.257623 4.439456 0.184338
v -0.237345 4.419003 0.215604
v -0.235324 8.824194 -0.257210
v -0.220762 8.810448 -0.276140
v -0.238141 8.796968 -0.259527
v 0.267675 7.156766 0.314240
v 0.247990 7.168543 0.322902
v 0.262641 7.179146 0.306372
v -0.124236 6.716116 -0.736920
v -0.564579 6.356360 -1.081746
v -0.731503 5.977696 -1.521510
v -0.723960 5.705394 -1.870198
v -0.465957 5.995371 -1.651242
v -0.249015 6.348137 -1.212835
v -0.299145 6.720674 -0.664260
v -0.071023 6.985947 -0.378756
v 0.335083 9.121742 -0.753834
v 0.253042 8.872511 -1.297061
v 0.413918 8.597297 -1.742555
v 0.635603 8.393777 -2.008191
v 0.671620 8.608799 -1.667744
v 0.546055 8.857254 -1.196763
v 0.172673 9.130198 -0.809427
v 0.148905 9.317434 -0.445836
v 0.215653 7.537418 0.731609
v 0.611909 7.285923 1.119313
v 0.753093 7.008209 1.575939
v 0.735978 6.802842 1.924649
v 0.500044 7.019816 1.672309
v 0.314925 7.270528 1.216616
v 0.380264 7.545951 0.677676
v 0.178419 7.734887 0.370357
v 0.772819 4.787057 -0.392450
v 1.071733 4.556887 -0.884003
v 1.495741 4.288948 -1.138981
v 1.847161 4.085149 -1.209384
v 1.647438 4.290185 -0.908563
v 1.234240 4.528578 -0.611558
v 0.682746 4.802748 -0.543459
v 0.421017 4.980003 -0.265743
v -0.554153 5.708074 0.560567
v -0.702434 5.452222 1.094140
v -1.033582 5.169222 1.436350
v -1.346533 4.959756 1.587833
v -1.239978 5.179689 1.260119
v -0.930494 5.435596 0.879593
v -0.427746 5.717288 0.679485
v -0.256199 5.909723 0.355223
v -0.850853 3.730611 -0.316386
v -1.388725 3.498361 -0.226718
v -1.840035 3.248402 -0.379994
v -2.114778 3.066193 -0.596422
v -1.775334 3.268784 -0.635003
v -1.301079 3.493293 -0.518435
v -0.899433 3.733420 -0.154696
v -0.536028 3.905459 -0.136667
vt 0.6872 0.3490
vt 0.6893 0.3418
vt 0.6914 0.3459
vt 0.6893 0.3562
vt 0.6905 0.3336
vt 0.6939 0.3356
vt 0.6812 0.3121
vt 0.6751 0.3121
vt 0.6723 0.2989
vt 0.6797 0.2989
vt 0.6710 0.2888
vt 0.6768 0.2888
vt 0.7021 0.2989
vt 0.6975 0.2888
vt 0.7033 0.2888
vt 0.6820 0.2909
vt 0.6814 0.2787
vt 0.6843 0.2828
vt 0.6872 0.2763
vt 0.6843 0.2696
vt 0.6691 0.3043
vt 0.6963 0.3253
vt 0.6992 0.3121
vt 0.7024 0.3172
vt 0.6924 0.2909
vt 0.6872 0.2930
vt 0.6872 0.2870
vt 0.6901 0.2828
vt 0.6932 0.3121
vt 0.6872 0.3121
vt 0.6872 0.2989
vt 0.6946 0.2989
vt 0.6839 0.3336
vt 0.6872 0.3315
vt 0.6872 0.3377
vt 0.6851 0.3418
vt 0.9351 0.3490
vt 0.9372 0.3418
vt 0.9393 0.3459
vt 0.9372 0.3562
vt 0.9384 0.3336
vt 0.9418 0.3356
vt 0.9291 0.3121
vt 0.9232 0.3121
vt 0.9203 0.2989
vt 0.9277 0.2989
vt 0.9190 0.2888
vt 0.9248 0.2888
vt 0.9500 0.2989
vt 0.9455 0.2888
vt 0.9513 0.2888
vt 0.9299 0.2909
vt 0.9293 0.2787
vt 0.9322 0.2828
vt 0.9351 0.2763
vt 0.9322 0.2696
vt 0.9171 0.3043
vt 0.9443 0.3253
vt 0.9471 0.3121
vt 0.9503 0.3172
vt 0.9403 0.2909
vt 0.9351 0.2930
vt 0.9351 0.2870
vt 0.9381 0.2828
vt 0.9411 0.3121
vt 0.9351 0.3121
vt 0.9351 0.2989
vt 0.9426 0.2989
vt 0.9318 0.3336
vt 0.9351 0.3315
vt 0.9351 0.3377
vt 0.9331 0.3418
vt 0.9351 0.3490
vt 0.9372 0.3418
vt 0.9393 0.3459
vt 0.9372 0.3562
vt 0.9384 0.3336
vt 0.9418 0.3356
vt 0.9291 0.3121
vt 0.9232 0.3121
vt 0.9203 0.2989
vt 0.9277 0.2989
vt 0.9190 0.2888
vt 0.9248 0.2888
vt 0.9500 0.2989
vt 0.9455 0.2888
vt 0.9513 0.2888
vt 0.9299 0.2909
vt 0.9293 0.2787
vt 0.9322 0.2828
vt 0.9351 0.2763
vt 0.9322 0.2696
vt 0.9171 0.3043
vt 0.9443 0.3253
vt 0.9471 0.3121
vt 0.9503 0.3172
vt 0.9403 0.2909
vt 0.9351 0.2930
vt 0.9351 0.2870
vt 0.9381 0.2828
vt 0.9411 0.3121
vt 0.9351 0.3121
vt 0.9351 0.2989
vt 0.9426 0.2989
vt 0.9318 0.3336
vt 0.9351 0.3315
vt 0.9351 0.3377
vt 0.9331 0.3418
vt 0.8144 0.3490
vt 0.8165 0.3418
vt 0.8186 0.3459
vt 0.8165 0.3562
vt 0.8177 0.3336
vt 0.8210 0.3356
vt 0.8084 0.3121
vt 0.8023 0.3121
vt 0.7995 0.2989
vt 0.8069 0.2989
vt 0.7982 0.2888
vt 0.8040 0.2888
vt 0.8293 0.2989
vt 0.8248 0.2888
vt 0.8305 0.2888
vt 0.8092 0.2909
vt 0.8086 0.2787
vt 0.8115 0.2828
vt 0.8144 0.2763
vt 0.8115 0.2696
vt 0.7964 0.3043
vt 0.8235 0.3253
vt 0.8264 0.3121
vt 0.8296 0.3172
vt 0.8196 0.2909
vt 0.8144 0.2930
vt 0.8144 0.2870
vt 0.8173 0.2828
vt 0.8204 0.3121
vt 0.8144 0.3121
vt 0.8144 0.2989
vt 0.8219 0.2989
vt 0.8110 0.3336
vt 0.8144 0.3315
vt 0.8144 0.3377
vt 0.8123 0.3418
vt 0.8144 0.3490
vt 0.8165 0.3418
vt 0.8186 0.3459
vt 0.8165 0.3562
vt 0.8177 0.3336
vt 0.8210 0.3356
vt 0.8084 0.3121
vt 0.8023 0.3121
vt 0.7995 0.2989
vt 0.8069 0.2989
vt 0.7982 0.2888
vt 0.8040 0.2888
vt 0.8293 0.2989
vt 0.8248 0.2888
vt 0.8305 0.2888
vt 0.8092 0.2909
vt 0.8086 0.2787
vt 0.8115 0.2828
vt 0.8144 0.2763
vt 0.8115 0.2696
vt 0.7964 0.3043
vt 0.8235 0.3253
vt 0.8264 0.3121
vt 0.8296 0.3172
vt 0.8196 0.2909
vt 0.8144 0.2930
vt 0.8144 0.2870
vt 0.8173 0.2828
vt 0.8204 0.3121
vt 0.8144 0.3121
vt 0.8144 0.2989
vt 0.8219 0.2989
vt 0.8110 0.3336
vt 0.8144 0.3315
vt 0.8144 0.3377
vt 0.8123 0.3418
vt 0.9351 0.3490
vt 0.9372 0.3418
vt 0.9393 0.3459
vt 0.9372 0.3562
vt 0.9384 0.3336
vt 0.9418 0.3356
vt 0.9291 0.3121
vt 0.9232 0.3121
vt 0.9203 0.2989
vt 0.9277 0.2989
vt 0.9190 0.2888
vt 0.9248 0.2888
vt 0.9500 0.2989
vt 0.9455 0.2888
vt 0.9513 0.2888
vt 0.9299 0.2909
vt 0.9293 0.2787
vt 0.9322 0.2828
vt 0.9351 0.2763
vt 0.9322 0.2696
vt 0.9171 0.3043
vt 0.9443 0.3253
vt 0.9471 0.3121
vt 0.9503 0.3172
vt 0.9403 0.2909
vt 0.9351 0.2930
vt 0.9351 0.2870
vt 0.9381 0.2828
vt 0.9411 0.3121
vt 0.9351 0.3121
vt 0.9351 0.2989
vt 0.9426 0.2989
vt 0.9318 0.3336
vt 0.9351 0.3315
vt 0.9351 0.3377
vt 0.9331 0.3418
vt 0.8326 0.9179
vt 0.8266 0.9179
vt 0.8266 0.9177
vt 0.8326 0.9175
vt 0.8325 0.9186
vt 0.8266 0.9182
vt 0.8266 0.9181
vt 0.8326 0.9182
vt 0.8265 0.9347
vt 0.8266 0.9346
vt 0.8267 0.9347
vt 0.8325 0.9172
vt 0.8266 0.9175
vt 0.8265 0.9174
vt 0.8325 0.9169
vt 0.8307 0.9218
vt 0.8349 0.9216
vt 0.8349 0.9218
vt 0.8307 0.9222
vt 0.8307 0.9202
vt 0.8349 0.9205
vt 0.8348 0.9208
vt 0.8306 0.9207
vt 0.8306 0.9210
vt 0.8348 0.9210
vt 0.8348 0.9213
vt 0.8306 0.9214
vt 0.8265 0.9325
vt 0.8267 0.9323
vt 0.8268 0.9325
vt 0.8302 0.9087
vt 0.8339 0.9082
vt 0.8339 0.9085
vt 0.8302 0.9093
vt 0.8302 0.9062
vt 0.8338 0.9068
vt 0.8337 0.9071
vt 0.8302 0.9068
vt 0.8302 0.9074
vt 0.8338 0.9075
vt 0.8338 0.9078
vt 0.8302 0.9081
vt 0.8375 0.9080
vt 0.8413 0.9079
vt 0.8413 0.9081
vt 0.8376 0.9083
vt 0.8375 0.9069
vt 0.8412 0.9071
vt 0.8411 0.9073
vt 0.8374 0.9072
vt 0.8374 0.9075
vt 0.8411 0.9075
vt 0.8412 0.9077
vt 0.8375 0.9078
vt 0.8269 0.9338
vt 0.8267 0.9339
vt 0.8267 0.9337
vt 0.8307 0.9234
vt 0.8266 0.9236
vt 0.8265 0.9233
vt 0.8306 0.9230
vt 0.8307 0.9249
vt 0.8266 0.9246
vt 0.8266 0.9244
vt 0.8307 0.9245
vt 0.8307 0.9241
vt 0.8266 0.9241
vt 0.8266 0.9239
vt 0.8307 0.9238
vt 0.8265 0.9330
vt 0.8265 0.9327
vt 0.8268 0.9329
vt 0.8325 0.9124
vt 0.8385 0.9121
vt 0.8386 0.9122
vt 0.8326 0.9127
vt 0.8325 0.9109
vt 0.8385 0.9113
vt 0.8384 0.9115
vt 0.8325 0.9113
vt 0.8325 0.9117
vt 0.8385 0.9117
vt 0.8385 0.9119
vt 0.8325 0.9121
vt 0.8265 0.9344
vt 0.8266 0.9342
vt 0.8267 0.9344
vt 0.8189 0.9163
vt 0.8195 0.9409
vt 0.8183 0.9409
vt 0.8175 0.9161
vt 0.8272 0.9160
vt 0.8263 0.9410
vt 0.8252 0.9410
vt 0.8258 0.9158
vt 0.8216 0.9164
vt 0.8217 0.9409
vt 0.8206 0.9409
vt 0.8203 0.9165
vt 0.8163 0.9162
vt 0.8171 0.9410
vt 0.8160 0.9410
vt 0.8152 0.9162
vt 0.8243 0.9161
vt 0.8241 0.9410
vt 0.8229 0.9409
vt 0.8229 0.9164
vt 0.8043 0.9149
vt 0.8027 0.9390
vt 0.8005 0.9382
vt 0.8018 0.9144
vt 0.8011 0.9639
vt 0.7994 0.9889
vt 0.7977 0.9896
vt 0.7991 0.9639
vt 0.7894 0.9148
vt 0.7895 0.9390
vt 0.7871 0.9390
vt 0.7867 0.9148
vt 0.7899 0.9638
vt 0.7903 0.9887
vt 0.7891 0.9888
vt 0.7881 0.9639
vt 0.7994 0.9147
vt 0.7984 0.9389
vt 0.7963 0.9396
vt 0.7970 0.9151
vt 0.7973 0.9642
vt 0.7963 0.9896
vt 0.7949 0.9896
vt 0.7956 0.9646
vt 0.8092 0.9155
vt 0.8070 0.9398
vt 0.8049 0.9397
vt 0.8067 0.9153
vt 0.8049 0.9643
vt 0.8028 0.9888
vt 0.8012 0.9882
vt 0.8030 0.9640
vt 0.7945 0.9149
vt 0.7941 0.9392
vt 0.7919 0.9389
vt 0.7921 0.9147
vt 0.7937 0.9642
vt 0.7932 0.9891
vt 0.7915 0.9887
vt 0.7917 0.9638
vt 0.8169 0.8054
vt 0.8130 0.8000
vt 0.8186 0.7959
vt 0.8243 0.8000
vt 0.8256 0.8174
vt 0.8187 0.8174
vt 0.8278 0.8108
vt 0.8209 0.8108
vt 0.8300 0.8041
vt 0.8117 0.8174
vt 0.8095 0.8108
vt 0.8073 0.8041
vt 0.7950 0.8905
vt 0.7922 0.8905
vt 0.7977 0.8905
vt 0.8092 0.9398
vt 0.8068 0.9646
vt 0.8044 0.9894
vt 0.8114 0.8913
vt 0.8086 0.8910
vt 0.8142 0.8916
vt 0.8117 0.9157
vt 0.8004 0.8906
vt 0.8031 0.8906
vt 0.7893 0.8906
vt 0.7863 0.8906
vt 0.8059 0.8908
vt 0.8246 0.8912
vt 0.8229 0.8919
vt 0.8264 0.8905
vt 0.8155 0.8914
vt 0.8143 0.8915
vt 0.8166 0.8913
vt 0.8215 0.8920
vt 0.8201 0.8920
vt 0.8281 0.8910
vt 0.8298 0.8915
vt 0.8286 0.9162
vt 0.8275 0.9410
vt 0.8184 0.8917
vt 0.8268 0.9342
vt 0.8269 0.9344
vt 0.8267 0.9341
vt 0.8266 0.9116
vt 0.8265 0.9122
vt 0.8266 0.9111
vt 0.8266 0.9106
vt 0.8266 0.9101
vt 0.8326 0.9106
vt 0.8386 0.9111
vt 0.8266 0.9127
vt 0.8266 0.9132
vt 0.8268 0.9326
vt 0.8270 0.9328
vt 0.8265 0.9325
vt 0.8349 0.9241
vt 0.8349 0.9236
vt 0.8349 0.9247
vt 0.8349 0.9252
vt 0.8348 0.9257
vt 0.8306 0.9253
vt 0.8265 0.9249
vt 0.8349 0.9231
vt 0.8348 0.9226
vt 0.8265 0.9338
vt 0.8265 0.9336
vt 0.8265 0.9340
vt 0.8339 0.9065
vt 0.8376 0.9067
vt 0.8413 0.9069
vt 0.8266 0.9074
vt 0.8265 0.9083
vt 0.8267 0.9066
vt 0.8266 0.9057
vt 0.8265 0.9048
vt 0.8302 0.9057
vt 0.8265 0.9092
vt 0.8265 0.9101
vt 0.8269 0.9323
vt 0.8270 0.9325
vt 0.8268 0.9320
vt 0.8265 0.9210
vt 0.8265 0.9215
vt 0.8265 0.9205
vt 0.8266 0.9200
vt 0.8266 0.9195
vt 0.8307 0.9198
vt 0.8349 0.9202
vt 0.8266 0.9220
vt 0.8266 0.9226
vt 0.8385 0.9169
vt 0.8385 0.9164
vt 0.8386 0.9174
vt 0.8268 0.9346
vt 0.8269 0.9347
vt 0.8267 0.9344
vt 0.8385 0.9189
vt 0.8385 0.9184
vt 0.8385 0.9195
vt 0.8325 0.9189
vt 0.8265 0.9184
vt 0.8385 0.9179
vt 0.9285 0.3356
vt 0.9310 0.3459
vt 0.9260 0.3253
vt 0.9305 0.3253
vt 0.9351 0.3253
vt 0.9397 0.3253
vt 0.9410 0.2787
vt 0.9532 0.3040
vt 0.9564 0.3091
vt 0.9200 0.3174
vt 0.9139 0.3096
vt 0.9381 0.2696
vt 0.9351 0.2606
vt 0.9468 0.2787
vt 0.9526 0.2787
vt 0.9235 0.2787
vt 0.9177 0.2787
vt 0.9331 0.3562
vt 0.9351 0.3666
vt 0.8077 0.3356
vt 0.8102 0.3459
vt 0.8052 0.3253
vt 0.8098 0.3253
vt 0.8144 0.3253
vt 0.8189 0.3253
vt 0.8202 0.2787
vt 0.8325 0.3040
vt 0.8356 0.3091
vt 0.7992 0.3174
vt 0.7932 0.3096
vt 0.8173 0.2696
vt 0.8144 0.2606
vt 0.8260 0.2787
vt 0.8318 0.2787
vt 0.8027 0.2787
vt 0.7969 0.2787
vt 0.8123 0.3562
vt 0.8144 0.3666
vt 0.8077 0.3356
vt 0.8102 0.3459
vt 0.8052 0.3253
vt 0.8098 0.3253
vt 0.8144 0.3253
vt 0.8189 0.3253
vt 0.8202 0.2787
vt 0.8325 0.3040
vt 0.8356 0.3091
vt 0.7992 0.3174
vt 0.7932 0.3096
vt 0.8173 0.2696
vt 0.8144 0.2606
vt 0.8260 0.2787
vt 0.8318 0.2787
vt 0.8027 0.2787
vt 0.7969 0.2787
vt 0.8123 0.3562
vt 0.8144 0.3666
vt 0.9285 0.3356
vt 0.9310 0.3459
vt 0.9260 0.3253
vt 0.9305 0.3253
vt 0.9351 0.3253
vt 0.9397 0.3253
vt 0.9410 0.2787
vt 0.9532 0.3040
vt 0.9564 0.3091
vt 0.9200 0.3174
vt 0.9139 0.3096
vt 0.9381 0.2696
vt 0.9351 0.2606
vt 0.9468 0.2787
vt 0.9526 0.2787
vt 0.9235 0.2787
vt 0.9177 0.2787
vt 0.9331 0.3562
vt 0.9351 0.3666
vt 0.9285 0.3356
vt 0.9310 0.3459
vt 0.9260 0.3253
vt 0.9305 0.3253
vt 0.9351 0.3253
vt 0.9397 0.3253
vt 0.9410 0.2787
vt 0.9532 0.3040
vt 0.9564 0.3091
vt 0.9200 0.3174
vt 0.9139 0.3096
vt 0.9381 0.2696
vt 0.9351 0.2606
vt 0.9468 0.2787
vt 0.9526 0.2787
vt 0.9235 0.2787
vt 0.9177 0.2787
vt 0.9331 0.3562
vt 0.9351 0.3666
vt 0.6805 0.3356
vt 0.6830 0.3459
vt 0.6780 0.3253
vt 0.6826 0.3253
vt 0.6872 0.3253
vt 0.6918 0.3253
vt 0.6930 0.2787
vt 0.7053 0.3040
vt 0.7084 0.3091
vt 0.6720 0.3174
vt 0.6660 0.3096
vt 0.6901 0.2696
vt 0.6872 0.2606
vt 0.6988 0.2787
vt 0.7046 0.2787
vt 0.6755 0.2787
vt 0.6697 0.2787
vt 0.6851 0.3562
vt 0.6872 0.3666
vn -0.3985 0.9071 -0.1355
vn -0.4246 0.9015 -0.0837
vn -0.4165 0.9042 -0.0941
vn -0.3981 0.9079 -0.1313
vn -0.4481 0.8936 -0.0259
vn -0.4549 0.8905 -0.0143
vn -0.3448 0.9024 -0.2586
vn -0.2528 0.8842 -0.3927
vn -0.3409 0.8776 -0.3370
vn -0.3657 0.8943 -0.2578
vn -0.3907 0.7901 -0.4724
vn -0.3970 0.8321 -0.3874
vn -0.5127 0.8582 0.0251
vn -0.6027 0.7959 -0.0574
vn -0.5649 0.8094 -0.1607
vn -0.3977 0.8791 -0.2627
vn -0.4861 0.8434 -0.2289
vn -0.5239 0.8436 -0.1174
vn -0.5896 0.8022 0.0939
vn -0.5577 0.8224 0.1126
vn -0.1929 0.8546 -0.4822
vn -0.4351 0.8985 0.0576
vn -0.4227 0.8919 0.1606
vn -0.4033 0.8642 0.3008
vn -0.5926 0.8031 0.0623
vn -0.4788 0.8746 -0.0761
vn -0.5427 0.8399 -0.0028
vn -0.6349 0.7620 0.1275
vn -0.4255 0.9050 -0.0008
vn -0.3945 0.9093 -0.1321
vn -0.4247 0.8974 -0.1194
vn -0.4942 0.8693 -0.0011
vn -0.3797 0.8896 -0.2538
vn -0.4129 0.9000 -0.1397
vn -0.4124 0.9003 -0.1395
vn -0.3917 0.8996 -0.1929
vn -0.3545 0.8827 0.3084
vn -0.3194 0.8787 0.3547
vn -0.3253 0.8812 0.3429
vn -0.3506 0.8837 0.3100
vn -0.2777 0.8728 0.4015
vn -0.2701 0.8699 0.4126
vn -0.4404 0.8740 0.2054
vn -0.5183 0.8528 0.0631
vn -0.5073 0.8455 0.1667
vn -0.4485 0.8652 0.2244
vn -0.6449 0.7494 0.1498
vn -0.5743 0.7953 0.1939
vn -0.2586 0.8374 0.4816
vn -0.3684 0.7675 0.5246
vn -0.4448 0.7774 0.4448
vn -0.4661 0.8485 0.2507
vn -0.4729 0.8111 0.3444
vn -0.3900 0.8153 0.4279
vn -0.2276 0.7820 0.5803
vn -0.1981 0.8043 0.5603
vn -0.5699 0.8211 -0.0308
vn -0.1976 0.8824 0.4271
vn -0.0996 0.8814 0.4617
vn 0.0361 0.8615 0.5064
vn -0.2573 0.7811 0.5689
vn -0.3350 0.8501 0.4063
vn -0.2957 0.8166 0.4957
vn -0.2152 0.7417 0.6352
vn -0.2459 0.8863 0.3925
vn -0.3498 0.8853 0.3064
vn -0.3512 0.8728 0.3389
vn -0.2745 0.8480 0.4535
vn -0.4508 0.8601 0.2386
vn -0.3642 0.8749 0.3193
vn -0.3638 0.8752 0.3189
vn -0.4023 0.8727 0.2767
vn 0.4118 0.8985 -0.1523
vn 0.3909 0.8969 -0.2067
vn 0.3933 0.8988 -0.1936
vn 0.4085 0.8995 -0.1548
vn 0.3639 0.8934 -0.2633
vn 0.3598 0.8912 -0.2763
vn 0.4660 0.8843 -0.0301
vn 0.5018 0.8556 0.1270
vn 0.5199 0.8539 0.0242
vn 0.4791 0.8765 -0.0465
vn 0.6491 0.7572 0.0736
vn 0.5927 0.8053 0.0141
vn 0.3683 0.8624 -0.3473
vn 0.4868 0.7951 -0.3617
vn 0.5380 0.8007 -0.2635
vn 0.5036 0.8613 -0.0677
vn 0.5366 0.8290 -0.1576
vn 0.4801 0.8376 -0.2605
vn 0.3668 0.8123 -0.4534
vn 0.3325 0.8335 -0.4413
vn 0.5259 0.8190 0.2297
vn 0.2939 0.9043 -0.3097
vn 0.2094 0.9051 -0.3701
vn 0.0917 0.8875 -0.4516
vn 0.3922 0.8109 -0.4343
vn 0.4207 0.8711 -0.2533
vn 0.4082 0.8425 -0.3516
vn 0.3707 0.7751 -0.5117
vn 0.3307 0.9064 -0.2629
vn 0.4067 0.9009 -0.1515
vn 0.4172 0.8902 -0.1830
vn 0.3756 0.8714 -0.3154
vn 0.4854 0.8723 -0.0597
vn 0.4243 0.8912 -0.1605
vn 0.4238 0.8915 -0.1602
vn 0.4491 0.8868 -0.1091
vn 0.1013 0.8874 0.4497
vn 0.1588 0.8833 0.4411
vn 0.1456 0.8858 0.4406
vn 0.1045 0.8884 0.4470
vn 0.2198 0.8772 0.4270
vn 0.2332 0.8743 0.4257
vn -0.0303 0.8790 0.4758
vn -0.1925 0.8580 0.4762
vn -0.0963 0.8510 0.5162
vn -0.0175 0.8704 0.4921
vn -0.1771 0.7562 0.6299
vn -0.1046 0.8016 0.5886
vn 0.2992 0.8420 0.4489
vn 0.2843 0.7734 0.5666
vn 0.1777 0.7836 0.5954
vn -0.0029 0.8540 0.5203
vn 0.0761 0.8170 0.5715
vn 0.1891 0.8209 0.5388
vn 0.4006 0.7867 0.4696
vn 0.3973 0.8086 0.4339
vn -0.2996 0.8264 0.4768
vn 0.2807 0.8861 0.3688
vn 0.3581 0.8844 0.2994
vn 0.4623 0.8634 0.2020
vn 0.3764 0.7861 0.4903
vn 0.1966 0.8551 0.4798
vn 0.2938 0.8216 0.4885
vn 0.4548 0.7466 0.4855
vn 0.2272 0.8903 0.3946
vn 0.1018 0.8900 0.4446
vn 0.1297 0.8776 0.4614
vn 0.2669 0.8526 0.4493
vn -0.0061 0.8654 0.5010
vn 0.1062 0.8797 0.4635
vn 0.1061 0.8800 0.4630
vn 0.0505 0.8777 0.4765
vn 0.1900 0.8874 -0.4200
vn 0.1389 0.8833 -0.4478
vn 0.1492 0.8858 -0.4394
vn 0.1858 0.8884 -0.4198
vn 0.0817 0.8772 -0.4732
vn 0.0702 0.8743 -0.4803
vn 0.3108 0.8790 -0.3616
vn 0.4405 0.8580 -0.2642
vn 0.3878 0.8510 -0.3540
vn 0.3104 0.8704 -0.3823
vn 0.5208 0.7562 -0.3962
vn 0.4381 0.8016 -0.4069
vn 0.0315 0.8420 -0.5386
vn 0.1144 0.7734 -0.6236
vn 0.2167 0.7836 -0.5823
vn 0.3157 0.8540 -0.4136
vn 0.2835 0.8170 -0.5020
vn 0.1736 0.8209 -0.5440
vn -0.0369 0.7867 -0.6162
vn -0.0558 0.8086 -0.5857
vn 0.5264 0.8264 -0.2001
vn -0.0019 0.8861 -0.4635
vn -0.1055 0.8844 -0.4547
vn -0.2473 0.8634 -0.4397
vn -0.0052 0.7861 -0.6181
vn 0.1321 0.8551 -0.5014
vn 0.0597 0.8216 -0.5669
vn -0.0706 0.7466 -0.6615
vn 0.0564 0.8903 -0.4518
vn 0.1865 0.8900 -0.4162
vn 0.1744 0.8776 -0.4465
vn 0.0576 0.8526 -0.5194
vn 0.3066 0.8654 -0.3962
vn 0.1943 0.8797 -0.4340
vn 0.1942 0.8800 -0.4335
vn 0.2467 0.8777 -0.4109
vn -0.2077 0.8085 -0.5507
vn -0.2638 0.8015 -0.5367
vn -0.2509 0.8050 -0.5377
vn -0.2108 0.8096 -0.5479
vn -0.3228 0.7930 -0.5166
vn -0.3358 0.7895 -0.5138
vn -0.0782 0.8059 -0.5869
vn 0.0847 0.7965 -0.5987
vn -0.0134 0.7774 -0.6289
vn -0.0915 0.7942 -0.6007
vn 0.0658 0.6738 -0.7360
vn -0.0068 0.7192 -0.6947
vn -0.4006 0.7497 -0.5268
vn -0.3892 0.6669 -0.6354
vn -0.2863 0.6806 -0.6744
vn -0.1069 0.7731 -0.6252
vn -0.1863 0.7241 -0.6641
vn -0.2964 0.7244 -0.6224
vn -0.4984 0.6851 -0.5312
vn -0.4942 0.7118 -0.4991
vn 0.1936 0.7727 -0.6045
vn -0.3796 0.8055 -0.4550
vn -0.4510 0.8078 -0.3795
vn -0.5453 0.7930 -0.2715
vn -0.4759 0.6834 -0.5536
vn -0.3020 0.7657 -0.5679
vn -0.3966 0.7246 -0.5637
vn -0.5502 0.6395 -0.5370
vn -0.3287 0.8100 -0.4857
vn -0.2079 0.8116 -0.5459
vn -0.2360 0.7952 -0.5586
vn -0.3694 0.7624 -0.5314
vn -0.1031 0.7873 -0.6079
vn -0.2130 0.7986 -0.5629
vn -0.2128 0.7990 -0.5625
vn -0.1585 0.7988 -0.5804
vn 0.2654 0.8199 -0.5073
vn 0.5045 0.8602 0.0750
vn 0.8822 0.0256 -0.4701
vn 0.8600 0.0107 -0.5102
vn -0.8377 0.0026 0.5461
vn -0.2196 0.3220 0.9209
vn -0.5485 0.8332 0.0699
vn -0.5713 0.8201 0.0331
vn 0.5883 -0.8086 0.0074
vn 0.7941 -0.2256 0.5644
vn -0.2210 -0.7761 0.5907
vn -0.2478 -0.8013 0.5446
vn -0.3962 -0.8615 0.3175
vn -0.8251 -0.4820 -0.2946
vn 0.1742 -0.8442 -0.5069
vn 0.2965 -0.8680 -0.3984
vn 0.6916 -0.0125 -0.7221
vn -0.0684 0.0951 -0.9931
vn 0.2700 0.8553 -0.4423
vn 0.3627 0.8613 -0.3559
vn -0.3312 0.8720 0.3604
vn -0.7066 0.6743 -0.2146
vn -0.8121 0.0211 0.5831
vn -0.7273 0.0131 0.6862
vn 0.0930 -0.8347 0.5427
vn 0.0832 -0.8298 0.5518
vn -0.5427 -0.8141 -0.2067
vn -0.5436 -0.8131 -0.2081
vn -0.6609 0.0118 -0.7504
vn -0.6453 0.0121 -0.7638
vn -0.1544 0.8400 -0.5202
vn -0.1852 0.8485 -0.4957
vn 0.4629 0.8490 0.2549
vn 0.4861 0.8411 0.2372
vn 0.5909 -0.0019 0.8067
vn 0.5818 0.0082 0.8133
vn 0.0735 -0.8248 0.5607
vn -0.5057 -0.2145 0.8356
vn -0.6412 -0.7555 -0.1347
vn -0.5482 -0.8086 -0.2135
vn -0.6314 0.0070 -0.7754
vn -0.9349 0.3286 -0.1343
vn -0.1740 0.8500 -0.4973
vn -0.1147 0.8290 -0.5474
vn 0.5100 0.8313 0.2209
vn -0.1046 0.8545 0.5087
vn 0.5169 0.0448 0.8549
vn 0.6020 0.0083 0.7984
vn 0.5844 -0.8113 -0.0144
vn 0.8253 -0.2144 0.5225
vn -0.1223 -0.7134 0.6900
vn -0.2170 -0.7876 0.5767
vn -0.8006 0.0198 0.5989
vn -0.1315 0.3450 0.9294
vn -0.4839 0.8618 0.1519
vn -0.5589 0.8274 0.0556
vn 0.2430 0.8078 -0.5371
vn 0.5341 0.8376 0.1150
vn 0.8904 0.0471 -0.4528
vn 0.8284 -0.0031 -0.5601
vn -0.6296 -0.7455 0.2186
vn -0.9609 -0.1360 -0.2412
vn -0.0811 -0.7849 -0.6143
vn -0.0424 -0.8134 -0.5802
vn 0.5851 -0.0726 -0.8077
vn -0.0908 0.3129 -0.9454
vn 0.5677 0.7752 -0.2773
vn 0.6007 0.7592 -0.2507
vn 0.0146 0.8343 0.5512
vn -0.4103 0.9074 0.0909
vn -0.6507 0.1064 0.7518
vn -0.6172 0.0886 0.7818
vn 0.9948 0.0160 0.1004
vn 0.9389 0.2881 0.1884
vn 0.7709 0.1143 0.6266
vn 0.7689 0.0205 0.6390
vn -0.8553 0.0101 0.5181
vn -0.7413 0.2825 0.6088
vn -0.9770 0.2040 -0.0622
vn -0.9970 0.0093 -0.0767
vn 0.4375 0.0177 -0.8991
vn 0.2216 0.3013 -0.9274
vn 0.8336 0.2228 -0.5055
vn 0.8769 0.0204 -0.4802
vn 0.2570 0.0216 0.9662
vn 0.2411 0.3218 0.9156
vn -0.3729 0.1140 0.9208
vn -0.3825 0.0184 0.9238
vn -0.7703 0.0067 -0.6377
vn -0.6518 0.2895 -0.7010
vn -0.2364 0.0832 -0.9681
vn -0.2234 0.0145 -0.9746
vn -0.7782 0.0289 -0.6274
vn -0.7775 0.0204 -0.6285
vn -0.2398 0.0193 -0.9706
vn -0.2478 0.0328 -0.9683
vn -0.7725 0.0104 -0.6349
vn -0.7662 0.0063 -0.6426
vn -0.2055 0.0041 -0.9787
vn -0.2198 0.0001 -0.9756
vn 0.2617 -0.0006 0.9651
vn 0.2582 0.0176 0.9659
vn -0.4008 0.0244 0.9158
vn -0.3771 0.0004 0.9262
vn 0.2568 0.0338 0.9659
vn 0.2567 0.0279 0.9661
vn -0.3932 0.0306 0.9190
vn -0.4052 0.0452 0.9131
vn 0.3878 0.0271 -0.9213
vn 0.4142 0.0096 -0.9101
vn 0.8611 0.0116 -0.5083
vn 0.8368 0.0249 -0.5470
vn 0.4474 -0.0074 -0.8943
vn 0.4606 0.0030 -0.8876
vn 0.8956 0.0085 -0.4448
vn 0.8842 0.0018 -0.4671
vn -0.8659 0.0073 0.5001
vn -0.8856 0.0249 0.4637
vn -0.9947 0.0257 -0.0998
vn -0.9965 0.0225 -0.0811
vn -0.8820 0.0386 0.4697
vn -0.8631 0.0243 0.5044
vn -0.9960 0.0178 -0.0874
vn -0.9944 0.0271 -0.1022
vn 0.9998 0.0176 0.0131
vn 0.9984 0.0157 0.0541
vn 0.7753 0.0201 0.6313
vn 0.7884 0.0103 0.6151
vn 0.9950 0.0133 0.0986
vn 0.9917 0.0131 0.1281
vn 0.7676 0.0236 0.6405
vn 0.7699 0.0277 0.6375
vn 0.1207 0.8689 0.4800
vn -0.1034 0.9316 -0.3485
vn 0.9998 0.0171 -0.0052
vn 0.7970 0.0081 0.6040
vn 0.8242 0.0255 -0.5657
vn -0.8506 0.0037 0.5258
vn -0.9972 0.0208 -0.0716
vn -0.3618 -0.0039 0.9323
vn 0.3747 0.0283 -0.9267
vn -0.2516 0.0333 -0.9672
vn 0.2646 -0.0038 0.9643
vn -0.7764 0.0289 -0.6296
vn 0.0088 0.8295 0.5585
vn -0.6225 0.0655 0.7798
vn 0.5970 0.7682 -0.2314
vn 0.5857 -0.0758 -0.8070
vn -0.0723 -0.8330 -0.5486
vn -0.6320 -0.7405 0.2286
vn 0.2441 0.8044 -0.5416
vn 0.8187 0.0178 -0.5739
vn -0.5407 0.8408 0.0251
vn -0.8045 0.0257 0.5935
vn -0.2154 -0.7948 0.5673
vn 0.5873 -0.8090 -0.0231
vn 0.4666 0.8440 0.2645
vn 0.5505 -0.1230 0.8257
vn -0.2320 0.8121 -0.5355
vn -0.6669 -0.0166 -0.7450
vn -0.5111 -0.8441 -0.1618
vn 0.0871 -0.8418 0.5327
vn -0.3309 0.8699 0.3658
vn -0.7204 0.0382 0.6925
vn 0.3463 0.8794 -0.3268
vn 0.6949 -0.0048 -0.7191
vn 0.2977 -0.8725 -0.3873
vn -0.3984 -0.8574 0.3257
vn 0.5945 -0.8041 -0.0011
vn -0.2107 -0.8244 0.5253
vn 0.8619 -0.0129 -0.5069
vn -0.8383 -0.0005 0.5452
vn -0.5601 0.8282 0.0164
vn 0.2729 0.8144 -0.5121
vn -0.0921 0.7831 -0.6150
vn -0.1682 0.8028 -0.5720
vn -0.0187 0.7961 -0.6049
vn -0.0798 0.7951 -0.6012
vn -0.2089 0.8062 -0.5535
vn -0.3342 0.8017 -0.4955
vn -0.5303 0.6509 -0.5433
vn -0.5285 0.7890 -0.3135
vn -0.5655 0.7878 -0.2441
vn 0.2231 0.7740 -0.5926
vn 0.2552 0.7678 -0.5876
vn -0.5622 0.6909 -0.4546
vn -0.5436 0.7060 -0.4539
vn -0.3115 0.6694 -0.6745
vn -0.2699 0.6699 -0.6917
vn 0.0571 0.6617 -0.7476
vn 0.0745 0.6523 -0.7543
vn -0.2035 0.8094 -0.5509
vn -0.2070 0.8097 -0.5491
vn 0.3197 0.8613 -0.3948
vn 0.2338 0.8814 -0.4104
vn 0.3674 0.8669 -0.3370
vn 0.3194 0.8704 -0.3747
vn 0.1910 0.8857 -0.4232
vn 0.0590 0.8839 -0.4639
vn -0.0518 0.7571 -0.6513
vn -0.2067 0.8635 -0.4601
vn -0.2805 0.8563 -0.4336
vn 0.5405 0.8237 -0.1717
vn 0.5613 0.8143 -0.1478
vn -0.1356 0.7876 -0.6010
vn -0.1226 0.8010 -0.5860
vn 0.1983 0.7746 -0.6006
vn 0.2408 0.7739 -0.5857
vn 0.5223 0.7465 -0.4123
vn 0.5401 0.7365 -0.4072
vn 0.1932 0.8880 -0.4172
vn 0.1894 0.8884 -0.4182
vn -0.0174 0.8613 0.5078
vn 0.0606 0.8814 0.4684
vn -0.0903 0.8669 0.4903
vn -0.0292 0.8704 0.4915
vn 0.1025 0.8857 0.4529
vn 0.2323 0.8839 0.4059
vn 0.4337 0.7571 0.4887
vn 0.4421 0.8635 0.2428
vn 0.4851 0.8563 0.1772
vn -0.3280 0.8237 0.4626
vn -0.3590 0.8143 0.4560
vn 0.4703 0.7876 0.3981
vn 0.4508 0.8010 0.3939
vn 0.2035 0.7746 0.5989
vn 0.1606 0.7739 0.6126
vn -0.1686 0.7465 0.6437
vn -0.1858 0.7365 0.6504
vn 0.0971 0.8880 0.4494
vn 0.1007 0.8884 0.4479
vn 0.4945 0.8677 -0.0504
vn 0.4390 0.8908 -0.1170
vn 0.4933 0.8695 0.0248
vn 0.4811 0.8759 -0.0349
vn 0.4147 0.8968 -0.1542
vn 0.3406 0.9004 -0.2706
vn 0.3783 0.7846 -0.4912
vn 0.1359 0.8873 -0.4408
vn 0.0626 0.8811 -0.4688
vn 0.5182 0.8147 0.2603
vn 0.5186 0.8038 0.2915
vn 0.2818 0.8154 -0.5057
vn 0.2819 0.8277 -0.4852
vn 0.5359 0.7930 -0.2898
vn 0.5586 0.7905 -0.2510
vn 0.6607 0.7481 0.0618
vn 0.6710 0.7375 0.0766
vn 0.4125 0.8988 -0.1481
vn 0.4102 0.8994 -0.1512
vn -0.4621 0.8559 0.2320
vn -0.3904 0.8765 0.2817
vn -0.4818 0.8616 0.1596
vn -0.4536 0.8652 0.2138
vn -0.3567 0.8809 0.3110
vn -0.2532 0.8798 0.4024
vn -0.2282 0.7522 0.6182
vn -0.0093 0.8611 0.5083
vn 0.0688 0.8547 0.5145
vn -0.5710 0.8186 -0.0625
vn -0.5800 0.8093 -0.0929
vn -0.1315 0.7837 0.6071
vn -0.1373 0.7971 0.5881
vn -0.4354 0.7684 0.4691
vn -0.4680 0.7675 0.4380
vn -0.6528 0.7396 0.1639
vn -0.6668 0.7296 0.1519
vn -0.3563 0.8833 0.3046
vn -0.3533 0.8837 0.3070
vn -0.3789 0.8861 -0.2671
vn -0.3908 0.9027 -0.1798
vn -0.3226 0.8920 -0.3167
vn -0.3585 0.8945 -0.2671
vn -0.4019 0.9055 -0.1365
vn -0.4378 0.8991 -0.0033
vn -0.6250 0.7730 0.1088
vn -0.4251 0.8667 0.2610
vn -0.3963 0.8555 0.3333
vn -0.1651 0.8517 -0.4974
vn -0.1422 0.8426 -0.5195
vn -0.5708 0.7983 0.1919
vn -0.5559 0.8118 0.1789
vn -0.5828 0.8001 -0.1420
vn -0.5695 0.8009 -0.1850
vn -0.4072 0.7809 -0.4737
vn -0.4031 0.7716 -0.4920
vn -0.3959 0.9077 -0.1388
vn -0.3967 0.9080 -0.1350
usemtl None
s 1
f 504/1/1 417/2/2 3/3/3 349/4/4
f 503/5/5 210/6/6 3/3/3 417/2/2
f 502/7/7 345/8/8 8/9/9 279/10/10
f 8/9/9 317/11/11 389/12/12
f 12/13/13 244/14/14 303/15/15
f 501/16/16 389/12/12 11/17/17 235/18/18
f 500/19/19 235/18/18 11/17/17 312/20/20
f 8/9/9 345/8/8 274/21/21
f 6/22/22 198/23/23 278/24/24
f 499/25/25 232/26/26 15/27/27 254/28/28
f 498/29/29 397/30/30 9/31/31 314/32/32
f 497/33/33 289/34/34 2/35/35 225/36/36
f 496/37/37 207/38/38 21/39/39 398/40/40
f 495/41/41 256/42/42 21/39/39 207/38/38
f 494/43/43 165/44/44 26/45/45 363/46/46
f 26/45/45 420/47/47 224/48/48
f 30/49/49 366/50/50 164/51/51
f 493/52/52 224/48/48 29/53/53 362/54/54
f 492/55/55 362/54/54 29/53/53 309/56/56
f 26/45/45 165/44/44 282/57/57
f 24/58/58 255/59/59 361/60/60
f 491/61/61 348/62/62 33/63/63 370/64/64
f 490/65/65 184/66/66 27/67/67 415/68/68
f 489/69/69 335/70/70 20/71/71 277/72/72
f 488/73/73 249/74/74 39/75/75 331/76/76
f 487/77/77 170/78/78 39/75/75 249/74/74
f 486/79/79 301/80/80 44/81/81 367/82/82
f 44/81/81 293/83/83 223/84/84
f 48/85/85 388/86/86 253/87/87
f 485/88/88 223/84/84 47/89/89 327/90/90
f 484/91/91 327/90/90 47/89/89 266/92/92
f 44/81/81 301/80/80 355/93/93
f 42/94/94 414/95/95 288/96/96
f 483/97/97 340/98/98 51/99/99 168/100/100
f 482/101/101 228/102/102 45/103/103 310/104/104
f 481/105/105 391/106/106 38/107/107 201/108/108
f 480/109/109 418/110/110 57/111/111 246/112/112
f 479/113/113 376/114/114 57/111/111 418/110/110
f 478/115/115 252/116/116 62/117/117 315/118/118
f 62/117/117 241/119/119 187/120/120
f 66/121/121 403/122/122 190/123/123
f 477/124/124 187/120/120 65/125/125 390/126/126
f 476/127/127 390/126/126 65/125/125 194/128/128
f 62/117/117 252/116/116 358/129/129
f 60/130/130 394/131/131 292/132/132
f 475/133/133 341/134/134 69/135/135 387/136/136
f 474/137/137 167/138/138 63/139/139 258/140/140
f 473/141/141 259/142/142 56/143/143 359/144/144
f 472/145/145 369/146/146 75/147/147 287/148/148
f 471/149/149 407/150/150 75/147/147 369/146/146
f 470/151/151 302/152/152 80/153/153 200/154/154
f 80/153/153 203/155/155 260/156/156
f 84/157/157 179/158/158 227/159/159
f 469/160/160 260/156/156 83/161/161 172/162/162
f 468/163/163 172/162/162 83/161/161 243/164/164
f 80/153/153 302/152/152 399/165/165
f 78/166/166 383/167/167 272/168/168
f 467/169/169 182/170/170 87/171/171 177/172/172
f 466/173/173 357/174/174 81/175/175 245/176/176
f 465/177/177 216/178/178 74/179/179 169/180/180
f 464/181/181 211/182/182 93/183/183 411/184/184
f 463/185/185 265/186/186 93/183/183 211/182/182
f 462/187/187 382/188/188 98/189/189 192/190/190
f 98/189/189 381/191/191 299/192/192
f 102/193/193 419/194/194 353/195/195
f 461/196/196 299/192/192 101/197/197 413/198/198
f 460/199/199 413/198/198 101/197/197 334/200/200
f 98/189/189 382/188/188 422/201/201
f 96/202/202 251/203/203 396/204/204
f 459/205/205 166/206/206 105/207/207 162/208/208
f 458/209/209 354/210/210 99/211/211 360/212/212
f 457/213/213 329/214/214 92/215/215 257/216/216
f 456/217/217 408/218/218 111/219/219 214/220/220
f 455/221/221 163/222/222 110/223/223 352/224/224
f 110/225/223 163/226/222 408/227/218
f 454/228/225 295/229/226 114/230/227 406/231/228
f 453/232/229 326/233/230 117/234/231 393/235/232
f 452/236/233 322/237/234 119/238/235 247/239/236
f 451/240/237 176/241/238 116/242/239 284/243/240
f 119/244/235 322/245/234 176/246/238
f 450/247/241 222/248/242 123/249/243 297/250/244
f 449/251/245 205/252/246 125/253/247 421/254/248
f 448/255/249 339/256/250 122/257/251 416/258/252
f 447/259/253 294/260/254 128/261/255 264/262/256
f 446/263/257 238/264/258 129/265/259 209/266/260
f 445/267/261 220/268/262 127/269/263 202/270/264
f 129/271/259 238/272/258 220/273/262
f 444/274/265 318/275/266 132/276/267 248/277/268
f 443/278/269 276/279/270 134/280/271 347/281/272
f 442/282/273 410/283/274 131/284/275 377/285/276
f 134/286/271 276/287/270 410/288/274
f 441/289/277 409/290/278 138/291/279 342/292/280
f 440/293/281 405/294/282 140/295/283 197/296/284
f 439/297/285 271/298/286 137/299/287 208/300/288
f 140/301/283 405/302/282 271/303/286
f 438/304/289 236/305/290 144/306/291 175/307/292
f 437/308/293 242/309/294 148/310/295 185/311/296
f 436/312/297 372/313/298 143/314/299 336/315/300
f 435/316/301 233/317/302 147/318/303 305/319/304
f 434/320/305 263/321/306 151/322/307 275/323/308
f 433/324/309 392/325/310 154/326/311 316/327/312
f 432/328/313 346/329/314 150/330/315 193/331/316
f 431/332/317 379/333/318 158/334/319 313/335/320
f 430/336/321 374/337/322 146/338/323 188/339/324
f 429/340/325 356/341/326 160/342/327 368/343/328
f 428/344/329 229/345/330 142/346/331 395/347/332
f 427/348/333 364/349/334 153/350/335 191/351/336
f 426/352/337 173/353/338 149/354/339 262/355/340
f 425/356/341 237/357/342 157/358/343 171/359/344
f 424/360/345 204/361/346 145/362/347 269/363/348
f 423/364/349 233/365/302 144/366/291 236/367/290
f 151/368/307 263/369/306 372/370/298
f 372/370/298 178/371/350 143/372/299
f 372/370/298 263/369/306 178/371/350
f 263/369/306 148/373/295 178/371/350
f 178/371/350 423/364/349 236/367/290 143/372/299
f 148/373/295 242/374/294 423/364/349 178/371/350
f 242/374/294 147/375/303 233/365/302 423/364/349
f 237/357/342 424/360/345 269/363/348 157/358/343
f 160/342/327 395/347/332 424/360/345 237/357/342
f 395/347/332 142/346/331 204/361/346 424/360/345
f 181/376/351 425/356/341 171/359/344 156/377/352
f 161/378/353 368/343/328 425/356/341 181/376/351
f 368/343/328 160/342/327 237/357/342 425/356/341
f 364/349/334 426/352/337 262/355/340 153/350/335
f 158/379/319 188/380/324 426/352/337 364/349/334
f 188/380/324 146/381/323 173/353/338 426/352/337
f 285/382/354 427/348/333 191/351/336 152/383/355
f 159/384/356 313/385/320 427/348/333 285/382/354
f 313/385/320 158/379/319 364/349/334 427/348/333
f 356/341/326 428/344/329 395/347/332 160/342/327
f 154/326/311 193/331/316 428/344/329 356/341/326
f 193/331/316 150/330/315 229/345/330 428/344/329
f 307/386/357 429/340/325 368/343/328 161/378/353
f 155/387/358 316/327/312 429/340/325 307/386/357
f 316/327/312 154/326/311 356/341/326 429/340/325
f 379/333/318 430/336/321 188/339/324 158/334/319
f 157/358/343 269/363/348 430/336/321 379/333/318
f 269/363/348 145/362/347 374/337/322 430/336/321
f 304/388/359 431/332/317 313/335/320 159/389/356
f 156/377/352 171/359/344 431/332/317 304/388/359
f 171/359/344 157/358/343 379/333/318 431/332/317
f 392/325/310 432/328/313 193/331/316 154/326/311
f 153/350/335 262/355/340 432/328/313 392/325/310
f 262/355/340 149/354/339 346/329/314 432/328/313
f 283/390/360 433/324/309 316/327/312 155/387/358
f 152/383/355 191/351/336 433/324/309 283/390/360
f 191/351/336 153/350/335 392/325/310 433/324/309
f 346/391/314 434/320/305 275/323/308 150/392/315
f 149/393/339 185/311/296 434/320/305 346/391/314
f 185/311/296 148/310/295 263/321/306 434/320/305
f 374/394/322 435/316/301 305/319/304 146/395/323
f 145/396/347 175/307/292 435/316/301 374/394/322
f 175/307/292 144/306/291 233/317/302 435/316/301
f 229/397/330 436/312/297 336/315/300 142/398/331
f 150/392/315 275/323/308 436/312/297 229/397/330
f 275/323/308 151/322/307 372/313/298 436/312/297
f 173/399/338 437/308/293 185/311/296 149/393/339
f 146/400/323 305/401/304 437/308/293 173/399/338
f 305/401/304 147/402/303 242/309/294 437/308/293
f 204/403/346 438/304/289 175/307/292 145/396/347
f 142/398/331 336/315/300 438/304/289 204/403/346
f 336/315/300 143/314/299 236/305/290 438/304/289
f 271/303/286 409/404/278 137/405/287
f 271/303/286 405/302/282 409/404/278
f 405/302/282 138/406/279 409/404/278
f 186/407/361 439/297/285 208/300/288 136/408/362
f 141/409/363 197/296/284 439/297/285 186/407/361
f 197/296/284 140/295/283 271/298/286 439/297/285
f 321/410/364 440/293/281 197/296/284 141/409/363
f 139/411/365 342/412/280 440/293/281 321/410/364
f 342/412/280 138/413/279 405/294/282 440/293/281
f 308/414/366 441/289/277 342/292/280 139/415/365
f 136/408/362 208/300/288 441/289/277 308/414/366
f 208/300/288 137/299/287 409/290/278 441/289/277
f 410/288/274 318/416/266 131/417/275
f 410/288/274 276/287/270 318/416/266
f 276/287/270 132/418/267 318/416/266
f 351/419/367 442/282/273 377/285/276 130/420/368
f 135/421/369 347/281/272 442/282/273 351/419/367
f 347/281/272 134/280/271 410/283/274 442/282/273
f 213/422/370 443/278/269 347/281/272 135/421/369
f 133/423/371 248/424/268 443/278/269 213/422/370
f 248/424/268 132/425/267 276/279/270 443/278/269
f 240/426/372 444/274/265 248/277/268 133/427/371
f 130/420/368 377/285/276 444/274/265 240/426/372
f 377/285/276 131/284/275 318/275/266 444/274/265
f 220/273/262 294/428/254 127/429/263
f 220/273/262 238/272/258 294/428/254
f 238/272/258 128/430/255 294/428/254
f 339/256/250 445/267/261 202/270/264 122/257/251
f 125/253/247 209/266/260 445/267/261 339/256/250
f 209/266/260 129/265/259 220/268/262 445/267/261
f 205/252/246 446/263/257 209/266/260 125/253/247
f 123/431/243 264/432/256 446/263/257 205/252/246
f 264/432/256 128/433/255 238/264/258 446/263/257
f 222/248/242 447/259/253 264/262/256 123/249/243
f 122/257/251 202/270/264 447/259/253 222/248/242
f 202/270/264 127/269/263 294/260/254 447/259/253
f 401/434/373 448/255/249 416/258/252 121/435/374
f 126/436/375 421/254/248 448/255/249 401/434/373
f 421/254/248 125/253/247 339/256/250 448/255/249
f 281/437/376 449/251/245 421/254/248 126/436/375
f 124/438/377 297/439/244 449/251/245 281/437/376
f 297/439/244 123/431/243 205/252/246 449/251/245
f 286/440/378 450/247/241 297/250/244 124/441/377
f 121/435/374 416/258/252 450/247/241 286/440/378
f 416/258/252 122/257/251 222/248/242 450/247/241
f 176/246/238 326/442/230 116/443/239
f 176/246/238 322/245/234 326/442/230
f 322/245/234 117/444/231 326/442/230
f 250/445/379 451/240/237 284/243/240 115/446/380
f 120/447/381 247/239/236 451/240/237 250/445/379
f 247/239/236 119/238/235 176/241/238 451/240/237
f 375/448/382 452/236/233 247/239/236 120/447/381
f 118/449/383 393/450/232 452/236/233 375/448/382
f 393/450/232 117/451/231 322/237/234 452/236/233
f 380/452/384 453/232/229 393/235/232 118/453/383
f 115/446/380 284/243/240 453/232/229 380/452/384
f 284/243/240 116/242/239 326/233/230 453/232/229
f 343/454/385 454/228/225 406/231/228 113/455/386
f 112/456/387 214/220/220 454/228/225 343/454/385
f 214/220/220 111/219/219 295/229/226 454/228/225
f 408/227/218 295/457/226 111/458/219
f 408/227/218 163/226/222 295/457/226
f 163/226/222 114/459/227 295/457/226
f 402/460/388 455/221/221 352/224/224 109/461/389
f 113/462/386 406/463/228 455/221/221 402/460/388
f 406/463/228 114/464/227 163/222/222 455/221/221
f 218/465/390 456/217/217 214/220/220 112/456/387
f 109/461/389 352/224/224 456/217/217 218/465/390
f 352/224/224 110/223/223 408/218/218 456/217/217
f 323/466/391 457/213/213 257/216/216 91/467/392
f 97/468/393 344/469/394 457/213/213 323/466/391
f 344/469/394 95/470/395 329/214/214 457/213/213
f 251/203/203 458/209/209 360/212/212 102/193/193
f 96/202/202 280/471/396 458/209/209 251/203/203
f 280/471/396 95/470/395 354/210/210 458/209/209
f 419/194/194 459/205/205 162/208/208 103/472/397
f 102/193/193 360/212/212 459/205/205 419/194/194
f 360/212/212 99/211/211 166/206/206 459/205/205
f 396/204/204 333/473/398 108/474/399
f 396/204/204 251/203/203 333/473/398
f 251/203/203 102/193/193 333/473/398
f 422/201/201 290/475/400 107/476/401
f 422/201/201 382/188/188 290/475/400
f 382/188/188 97/468/393 290/475/400
f 337/477/402 460/199/199 334/200/200 106/478/403
f 103/472/397 162/208/208 460/199/199 337/477/402
f 162/208/208 105/207/207 413/198/198 460/199/199
f 166/206/206 461/196/196 413/198/198 105/207/207
f 99/211/211 192/190/190 461/196/196 166/206/206
f 192/190/190 98/189/189 299/192/192 461/196/196
f 353/195/195 226/479/404 104/480/405
f 353/195/195 419/194/194 226/479/404
f 419/194/194 103/472/397 226/479/404
f 299/192/192 298/481/406 101/197/197
f 299/192/192 381/191/191 298/481/406
f 381/191/191 100/482/407 298/481/406
f 354/210/210 462/187/187 192/190/190 99/211/211
f 95/470/395 344/469/394 462/187/187 354/210/210
f 344/469/394 97/468/393 382/188/188 462/187/187
f 329/214/214 463/185/185 211/182/182 92/215/215
f 95/470/395 280/471/396 463/185/185 329/214/214
f 280/471/396 96/202/202 265/186/186 463/185/185
f 386/483/408 464/181/181 411/184/184 94/484/409
f 91/467/392 257/216/216 464/181/181 386/483/408
f 257/216/216 92/215/215 211/182/182 464/181/181
f 215/485/410 465/177/177 169/180/180 73/486/411
f 79/487/412 231/488/413 465/177/177 215/485/410
f 231/488/413 77/489/414 216/178/178 465/177/177
f 383/167/167 466/173/173 245/176/176 84/157/157
f 78/166/166 174/490/415 466/173/173 383/167/167
f 174/490/415 77/489/414 357/174/174 466/173/173
f 179/158/158 467/169/169 177/172/172 85/491/416
f 84/157/157 245/176/176 467/169/169 179/158/158
f 245/176/176 81/175/175 182/170/170 467/169/169
f 272/168/168 212/492/417 90/493/418
f 272/168/168 383/167/167 212/492/417
f 383/167/167 84/157/157 212/492/417
f 399/165/165 328/494/419 89/495/420
f 399/165/165 302/152/152 328/494/419
f 302/152/152 79/487/412 328/494/419
f 230/496/421 468/163/163 243/164/164 88/497/422
f 85/491/416 177/172/172 468/163/163 230/496/421
f 177/172/172 87/171/171 172/162/162 468/163/163
f 182/170/170 469/160/160 172/162/162 87/171/171
f 81/175/175 200/154/154 469/160/160 182/170/170
f 200/154/154 80/153/153 260/156/156 469/160/160
f 227/159/159 378/498/423 86/499/424
f 227/159/159 179/158/158 378/498/423
f 179/158/158 85/491/416 378/498/423
f 260/156/156 330/500/425 83/161/161
f 260/156/156 203/155/155 330/500/425
f 203/155/155 82/501/426 330/500/425
f 357/174/174 470/151/151 200/154/154 81/175/175
f 77/489/414 231/488/413 470/151/151 357/174/174
f 231/488/413 79/487/412 302/152/152 470/151/151
f 216/178/178 471/149/149 369/146/146 74/179/179
f 77/489/414 174/490/415 471/149/149 216/178/178
f 174/490/415 78/166/166 407/150/150 471/149/149
f 291/502/427 472/145/145 287/148/148 76/503/428
f 73/486/411 169/180/180 472/145/145 291/502/427
f 169/180/180 74/179/179 369/146/146 472/145/145
f 261/504/429 473/141/141 359/144/144 55/505/430
f 61/506/431 300/507/432 473/141/141 261/504/429
f 300/507/432 59/508/433 259/142/142 473/141/141
f 394/131/131 474/137/137 258/140/140 66/121/121
f 60/130/130 373/509/434 474/137/137 394/131/131
f 373/509/434 59/508/433 167/138/138 474/137/137
f 403/122/122 475/133/133 387/136/136 67/510/435
f 66/121/121 258/140/140 475/133/133 403/122/122
f 258/140/140 63/139/139 341/134/134 475/133/133
f 292/132/132 189/511/436 72/512/437
f 292/132/132 394/131/131 189/511/436
f 394/131/131 66/121/121 189/511/436
f 358/129/129 219/513/438 71/514/439
f 358/129/129 252/116/116 219/513/438
f 252/116/116 61/506/431 219/513/438
f 183/515/440 476/127/127 194/128/128 70/516/441
f 67/510/435 387/136/136 476/127/127 183/515/440
f 387/136/136 69/135/135 390/126/126 476/127/127
f 341/134/134 477/124/124 390/126/126 69/135/135
f 63/139/139 315/118/118 477/124/124 341/134/134
f 315/118/118 62/117/117 187/120/120 477/124/124
f 190/123/123 324/517/442 68/518/443
f 190/123/123 403/122/122 324/517/442
f 403/122/122 67/510/435 324/517/442
f 187/120/120 195/519/444 65/125/125
f 187/120/120 241/119/119 195/519/444
f 241/119/119 64/520/445 195/519/444
f 167/138/138 478/115/115 315/118/118 63/139/139
f 59/508/433 300/507/432 478/115/115 167/138/138
f 300/507/432 61/506/431 252/116/116 478/115/115
f 259/142/142 479/113/113 418/110/110 56/143/143
f 59/508/433 373/509/434 479/113/113 259/142/142
f 373/509/434 60/130/130 376/114/114 479/113/113
f 196/521/446 480/109/109 246/112/112 58/522/447
f 55/505/430 359/144/144 480/109/109 196/521/446
f 359/144/144 56/143/143 418/110/110 480/109/109
f 384/523/448 481/105/105 201/108/108 37/524/449
f 43/525/450 371/526/451 481/105/105 384/523/448
f 371/526/451 41/527/452 391/106/106 481/105/105
f 414/95/95 482/101/101 310/104/104 48/85/85
f 42/94/94 180/528/453 482/101/101 414/95/95
f 180/528/453 41/527/452 228/102/102 482/101/101
f 388/86/86 483/97/97 168/100/100 49/529/454
f 48/85/85 310/104/104 483/97/97 388/86/86
f 310/104/104 45/103/103 340/98/98 483/97/97
f 288/96/96 270/530/455 54/531/456
f 288/96/96 414/95/95 270/530/455
f 414/95/95 48/85/85 270/530/455
f 355/93/93 217/532/457 53/533/458
f 355/93/93 301/80/80 217/532/457
f 301/80/80 43/525/450 217/532/457
f 365/534/459 484/91/91 266/92/92 52/535/460
f 49/529/454 168/100/100 484/91/91 365/534/459
f 168/100/100 51/99/99 327/90/90 484/91/91
f 340/98/98 485/88/88 327/90/90 51/99/99
f 45/103/103 367/82/82 485/88/88 340/98/98
f 367/82/82 44/81/81 223/84/84 485/88/88
f 253/87/87 234/536/461 50/537/462
f 253/87/87 388/86/86 234/536/461
f 388/86/86 49/529/454 234/536/461
f 223/84/84 239/538/463 47/89/89
f 223/84/84 293/83/83 239/538/463
f 293/83/83 46/539/464 239/538/463
f 228/102/102 486/79/79 367/82/82 45/103/103
f 41/527/452 371/526/451 486/79/79 228/102/102
f 371/526/451 43/525/450 301/80/80 486/79/79
f 391/106/106 487/77/77 249/74/74 38/107/107
f 41/527/452 180/528/453 487/77/77 391/106/106
f 180/528/453 42/94/94 170/78/78 487/77/77
f 325/540/465 488/73/73 331/76/76 40/541/466
f 37/524/449 201/108/108 488/73/73 325/540/465
f 201/108/108 38/107/107 249/74/74 488/73/73
f 338/542/467 489/69/69 277/72/72 19/543/468
f 25/544/469 332/545/470 489/69/69 338/542/467
f 332/545/470 23/546/471 335/70/70 489/69/69
f 255/59/59 490/65/65 415/68/68 30/49/49
f 24/58/58 267/547/472 490/65/65 255/59/59
f 267/547/472 23/546/471 184/66/66 490/65/65
f 366/50/50 491/61/61 370/64/64 31/548/473
f 30/49/49 415/68/68 491/61/61 366/50/50
f 415/68/68 27/67/67 348/62/62 491/61/61
f 361/60/60 319/549/474 36/550/475
f 361/60/60 255/59/59 319/549/474
f 255/59/59 30/49/49 319/549/474
f 282/57/57 412/551/476 35/552/477
f 282/57/57 165/44/44 412/551/476
f 165/44/44 25/544/469 412/551/476
f 311/553/478 492/55/55 309/56/56 34/554/479
f 31/548/473 370/64/64 492/55/55 311/553/478
f 370/64/64 33/63/63 362/54/54 492/55/55
f 348/62/62 493/52/52 362/54/54 33/63/63
f 27/67/67 363/46/46 493/52/52 348/62/62
f 363/46/46 26/45/45 224/48/48 493/52/52
f 164/51/51 306/555/480 32/556/481
f 164/51/51 366/50/50 306/555/480
f 366/50/50 31/548/473 306/555/480
f 224/48/48 221/557/482 29/53/53
f 224/48/48 420/47/47 221/557/482
f 420/47/47 28/558/483 221/557/482
f 184/66/66 494/43/43 363/46/46 27/67/67
f 23/546/471 332/545/470 494/43/43 184/66/66
f 332/545/470 25/544/469 165/44/44 494/43/43
f 335/70/70 495/41/41 207/38/38 20/71/71
f 23/546/471 267/547/472 495/41/41 335/70/70
f 267/547/472 24/58/58 256/42/42 495/41/41
f 404/559/484 496/37/37 398/40/40 22/560/485
f 19/543/468 277/72/72 496/37/37 404/559/484
f 277/72/72 20/71/71 207/38/38 496/37/37
f 273/561/486 497/33/33 225/36/36 1/562/487
f 7/563/488 268/564/489 497/33/33 273/561/486
f 268/564/489 5/565/490 289/34/34 497/33/33
f 198/23/23 498/29/29 314/32/32 12/13/13
f 6/22/22 206/566/491 498/29/29 198/23/23
f 206/566/491 5/565/490 397/30/30 498/29/29
f 244/14/14 499/25/25 254/28/28 13/567/492
f 12/13/13 314/32/32 499/25/25 244/14/14
f 314/32/32 9/31/31 232/26/26 499/25/25
f 278/24/24 296/568/493 18/569/494
f 278/24/24 198/23/23 296/568/493
f 198/23/23 12/13/13 296/568/493
f 274/21/21 400/570/495 17/571/496
f 274/21/21 345/8/8 400/570/495
f 345/8/8 7/563/488 400/570/495
f 320/572/497 500/19/19 312/20/20 16/573/498
f 13/567/492 254/28/28 500/19/19 320/572/497
f 254/28/28 15/27/27 235/18/18 500/19/19
f 232/26/26 501/16/16 235/18/18 15/27/27
f 9/31/31 279/10/10 501/16/16 232/26/26
f 279/10/10 8/9/9 389/12/12 501/16/16
f 303/15/15 199/574/499 14/575/500
f 303/15/15 244/14/14 199/574/499
f 244/14/14 13/567/492 199/574/499
f 389/12/12 385/576/501 11/17/17
f 389/12/12 317/11/11 385/576/501
f 317/11/11 10/577/502 385/576/501
f 397/30/30 502/7/7 279/10/10 9/31/31
f 5/565/490 268/564/489 502/7/7 397/30/30
f 268/564/489 7/563/488 345/8/8 502/7/7
f 289/34/34 503/5/5 417/2/2 2/35/35
f 5/565/490 206/566/491 503/5/5 289/34/34
f 206/566/491 6/22/22 210/6/6 503/5/5
f 350/578/503 504/1/1 349/4/4 4/579/504
f 1/562/487 225/36/36 504/1/1 350/578/503
f 225/36/36 2/35/35 417/2/2 504/1/1
