# Blender v2.78 (sub 0) OBJ File: ''
# www.blender.org
mtllib Pine_Tree_OneSided_l_05.mtl
o Pine_Tree_OneSided_l_05
v 0.022906 4.314468 2.484534
v 0.120485 7.593331 0.825743
v -0.434963 7.661089 0.595065
v -1.727074 4.731237 1.757825
v 1.780702 4.724215 -1.751037
v 0.677316 7.642006 -0.518745
v 0.907144 7.579892 0.038161
v 2.504585 4.311488 0.003394
v 0.022935 4.314713 -2.477746
v 0.120799 7.595930 -0.749422
v 0.677095 7.640189 0.595065
v 1.780682 4.724044 1.757825
v -1.727053 4.731412 -1.751037
v -0.434741 7.662945 -0.518745
v -2.459122 4.316742 0.003394
v -0.665924 7.608847 0.038161
v 1.762089 6.076218 1.704764
v 0.811302 9.686677 0.515531
v 0.348041 10.000725 0.714187
v 0.077430 6.608664 2.367665
v 0.077468 6.608838 -2.363596
v 0.348445 10.002562 -0.668458
v 0.811563 9.687924 -0.469802
v 1.762113 6.076334 -1.700696
v -1.638763 6.101555 -1.700696
v -0.171940 9.723604 -0.469802
v 1.038159 9.973338 0.022864
v 2.439026 6.579765 0.002034
v -2.284444 6.632483 0.002034
v -0.341730 10.029065 0.022864
v -1.638787 6.101435 1.704764
v -0.172202 9.722335 0.515531
v 2.423004 8.248470 0.000001
v 1.390728 12.538262 0.000002
v 1.243523 12.785574 0.407358
v 1.669516 8.701335 1.460400
v -1.246075 8.785037 -1.460398
v 0.427574 12.834885 -0.407355
v 0.790398 12.572506 -0.599527
v 0.178380 8.304418 -2.248863
v -2.066573 8.353914 0.000001
v 0.190065 12.606153 0.000002
v 1.243523 12.785574 -0.407355
v 1.669516 8.701335 -1.460397
v -1.246075 8.785036 1.460400
v 0.427574 12.834885 0.407358
v 0.178380 8.304418 2.248864
v 0.790398 12.572506 0.599530
v 2.370046 10.525187 0.000002
v 1.677743 14.055048 0.000002
v 1.534712 14.332108 0.369322
v 1.630058 11.103838 1.158984
v -0.684512 11.233753 -1.158980
v 0.795312 14.382927 -0.369318
v 1.111995 14.091892 -0.565168
v 0.398397 10.622877 -1.974777
v -1.573636 10.714508 0.000002
v 0.546221 14.128241 0.000002
v 1.534712 14.332108 -0.369318
v 1.630058 11.103838 -1.158980
v -0.684512 11.233753 1.158983
v 0.795312 14.382927 0.369322
v 0.398397 10.622877 1.974779
v 1.111995 14.091892 0.565173
v 2.303375 14.931260 0.000002
v 1.956131 17.138775 0.000003
v 1.894469 17.344641 0.197126
v 2.022010 15.314606 0.690253
v 0.637399 15.408815 -0.690249
v 1.500152 17.368826 -0.197121
v 1.668130 17.156792 -0.287809
v 1.252676 15.003917 -1.046931
v 0.202062 15.077866 0.000002
v 1.380138 17.174961 0.000003
v 1.894469 17.344641 -0.197121
v 2.022011 15.314606 -0.690249
v 0.637399 15.408815 0.690253
v 1.500152 17.368826 0.197126
v 1.252676 15.003917 1.046934
v 1.668129 17.156792 0.287815
v 2.061959 17.769331 0.000003
v 1.829965 18.711241 0.000003
v 1.975646 17.843294 0.227845
v 1.520111 17.868860 -0.227840
v 1.739820 17.787495 -0.322215
v 1.417681 17.805710 0.000003
v 1.975646 17.843294 -0.227840
v 1.520110 17.868860 0.227845
v 1.739820 17.787493 0.322220
v 1.575307 16.619724 -0.693558
v 1.106555 16.789124 -0.490418
v 0.881093 16.662477 0.000003
v 1.106554 16.789124 0.490424
v 1.575307 16.619724 0.693562
v 2.088114 16.729694 0.490423
v 2.088114 16.729694 -0.490418
v 2.269527 16.577347 0.000003
v 2.217600 12.915496 0.000002
v 1.813562 15.800735 0.000002
v 1.731359 15.950180 0.251858
v 1.833696 13.198515 0.973748
v -0.121960 13.339330 -0.973744
v 1.226792 15.984139 -0.251853
v 1.452347 15.825025 -0.360579
v 0.800350 13.016147 -1.411566
v -0.616365 13.117325 0.000002
v 1.091190 15.849413 0.000003
v 1.731359 15.950180 -0.251853
v 1.833696 13.198515 -0.973744
v -0.121960 13.339330 0.973748
v 1.226792 15.984139 0.251858
v 0.800350 13.016147 1.411569
v 1.452347 15.825025 0.360583
v -0.279976 0.309634 -0.017526
v -0.157916 3.854148 0.027851
v 0.032808 3.792428 -0.210313
v -0.053607 0.300813 -0.298837
v 0.069965 8.353638 -0.040814
v 0.228412 8.463318 -0.217864
v 0.283568 0.307550 0.188658
v 0.274903 3.848269 0.212287
v -0.026194 3.850294 0.293068
v -0.079445 0.307830 0.287994
v 0.359884 8.415872 0.109172
v 0.188619 8.415583 0.154582
v 0.291773 3.883554 -0.092060
v 0.277787 0.311718 -0.166663
v 0.398325 8.481769 -0.124703
v 1.792170 14.585793 -0.619918
v 0.168999 3.836246 -0.169306
v -0.040265 6.267688 -0.005687
v 0.370678 15.246820 0.358981
v -0.560847 8.546432 -1.959964
v 2.208887 6.326657 0.902178
v -1.095240 6.211578 -1.149407
v 0.322940 8.482841 -0.189762
v -0.063148 1.885302 0.300326
v 2.178701 17.117046 0.000003
v 1.965845 16.346264 0.448076
v 0.751333 12.332767 1.293887
v -0.108694 3.855634 0.171211
v 0.547753 14.674229 -0.619918
v 0.968561 6.342985 -2.140668
v 1.783235 15.874756 0.130391
v -0.576650 7.635606 0.327489
v -1.583225 5.948570 0.020777
v 0.278085 8.416574 0.151029
v 2.041262 17.243761 0.372625
v 1.596311 15.887322 0.316990
v 2.211750 15.119523 0.358981
v -0.415515 10.831054 -0.942529
v 0.948879 4.519042 2.235102
v 1.295730 17.287830 -0.372620
v 1.623980 14.192271 0.191998
v 2.208899 6.326715 -0.898110
v -2.069962 6.368011 0.902178
v 0.214303 8.330451 -1.534221
v 2.256607 4.517788 -0.921010
v 0.962511 16.727743 -0.258165
v 0.482009 10.417938 -1.446435
v 0.315029 13.179543 -1.258151
v 0.079067 9.863494 -0.591378
v 1.844668 16.673948 -0.623269
v -1.761467 8.571589 0.757257
v 1.299986 7.857400 -1.099748
v -0.434894 13.233021 0.510891
v 1.792170 14.585793 0.619922
v 1.966761 18.295631 0.000003
v 2.256597 4.517703 0.927798
v 1.596311 15.887322 -0.316986
v 1.243629 6.197251 -1.149407
v 1.651429 17.148457 0.526971
v 0.653015 14.256901 -0.191993
v 1.467549 10.763493 0.942532
v 0.409919 7.618760 -0.660340
v 2.091409 13.052341 0.510891
v 1.784986 17.250511 -0.251381
v -1.222754 10.978307 0.588036
v 1.726286 5.931367 0.020777
v 2.136639 16.017389 0.000003
v 0.214077 8.329432 1.559119
v 0.931180 15.207155 0.917467
v 0.370678 15.246820 -0.358977
v 2.151385 8.472441 0.757257
v 0.302366 3.869896 0.061323
v 1.330695 14.211480 0.484957
v 0.968530 6.342838 2.144736
v -0.899123 4.523325 -2.228315
v 1.580454 17.263014 -0.251381
v -0.560847 8.546432 1.959966
v -1.095364 6.210550 1.190961
v 0.315029 13.179543 1.258154
v 2.093711 10.810008 -0.588033
v 1.022771 10.861973 -1.660695
v 0.950966 8.501520 1.959966
v 1.926692 10.372368 0.000002
v -0.279033 9.877551 -0.232684
v 1.917998 18.320602 -0.123470
v 1.861875 17.873785 -0.270195
v -0.151579 10.930029 -1.660695
v 1.638118 17.886307 -0.270195
v 1.651196 15.158401 0.917467
v 1.299843 7.856710 1.124646
v -0.899148 4.523116 2.235103
v 0.135732 6.295674 -0.213570
v 0.135939 8.404164 -0.142141
v -0.151579 10.930029 1.660697
v 0.114878 8.378545 0.066678
v 0.348495 6.352356 -0.107369
v -0.075268 3.819875 -0.104160
v 1.431237 17.272423 0.102257
v 1.651197 15.158401 -0.917463
v -1.761467 8.571589 -0.757255
v -0.829432 6.354933 2.144736
v 1.758077 8.300646 0.012449
v 1.327974 16.705166 0.623274
v 2.210134 16.651600 -0.258165
v 1.861875 17.873785 0.270200
v 1.792226 18.305317 -0.174614
v 0.055297 12.833513 -0.768119
v 1.335423 12.660544 -0.211232
v 0.127971 3.847042 0.271766
v 0.071560 5.939635 1.675667
v 0.393363 8.448054 -0.005430
v 0.318458 6.297941 0.162471
v 1.792226 18.305317 0.174620
v 1.934208 17.241180 -0.102252
v 1.024541 12.678458 -0.521681
v 0.601405 12.704272 -0.521682
v -2.207072 4.524092 -0.921010
v 2.025073 14.345327 0.000002
v 2.020108 17.864885 -0.111916
v 1.965846 16.346266 -0.448072
v 0.751333 12.332767 -1.293884
v -0.434894 13.233021 -0.510886
v -0.829401 6.355080 -2.140668
v -2.207082 4.524004 0.927798
v 0.946928 9.828776 0.278413
v -0.019482 1.849164 -0.260119
v -0.207576 0.308732 0.153149
v 0.947063 9.829429 -0.232684
v 0.589210 9.844936 -0.591378
v 1.295729 17.287830 0.372626
v -0.921182 7.887900 -1.099748
v 0.122231 0.306265 -0.262508
v 1.590220 12.742114 0.768123
v 0.948903 4.519249 -2.228315
v -0.191809 0.305223 -0.178708
v 0.409637 7.616432 0.736661
v 1.335110 15.904860 -0.316986
v -0.279169 9.876884 0.278413
v 1.148216 15.917483 0.130391
v 0.818318 7.609329 0.327489
v 0.818435 7.610287 -0.251168
v 1.651429 17.148457 -0.526966
v 2.020108 17.864885 0.111922
v 2.093711 10.810008 0.588037
v -1.329892 8.356019 0.012449
v 1.467549 10.763493 -0.942529
v 0.313298 0.309634 0.012477
v 1.917997 18.320602 0.123476
v 0.290523 12.721898 0.211236
v -0.921326 7.887199 1.124646
v 0.777775 16.110258 0.000003
v 1.022771 10.861973 1.660697
v 2.043913 12.264524 0.000002
v -0.167816 7.629790 -0.660340
v 0.112184 0.307690 0.269216
v 1.341161 13.105499 1.258154
v 1.341161 13.105499 -1.258151
v 1.431238 17.272423 -0.102252
v 1.335423 12.660544 0.211236
v 1.783235 15.874756 -0.130386
v 1.479884 17.895231 -0.111916
v 1.784986 17.250511 0.251386
v 1.580454 17.263014 0.251386
v 1.457183 16.063444 0.677435
v 1.590220 12.742114 -0.768119
v 0.085038 6.301408 0.224780
v 1.124160 17.180096 0.000003
v 1.934208 17.241180 0.102257
v 0.653015 14.256901 0.191998
v 0.601405 12.704272 0.521685
v 1.844668 16.673948 0.623273
v 2.211751 15.119523 -0.358977
v -1.222754 10.978307 -0.588033
v 1.243508 6.196245 1.190961
v 1.123855 14.408610 0.898023
v 1.067610 16.405977 0.448076
v 1.623980 14.192271 -0.191993
v 0.931180 15.207155 -0.917463
v -0.962849 10.459814 0.000002
v 0.588858 9.843307 0.637107
v 1.638118 17.886307 0.270200
v 1.330695 14.211480 -0.484953
v 0.946311 14.237921 -0.484953
v -0.233120 1.891790 0.006836
v 0.946311 14.237921 0.484957
v 0.290523 12.721898 -0.211232
v 0.547753 14.674229 0.619922
v 2.210134 16.651600 0.258170
v 1.479884 17.895231 0.111922
v 1.327974 16.705166 -0.623269
v 1.617691 18.315016 0.000003
v -0.541463 12.397574 0.000002
v -0.168099 7.627439 0.736661
v 1.123855 14.408610 -0.898019
v -0.415515 10.831054 0.942532
v 2.041262 17.243761 -0.372620
v 0.962511 16.727743 0.258170
v 0.071733 5.941074 -1.634113
v 0.284724 1.902878 -0.131575
v 1.335110 15.904860 0.316990
v 2.091409 13.052341 -0.510886
v 1.457183 16.063444 -0.677431
v 1.148216 15.917483 -0.130386
v 0.222949 14.472223 0.000002
v 1.671177 18.334274 -0.123470
v 1.024541 12.678458 0.521685
v 0.482009 10.417938 1.446438
v -2.069950 6.368071 -0.898110
v -0.576532 7.636586 -0.251168
v 0.281272 1.884682 0.206818
v 1.671177 18.334270 0.123476
v 1.067610 16.405977 -0.448072
v 0.055297 12.833512 0.768122
v 2.151385 8.472441 -0.757254
v 0.950966 8.501520 -1.959964
v 0.078715 9.861853 0.637107
v 0.348337 6.326854 0.029031
v 0.304744 1.895772 0.038781
v 0.008662 6.283980 0.118595
v -0.166903 1.890253 0.165675
v 0.249057 6.327004 -0.176459
v 0.139778 1.875149 -0.216066
v 0.204993 6.298873 0.210351
v 0.114666 1.883873 0.274700
v 0.036408 6.278357 -0.120894
v -0.142040 1.868771 -0.140804
v 1.468736 14.496410 0.787572
v 0.825069 14.542200 0.787572
v 0.356661 14.575251 0.320641
v 1.937322 14.463547 -0.320636
v 1.468736 14.496410 -0.787568
v 0.356661 14.575251 -0.320636
v 0.825069 14.542200 -0.787568
v 1.937322 14.463547 0.320641
v 2.126730 17.179405 0.193248
v 1.466647 17.218534 0.466537
v 1.193196 17.234970 -0.193242
v 2.126730 17.179405 -0.193242
v 1.853278 17.195709 -0.466532
v 1.853278 17.195709 0.466537
v 1.193196 17.234970 0.193248
v 1.466647 17.218534 -0.466532
v 1.718091 16.204456 0.584426
v 1.255817 16.235085 0.584426
v 0.900957 16.259621 0.230619
v 2.072979 16.180351 -0.230614
v 1.718091 16.204456 -0.584422
v 0.900958 16.259621 -0.230614
v 1.255817 16.235085 -0.584422
v 2.072979 16.180351 0.230619
v 1.176733 12.536726 1.072827
v 0.397366 12.583974 1.072827
v -0.284869 12.617603 0.390017
v 1.858846 12.501139 -0.390013
v 1.176733 12.536726 -1.072824
v -0.284869 12.617603 -0.390013
v 0.397366 12.583974 -1.072824
v 1.858846 12.501139 0.390017
v 0.987753 10.589989 1.240825
v 0.020279 10.625351 1.240825
v -0.735472 10.646744 0.484246
v 1.743404 10.566492 -0.484243
v 0.987753 10.589989 -1.240823
v -0.735472 10.646744 -0.484243
v 0.020279 10.625351 -1.240823
v 1.743404 10.566492 0.484246
v -0.375359 8.108393 1.390921
v -1.174565 8.122448 0.590296
v -1.174491 8.122810 -0.565397
v 1.577907 8.077717 0.590296
v 1.577981 8.078072 -0.565397
v -0.375167 8.109286 -1.366023
v 0.778886 8.093960 -1.366023
v 0.778694 8.093073 1.390921
v -1.391866 6.079805 0.627644
v -1.391802 6.080338 -0.586089
v -0.533470 6.076557 -1.444327
v 0.679258 6.067736 1.485881
v 1.537458 6.063516 0.627643
v 0.679411 6.069004 -1.444327
v 1.537521 6.064037 -0.586089
v -0.533624 6.075277 1.485881
vt 0.9553 0.4130
vt 0.9477 0.4295
vt 0.9430 0.4291
vt 0.9438 0.4096
vt 0.9528 0.4658
vt 0.9467 0.4484
vt 0.9514 0.4484
vt 0.9647 0.4635
vt 0.9294 0.4647
vt 0.9374 0.4480
vt 0.9421 0.4483
vt 0.9410 0.4682
vt 0.9681 0.4518
vt 0.9517 0.4437
vt 0.9520 0.4391
vt 0.9715 0.4402
vt 0.9692 0.4284
vt 0.9521 0.4345
vt 0.9523 0.4298
vt 0.9669 0.4165
vt 0.9154 0.4493
vt 0.9330 0.4429
vt 0.9328 0.4476
vt 0.9178 0.4613
vt 0.9166 0.4259
vt 0.9334 0.4336
vt 0.9331 0.4382
vt 0.9131 0.4374
vt 0.9319 0.4119
vt 0.9384 0.4290
vt 0.9337 0.4289
vt 0.9200 0.4143
vt 0.9585 0.4094
vt 0.9510 0.4269
vt 0.9461 0.4266
vt 0.9462 0.4061
vt 0.9576 0.4649
vt 0.9506 0.4467
vt 0.9555 0.4467
vt 0.9699 0.4620
vt 0.9330 0.4645
vt 0.9409 0.4466
vt 0.9458 0.4468
vt 0.9453 0.4677
vt 0.9732 0.4497
vt 0.9556 0.4418
vt 0.9558 0.4369
vt 0.9764 0.4374
vt 0.9735 0.4250
vt 0.9558 0.4320
vt 0.9558 0.4271
vt 0.9707 0.4126
vt 0.9178 0.4488
vt 0.9360 0.4414
vt 0.9360 0.4464
vt 0.9207 0.4612
vt 0.9182 0.4241
vt 0.9361 0.4316
vt 0.9360 0.4365
vt 0.9150 0.4363
vt 0.9338 0.4090
vt 0.9412 0.4266
vt 0.9363 0.4267
vt 0.9215 0.4118
vt 0.9484 0.4110
vt 0.9412 0.4263
vt 0.9371 0.4261
vt 0.9377 0.4078
vt 0.9462 0.4592
vt 0.9404 0.4429
vt 0.9445 0.4430
vt 0.9570 0.4570
vt 0.9247 0.4582
vt 0.9322 0.4426
vt 0.9363 0.4428
vt 0.9353 0.4613
vt 0.9600 0.4464
vt 0.9447 0.4389
vt 0.9448 0.4348
vt 0.9631 0.4358
vt 0.9610 0.4249
vt 0.9450 0.4307
vt 0.9452 0.4266
vt 0.9590 0.4140
vt 0.9119 0.4442
vt 0.9283 0.4381
vt 0.9281 0.4423
vt 0.9140 0.4552
vt 0.9129 0.4227
vt 0.9287 0.4299
vt 0.9285 0.4340
vt 0.9099 0.4333
vt 0.9269 0.4100
vt 0.9330 0.4259
vt 0.9289 0.4258
vt 0.9160 0.4121
vt 0.9484 0.4110
vt 0.9412 0.4263
vt 0.9371 0.4261
vt 0.9377 0.4078
vt 0.9462 0.4592
vt 0.9404 0.4429
vt 0.9445 0.4430
vt 0.9570 0.4570
vt 0.9247 0.4582
vt 0.9322 0.4426
vt 0.9363 0.4428
vt 0.9353 0.4613
vt 0.9600 0.4464
vt 0.9447 0.4389
vt 0.9448 0.4348
vt 0.9631 0.4358
vt 0.9610 0.4249
vt 0.9450 0.4307
vt 0.9452 0.4266
vt 0.9590 0.4140
vt 0.9119 0.4442
vt 0.9283 0.4381
vt 0.9281 0.4423
vt 0.9140 0.4552
vt 0.9129 0.4227
vt 0.9287 0.4299
vt 0.9285 0.4340
vt 0.9099 0.4333
vt 0.9269 0.4100
vt 0.9330 0.4259
vt 0.9289 0.4258
vt 0.9160 0.4121
vt 0.9484 0.4110
vt 0.9412 0.4263
vt 0.9371 0.4261
vt 0.9377 0.4078
vt 0.9462 0.4592
vt 0.9404 0.4429
vt 0.9445 0.4430
vt 0.9570 0.4570
vt 0.9247 0.4582
vt 0.9322 0.4426
vt 0.9363 0.4428
vt 0.9353 0.4613
vt 0.9600 0.4464
vt 0.9447 0.4389
vt 0.9448 0.4348
vt 0.9631 0.4358
vt 0.9610 0.4249
vt 0.9450 0.4307
vt 0.9452 0.4266
vt 0.9590 0.4140
vt 0.9119 0.4442
vt 0.9283 0.4381
vt 0.9281 0.4423
vt 0.9140 0.4552
vt 0.9129 0.4227
vt 0.9287 0.4299
vt 0.9285 0.4340
vt 0.9099 0.4333
vt 0.9269 0.4100
vt 0.9330 0.4259
vt 0.9289 0.4258
vt 0.9160 0.4121
vt 0.9727 0.4015
vt 0.9549 0.4138
vt 0.9555 0.3956
vt 0.9343 0.4799
vt 0.9394 0.4614
vt 0.9519 0.4755
vt 0.9000 0.4680
vt 0.9181 0.4554
vt 0.9172 0.4739
vt 0.9695 0.4711
vt 0.9571 0.4530
vt 0.9755 0.4539
vt 0.9814 0.4368
vt 0.9633 0.4317
vt 0.9771 0.4191
vt 0.8912 0.4327
vt 0.9096 0.4375
vt 0.8956 0.4503
vt 0.9031 0.3984
vt 0.9158 0.4162
vt 0.8972 0.4155
vt 0.9384 0.3896
vt 0.9337 0.4077
vt 0.9208 0.3940
vt 0.9519 0.4755
vt 0.9695 0.4711
vt 0.9695 0.4711
vt 0.9519 0.4755
vt 0.8956 0.4503
vt 0.9000 0.4680
vt 0.9000 0.4680
vt 0.8956 0.4503
vt 0.9208 0.3940
vt 0.9031 0.3984
vt 0.9031 0.3984
vt 0.9208 0.3940
vt 0.9755 0.4539
vt 0.9814 0.4368
vt 0.9814 0.4368
vt 0.9755 0.4539
vt 0.9771 0.4191
vt 0.9727 0.4015
vt 0.9727 0.4015
vt 0.9771 0.4191
vt 0.9172 0.4739
vt 0.9343 0.4799
vt 0.9343 0.4799
vt 0.9172 0.4739
vt 0.8972 0.4155
vt 0.8912 0.4327
vt 0.8912 0.4327
vt 0.8972 0.4155
vt 0.9555 0.3956
vt 0.9384 0.3896
vt 0.9384 0.3896
vt 0.9555 0.3956
vt 0.9484 0.4110
vt 0.9412 0.4263
vt 0.9371 0.4261
vt 0.9377 0.4078
vt 0.9462 0.4592
vt 0.9404 0.4429
vt 0.9445 0.4430
vt 0.9570 0.4570
vt 0.9247 0.4582
vt 0.9322 0.4426
vt 0.9363 0.4428
vt 0.9353 0.4613
vt 0.9600 0.4464
vt 0.9447 0.4389
vt 0.9448 0.4348
vt 0.9631 0.4358
vt 0.9610 0.4249
vt 0.9450 0.4307
vt 0.9452 0.4266
vt 0.9590 0.4140
vt 0.9119 0.4442
vt 0.9283 0.4381
vt 0.9281 0.4423
vt 0.9140 0.4552
vt 0.9129 0.4227
vt 0.9287 0.4299
vt 0.9285 0.4340
vt 0.9099 0.4333
vt 0.9269 0.4100
vt 0.9330 0.4259
vt 0.9289 0.4258
vt 0.9160 0.4121
vt 0.8048 0.9140
vt 0.8032 0.9391
vt 0.8010 0.9383
vt 0.8023 0.9136
vt 0.8016 0.9648
vt 0.8000 0.9905
vt 0.7982 0.9912
vt 0.7996 0.9647
vt 0.7894 0.9139
vt 0.7896 0.9391
vt 0.7872 0.9391
vt 0.7867 0.9139
vt 0.7900 0.9647
vt 0.7905 0.9904
vt 0.7893 0.9904
vt 0.7882 0.9648
vt 0.7998 0.9139
vt 0.7988 0.9390
vt 0.7966 0.9397
vt 0.7973 0.9142
vt 0.7978 0.9651
vt 0.7968 0.9912
vt 0.7953 0.9912
vt 0.7959 0.9654
vt 0.8100 0.9147
vt 0.8077 0.9398
vt 0.8055 0.9398
vt 0.8074 0.9145
vt 0.8056 0.9651
vt 0.8035 0.9904
vt 0.8018 0.9898
vt 0.8037 0.9648
vt 0.7947 0.9140
vt 0.7943 0.9394
vt 0.7920 0.9391
vt 0.7922 0.9139
vt 0.7939 0.9651
vt 0.7935 0.9907
vt 0.7917 0.9903
vt 0.7918 0.9647
vt 0.7951 0.8887
vt 0.7923 0.8887
vt 0.7980 0.8887
vt 0.8100 0.9399
vt 0.8076 0.9654
vt 0.8052 0.9910
vt 0.8123 0.8895
vt 0.8093 0.8892
vt 0.8152 0.8898
vt 0.8126 0.9148
vt 0.8008 0.8888
vt 0.8036 0.8888
vt 0.7893 0.8887
vt 0.7863 0.8887
vt 0.8065 0.8890
vt 0.9208 0.3940
vt 0.9031 0.3984
vt 0.9384 0.3896
vt 0.8972 0.4155
vt 0.8912 0.4327
vt 0.8956 0.4503
vt 0.9000 0.4680
vt 0.9771 0.4191
vt 0.9727 0.4015
vt 0.9814 0.4368
vt 0.9755 0.4539
vt 0.9695 0.4711
vt 0.9172 0.4739
vt 0.9343 0.4799
vt 0.9519 0.4755
vt 0.9555 0.3956
vt 0.9160 0.4121
vt 0.9289 0.4258
vt 0.9099 0.4333
vt 0.9285 0.4340
vt 0.9140 0.4552
vt 0.9281 0.4423
vt 0.9590 0.4140
vt 0.9452 0.4266
vt 0.9631 0.4358
vt 0.9448 0.4348
vt 0.9353 0.4613
vt 0.9363 0.4428
vt 0.9570 0.4570
vt 0.9445 0.4430
vt 0.9377 0.4078
vt 0.9371 0.4261
vt 0.9208 0.3940
vt 0.9031 0.3984
vt 0.9384 0.3896
vt 0.8972 0.4155
vt 0.8912 0.4327
vt 0.8956 0.4503
vt 0.9000 0.4680
vt 0.9771 0.4191
vt 0.9727 0.4015
vt 0.9814 0.4368
vt 0.9755 0.4539
vt 0.9695 0.4711
vt 0.9172 0.4739
vt 0.9343 0.4799
vt 0.9519 0.4755
vt 0.9555 0.3956
vt 0.9208 0.3940
vt 0.9031 0.3984
vt 0.9384 0.3896
vt 0.8972 0.4155
vt 0.8912 0.4327
vt 0.8956 0.4503
vt 0.9000 0.4680
vt 0.9771 0.4191
vt 0.9727 0.4015
vt 0.9814 0.4368
vt 0.9755 0.4539
vt 0.9695 0.4711
vt 0.9172 0.4739
vt 0.9343 0.4799
vt 0.9519 0.4755
vt 0.9555 0.3956
vt 0.9208 0.3940
vt 0.9031 0.3984
vt 0.9384 0.3896
vt 0.8972 0.4155
vt 0.8912 0.4327
vt 0.8956 0.4503
vt 0.9000 0.4680
vt 0.9771 0.4191
vt 0.9727 0.4015
vt 0.9814 0.4368
vt 0.9755 0.4539
vt 0.9695 0.4711
vt 0.9172 0.4739
vt 0.9343 0.4799
vt 0.9519 0.4755
vt 0.9555 0.3956
vt 0.9265 0.3913
vt 0.9066 0.3969
vt 0.9464 0.3857
vt 0.9003 0.4165
vt 0.8940 0.4362
vt 0.8996 0.4561
vt 0.9053 0.4760
vt 0.9913 0.4180
vt 0.9857 0.3982
vt 0.9969 0.4379
vt 0.9906 0.4576
vt 0.9844 0.4773
vt 0.9250 0.4823
vt 0.9447 0.4886
vt 0.9646 0.4829
vt 0.9661 0.3920
vt 0.9254 0.3949
vt 0.9063 0.3996
vt 0.9445 0.3901
vt 0.8997 0.4182
vt 0.8931 0.4367
vt 0.8979 0.4558
vt 0.9027 0.4749
vt 0.9863 0.4223
vt 0.9815 0.4032
vt 0.9911 0.4413
vt 0.9845 0.4599
vt 0.9780 0.4785
vt 0.9213 0.4815
vt 0.9399 0.4881
vt 0.9589 0.4833
vt 0.9630 0.3967
vn -0.2533 0.4648 0.8484
vn -0.2619 0.4696 0.8431
vn -0.6011 0.5158 0.6104
vn -0.6066 0.5098 0.6100
vn 0.8549 0.4492 -0.2595
vn 0.8496 0.4540 -0.2683
vn 0.8933 0.4495 0.0018
vn 0.8960 0.4441 0.0006
vn 0.2575 0.4679 -0.8454
vn 0.2701 0.4725 -0.8390
vn 0.6178 0.4988 -0.6079
vn 0.6170 0.4926 -0.6137
vn 0.8565 0.4447 0.2619
vn 0.8510 0.4495 0.2716
vn 0.6197 0.4881 0.6146
vn 0.6211 0.4818 0.6182
vn 0.2629 0.4533 0.8517
vn 0.2747 0.4579 0.8455
vn 0.0066 0.4617 0.8870
vn 0.0036 0.4564 0.8898
vn -0.2479 0.4790 -0.8421
vn -0.2570 0.4838 -0.8366
vn 0.0067 0.4761 -0.8793
vn 0.0036 0.4710 -0.8821
vn -0.8368 0.4876 -0.2491
vn -0.8307 0.4923 -0.2600
vn -0.5988 0.5262 -0.6039
vn -0.6023 0.5201 -0.6055
vn -0.8385 0.4835 0.2513
vn -0.8323 0.4880 0.2630
vn -0.8726 0.4885 0.0016
vn -0.8754 0.4834 0.0005
vn 0.4808 0.3873 0.7867
vn 0.4895 0.3869 0.7815
vn 0.0229 0.4575 0.8889
vn 0.0079 0.4500 0.8930
vn 0.4823 0.3946 -0.7821
vn 0.4918 0.3940 -0.7765
vn 0.6582 0.3876 -0.6454
vn 0.6574 0.3870 -0.6465
vn -0.4617 0.4525 -0.7629
vn -0.4627 0.4540 -0.7615
vn 0.0232 0.4662 -0.8844
vn 0.0081 0.4586 -0.8886
vn 0.7978 0.3734 -0.4734
vn 0.7929 0.3739 -0.4812
vn 0.9141 0.4055 0.0013
vn 0.9182 0.3961 -0.0004
vn 0.8002 0.3686 0.4731
vn 0.7952 0.3691 0.4810
vn 0.6591 0.3816 0.6480
vn 0.6587 0.3809 0.6489
vn -0.7501 0.4678 -0.4674
vn -0.7481 0.4689 -0.4695
vn -0.6216 0.4635 -0.6315
vn -0.6231 0.4626 -0.6308
vn -0.7529 0.4637 0.4670
vn -0.7509 0.4648 0.4692
vn -0.8574 0.5146 0.0011
vn -0.8620 0.5069 -0.0004
vn -0.4607 0.4453 0.7677
vn -0.4610 0.4469 0.7666
vn -0.6230 0.4580 0.6341
vn -0.6247 0.4570 0.6332
vn 0.9121 0.2202 0.3458
vn 0.9163 0.2191 0.3352
vn 0.6983 0.2643 0.6652
vn 0.6866 0.2597 0.6791
vn -0.3073 0.3844 -0.8705
vn -0.3030 0.3843 -0.8721
vn 0.0215 0.3562 -0.9342
vn 0.0185 0.3543 -0.9350
vn -0.8370 0.4517 -0.3088
vn -0.8348 0.4523 -0.3140
vn -0.6155 0.4406 -0.6535
vn -0.6293 0.4371 -0.6426
vn 0.3482 0.2971 -0.8891
vn 0.3452 0.2972 -0.8902
vn 0.6983 0.2643 -0.6652
vn 0.6866 0.2597 -0.6791
vn 0.9121 0.2202 -0.3458
vn 0.9163 0.2191 -0.3352
vn 0.9731 0.2303 0.0000
vn 0.9736 0.2282 0.0000
vn -0.8370 0.4517 0.3088
vn -0.8348 0.4523 0.3140
vn -0.8830 0.4694 0.0000
vn -0.8843 0.4669 0.0000
vn -0.3073 0.3844 0.8705
vn -0.3030 0.3843 0.8721
vn -0.6155 0.4406 0.6535
vn -0.6293 0.4371 0.6426
vn 0.3482 0.2971 0.8891
vn 0.3452 0.2972 0.8902
vn 0.0215 0.3562 0.9342
vn 0.0185 0.3543 0.9350
vn 0.8968 0.1706 0.4083
vn 0.9028 0.1670 0.3964
vn 0.7106 0.2091 0.6718
vn 0.6939 0.2065 0.6898
vn -0.3338 0.4104 -0.8486
vn -0.3236 0.4072 -0.8541
vn 0.0398 0.3641 -0.9305
vn 0.0363 0.3625 -0.9313
vn -0.8008 0.4965 -0.3349
vn -0.8024 0.4952 -0.3330
vn -0.5986 0.4665 -0.6512
vn -0.6168 0.4645 -0.6354
vn 0.4075 0.2672 -0.8732
vn 0.4026 0.2648 -0.8763
vn 0.7106 0.2091 -0.6718
vn 0.6939 0.2065 -0.6898
vn 0.8968 0.1706 -0.4083
vn 0.9028 0.1670 -0.3964
vn 0.9826 0.1858 0.0000
vn 0.9831 0.1832 0.0000
vn -0.8008 0.4965 0.3349
vn -0.8024 0.4952 0.3330
vn -0.8514 0.5245 0.0000
vn -0.8525 0.5227 0.0000
vn -0.3338 0.4104 0.8486
vn -0.3236 0.4072 0.8541
vn -0.5986 0.4665 0.6512
vn -0.6168 0.4645 0.6354
vn 0.4075 0.2672 0.8732
vn 0.4026 0.2648 0.8763
vn 0.0398 0.3641 0.9305
vn 0.0363 0.3625 0.9313
vn 0.9546 0.1529 0.2555
vn 0.9534 0.1528 0.2603
vn 0.7146 0.2270 0.6617
vn 0.6972 0.2238 0.6811
vn -0.2183 0.3600 -0.9070
vn -0.2115 0.3571 -0.9098
vn 0.0269 0.3228 -0.9461
vn 0.0234 0.3231 -0.9461
vn -0.8490 0.4723 -0.2370
vn -0.8528 0.4696 -0.2287
vn -0.5945 0.4536 -0.6640
vn -0.6134 0.4506 -0.6486
vn 0.2661 0.2748 -0.9239
vn 0.2705 0.2722 -0.9234
vn 0.7146 0.2270 -0.6617
vn 0.6972 0.2238 -0.6811
vn 0.9546 0.1529 -0.2555
vn 0.9534 0.1528 -0.2603
vn 0.9883 0.1524 0.0000
vn 0.9885 0.1513 0.0000
vn -0.8490 0.4723 0.2370
vn -0.8528 0.4696 0.2287
vn -0.8754 0.4834 -0.0000
vn -0.8752 0.4838 -0.0000
vn -0.2183 0.3600 0.9070
vn -0.2115 0.3571 0.9098
vn -0.5945 0.4536 0.6640
vn -0.6134 0.4506 0.6486
vn 0.2661 0.2748 0.9239
vn 0.2705 0.2722 0.9234
vn 0.0269 0.3228 0.9461
vn 0.0234 0.3231 0.9461
vn 0.9841 0.1774 0.0000
vn 0.9682 0.2503 0.0000
vn 0.9373 0.1835 0.2962
vn -0.6367 0.3874 -0.6667
vn -0.6277 0.4210 -0.6548
vn -0.2756 0.3149 -0.9082
vn -0.9135 0.4069 0.0000
vn -0.9063 0.4227 0.0000
vn -0.8768 0.3805 -0.2939
vn 0.0202 0.2934 -0.9558
vn 0.0205 0.3372 -0.9412
vn 0.3107 0.2513 -0.9167
vn 0.6979 0.2351 -0.6764
vn 0.6845 0.3028 -0.6631
vn 0.9373 0.1835 -0.2962
vn -0.6367 0.3874 0.6667
vn -0.6277 0.4210 0.6548
vn -0.8768 0.3805 0.2939
vn 0.0202 0.2934 0.9558
vn 0.0205 0.3372 0.9412
vn -0.2756 0.3149 0.9082
vn 0.6979 0.2351 0.6764
vn 0.6845 0.3028 0.6631
vn 0.3107 0.2513 0.9167
vn -0.2648 0.3375 -0.9033
vn 0.0190 0.3026 -0.9529
vn 0.0081 0.3049 -0.9524
vn -0.2535 0.3375 -0.9066
vn -0.8641 0.4171 0.2818
vn -0.9046 0.4263 -0.0000
vn -0.9031 0.4293 -0.0000
vn -0.8673 0.4210 0.2657
vn 0.3047 0.2622 0.9157
vn 0.0190 0.3026 0.9529
vn 0.0081 0.3049 0.9524
vn 0.2840 0.2647 0.9216
vn 0.3047 0.2622 -0.9157
vn 0.6967 0.2339 -0.6782
vn 0.6897 0.2304 -0.6864
vn 0.2840 0.2647 -0.9216
vn 0.9395 0.1786 -0.2924
vn 0.9847 0.1742 0.0000
vn 0.9850 0.1724 0.0000
vn 0.9448 0.1755 -0.2768
vn -0.8641 0.4171 -0.2818
vn -0.6314 0.4058 -0.6608
vn -0.6380 0.4075 -0.6534
vn -0.8673 0.4210 -0.2657
vn -0.2648 0.3375 0.9033
vn -0.6314 0.4058 0.6608
vn -0.6380 0.4075 0.6534
vn -0.2535 0.3375 0.9066
vn 0.9395 0.1786 0.2924
vn 0.6967 0.2339 0.6782
vn 0.6897 0.2304 0.6864
vn 0.9448 0.1755 0.2768
vn 0.9431 0.1405 0.3013
vn 0.9425 0.1421 0.3024
vn 0.7186 0.2163 0.6609
vn 0.6974 0.2148 0.6837
vn -0.2456 0.3946 -0.8854
vn -0.2402 0.3946 -0.8869
vn 0.0379 0.3423 -0.9388
vn 0.0284 0.3422 -0.9392
vn -0.8161 0.5154 -0.2615
vn -0.8163 0.5159 -0.2598
vn -0.5760 0.4896 -0.6546
vn -0.5977 0.4885 -0.6358
vn 0.3083 0.2767 -0.9101
vn 0.3142 0.2763 -0.9083
vn 0.7186 0.2163 -0.6609
vn 0.6974 0.2148 -0.6837
vn 0.9431 0.1405 -0.3013
vn 0.9425 0.1421 -0.3024
vn 0.9902 0.1395 0.0000
vn 0.9906 0.1368 -0.0000
vn -0.8161 0.5154 0.2615
vn -0.8163 0.5159 0.2598
vn -0.8486 0.5290 0.0000
vn -0.8495 0.5276 0.0000
vn -0.2456 0.3946 0.8854
vn -0.2402 0.3946 0.8869
vn -0.5760 0.4896 0.6546
vn -0.5977 0.4885 0.6358
vn 0.3083 0.2767 0.9101
vn 0.3142 0.2763 0.9083
vn 0.0379 0.3423 0.9388
vn 0.0284 0.3422 0.9392
vn -0.7773 0.0375 -0.6280
vn -0.7736 0.0343 -0.6327
vn -0.2397 0.0223 -0.9706
vn -0.2485 0.0328 -0.9681
vn -0.7652 0.0305 -0.6430
vn -0.7330 0.0288 -0.6796
vn -0.0670 -0.0003 -0.9978
vn -0.2167 0.0070 -0.9762
vn 0.2616 -0.0035 0.9652
vn 0.2577 0.0081 0.9662
vn -0.3994 0.0274 0.9164
vn -0.3761 0.0065 0.9265
vn 0.2561 0.0184 0.9665
vn 0.2599 0.0200 0.9654
vn -0.3395 0.0457 0.9395
vn -0.4048 0.0457 0.9133
vn 0.3877 0.0184 -0.9216
vn 0.4137 0.0002 -0.9104
vn 0.8619 -0.0095 -0.5071
vn 0.8374 0.0099 -0.5465
vn 0.4459 -0.0179 -0.8949
vn 0.4764 -0.0200 -0.8790
vn 0.8778 -0.0254 -0.4783
vn 0.8886 -0.0242 -0.4580
vn -0.8649 0.0199 0.5016
vn -0.8829 0.0388 0.4680
vn -0.9938 0.0426 -0.1026
vn -0.9960 0.0350 -0.0816
vn -0.8793 0.0547 0.4731
vn -0.8600 0.0571 0.5071
vn -0.9903 0.0500 -0.1294
vn -0.9931 0.0491 -0.1064
vn 0.9999 0.0016 0.0151
vn 0.9984 -0.0087 0.0565
vn 0.7752 -0.0004 0.6317
vn 0.7874 -0.0017 0.6165
vn 0.9943 -0.0183 0.1048
vn 0.9938 -0.0192 0.1092
vn 0.7966 -0.0024 0.6045
vn 0.7716 -0.0013 0.6361
vn 1.0000 0.0024 -0.0025
vn 0.7937 -0.0032 0.6083
vn 0.8236 0.0121 -0.5671
vn -0.8509 0.0150 0.5251
vn -0.9969 0.0322 -0.0720
vn -0.3645 0.0013 0.9312
vn 0.3718 0.0208 -0.9281
vn -0.2561 0.0335 -0.9661
vn 0.2636 -0.0067 0.9646
vn -0.7759 0.0368 -0.6298
vn 0.3004 0.2766 0.9128
vn 0.0066 0.3456 0.9383
vn 0.6859 0.2091 0.6970
vn -0.2572 0.3953 0.8818
vn -0.6114 0.4840 0.6261
vn -0.8166 0.5141 0.2622
vn -0.8499 0.5269 0.0000
vn 0.9421 0.1386 -0.3053
vn 0.9908 0.1352 -0.0000
vn 0.6859 0.2091 -0.6970
vn 0.3004 0.2766 -0.9128
vn 0.0066 0.3456 -0.9383
vn -0.8166 0.5141 -0.2622
vn -0.6114 0.4840 -0.6261
vn -0.2572 0.3953 -0.8818
vn 0.9421 0.1386 0.3053
vn 0.0867 0.9962 0.0000
vn 0.2601 0.2752 0.9256
vn 0.0082 0.3257 0.9454
vn 0.6927 0.2133 0.6890
vn -0.2259 0.3608 0.9049
vn -0.6220 0.4411 0.6469
vn -0.8475 0.4720 0.2426
vn -0.8751 0.4840 0.0000
vn 0.9559 0.1515 -0.2518
vn 0.9886 0.1509 0.0000
vn 0.6927 0.2133 -0.6890
vn 0.2601 0.2752 -0.9256
vn 0.0082 0.3257 -0.9454
vn -0.8475 0.4720 -0.2426
vn -0.6220 0.4411 -0.6469
vn -0.2259 0.3608 -0.9049
vn 0.9559 0.1515 0.2518
vn 0.4054 0.2665 0.8744
vn -0.0001 0.3683 0.9297
vn 0.6888 0.1977 0.6975
vn -0.3458 0.4105 0.8438
vn -0.6281 0.4579 0.6291
vn -0.8032 0.4959 0.3299
vn -0.8530 0.5220 0.0000
vn 0.8902 0.1692 -0.4230
vn 0.9833 0.1820 -0.0000
vn 0.6888 0.1977 -0.6975
vn 0.4054 0.2665 -0.8744
vn -0.0001 0.3683 -0.9297
vn -0.8032 0.4959 -0.3299
vn -0.6281 0.4579 -0.6291
vn -0.3458 0.4105 -0.8438
vn 0.8902 0.1692 0.4230
vn 0.3450 0.2959 0.8907
vn -0.0032 0.3558 0.9346
vn 0.6780 0.2524 0.6904
vn -0.3175 0.3837 0.8672
vn -0.6425 0.4317 0.6331
vn -0.8405 0.4504 0.3013
vn -0.8850 0.4657 0.0000
vn 0.9070 0.2187 -0.3600
vn 0.9739 0.2269 0.0000
vn 0.6780 0.2524 -0.6904
vn 0.3450 0.2959 -0.8907
vn -0.0032 0.3558 -0.9346
vn -0.8405 0.4504 -0.3013
vn -0.6425 0.4317 -0.6331
vn -0.3175 0.3837 -0.8672
vn 0.9070 0.2187 0.3600
vn -0.4637 0.4438 0.7668
vn -0.6287 0.4566 0.6295
vn -0.0097 0.4402 0.8978
vn -0.7563 0.4623 0.4630
vn -0.8677 0.4971 -0.0014
vn -0.7532 0.4664 -0.4638
vn -0.6264 0.4622 -0.6277
vn 0.8045 0.3671 0.4670
vn 0.6552 0.3807 0.6525
vn 0.9233 0.3841 -0.0015
vn 0.8017 0.3718 -0.4680
vn 0.6532 0.3869 -0.6508
vn -0.4640 0.4510 -0.7625
vn -0.0095 0.4489 -0.8935
vn 0.4700 0.3942 -0.7898
vn 0.4692 0.3867 0.7939
vn -0.8472 0.4794 0.2289
vn -0.8772 0.4801 -0.0006
vn -0.6140 0.5036 0.6078
vn -0.8452 0.4833 -0.2282
vn -0.6075 0.5139 -0.6057
vn -0.2301 0.4744 -0.8497
vn -0.0003 0.4677 -0.8839
vn 0.2398 0.4492 0.8607
vn -0.0004 0.4530 0.8915
vn 0.6211 0.4751 0.6233
vn 0.8646 0.4403 0.2421
vn 0.8977 0.4405 -0.0006
vn 0.2337 0.4641 -0.8544
vn 0.6146 0.4862 -0.6212
vn 0.8626 0.4446 -0.2414
vn -0.2362 0.4601 0.8559
usemtl None
s 1
f 395/1/1 306/2/2 3/3/3 191/4/4
f 394/5/5 254/6/6 7/7/7 179/8/8
f 393/9/9 175/10/10 6/11/11 171/12/12
f 392/13/13 253/14/14 11/15/15 287/16/16
f 391/17/17 249/18/18 2/19/19 223/20/20
f 390/21/21 267/22/22 10/23/23 311/24/24
f 389/25/25 322/26/26 14/27/27 135/28/28
f 388/29/29 145/30/30 16/31/31 146/32/32
f 387/33/33 293/34/34 19/35/35 181/36/36
f 386/37/37 242/38/38 23/39/39 165/40/40
f 385/41/41 162/42/42 22/43/43 157/44/44
f 384/45/45 241/46/46 27/47/47 215/48/48
f 383/49/49 238/50/50 18/51/51 203/52/52
f 382/53/53 197/54/54 26/55/55 244/56/56
f 381/57/57 251/58/58 30/59/59 258/60/60
f 380/61/61 329/62/62 32/63/63 263/64/64
f 379/65/65 272/66/66 35/67/67 174/68/68
f 378/69/69 229/70/70 39/71/71 160/72/72
f 377/73/73 299/74/74 38/75/75 151/76/76
f 376/77/77 228/78/78 43/79/79 259/80/80
f 375/81/81 221/82/82 34/83/83 196/84/84
f 374/85/85 262/86/86 42/87/87 292/88/88
f 373/89/89 283/90/90 46/91/91 308/92/92
f 372/93/93 319/94/94 48/95/95 320/96/96
f 371/97/97 154/98/98 51/99/99 246/100/100
f 370/101/101 296/102/102 55/103/103 234/104/104
f 369/105/105 173/106/106 54/107/107 220/108/108
f 368/109/109 295/110/110 59/111/111 278/112/112
f 367/113/113 290/114/114 50/115/115 266/116/116
f 366/117/117 282/118/118 58/119/119 305/120/120
f 365/121/121 298/122/122 62/123/123 326/124/124
f 364/125/125 186/126/126 64/127/127 140/128/128
f 363/129/129 281/130/130 67/131/131 139/132/132
f 362/133/133 189/134/134 71/135/135 315/136/136
f 361/137/137 271/138/138 70/139/139 325/140/140
f 360/141/141 177/142/142 75/143/143 233/144/144
f 359/145/145 227/146/146 66/147/147 180/148/148
f 358/149/149 211/150/150 74/151/151 264/152/152
f 357/153/153 276/154/154 78/155/155 289/156/156
f 356/157/157 275/158/158 80/159/159 277/160/160
f 81/161/161 168/162/162 256/163/163
f 84/164/164 318/165/165 201/166/166
f 86/167/167 304/168/168 274/169/169
f 85/170/170 219/171/171 199/172/172
f 87/173/173 198/174/174 232/175/175
f 88/176/176 324/177/177 302/178/178
f 89/179/179 226/180/180 294/181/181
f 83/182/182 261/183/183 218/184/184
f 355/185/185 255/186/186 90/187/187 303/188/188
f 354/189/189 280/190/190 92/191/191 310/192/192
f 353/193/193 172/194/194 94/195/195 284/196/196
f 352/197/197 309/198/198 96/199/199 163/200/200
f 351/201/201 138/202/202 97/203/203 217/204/204
f 350/205/205 153/206/206 91/207/207 159/208/208
f 349/209/209 243/210/210 93/211/211 216/212/212
f 348/213/213 148/214/214 95/215/215 301/216/216
f 347/217/217 144/218/218 100/219/219 167/220/220
f 346/221/221 250/222/222 104/223/223 307/224/224
f 345/225/225 316/226/226 103/227/227 142/228/228
f 344/229/229 170/230/230 108/231/231 129/232/232
f 343/233/233 273/234/234 99/235/235 231/236/236
f 342/237/237 252/238/238 107/239/239 317/240/240
f 341/241/241 313/242/242 111/243/243 300/244/244
f 340/245/245 149/246/246 113/247/247 288/248/248
f 339/249/249 210/250/250 116/251/251 239/252/252
f 338/253/253 206/254/254 119/255/255 205/256/256
f 337/257/257 222/258/258 122/259/259 137/260/260
f 336/261/261 147/262/262 125/263/263 279/264/264
f 335/265/265 130/266/266 126/267/267 312/268/268
f 334/269/269 136/270/270 128/271/271 209/272/272
f 333/273/273 141/274/274 115/275/275 297/276/276
f 332/277/277 208/278/278 118/279/279 131/280/280
f 331/281/281 185/282/282 121/283/283 323/284/284
f 330/285/285 224/286/286 124/287/287 225/288/288
f 185/282/282 330/285/285 225/288/288 121/283/283
f 126/267/267 209/272/272 330/285/285 185/282/282
f 209/272/272 128/271/271 224/286/286 330/285/285
f 260/289/289 331/281/281 323/284/284 120/290/290
f 127/291/291 312/268/268 331/281/281 260/289/289
f 312/268/268 126/267/267 185/282/282 331/281/281
f 141/274/274 332/277/277 131/280/280 115/275/275
f 122/292/259 279/293/264 332/277/277 141/274/274
f 279/293/264 125/294/263 208/278/278 332/277/277
f 240/295/292 333/273/273 297/276/276 114/296/293
f 123/297/294 137/298/260 333/273/273 240/295/292
f 137/298/260 122/292/259 141/274/274 333/273/273
f 130/266/266 334/269/269 209/272/272 126/267/267
f 116/251/251 205/256/256 334/269/269 130/266/266
f 205/256/256 119/255/255 136/270/270 334/269/269
f 245/299/295 335/265/265 312/268/268 127/291/291
f 117/300/296 239/252/252 335/265/265 245/299/295
f 239/252/252 116/251/251 130/266/266 335/265/265
f 222/258/258 336/261/261 279/264/264 122/259/259
f 121/283/283 225/288/288 336/261/261 222/258/258
f 225/288/288 124/287/287 147/262/262 336/261/261
f 268/301/297 337/257/257 137/260/260 123/302/294
f 120/290/290 323/284/284 337/257/257 268/301/297
f 323/284/284 121/283/283 222/258/258 337/257/257
f 210/250/250 338/253/253 205/256/256 116/251/251
f 115/275/275 131/280/280 338/253/253 210/250/250
f 131/280/280 118/279/279 206/254/254 338/253/253
f 248/303/298 339/249/249 239/252/252 117/300/296
f 114/296/293 297/276/276 339/249/249 248/303/298
f 297/276/276 115/275/275 210/250/250 339/249/249
f 269/304/299 340/245/245 288/248/248 112/305/300
f 101/306/301 167/220/220 340/245/245 269/304/299
f 167/220/220 100/219/219 149/246/246 340/245/245
f 192/307/302 341/241/241 300/244/244 110/308/303
f 112/305/300 288/248/248 341/241/241 192/307/302
f 288/248/248 113/247/247 313/242/242 341/241/241
f 166/309/304 342/237/237 317/240/240 106/310/305
f 110/308/303 300/244/244 342/237/237 166/309/304
f 300/244/244 111/243/243 252/238/238 342/237/237
f 314/311/306 343/233/233 231/236/236 98/312/307
f 109/313/308 129/232/232 343/233/233 314/311/306
f 129/232/232 108/231/231 273/234/234 343/233/233
f 270/314/309 344/229/229 129/232/232 109/313/308
f 105/315/310 307/224/224 344/229/229 270/314/309
f 307/224/224 104/223/223 170/230/230 344/229/229
f 235/316/311 345/225/225 142/228/228 102/317/312
f 106/310/305 317/240/240 345/225/225 235/316/311
f 317/240/240 107/239/239 316/226/226 345/225/225
f 161/318/313 346/221/221 307/224/224 105/315/310
f 102/317/312 142/228/228 346/221/221 161/318/313
f 142/228/228 103/227/227 250/222/222 346/221/221
f 176/319/314 347/217/217 167/220/220 101/306/301
f 98/312/307 231/236/236 347/217/217 176/319/314
f 231/236/236 99/235/235 144/218/218 347/217/217
f 138/202/202 348/213/213 301/216/216 97/203/203
f 81/161/161 256/163/163 348/213/213 138/202/202
f 256/163/163 83/182/182 148/214/214 348/213/213
f 172/194/194 349/209/209 216/212/212 94/195/195
f 89/179/179 294/181/181 349/209/209 172/194/194
f 294/181/181 88/176/176 243/210/210 349/209/209
f 280/190/190 350/205/205 159/208/208 92/191/191
f 86/167/167 274/169/169 350/205/205 280/190/190
f 274/169/169 84/164/164 153/206/206 350/205/205
f 309/198/198 351/201/201 217/204/204 96/199/199
f 87/173/173 232/175/175 351/201/201 309/198/198
f 232/175/175 81/161/161 138/202/202 351/201/201
f 255/186/186 352/197/197 163/200/200 90/187/187
f 85/170/170 199/172/172 352/197/197 255/186/186
f 199/172/172 87/173/173 309/198/198 352/197/197
f 148/214/214 353/193/193 284/196/196 95/215/215
f 83/182/182 218/184/184 353/193/193 148/214/214
f 218/184/184 89/179/179 172/194/194 353/193/193
f 243/210/210 354/189/189 310/192/192 93/211/211
f 88/176/176 302/178/178 354/189/189 243/210/210
f 302/178/178 86/167/167 280/190/190 354/189/189
f 153/206/206 355/185/185 303/188/188 91/207/207
f 84/164/164 201/166/166 355/185/185 153/206/206
f 201/166/166 85/170/170 255/186/186 355/185/185
f 218/184/184 226/320/180 89/179/179
f 218/184/184 261/183/183 226/320/180
f 261/183/183 82/321/315 226/320/180
f 294/181/181 324/322/177 88/176/176
f 294/181/181 226/180/180 324/322/177
f 226/180/180 82/323/315 324/322/177
f 302/178/178 304/324/168 86/167/167
f 302/178/178 324/177/177 304/324/168
f 324/177/177 82/325/315 304/324/168
f 232/175/175 168/326/162 81/161/161
f 232/175/175 198/174/174 168/326/162
f 198/174/174 82/327/315 168/326/162
f 199/172/172 198/328/174 87/173/173
f 199/172/172 219/171/171 198/328/174
f 219/171/171 82/329/315 198/328/174
f 274/169/169 318/330/165 84/164/164
f 274/169/169 304/168/168 318/330/165
f 304/168/168 82/331/315 318/330/165
f 201/166/166 219/332/171 85/170/170
f 201/166/166 318/165/165 219/332/171
f 318/165/165 82/333/315 219/332/171
f 256/163/163 261/334/183 83/182/182
f 256/163/163 168/162/162 261/334/183
f 168/162/162 82/335/315 261/334/183
f 202/336/316 356/157/157 277/160/160 79/337/317
f 68/338/318 139/132/132 356/157/157 202/336/316
f 139/132/132 67/131/131 275/158/158 356/157/157
f 182/339/319 357/153/153 289/156/156 77/340/320
f 79/337/317 277/160/160 357/153/153 182/339/319
f 277/160/160 80/159/159 276/154/154 357/153/153
f 132/341/321 358/149/149 264/152/152 73/342/322
f 77/340/320 289/156/156 358/149/149 132/341/321
f 289/156/156 78/155/155 211/150/150 358/149/149
f 285/343/323 359/145/145 180/148/148 65/344/324
f 76/345/325 233/144/144 359/145/145 285/343/323
f 233/144/144 75/143/143 227/146/146 359/145/145
f 212/346/326 360/141/141 233/144/144 76/345/325
f 72/347/327 315/136/136 360/141/141 212/346/326
f 315/136/136 71/135/135 177/142/142 360/141/141
f 183/348/328 361/137/137 325/140/140 69/349/329
f 73/342/322 264/152/152 361/137/137 183/348/328
f 264/152/152 74/151/151 271/138/138 361/137/137
f 291/350/330 362/133/133 315/136/136 72/347/327
f 69/349/329 325/140/140 362/133/133 291/350/330
f 325/140/140 70/139/139 189/134/134 362/133/133
f 150/351/331 363/129/129 139/132/132 68/338/318
f 65/344/324 180/148/148 363/129/129 150/351/331
f 180/148/148 66/147/147 281/130/130 363/129/129
f 265/352/332 364/125/125 140/128/128 63/353/333
f 52/354/334 246/100/100 364/125/125 265/352/332
f 246/100/100 51/99/99 186/126/126 364/125/125
f 207/355/335 365/121/121 326/124/124 61/356/336
f 63/353/333 140/128/128 365/121/121 207/355/335
f 140/128/128 64/127/127 298/122/122 365/121/121
f 178/357/337 366/117/117 305/120/120 57/358/338
f 61/356/336 326/124/124 366/117/117 178/357/337
f 326/124/124 62/123/123 282/118/118 366/117/117
f 193/359/339 367/113/113 266/116/116 49/360/340
f 60/361/341 278/112/112 367/113/113 193/359/339
f 278/112/112 59/111/111 290/114/114 367/113/113
f 194/362/342 368/109/109 278/112/112 60/361/341
f 56/363/343 234/104/104 368/109/109 194/362/342
f 234/104/104 55/103/103 295/110/110 368/109/109
f 286/364/344 369/105/105 220/108/108 53/365/345
f 57/358/338 305/120/120 369/105/105 286/364/344
f 305/120/120 58/119/119 173/106/106 369/105/105
f 200/366/346 370/101/101 234/104/104 56/363/343
f 53/365/345 220/108/108 370/101/101 200/366/346
f 220/108/108 54/107/107 296/102/102 370/101/101
f 257/367/347 371/97/97 246/100/100 52/354/334
f 49/360/340 266/116/116 371/97/97 257/367/347
f 266/116/116 50/115/115 154/98/98 371/97/97
f 195/368/348 372/93/93 320/96/96 47/369/349
f 36/370/350 174/68/68 372/93/93 195/368/348
f 174/68/68 35/67/67 319/94/94 372/93/93
f 190/371/351 373/89/89 308/92/92 45/372/352
f 47/369/349 320/96/96 373/89/89 190/371/351
f 320/96/96 48/95/95 283/90/90 373/89/89
f 164/373/353 374/85/85 292/88/88 41/374/354
f 45/372/352 308/92/92 374/85/85 164/373/353
f 308/92/92 46/91/91 262/86/86 374/85/85
f 327/375/355 375/81/81 196/84/84 33/376/356
f 44/377/357 259/80/80 375/81/81 327/375/355
f 259/80/80 43/79/79 221/82/82 375/81/81
f 328/378/358 376/77/77 259/80/80 44/377/357
f 40/379/359 160/72/72 376/77/77 328/378/358
f 160/72/72 39/71/71 228/78/78 376/77/77
f 213/380/360 377/73/73 151/76/76 37/381/361
f 41/374/354 292/88/88 377/73/73 213/380/360
f 292/88/88 42/87/87 299/74/74 377/73/73
f 133/382/362 378/69/69 160/72/72 40/379/359
f 37/381/361 151/76/76 378/69/69 133/382/362
f 151/76/76 38/75/75 229/70/70 378/69/69
f 184/383/363 379/65/65 174/68/68 36/370/350
f 33/376/356 196/84/84 379/65/65 184/383/363
f 196/84/84 34/83/83 272/66/66 379/65/65
f 214/384/364 380/61/61 263/64/64 31/385/365
f 20/386/366 181/36/36 380/61/61 214/384/364
f 181/36/36 19/35/35 329/62/62 380/61/61
f 156/387/367 381/57/57 258/60/60 29/388/368
f 31/385/365 263/64/64 381/57/57 156/387/367
f 263/64/64 32/63/63 251/58/58 381/57/57
f 321/389/369 382/53/53 244/56/56 25/390/370
f 29/388/368 258/60/60 382/53/53 321/389/369
f 258/60/60 30/59/59 197/54/54 382/53/53
f 134/391/371 383/49/49 203/52/52 17/392/372
f 28/393/373 215/48/48 383/49/49 134/391/371
f 215/48/48 27/47/47 238/50/50 383/49/49
f 155/394/374 384/45/45 215/48/48 28/393/373
f 24/395/375 165/40/40 384/45/45 155/394/374
f 165/40/40 23/39/39 241/46/46 384/45/45
f 236/396/376 385/41/41 157/44/44 21/397/377
f 25/390/370 244/56/56 385/41/41 236/396/376
f 244/56/56 26/55/55 162/42/42 385/41/41
f 143/398/378 386/37/37 165/40/40 24/395/375
f 21/397/377 157/44/44 386/37/37 143/398/378
f 157/44/44 22/43/43 242/38/38 386/37/37
f 187/399/379 387/33/33 181/36/36 20/386/366
f 17/392/372 203/52/52 387/33/33 187/399/379
f 203/52/52 18/51/51 293/34/34 387/33/33
f 237/400/380 388/29/29 146/32/32 15/401/381
f 4/402/382 191/4/4 388/29/29 237/400/380
f 191/4/4 3/3/3 145/30/30 388/29/29
f 230/403/383 389/25/25 135/28/28 13/404/384
f 15/401/381 146/32/32 389/25/25 230/403/383
f 146/32/32 16/31/31 322/26/26 389/25/25
f 188/405/385 390/21/21 311/24/24 9/406/386
f 13/404/384 135/28/28 390/21/21 188/405/385
f 135/28/28 14/27/27 267/22/22 390/21/21
f 152/407/387 391/17/17 223/20/20 1/408/388
f 12/409/389 287/16/16 391/17/17 152/407/387
f 287/16/16 11/15/15 249/18/18 391/17/17
f 169/410/390 392/13/13 287/16/16 12/409/389
f 8/411/391 179/8/8 392/13/13 169/410/390
f 179/8/8 7/7/7 253/14/14 392/13/13
f 247/412/392 393/9/9 171/12/12 5/413/393
f 9/406/386 311/24/24 393/9/9 247/412/392
f 311/24/24 10/23/23 175/10/10 393/9/9
f 158/414/394 394/5/5 179/8/8 8/411/391
f 5/413/393 171/12/12 394/5/5 158/414/394
f 171/12/12 6/11/11 254/6/6 394/5/5
f 204/415/395 395/1/1 191/4/4 4/402/382
f 1/408/388 223/20/20 395/1/1 204/415/395
f 223/20/20 2/19/19 306/2/2 395/1/1
