%YAML 1.1
%TAG !u! tag:unity3d.com,2011:
--- !u!21 &2100000
Material:
  serializedVersion: 6
  m_ObjectHideFlags: 0
  m_PrefabParentObject: {fileID: 0}
  m_PrefabInternal: {fileID: 0}
  m_Name: ETP Terrain Big 02-1
  m_Shader: {fileID: 4800000, guid: 38c8b69f7e3c31549b1448c210e3c0cb, type: 3}
  m_ShaderKeywords: _DETAIL_MULX2 _INVERTAOMASK_ON _INVERTTOPBOTTOM_ON _METALLICGLOSSMAP
    _NORMALMAP
  m_LightmapFlags: 5
  m_CustomRenderQueue: -1
  stringTagMap: {}
  m_SavedProperties:
    serializedVersion: 2
    m_TexEnvs:
    - first:
        name: _BumpMap
      second:
        m_Texture: {fileID: 2800000, guid: 4de9a5812dc135c4ca4e50fd2f14de63, type: 3}
        m_Scale: {x: 1, y: 1}
        m_Offset: {x: 0, y: 0}
    - first:
        name: _DetailAlbedoMap
      second:
        m_Texture: {fileID: 2800000, guid: cd574c3a8281d5c4696c883a529817be, type: 3}
        m_Scale: {x: 5, y: 5}
        m_Offset: {x: 0, y: 0}
    - first:
        name: _DetailMask
      second:
        m_Texture: {fileID: 2800000, guid: f5b1b6e58e3eb43428e49d93793588f0, type: 3}
        m_Scale: {x: 1, y: 1}
        m_Offset: {x: 0, y: 0}
    - first:
        name: _DetailNormalMap
      second:
        m_Texture: {fileID: 2800000, guid: bad527bb51972184d9db8305cdf83198, type: 3}
        m_Scale: {x: 5, y: 5}
        m_Offset: {x: 0, y: 0}
    - first:
        name: _EmissionMap
      second:
        m_Texture: {fileID: 0}
        m_Scale: {x: 1, y: 1}
        m_Offset: {x: 0, y: 0}
    - first:
        name: _MainTex
      second:
        m_Texture: {fileID: 2800000, guid: e88fabfd09b8c3d49a84a84e49bfe874, type: 3}
        m_Scale: {x: 1, y: 1}
        m_Offset: {x: 0, y: 0}
    - first:
        name: _MetallicGlossMap
      second:
        m_Texture: {fileID: 2800000, guid: c7f57712710718543a2c8ae9caf8a6cb, type: 3}
        m_Scale: {x: 1, y: 1}
        m_Offset: {x: 0, y: 0}
    - first:
        name: _OcclusionMap
      second:
        m_Texture: {fileID: 2800000, guid: f4ea85428f9471e459930e06e694ba5a, type: 3}
        m_Scale: {x: 1, y: 1}
        m_Offset: {x: 0, y: 0}
    - first:
        name: _ParallaxMap
      second:
        m_Texture: {fileID: 0}
        m_Scale: {x: 1, y: 1}
        m_Offset: {x: 0, y: 0}
    - first:
        name: _SmoothnessMap
      second:
        m_Texture: {fileID: 0}
        m_Scale: {x: 1, y: 1}
        m_Offset: {x: 0, y: 0}
    - first:
        name: _TopDetail
      second:
        m_Texture: {fileID: 2800000, guid: 46c5d501aa7e1344f8546af254ec3c5e, type: 3}
        m_Scale: {x: 10, y: 10}
        m_Offset: {x: 0, y: 0}
    - first:
        name: _TopNormal
      second:
        m_Texture: {fileID: 2800000, guid: 1d91536ef319a6546b8e0a0f03e2dcc4, type: 3}
        m_Scale: {x: 10, y: 10}
        m_Offset: {x: 0, y: 0}
    m_Floats:
    - first:
        name: _AffectAO
      second: -0.68
    - first:
        name: _AffectDetail
      second: 4.79
    - first:
        name: _BumpScale
      second: 2
    - first:
        name: _Cutoff
      second: 0.5
    - first:
        name: _DetailAffected
      second: 0
    - first:
        name: _DetailNormalMapScale
      second: 1
    - first:
        name: _DetailTiling
      second: 4
    - first:
        name: _DiffuseAO
      second: 2.32
    - first:
        name: _DiffuseAOMask
      second: 0.93
    - first:
        name: _DstBlend
      second: 0
    - first:
        name: _EmissionLM
      second: 0
    - first:
        name: _Fresnel
      second: 2
    - first:
        name: _Glossiness
      second: 0
    - first:
        name: _InvertAOMask
      second: 1
    - first:
        name: _InvertTopBottom
      second: 1
    - first:
        name: _LightWrap
      second: 0
    - first:
        name: _MetalAlphaGloss
      second: 0
    - first:
        name: _Metallic
      second: 0
    - first:
        name: _Mode
      second: 0
    - first:
        name: _OcclusionStrenght
      second: 4
    - first:
        name: _OcclusionStrength
      second: 1
    - first:
        name: _Parallax
      second: 0.008
    - first:
        name: _RimPower
      second: 0
    - first:
        name: _SrcBlend
      second: 1
    - first:
        name: _TopBottomBumpScale
      second: 1
    - first:
        name: _TopBottomMult
      second: 5.04
    - first:
        name: _TopBottomPower
      second: 16.74
    - first:
        name: _TopMetallic
      second: 0.4
    - first:
        name: _TopSmoothness
      second: 0.1
    - first:
        name: _UVSec
      second: 0
    - first:
        name: _ZWrite
      second: 1
    m_Colors:
    - first:
        name: _Color
      second: {r: 1, g: 1, b: 1, a: 1}
    - first:
        name: _EmissionColor
      second: {r: 0, g: 0, b: 0, a: 1}
    - first:
        name: _LightWarpTint
      second: {r: 0.5, g: 0.5, b: 0.5, a: 1}
    - first:
        name: _RimColor
      second: {r: 0.5, g: 0.5, b: 0.5, a: 1}
    - first:
        name: _TopTint
      second: {r: 1, g: 1, b: 1, a: 1}
