# Blender v2.78 (sub 0) OBJ File: ''
# www.blender.org
mtllib Dead_Tree_m_07.mtl
o Dead_Tree_m_07
v 0.006865 0.121412 -0.389127
v -0.142901 0.851095 -0.271435
v 0.231980 0.852310 -0.129662
v -0.017433 0.121412 0.383375
v 0.092711 0.851924 0.247208
v -0.284415 0.851132 0.105704
v 0.380967 0.121412 0.009273
v -0.391535 0.121412 -0.015025
v 0.309723 1.798841 0.060191
v 0.171980 1.794338 0.307864
v -0.076595 1.779044 0.138278
v 0.084352 1.778893 -0.111834
v 0.298304 2.611830 0.083020
v 0.333495 2.517946 0.236928
v 0.681281 2.804943 0.012376
v 0.658247 2.801715 -0.045943
v 0.005038 2.314970 0.031962
v 0.054168 2.607415 0.183320
v 0.032972 2.605225 -0.001487
v 0.113764 2.336547 0.278886
v 0.336990 2.361929 0.174377
v 0.143291 2.503814 0.326436
v 0.220981 2.330806 -0.065700
v 0.171237 2.604629 -0.062824
v 0.360642 2.802943 0.840855
v 0.336101 2.855129 0.786723
v 0.427068 2.860121 0.747951
v 0.445859 2.807583 0.804598
v 0.446586 3.266178 1.287400
v 0.451006 3.242299 1.297984
v 0.421917 3.239898 1.309408
v 0.417532 3.263597 1.298913
v 0.002671 3.285364 -0.157632
v 0.004805 3.491248 -0.287684
v -0.086813 3.484379 -0.245937
v 0.066486 3.210510 -0.302851
v -0.034653 3.229232 -0.266260
v -0.034750 3.421956 -0.382852
v 0.065940 3.401516 -0.403207
v 0.110716 3.263094 -0.200162
v 0.101052 3.467387 -0.311239
v -0.121718 3.418045 -0.339819
v -0.537158 3.806067 -0.550104
v -0.486441 3.835249 -0.584650
v -1.041020 3.801831 -0.826209
v -1.067630 3.794093 -0.811985
v -0.501729 3.785275 -0.640537
v -0.549045 3.757981 -0.608555
v -1.071552 3.767229 -0.832404
v -1.046758 3.774472 -0.845570
v 0.103546 3.692424 -0.619807
v 0.081815 3.648377 -0.664242
v 0.142943 3.619903 -0.666421
v 0.159916 3.665953 -0.621960
v 0.286129 3.753171 -0.809058
v 0.270599 3.760938 -0.808797
v 0.264401 3.750522 -0.822072
v 0.281199 3.742183 -0.822311
v 0.728165 2.742013 -0.017123
v 1.288220 3.045414 -0.383189
v 1.268189 3.104028 -0.369820
v 0.683323 2.722621 -0.091736
v 1.256935 3.036020 -0.429121
v 1.587931 3.591196 -0.677134
v 1.598552 3.596443 -0.659675
v 1.249082 3.096348 -0.410155
v 1.575980 3.605132 -0.664500
v 1.582895 3.608191 -0.649209
v 0.379929 2.861724 0.763071
v 1.250962 3.065523 -0.423115
v 0.344402 2.570054 0.179164
v 1.586456 3.619766 -0.662949
v 1.446564 3.330110 -0.568854
v 0.201654 2.707224 0.488788
v 0.110896 3.630519 -0.668681
v 0.145886 2.092635 0.295673
v 0.666260 2.808220 -0.013971
v 0.003064 2.914075 -0.127409
v 1.598123 3.616008 -0.660845
v 0.178155 3.709492 -0.755659
v -0.034415 3.328163 -0.324550
v 0.437023 3.251675 1.315566
v -0.490286 3.812860 -0.615354
v -0.110279 3.451443 -0.290402
v 0.379911 2.643104 0.511680
v -0.025326 1.352694 -0.191979
v 0.062200 3.269795 -0.168731
v 0.062612 3.586207 -0.448435
v -0.354862 0.449674 0.056019
v -0.787250 3.831614 -0.719541
v 0.194676 2.457551 -0.052937
v 0.216557 3.690113 -0.755715
v 0.090462 2.538080 0.278018
v 1.273434 3.035723 -0.407304
v 0.095902 3.236410 -0.254882
v -0.105571 0.851528 0.225722
v 1.450260 3.371942 -0.526324
v 1.280251 3.075382 -0.373028
v 0.287276 3.749986 -0.819716
v -0.022548 3.478492 -0.354227
v 0.116809 2.428623 0.282659
v -0.233592 0.121412 -0.255482
v -0.262924 0.851114 -0.092585
v 1.467179 3.337216 -0.537683
v -0.297267 0.449674 -0.167318
v -0.028209 2.060066 0.084337
v 0.097947 2.604888 -0.042458
v 0.126060 1.359334 0.277318
v 0.448050 2.530831 -0.062850
v 0.975438 2.946327 -0.174822
v 0.269732 2.474994 -0.016166
v 0.707234 2.774568 0.002077
v -1.083435 3.779891 -0.827861
v 0.117926 2.911636 -0.179231
v 0.044606 2.317499 0.165398
v 0.336865 2.450140 0.204127
v -0.176235 0.449674 0.267043
v -0.294143 3.652229 -0.390226
v 0.010841 3.401122 -0.210601
v 0.036438 1.786473 0.242850
v 0.974183 2.871771 -0.250999
v 0.388104 3.073810 1.069416
v 0.031817 3.529370 -0.517117
v 0.024386 2.942478 -0.000805
v 0.014743 2.458013 0.097121
v -0.257889 0.121412 0.225431
v -1.057092 3.786888 -0.841562
v 0.453636 3.040575 1.077205
v -0.832016 3.774894 -0.732861
v 0.442943 2.834281 0.773493
v 0.133214 3.682810 -0.617534
v 0.156287 3.640451 -0.644179
v 0.188718 2.939849 -0.070886
v 0.146557 2.058847 -0.083474
v 0.489814 2.645924 0.117835
v -0.796800 3.793273 -0.755542
v -0.086243 0.449674 -0.345944
v 0.027262 3.398999 -0.396477
v 0.282257 3.758839 -0.813097
v 0.404906 2.801164 0.826992
v 0.313755 2.094259 0.126844
v 1.601146 3.608016 -0.675043
v 0.953259 2.937103 -0.222374
v -0.317710 3.593663 -0.467763
v -0.256520 3.608359 -0.500158
v -0.825180 3.811929 -0.694972
v 0.088821 3.434202 -0.359486
v 0.341892 2.828606 0.816570
v 0.250928 2.640479 0.566569
v 1.589478 3.611773 -0.677147
v 0.087823 3.672877 -0.642036
v 0.432970 3.275793 1.306000
v 0.296431 2.329082 0.043274
v 0.191324 3.735479 -0.728957
v 0.069981 3.475470 -0.290123
v 0.097277 3.382807 -0.253757
v 0.709248 2.727426 -0.057242
v 0.362388 2.710054 0.422004
v 0.059675 3.320614 -0.352822
v 0.449397 3.264997 1.305154
v 0.258126 0.449674 0.146012
v -0.510851 3.824507 -0.562898
v -0.023484 3.241915 -0.200742
v 0.016233 3.208299 -0.289368
v 0.420596 3.262471 1.316413
v 0.090367 2.292959 -0.039281
v -0.546902 3.779425 -0.576568
v -1.072685 3.769459 -0.844554
v -0.182866 1.352723 0.118288
v -0.041442 3.477993 -0.246089
v 1.010394 2.884986 -0.196965
v 0.230546 2.586669 -0.016845
v 1.437499 3.366706 -0.553614
v -0.027341 3.398731 -0.201774
v 0.232455 2.497573 0.298940
v 0.220484 2.339820 0.250098
v 0.247322 0.121412 -0.231184
v -0.014648 1.777714 0.000410
v 0.211612 0.852117 0.068492
v 0.099248 3.511303 -0.531814
v 0.223024 0.121412 0.249729
v -0.066561 3.333377 -0.304072
v 0.021317 2.587323 0.072006
v 0.268427 1.362163 -0.031131
v 0.226643 3.717491 -0.729070
v 0.315721 0.449674 -0.077325
v 0.668274 2.761078 -0.073290
v 0.125664 3.569341 -0.462601
v -0.084221 3.401281 -0.354952
v 0.021197 2.458654 0.021724
v 0.208292 1.789085 -0.045600
v 0.047102 0.449674 0.324638
v 0.174213 2.646229 0.152390
v 0.399966 3.036834 1.099507
v 0.276855 3.748801 -0.826058
v 0.441679 3.077843 1.046876
v 0.054259 0.851703 -0.249815
v 0.520637 2.560313 0.089527
v -1.067842 3.797319 -0.824870
v -0.229573 3.667871 -0.424941
v 0.259379 1.797844 0.196840
v 0.137094 0.449674 -0.288349
v 0.469462 2.676072 0.022812
v 1.257779 3.105182 -0.388838
v -0.526337 3.767777 -0.629025
v 0.271836 3.757653 -0.819438
v 1.460022 3.355061 -0.529723
v 1.440729 3.347926 -0.563515
v 1.442865 3.372107 -0.538931
v 1.616185 3.654843 -0.688095
v 0.961443 2.903562 -0.240650
v 0.962168 2.946657 -0.196617
v 0.994469 2.873436 -0.225963
v 1.457885 3.330880 -0.554306
v 0.508852 2.603092 0.113334
v 0.484711 2.536565 0.008892
v 0.455130 2.603477 -0.029672
v 0.995194 2.916532 -0.181930
v 0.291478 3.760168 -0.831630
v 0.437205 3.295957 1.347855
v -0.259887 3.664657 -0.401624
v -0.289086 3.596404 -0.489921
v -0.310833 3.621762 -0.426376
v -0.238140 3.639298 -0.465168
v 0.224477 3.702344 -0.742399
v 0.181863 3.723943 -0.742301
v 0.196449 3.697720 -0.757768
v 0.209891 3.728567 -0.726932
v 0.096370 3.582256 -0.450138
v 0.063300 3.515854 -0.529846
v 0.117548 3.538959 -0.498334
v 0.042123 3.559151 -0.481650
v -0.789171 3.813928 -0.739385
v -1.110834 3.780340 -0.851720
v -0.831452 3.791926 -0.712073
v -0.815048 3.781142 -0.747085
v 0.060289 3.389772 -0.228026
v -0.805575 3.824713 -0.704373
v 0.110146 2.943373 -0.026679
v 0.056901 2.910646 -0.162487
v 0.164216 2.925545 -0.129815
v 0.002832 2.928473 -0.059351
v -0.053285 3.357847 -0.245995
v 0.084789 3.351390 -0.306109
v 0.015761 3.317757 -0.342416
v 0.413962 3.078724 1.055789
v 0.427730 3.035808 1.090714
v 0.389851 3.055019 1.086211
v 0.451842 3.059513 1.060291
v 0.279415 2.713856 0.448862
v 0.318026 2.636575 0.545658
v 0.382454 2.676792 0.462094
v 0.057749 2.436030 0.198910
v 0.214987 2.673639 0.532426
v 0.243525 2.076569 0.008551
v 0.045470 2.076334 0.203140
v 0.243137 2.096099 0.227711
v 0.045858 2.056804 -0.016020
v 0.100833 2.443492 -0.033318
v 0.218024 2.426868 0.257013
v 0.479270 2.670005 0.074771
v -0.040105 1.355919 0.221943
v 0.133253 1.357538 -0.135696
v -0.127611 1.352081 -0.049326
v 0.220759 1.361376 0.135574
vt 0.7134 0.6519
vt 0.7090 0.6643
vt 0.7024 0.6621
vt 0.6777 0.6405
vt 0.6772 0.6549
vt 0.6701 0.6539
vt 0.6961 0.6443
vt 0.6937 0.6582
vt 0.6863 0.6567
vt 0.6575 0.6405
vt 0.6600 0.6539
vt 0.6533 0.6546
vt 0.6869 0.6424
vt 0.6676 0.6405
vt 0.6377 0.6441
vt 0.6476 0.6423
vt 0.6434 0.6564
vt 0.7048 0.6481
vt 0.6805 0.6846
vt 0.6864 0.6858
vt 0.6815 0.6993
vt 0.6771 0.6984
vt 0.6569 0.6818
vt 0.6628 0.6812
vt 0.6631 0.6952
vt 0.6580 0.6956
vt 0.6920 0.6871
vt 0.6975 0.6884
vt 0.6904 0.7002
vt 0.6860 0.6998
vt 0.6687 0.6823
vt 0.6746 0.6834
vt 0.6727 0.6976
vt 0.6679 0.6964
vt 0.7273 0.6520
vt 0.7290 0.6515
vt 0.7271 0.6585
vt 0.7262 0.6584
vt 0.6416 0.7397
vt 0.6435 0.7351
vt 0.6449 0.7373
vt 0.6999 0.7009
vt 0.6971 0.6987
vt 0.6985 0.6976
vt 0.7012 0.6998
vt 0.6444 0.7128
vt 0.6453 0.7102
vt 0.6486 0.7120
vt 0.6479 0.7143
vt 0.6567 0.7031
vt 0.6610 0.7027
vt 0.6588 0.7101
vt 0.6554 0.7104
vt 0.6742 0.7057
vt 0.6783 0.7064
vt 0.6750 0.7136
vt 0.6713 0.7129
vt 0.6655 0.7038
vt 0.6701 0.7049
vt 0.6676 0.7123
vt 0.6632 0.7112
vt 0.6828 0.7067
vt 0.6874 0.7069
vt 0.6843 0.7136
vt 0.6797 0.7136
vt 0.7085 0.6923
vt 0.7068 0.6913
vt 0.7098 0.6808
vt 0.7110 0.6814
vt 0.7046 0.7059
vt 0.7031 0.7086
vt 0.7015 0.7045
vt 0.7027 0.7032
vt 0.6452 0.7215
vt 0.6424 0.7178
vt 0.6463 0.7191
vt 0.7176 0.6929
vt 0.7160 0.6939
vt 0.7152 0.6826
vt 0.7164 0.6822
vt 0.7048 0.6901
vt 0.7027 0.6889
vt 0.7070 0.6802
vt 0.7084 0.6805
vt 0.7131 0.6936
vt 0.7168 0.7053
vt 0.7125 0.7049
vt 0.7162 0.6719
vt 0.7154 0.6721
vt 0.7157 0.6616
vt 0.7160 0.6617
vt 0.7128 0.6715
vt 0.7120 0.6712
vt 0.7143 0.6616
vt 0.7146 0.6615
vt 0.7111 0.6710
vt 0.7103 0.6708
vt 0.7135 0.6615
vt 0.7139 0.6615
vt 0.7145 0.6719
vt 0.7135 0.6717
vt 0.7149 0.6614
vt 0.7153 0.6615
vt 0.7413 0.7157
vt 0.7394 0.7182
vt 0.7386 0.7168
vt 0.6722 0.7182
vt 0.6720 0.7167
vt 0.6743 0.7173
vt 0.6746 0.7185
vt 0.6722 0.7217
vt 0.6723 0.7197
vt 0.6749 0.7198
vt 0.6748 0.7219
vt 0.7379 0.7147
vt 0.7359 0.7178
vt 0.7354 0.7157
vt 0.6581 0.7310
vt 0.6572 0.7289
vt 0.6692 0.7271
vt 0.6695 0.7293
vt 0.6579 0.7203
vt 0.6585 0.7181
vt 0.6697 0.7195
vt 0.6696 0.7215
vt 0.6588 0.7161
vt 0.6592 0.7140
vt 0.6698 0.7161
vt 0.6697 0.7178
vt 0.6573 0.7257
vt 0.6574 0.7225
vt 0.6695 0.7236
vt 0.6694 0.7254
vt 0.7074 0.7201
vt 0.7077 0.7209
vt 0.6976 0.7210
vt 0.6973 0.7206
vt 0.7363 0.7252
vt 0.7378 0.7272
vt 0.7355 0.7263
vt 0.6719 0.7253
vt 0.6722 0.7238
vt 0.7067 0.7232
vt 0.7063 0.7239
vt 0.6963 0.7227
vt 0.6967 0.7224
vt 0.7066 0.7186
vt 0.7070 0.7194
vt 0.6969 0.7202
vt 0.6966 0.7197
vt 0.6618 0.7124
vt 0.6623 0.7125
vt 0.6622 0.7130
vt 0.6617 0.7129
vt 0.7074 0.7217
vt 0.7071 0.7225
vt 0.6971 0.7220
vt 0.6974 0.7215
vt 0.6811 0.7268
vt 0.6804 0.7254
vt 0.6865 0.7244
vt 0.6869 0.7254
vt 0.6807 0.7215
vt 0.6807 0.7199
vt 0.6865 0.7200
vt 0.6865 0.7212
vt 0.6805 0.7187
vt 0.6804 0.7175
vt 0.6864 0.7177
vt 0.6865 0.7189
vt 0.6805 0.7242
vt 0.6806 0.7232
vt 0.6865 0.7223
vt 0.6865 0.7233
vt 0.6901 0.7224
vt 0.6902 0.7218
vt 0.6938 0.7213
vt 0.6938 0.7214
vt 0.6902 0.7198
vt 0.6901 0.7191
vt 0.6938 0.7205
vt 0.6938 0.7207
vt 0.6904 0.7236
vt 0.6901 0.7230
vt 0.6937 0.7216
vt 0.6939 0.7218
vt 0.6902 0.7211
vt 0.6902 0.7205
vt 0.6939 0.7209
vt 0.6938 0.7211
vt 0.7272 0.7224
vt 0.7267 0.7241
vt 0.7171 0.7230
vt 0.7175 0.7219
vt 0.7260 0.7166
vt 0.7265 0.7182
vt 0.7172 0.7186
vt 0.7167 0.7175
vt 0.7261 0.7251
vt 0.7255 0.7262
vt 0.7162 0.7250
vt 0.7167 0.7240
vt 0.7271 0.7194
vt 0.7278 0.7207
vt 0.7179 0.7208
vt 0.7175 0.7197
vt 0.6628 0.7126
vt 0.6632 0.7126
vt 0.6631 0.7130
vt 0.6627 0.7130
vt 0.6642 0.7129
vt 0.6642 0.7132
vt 0.6640 0.7131
vt 0.6640 0.7129
vt 0.7279 0.6707
vt 0.7291 0.6708
vt 0.7286 0.6820
vt 0.7275 0.6824
vt 0.7235 0.6510
vt 0.7257 0.6524
vt 0.7253 0.6583
vt 0.7238 0.6585
vt 0.7189 0.6507
vt 0.7212 0.6495
vt 0.7223 0.6586
vt 0.7210 0.6591
vt 0.7305 0.6516
vt 0.7320 0.6517
vt 0.7296 0.6596
vt 0.7284 0.6590
vt 0.7224 0.6944
vt 0.7231 0.6942
vt 0.7237 0.7068
vt 0.7233 0.7069
vt 0.7212 0.6705
vt 0.7224 0.6701
vt 0.7225 0.6817
vt 0.7214 0.6818
vt 0.7258 0.6706
vt 0.7267 0.6707
vt 0.7263 0.6828
vt 0.7255 0.6828
vt 0.7237 0.6704
vt 0.7250 0.6705
vt 0.7246 0.6828
vt 0.7236 0.6823
vt 0.6636 0.7128
vt 0.6636 0.7125
vt 0.6639 0.7126
vt 0.6639 0.7128
vt 0.7251 0.6948
vt 0.7256 0.6948
vt 0.7249 0.7067
vt 0.7247 0.7067
vt 0.7238 0.6945
vt 0.7245 0.6948
vt 0.7244 0.7067
vt 0.7240 0.7068
vt 0.7263 0.6946
vt 0.7271 0.6945
vt 0.7255 0.7070
vt 0.7252 0.7069
vt 0.6636 0.7131
vt 0.6639 0.7131
vt 0.6632 0.7131
vt 0.6632 0.7128
vt 0.6632 0.7124
vt 0.7200 0.6708
vt 0.7204 0.6820
vt 0.7197 0.6596
vt 0.7217 0.6945
vt 0.7230 0.7070
vt 0.7309 0.6446
vt 0.7326 0.6442
vt 0.7343 0.6439
vt 0.7166 0.6519
vt 0.7135 0.6442
vt 0.7169 0.6424
vt 0.7202 0.6405
vt 0.7232 0.6436
vt 0.7261 0.6466
vt 0.6643 0.7127
vt 0.6640 0.7127
vt 0.6645 0.7127
vt 0.6644 0.7129
vt 0.6644 0.7132
vt 0.6623 0.7126
vt 0.6623 0.7130
vt 0.6624 0.7121
vt 0.6628 0.7121
vt 0.6632 0.7121
vt 0.7368 0.7192
vt 0.7376 0.7206
vt 0.7347 0.7274
vt 0.7254 0.7150
vt 0.7161 0.7163
vt 0.7348 0.7137
vt 0.7370 0.7229
vt 0.6906 0.7242
vt 0.6940 0.7220
vt 0.6873 0.7264
vt 0.6743 0.7263
vt 0.6745 0.7251
vt 0.6748 0.7240
vt 0.6818 0.7283
vt 0.6763 0.7302
vt 0.6753 0.7283
vt 0.6614 0.7124
vt 0.6613 0.7129
vt 0.6614 0.7118
vt 0.6619 0.7118
vt 0.6624 0.7119
vt 0.7062 0.7178
vt 0.6963 0.7192
vt 0.6718 0.7267
vt 0.7370 0.7284
vt 0.7393 0.7293
vt 0.6453 0.7306
vt 0.6452 0.7261
vt 0.6473 0.7167
vt 0.6589 0.7332
vt 0.6697 0.7314
vt 0.6482 0.7350
vt 0.6467 0.7328
vt 0.7372 0.7126
vt 0.7396 0.7115
vt 0.7405 0.7136
vt 0.7136 0.6823
vt 0.7121 0.6820
vt 0.7170 0.6718
vt 0.7163 0.6619
vt 0.7177 0.6817
vt 0.7102 0.6933
vt 0.7083 0.7045
vt 0.7039 0.7019
vt 0.7192 0.6919
vt 0.7207 0.7021
vt 0.7188 0.7037
vt 0.6435 0.7154
vt 0.6396 0.7141
vt 0.7061 0.7032
vt 0.7065 0.7086
vt 0.7047 0.7128
vt 0.6525 0.7034
vt 0.6521 0.7108
vt 0.6529 0.6961
vt 0.6408 0.7113
vt 0.6421 0.7084
vt 0.6987 0.7021
vt 0.6958 0.6997
vt 0.7285 0.6456
vt 0.6624 0.6672
vt 0.6695 0.6682
vt 0.6766 0.6692
vt 0.6913 0.6722
vt 0.6980 0.6744
vt 0.7046 0.6766
vt 0.6510 0.6824
vt 0.6491 0.6686
vt 0.6558 0.6679
vt 0.6839 0.6707
vn 0.0572 0.0532 -0.9969
vn -0.2286 0.1176 -0.9664
vn 0.5254 0.1350 -0.8401
vn -0.0314 0.0952 0.9950
vn 0.2207 0.1587 0.9623
vn -0.5307 0.1252 0.8383
vn 0.9918 0.1179 0.0500
vn 0.9597 0.1638 -0.2284
vn 0.8355 0.1615 0.5252
vn -0.9988 0.0293 -0.0379
vn -0.9684 0.1142 0.2215
vn -0.8425 0.0983 -0.5296
vn 0.6808 0.0998 0.7257
vn -0.7260 0.0380 0.6867
vn -0.6813 0.0064 -0.7320
vn 0.7330 0.0690 -0.6767
vn 0.9035 -0.1123 0.4137
vn 0.9461 -0.0112 -0.3236
vn 0.9839 -0.0186 -0.1776
vn 0.8494 -0.0788 0.5218
vn -0.8630 0.2666 -0.4291
vn -0.9268 0.2072 0.3133
vn -0.9558 0.1965 0.2187
vn -0.8128 0.2074 -0.5444
vn 0.4715 0.1049 -0.8756
vn -0.3001 0.2454 -0.9218
vn -0.1484 0.1814 -0.9722
vn 0.6182 0.0614 -0.7836
vn -0.4537 0.0464 0.8900
vn 0.3190 -0.0722 0.9450
vn 0.2146 -0.0207 0.9765
vn -0.5825 0.0803 0.8088
vn -0.3527 0.8491 0.3933
vn 0.1636 0.4852 0.8590
vn 0.0548 0.6271 0.7770
vn -0.4318 0.8817 0.1902
vn -0.9567 0.0538 -0.2862
vn -0.9853 0.0305 0.1679
vn -0.8694 0.0318 -0.4930
vn 0.3701 -0.3066 0.8770
vn 0.5600 -0.2586 0.7871
vn 0.7249 -0.3624 0.5858
vn 0.2979 -0.7204 0.6263
vn -0.4063 -0.0076 -0.9137
vn -0.8562 -0.1414 -0.4970
vn -0.3951 -0.2342 -0.8883
vn -0.6850 0.0923 -0.7227
vn -0.9904 0.1331 -0.0369
vn -0.4992 0.0507 -0.8650
vn 0.6936 -0.0247 0.7200
vn 0.9965 -0.0543 0.0643
vn 0.8280 -0.3347 0.4499
vn 0.4767 -0.0713 0.8762
vn -0.7657 0.0980 0.6357
vn -0.0604 0.0452 0.9972
vn -0.3287 -0.0121 0.9444
vn -0.8832 0.0223 0.4686
vn 0.7772 -0.0253 -0.6288
vn 0.0797 0.0525 -0.9954
vn 0.2483 -0.0866 -0.9648
vn 0.8203 -0.4048 -0.4041
vn -0.8805 -0.1015 0.4631
vn -0.4128 -0.6980 0.5851
vn -0.3963 -0.6816 0.6151
vn -0.9247 -0.1182 0.3619
vn -0.8901 -0.0389 0.4541
vn -0.4145 -0.2275 0.8811
vn 0.3372 0.9100 -0.2413
vn 0.0536 0.3718 -0.9268
vn 0.7260 0.0769 -0.6834
vn 0.9827 0.0276 -0.1832
vn 0.5594 0.7452 -0.3631
vn 0.5422 0.6928 -0.4754
vn 0.9786 0.0890 -0.1857
vn 0.2200 -0.8766 0.4280
vn 0.7654 -0.6213 0.1677
vn 0.8222 -0.5133 0.2461
vn 0.2693 -0.8009 0.5348
vn -0.1466 0.9463 -0.2882
vn 0.1264 0.9259 0.3561
vn 0.9737 0.1708 -0.1511
vn 0.4893 0.6905 -0.5328
vn 0.4769 0.7195 -0.5048
vn 0.9516 0.2945 0.0876
vn -0.9603 -0.1207 0.2516
vn -0.4450 -0.6215 0.6448
vn -0.4697 -0.5721 0.6724
vn -0.8698 0.0151 0.4931
vn 0.3079 -0.7095 0.6339
vn 0.8613 -0.3849 0.3317
vn 0.8574 -0.3491 0.3782
vn 0.3169 -0.5422 0.7782
vn -0.2909 0.7728 -0.5640
vn -0.8552 0.4616 -0.2357
vn -0.8423 0.4911 -0.2223
vn -0.1858 0.9073 -0.3772
vn -0.3632 0.2964 0.8833
vn 0.2621 0.4910 0.8308
vn -0.3509 0.2391 0.9054
vn -0.2997 -0.4640 -0.8336
vn -0.4422 -0.4835 -0.7554
vn -0.3173 -0.3369 -0.8865
vn -0.2707 -0.5870 -0.7630
vn 0.9498 -0.1325 -0.2835
vn 0.4564 -0.4218 -0.7835
vn 0.5026 -0.6224 -0.6000
vn 0.9500 -0.2745 -0.1487
vn -0.8742 -0.1827 0.4498
vn -0.3990 0.2712 0.8759
vn -0.7720 -0.3464 0.5329
vn -0.9850 0.0020 0.1723
vn -0.5034 0.3610 0.7850
vn -0.9528 -0.0286 0.3021
vn 0.8312 -0.0301 -0.5552
vn 0.2972 -0.2951 -0.9081
vn 0.3766 -0.3237 -0.8680
vn 0.9110 -0.0358 -0.4108
vn -0.3801 -0.3932 -0.8372
vn -0.8629 -0.2645 -0.4306
vn -0.8651 -0.3303 -0.3774
vn -0.3606 -0.4158 -0.8349
vn 0.3502 0.4709 0.8097
vn 0.9214 0.3385 0.1908
vn 0.9140 0.2749 0.2983
vn 0.4040 0.4083 0.8186
vn -0.2194 0.9046 0.3654
vn 0.0533 0.9700 -0.2371
vn 0.0031 0.9376 -0.3477
vn -0.3764 0.9251 0.0504
vn -0.3371 -0.6253 -0.7038
vn 0.4289 0.4623 0.7761
vn 0.9132 0.2197 0.3431
vn 0.1684 -0.8930 -0.4174
vn -0.0972 -0.9719 0.2143
vn -0.1936 -0.9428 0.2713
vn -0.0731 -0.7449 -0.6631
vn -0.3228 -0.6414 0.6960
vn -0.4526 0.2347 0.8603
vn -0.5155 0.2305 0.8253
vn -0.6564 -0.3155 0.6852
vn -0.8747 0.1011 -0.4740
vn 0.0882 0.5528 -0.8287
vn 0.2862 -0.2707 -0.9191
vn 0.2687 0.6168 -0.7399
vn 0.3370 -0.1460 -0.9301
vn -0.8772 0.4801 -0.0078
vn -0.3519 0.8479 0.3965
vn -0.3931 0.8788 0.2704
vn -0.8217 0.5531 -0.1377
vn 0.9312 -0.3614 -0.0472
vn 0.4624 -0.7420 -0.4855
vn 0.3684 -0.8117 -0.4533
vn 0.8825 -0.4575 0.1092
vn -0.3019 -0.6774 -0.6708
vn -0.8586 -0.1618 -0.4864
vn -0.8302 -0.0225 -0.5570
vn -0.3310 -0.6253 -0.7067
vn 0.3530 0.7583 0.5481
vn 0.9069 0.2549 0.3354
vn 0.8524 0.2274 0.4708
vn 0.3433 0.7623 0.5487
vn 0.3725 0.7318 0.5707
vn 0.7978 0.1209 0.5906
vn 0.8490 0.0968 0.5195
vn 0.4599 0.8361 0.2991
vn -0.2962 -0.5868 -0.7536
vn -0.6716 0.0786 -0.7367
vn -0.5824 0.1247 -0.8033
vn -0.1492 -0.2826 -0.9476
vn -0.6430 0.6870 -0.3384
vn -0.2189 0.9642 0.1498
vn -0.1222 0.9860 0.1136
vn -0.3934 0.7834 -0.4811
vn 0.7900 -0.5588 0.2521
vn 0.3472 -0.8600 -0.3738
vn 0.4173 -0.8018 -0.4277
vn 0.9275 -0.3726 -0.0305
vn 0.6630 0.4522 -0.5966
vn 0.3663 -0.1667 -0.9155
vn 0.3776 -0.0225 -0.9257
vn 0.4911 0.5742 -0.6551
vn -0.7020 -0.4453 0.5558
vn -0.4364 0.2201 0.8724
vn -0.4522 0.2800 0.8468
vn -0.5227 -0.5765 0.6280
vn -0.1943 -0.7247 -0.6611
vn -0.6151 -0.7882 -0.0200
vn -0.3144 -0.9475 0.0579
vn 0.0305 -0.7926 -0.6090
vn 0.1336 0.7605 0.6354
vn 0.5595 0.8279 0.0389
vn 0.3594 0.9293 -0.0844
vn -0.0526 0.8462 0.5302
vn 0.1086 0.6125 0.7830
vn 0.5578 0.4740 -0.6813
vn 0.5450 0.0065 0.8384
vn 0.6438 -0.5729 0.5073
vn 0.7819 -0.5109 0.3572
vn 0.5991 0.0134 0.8006
vn -0.4431 0.4706 -0.7630
vn -0.5367 0.7996 -0.2696
vn -0.5891 0.7189 -0.3689
vn -0.5297 0.3395 -0.7773
vn 0.6557 -0.7308 -0.1896
vn 0.1981 -0.2535 -0.9468
vn 0.0139 -0.4692 -0.8830
vn 0.5275 -0.8439 -0.0975
vn 0.5746 -0.1319 0.8077
vn 0.7333 -0.5389 0.4147
vn 0.6693 -0.5402 0.5101
vn 0.5246 -0.0154 0.8512
vn 0.7328 -0.5835 -0.3502
vn 0.0357 -0.4206 -0.9065
vn 0.0624 -0.3773 -0.9240
vn 0.7881 -0.3469 -0.5084
vn 0.4396 -0.8946 -0.0801
vn -0.1267 -0.6179 -0.7760
vn 0.0010 -0.5707 -0.8212
vn 0.5861 -0.7771 -0.2294
vn -0.4155 0.9076 0.0611
vn 0.1248 0.6801 0.7224
vn 0.0791 0.5909 0.8029
vn -0.6104 0.7775 0.1512
vn -0.5755 0.1917 -0.7951
vn -0.6095 0.6319 -0.4788
vn -0.7574 0.5061 -0.4127
vn -0.6341 0.1292 -0.7623
vn 0.4210 0.8240 -0.3792
vn -0.4896 0.1244 -0.8630
vn -0.8682 0.3986 -0.2955
vn -0.5926 0.7519 0.2889
vn -0.7565 0.6063 0.2452
vn -0.0821 0.5238 0.8479
vn -0.1059 0.5336 0.8391
vn -0.7025 0.1078 -0.7035
vn -0.8652 0.4047 -0.2961
vn 0.6170 0.0553 0.7850
vn 0.8909 -0.3572 0.2805
vn 0.9127 -0.2916 0.2861
vn 0.6378 0.2588 0.7255
vn 0.2303 0.6409 0.7323
vn 0.2397 0.8352 0.4949
vn -0.7378 -0.6746 -0.0249
vn -0.1270 0.8419 -0.5245
vn 0.3939 0.6355 0.6640
vn 0.8960 0.2732 0.3502
vn -0.8479 -0.4827 -0.2193
vn -0.8060 0.3959 0.4400
vn 0.2420 -0.1660 -0.9560
vn -0.9944 0.0441 0.0960
vn -0.2267 0.8579 -0.4612
vn -0.8169 0.5693 -0.0927
vn -0.7582 0.6447 0.0973
vn -0.4048 -0.5596 0.7232
vn 0.5472 0.7868 0.2854
vn 0.1164 0.0688 -0.9908
vn -0.8718 -0.0618 0.4859
vn -0.9060 0.1880 0.3792
vn -0.3765 0.1169 0.9190
vn 0.3962 0.0775 0.9149
vn 0.8938 0.1207 -0.4320
vn 0.3573 0.1603 -0.9201
vn -0.4129 0.2130 -0.8855
vn -0.9082 0.2138 -0.3598
vn 0.9340 0.0623 0.3519
usemtl None
s 1
f 1/1/1 137/2/2 202/3/3
f 4/4/4 192/5/5 117/6/6
f 7/7/7 186/8/8 161/9/9
f 8/10/10 89/11/11 105/12/12
f 4/4/4 181/13/13 192/5/5
f 8/10/10 126/14/14 89/11/11
f 1/15/1 102/16/15 137/17/2
f 7/7/7 177/18/16 186/8/8
f 265/19/17 184/20/18 9/21/19 201/22/20
f 264/23/21 169/24/22 11/25/23 178/26/24
f 263/27/25 86/28/26 12/29/27 191/30/28
f 262/31/29 108/32/30 10/33/31 120/34/32
f 261/35/33 135/36/34 15/37/35 77/38/36
f 17/39/37 125/40/38 190/41/39
f 260/42/40 116/43/41 14/44/42 175/45/43
f 259/46/44 190/47/39 19/48/45 107/49/46
f 258/50/47 106/51/48 17/52/37 166/53/49
f 257/54/50 141/55/51 21/56/52 176/57/53
f 256/58/54 76/59/55 20/60/56 115/61/57
f 255/62/58 134/63/59 23/64/60 153/65/61
f 254/66/62 149/67/63 25/68/64 148/69/65
f 253/70/66 115/71/57 20/72/56 101/73/67
f 13/74/68 111/75/69 172/76/70
f 252/77/71 158/78/72 27/79/73 130/80/74
f 251/81/75 85/82/76 28/83/77 140/84/78
f 250/85/79 158/78/72 13/86/68 193/87/80
f 249/88/81 196/89/82 29/90/83 160/91/84
f 248/92/85 194/93/86 31/94/87 165/95/88
f 247/96/89 128/97/90 30/98/91 82/99/92
f 246/100/93 122/101/94 32/102/95 152/103/96
f 33/104/97 119/105/98 174/106/99
f 245/107/100 81/108/101 38/109/102 138/110/103
f 244/111/104 159/112/105 39/113/106 147/114/107
f 243/115/108 174/106/99 35/116/109 84/117/110
f 242/118/111 124/119/112 33/120/97 163/121/113
f 241/122/114 114/123/115 36/124/116 95/125/117
f 240/126/118 78/127/119 37/128/120 164/129/121
f 239/130/122 133/131/123 40/132/124 87/133/125
f 238/134/126 90/135/127 45/136/128 199/137/129
f 38/138/102 81/139/101 189/140/130
f 237/141/131 87/133/125 40/132/124 156/142/132
f 236/143/133 129/144/134 49/145/135 168/146/136
f 235/147/137 146/148/138 46/149/139 113/150/140
f 234/151/141 127/152/142 50/153/143 168/154/136
f 233/155/144 136/156/145 50/157/143 127/158/142
f 232/159/146 88/160/147 51/161/148 151/162/149
f 231/163/150 180/164/151 53/165/152 132/166/153
f 230/167/154 123/168/155 52/169/156 75/170/157
f 229/171/158 188/172/159 54/173/160 131/174/161
f 228/175/162 185/176/163 55/177/164 139/178/165
f 227/179/166 80/180/167 57/181/168 195/182/169
f 226/183/170 154/184/171 56/185/172 206/186/173
f 225/187/174 92/188/175 58/189/176 99/190/177
f 224/191/178 145/192/179 47/193/180 83/194/181
f 223/195/182 118/196/183 43/197/184 167/198/185
f 222/199/186 144/200/187 48/201/188 205/202/189
f 221/203/190 200/204/191 44/205/192 162/206/193
f 220/207/194 152/208/96 32/209/95 165/210/88
f 219/211/195 206/212/173 56/213/172 139/214/165
f 218/215/196 171/216/197 60/217/198 98/218/199
f 217/219/200 203/220/201 16/221/202 187/222/203
f 216/223/204 109/224/205 62/225/206 157/226/207
f 215/227/208 198/228/209 59/229/210 112/230/211
f 214/231/212 73/232/213 64/233/214 142/234/215
f 213/235/216 121/236/217 63/237/218 94/238/219
f 212/239/220 110/240/221 61/241/222 204/242/223
f 211/243/224 143/244/225 66/245/226 70/246/227
f 210/247/228 150/248/229 67/249/230 72/250/231
f 209/251/232 97/252/233 68/253/234 72/254/231
f 208/255/235 173/256/236 67/257/230 150/258/229
f 207/259/237 104/260/238 65/261/239 79/262/240
f 97/252/233 207/259/237 79/262/240 68/253/234
f 61/241/222 98/218/199 207/259/237 97/252/233
f 98/218/199 60/217/198 104/260/238 207/259/237
f 73/232/213 208/255/235 150/258/229 64/233/214
f 63/237/218 70/246/227 208/255/235 73/232/213
f 70/246/227 66/245/226 173/256/236 208/255/235
f 173/256/236 209/251/232 72/254/231 67/257/230
f 66/245/226 204/242/223 209/251/232 173/256/236
f 204/242/223 61/241/222 97/252/233 209/251/232
f 79/263/240 210/247/228 72/250/231 68/264/234
f 65/265/239 142/266/215 210/247/228 79/263/240
f 142/266/215 64/267/214 150/248/229 210/247/228
f 121/236/217 211/243/224 70/246/227 63/237/218
f 62/225/206 187/222/203 211/243/224 121/236/217
f 187/222/203 16/221/202 143/244/225 211/243/224
f 143/244/225 212/239/220 204/242/223 66/245/226
f 16/221/202 77/38/36 212/239/220 143/244/225
f 77/38/36 15/37/35 110/240/221 212/239/220
f 171/268/197 213/235/216 94/238/219 60/269/198
f 59/270/210 157/226/207 213/235/216 171/268/197
f 157/226/207 62/225/206 121/236/217 213/235/216
f 104/271/238 214/231/212 142/234/215 65/272/239
f 60/269/198 94/238/219 214/231/212 104/271/238
f 94/238/219 63/237/218 73/232/213 214/231/212
f 135/36/34 215/227/208 112/230/211 15/37/35
f 14/273/42 116/274/41 215/227/208 135/36/34
f 116/274/41 21/275/52 198/228/209 215/227/208
f 198/276/209 216/223/204 157/226/207 59/270/210
f 21/277/52 153/278/61 216/223/204 198/276/209
f 153/278/61 23/279/60 109/224/205 216/223/204
f 109/224/205 217/219/200 187/222/203 62/225/206
f 23/279/60 111/280/69 217/219/200 109/224/205
f 111/280/69 13/281/68 203/220/201 217/219/200
f 110/240/221 218/215/196 98/218/199 61/241/222
f 15/37/35 112/230/211 218/215/196 110/240/221
f 112/230/211 59/229/210 171/216/197 218/215/196
f 99/282/177 219/211/195 139/214/165 55/283/164
f 58/284/176 195/285/169 219/211/195 99/282/177
f 195/285/169 57/286/168 206/212/173 219/211/195
f 82/287/92 220/207/194 165/210/88 31/288/87
f 30/289/91 160/290/84 220/207/194 82/287/92
f 160/290/84 29/291/83 152/208/96 220/207/194
f 118/196/183 221/203/190 162/206/193 43/197/184
f 35/116/109 170/292/241 221/203/190 118/196/183
f 170/292/241 34/293/242 200/204/191 221/203/190
f 145/192/179 222/199/186 205/202/189 47/193/180
f 38/138/102 189/140/130 222/199/186 145/192/179
f 189/140/130 42/294/243 144/200/187 222/199/186
f 144/295/187 223/195/182 167/198/185 48/296/188
f 42/297/243 84/117/110 223/195/182 144/295/187
f 84/117/110 35/116/109 118/196/183 223/195/182
f 200/204/191 224/191/178 83/194/181 44/205/192
f 34/293/242 100/298/244 224/191/178 200/204/191
f 100/298/244 38/138/102 145/192/179 224/191/178
f 185/176/163 225/187/174 99/190/177 55/177/164
f 54/173/160 132/166/153 225/187/174 185/176/163
f 132/166/153 53/165/152 92/188/175 225/187/174
f 80/299/167 226/183/170 206/186/173 57/300/168
f 52/301/156 151/162/149 226/183/170 80/299/167
f 151/162/149 51/161/148 154/184/171 226/183/170
f 92/188/175 227/179/166 195/182/169 58/189/176
f 53/165/152 75/170/157 227/179/166 92/188/175
f 75/170/157 52/169/156 80/180/167 227/179/166
f 154/184/171 228/175/162 139/178/165 56/185/172
f 51/161/148 131/174/161 228/175/162 154/184/171
f 131/174/161 54/173/160 185/176/163 228/175/162
f 88/160/147 229/171/158 131/174/161 51/161/148
f 34/302/242 155/303/245 229/171/158 88/160/147
f 155/303/245 41/304/246 188/172/159 229/171/158
f 180/164/151 230/167/154 75/170/157 53/165/152
f 39/113/106 138/110/103 230/167/154 180/164/151
f 138/110/103 38/109/102 123/168/155 230/167/154
f 188/172/159 231/163/150 132/166/153 54/173/160
f 41/304/246 147/114/107 231/163/150 188/172/159
f 147/114/107 39/113/106 180/164/151 231/163/150
f 123/305/155 232/159/146 151/162/149 52/301/156
f 38/306/102 100/307/244 232/159/146 123/305/155
f 100/307/244 34/302/242 88/160/147 232/159/146
f 90/135/127 233/155/144 127/158/142 45/136/128
f 44/205/192 83/194/181 233/155/144 90/135/127
f 83/194/181 47/193/180 136/156/145 233/155/144
f 113/308/140 234/151/141 168/154/136 49/309/135
f 46/310/139 199/311/129 234/151/141 113/308/140
f 199/311/129 45/312/128 127/152/142 234/151/141
f 129/313/134 235/147/137 113/150/140 49/314/135
f 48/296/188 167/198/185 235/147/137 129/313/134
f 167/198/185 43/197/184 146/148/138 235/147/137
f 136/156/145 236/143/133 168/146/136 50/157/143
f 47/193/180 205/202/189 236/143/133 136/156/145
f 205/202/189 48/201/188 129/144/134 236/143/133
f 155/303/245 237/141/131 156/142/132 41/304/246
f 34/302/242 119/315/98 237/141/131 155/303/245
f 119/315/98 33/120/97 87/133/125 237/141/131
f 189/140/130 182/316/247 42/294/243
f 189/140/130 81/139/101 182/316/247
f 81/139/101 37/317/120 182/316/247
f 146/148/138 238/134/126 199/137/129 46/149/139
f 43/197/184 162/206/193 238/134/126 146/148/138
f 162/206/193 44/205/192 90/135/127 238/134/126
f 124/119/112 239/130/122 87/133/125 33/120/97
f 18/318/248 193/319/80 239/130/122 124/119/112
f 193/319/80 13/74/68 133/131/123 239/130/122
f 114/123/115 240/126/118 164/129/121 36/124/116
f 24/320/249 107/49/46 240/126/118 114/123/115
f 107/49/46 19/48/45 78/127/119 240/126/118
f 133/131/123 241/122/114 95/125/117 40/132/124
f 13/74/68 172/76/70 241/122/114 133/131/123
f 172/76/70 24/320/249 114/123/115 241/122/114
f 78/321/119 242/118/111 163/121/113 37/322/120
f 19/323/45 183/324/250 242/118/111 78/321/119
f 183/324/250 18/318/248 124/119/112 242/118/111
f 182/325/247 243/115/108 84/117/110 42/297/243
f 37/326/120 163/327/113 243/115/108 182/325/247
f 163/327/113 33/104/97 174/106/99 243/115/108
f 156/142/132 244/111/104 147/114/107 41/304/246
f 40/132/124 95/125/117 244/111/104 156/142/132
f 95/125/117 36/124/116 159/112/105 244/111/104
f 159/112/105 245/107/100 138/110/103 39/113/106
f 36/124/116 164/129/121 245/107/100 159/112/105
f 164/129/121 37/128/120 81/108/101 245/107/100
f 174/106/99 170/292/241 35/116/109
f 174/106/99 119/105/98 170/292/241
f 119/105/98 34/293/242 170/292/241
f 196/89/82 246/100/93 152/103/96 29/90/83
f 27/79/73 69/328/251 246/100/93 196/89/82
f 69/328/251 26/329/252 122/101/94 246/100/93
f 194/93/86 247/96/89 82/99/92 31/94/87
f 25/68/64 140/84/78 247/96/89 194/93/86
f 140/84/78 28/83/77 128/97/90 247/96/89
f 122/101/94 248/92/85 165/95/88 32/102/95
f 26/329/252 148/69/65 248/92/85 122/101/94
f 148/69/65 25/68/64 194/93/86 248/92/85
f 128/330/90 249/88/81 160/91/84 30/331/91
f 28/332/77 130/80/74 249/88/81 128/330/90
f 130/80/74 27/79/73 196/89/82 249/88/81
f 74/333/253 250/85/79 193/87/80 18/334/248
f 26/329/252 69/328/251 250/85/79 74/333/253
f 69/328/251 27/79/73 158/78/72 250/85/79
f 149/67/63 251/81/75 140/84/78 25/68/64
f 22/335/254 175/45/43 251/81/75 149/67/63
f 175/45/43 14/44/42 85/82/76 251/81/75
f 85/336/76 252/77/71 130/80/74 28/332/77
f 14/337/42 71/338/255 252/77/71 85/336/76
f 71/338/255 13/86/68 158/78/72 252/77/71
f 172/76/70 91/339/256 24/320/249
f 172/76/70 111/75/69 91/339/256
f 111/75/69 23/340/60 91/339/256
f 93/341/257 253/70/66 101/73/67 22/335/254
f 18/334/248 125/342/38 253/70/66 93/341/257
f 125/342/38 17/343/37 115/71/57 253/70/66
f 74/333/253 254/66/62 148/69/65 26/329/252
f 18/334/248 93/341/257 254/66/62 74/333/253
f 93/341/257 22/335/254 149/67/63 254/66/62
f 141/55/51 255/62/58 153/65/61 21/56/52
f 9/21/19 191/30/28 255/62/58 141/55/51
f 191/30/28 12/29/27 134/63/59 255/62/58
f 106/51/48 256/58/54 115/61/57 17/52/37
f 11/25/23 120/34/32 256/58/54 106/51/48
f 120/34/32 10/33/31 76/59/55 256/58/54
f 76/59/55 257/54/50 176/57/53 20/60/56
f 10/33/31 201/22/20 257/54/50 76/59/55
f 201/22/20 9/21/19 141/55/51 257/54/50
f 134/344/59 258/50/47 166/53/49 23/345/60
f 12/346/27 178/26/24 258/50/47 134/344/59
f 178/26/24 11/25/23 106/51/48 258/50/47
f 91/339/256 259/46/44 107/49/46 24/320/249
f 23/340/60 166/347/49 259/46/44 91/339/256
f 166/347/49 17/348/37 190/47/39 259/46/44
f 101/73/67 260/42/40 175/45/43 22/335/254
f 20/72/56 176/349/53 260/42/40 101/73/67
f 176/349/53 21/350/52 116/43/41 260/42/40
f 190/41/39 183/324/250 19/323/45
f 190/41/39 125/40/38 183/324/250
f 125/40/38 18/318/248 183/324/250
f 203/220/201 261/35/33 77/38/36 16/221/202
f 13/281/68 71/351/255 261/35/33 203/220/201
f 71/351/255 14/273/42 135/36/34 261/35/33
f 169/24/22 262/31/29 120/34/32 11/25/23
f 6/352/258 96/353/259 262/31/29 169/24/22
f 96/353/259 5/354/260 108/32/30 262/31/29
f 184/20/18 263/27/25 191/30/28 9/21/19
f 3/355/261 197/356/262 263/27/25 184/20/18
f 197/356/262 2/357/263 86/28/26 263/27/25
f 86/358/26 264/23/21 178/26/24 12/346/27
f 2/359/263 103/360/264 264/23/21 86/358/26
f 103/360/264 6/352/258 169/24/22 264/23/21
f 108/32/30 265/19/17 201/22/20 10/33/31
f 5/354/260 179/361/265 265/19/17 108/32/30
f 179/361/265 3/355/261 184/20/18 265/19/17
f 186/8/8 202/3/3 3/355/261
f 186/8/8 177/18/16 202/3/3
f 177/18/16 1/1/1 202/3/3
f 137/17/2 105/12/12 2/359/263
f 137/17/2 102/16/15 105/12/12
f 102/16/15 8/10/10 105/12/12
f 89/11/11 117/6/6 6/352/258
f 89/11/11 126/14/14 117/6/6
f 126/14/14 4/4/4 117/6/6
f 192/5/5 161/9/9 5/354/260
f 192/5/5 181/13/13 161/9/9
f 181/13/13 7/7/7 161/9/9
f 105/12/12 103/360/264 2/359/263
f 105/12/12 89/11/11 103/360/264
f 89/11/11 6/352/258 103/360/264
f 161/9/9 179/361/265 5/354/260
f 161/9/9 186/8/8 179/361/265
f 186/8/8 3/355/261 179/361/265
f 117/6/6 96/353/259 6/352/258
f 117/6/6 192/5/5 96/353/259
f 192/5/5 5/354/260 96/353/259
f 202/3/3 197/356/262 3/355/261
f 202/3/3 137/2/2 197/356/262
f 137/2/2 2/357/263 197/356/262
