%YAML 1.1
%TAG !u! tag:unity3d.com,2011:
--- !u!114 &11400000
MonoBehaviour:
  m_ObjectHideFlags: 0
  m_PrefabParentObject: {fileID: 0}
  m_PrefabInternal: {fileID: 0}
  m_GameObject: {fileID: 0}
  m_Enabled: 1
  m_EditorHideFlags: 0
  m_Script: {fileID: 1268376496, guid: 34a7c8ca992f915438a96c2077353778, type: 3}
  m_Name: ConfusionAllyActivate
  m_EditorClassIdentifier: 
  brickName: Assets/BehaviorTree/SpringQuarter/Ally/ConfusionAllyActivate.asset
  xml: "\uFEFF<?xml version=\"1.0\" encoding=\"utf-8\"?>\r\n<BehaviorBricks xmlns:ref=\"urn:padaone\"
    version=\"1.0\">\r\n  <BehaviorTree id=\"0\" />\r\n  <runtimeInfo>\r\n    <BehaviorTree
    id=\"0\" guid=\"b82dae1174dc8654c8560dd1192fcfbd\" nextId=\"2\">\r\n      <root>\r\n
    \       <ActionNode id=\"1\" />\r\n      </root>\r\n      <inputParams />\r\n
    \     <outputParams />\r\n      <localParams />\r\n    </BehaviorTree>\r\n    <ActionNode
    id=\"1\" action=\"Custom/Movement/DontMove\">\r\n      <inputParams />\r\n      <outputParams
    />\r\n      <localParams />\r\n    </ActionNode>\r\n  </runtimeInfo>\r\n  <editorInfo>\r\n
    \   <BehaviorTree id=\"0\" _name=\"ConfusionAllyActivate\" _removeIfClosed=\"False\">\r\n
    \     <_rootList>\r\n        <elem>\r\n          <ActionNode id=\"1\" />\r\n        </elem>\r\n
    \     </_rootList>\r\n      <_nodes>\r\n        <nodes>\r\n          <ActionNode
    id=\"1\" />\r\n        </nodes>\r\n      </_nodes>\r\n      <_selectedNode>\r\n
    \       <ActionNode id=\"1\" />\r\n      </_selectedNode>\r\n    </BehaviorTree>\r\n
    \   <ActionNode id=\"1\">\r\n      <_data>\r\n        <data selected=\"True\"
    position=\"418 170\" name=\"Custom/Movement/DontMove\" description=\"Tells the
    character not to move until DoMove node is reached.\" cardinality=\"0\" hasParent=\"False\">\r\n
    \         <BehaviorTree id=\"0\" />\r\n          <ActionNode id=\"1\" />\r\n        </data>\r\n
    \     </_data>\r\n    </ActionNode>\r\n  </editorInfo>\r\n</BehaviorBricks>"
  subslist: []
  _guid: b82dae1174dc8654c8560dd1192fcfbd
