%YAML 1.1
%TAG !u! tag:unity3d.com,2011:
--- !u!21 &2100000
Material:
  serializedVersion: 6
  m_ObjectHideFlags: 0
  m_PrefabParentObject: {fileID: 0}
  m_PrefabInternal: {fileID: 0}
  m_Name: TreeTrunk01_00
  m_Shader: {fileID: 4800000, guid: 02143495406a2c34d8ffbb7175b730ea, type: 3}
  m_ShaderKeywords: _METALALPHAGLOSS_ON _METALLICGLOSSMAP _NORMALMAP _USEALPHA_ON
  m_LightmapFlags: 5
  m_CustomRenderQueue: -1
  stringTagMap: {}
  m_SavedProperties:
    serializedVersion: 2
    m_TexEnvs:
    - first:
        name: _BumpMap
      second:
        m_Texture: {fileID: 2800000, guid: daf0757913726ab448340820ef06d515, type: 3}
        m_Scale: {x: 1, y: 1}
        m_Offset: {x: 0, y: 0}
    - first:
        name: _DetailAlbedoMap
      second:
        m_Texture: {fileID: 2800000, guid: 2974f409bf4c2f846bebb6c255779c3b, type: 3}
        m_Scale: {x: 1, y: 1}
        m_Offset: {x: 0, y: 0}
    - first:
        name: _DetailMask
      second:
        m_Texture: {fileID: 0}
        m_Scale: {x: 1, y: 1}
        m_Offset: {x: 0, y: 0}
    - first:
        name: _DetailNormalMap
      second:
        m_Texture: {fileID: 2800000, guid: cd74ec2de2e6ebc4a8504ab5f6800e10, type: 3}
        m_Scale: {x: 1, y: 1}
        m_Offset: {x: 0, y: 0}
    - first:
        name: _EmissionMap
      second:
        m_Texture: {fileID: 0}
        m_Scale: {x: 1, y: 1}
        m_Offset: {x: 0, y: 0}
    - first:
        name: _MainTex
      second:
        m_Texture: {fileID: 2800000, guid: e58fa82e7ca258247a519afda3e41d16, type: 3}
        m_Scale: {x: 1, y: 1}
        m_Offset: {x: 0, y: 0}
    - first:
        name: _MetallicGlossMap
      second:
        m_Texture: {fileID: 2800000, guid: 895c5d021eb5a754990bfd578bbd3048, type: 3}
        m_Scale: {x: 1, y: 1}
        m_Offset: {x: 0, y: 0}
    - first:
        name: _OcclusionMap
      second:
        m_Texture: {fileID: 2800000, guid: cbae4548047f84e4592ee0b27591a0eb, type: 3}
        m_Scale: {x: 1, y: 1}
        m_Offset: {x: 0, y: 0}
    - first:
        name: _OpacityMap
      second:
        m_Texture: {fileID: 0}
        m_Scale: {x: 1, y: 1}
        m_Offset: {x: 0, y: 0}
    - first:
        name: _ParallaxMap
      second:
        m_Texture: {fileID: 0}
        m_Scale: {x: 1, y: 1}
        m_Offset: {x: 0, y: 0}
    - first:
        name: _SmoothnessMap
      second:
        m_Texture: {fileID: 0}
        m_Scale: {x: 1, y: 1}
        m_Offset: {x: 0, y: 0}
    - first:
        name: _TopDetail
      second:
        m_Texture: {fileID: 2800000, guid: 46c5d501aa7e1344f8546af254ec3c5e, type: 3}
        m_Scale: {x: 1, y: 1}
        m_Offset: {x: 0, y: 0}
    - first:
        name: _TopNormal
      second:
        m_Texture: {fileID: 2800000, guid: 1d91536ef319a6546b8e0a0f03e2dcc4, type: 3}
        m_Scale: {x: 1, y: 1}
        m_Offset: {x: 0, y: 0}
    m_Floats:
    - first:
        name: _AffectAO
      second: 0.49
    - first:
        name: _BumpScale
      second: 1
    - first:
        name: _Cutoff
      second: 0.5
    - first:
        name: _DetailAffected
      second: 3.33
    - first:
        name: _DetailNormalMapScale
      second: 1
    - first:
        name: _DetailTiling
      second: 10
    - first:
        name: _DiffuseAOMask
      second: 0.47
    - first:
        name: _DstBlend
      second: 0
    - first:
        name: _EmissionLM
      second: 0
    - first:
        name: _Fresnel
      second: 1.53
    - first:
        name: _Glossiness
      second: 1
    - first:
        name: _InvertAOMask
      second: 0
    - first:
        name: _InvertTopBottom
      second: 0
    - first:
        name: _LightWrap
      second: 0
    - first:
        name: _MetalAlphaGloss
      second: 1
    - first:
        name: _Metallic
      second: 0
    - first:
        name: _Mode
      second: 0
    - first:
        name: _OcclusionStrenght
      second: 1
    - first:
        name: _OcclusionStrength
      second: 1
    - first:
        name: _Parallax
      second: 0.02
    - first:
        name: _RimPower
      second: 1
    - first:
        name: _SrcBlend
      second: 1
    - first:
        name: _TopBottomBumpScale
      second: 1
    - first:
        name: _TopBottomMult
      second: 4.64
    - first:
        name: _TopBottomPower
      second: 0.48
    - first:
        name: _TopMetallic
      second: 0
    - first:
        name: _TopSmoothness
      second: 0
    - first:
        name: _UVSec
      second: 0
    - first:
        name: _UseAlpha
      second: 1
    - first:
        name: _ZWrite
      second: 1
    m_Colors:
    - first:
        name: _Color
      second: {r: 0.71323526, g: 0.678514, b: 0.6345696, a: 1}
    - first:
        name: _EmissionColor
      second: {r: 0, g: 0, b: 0, a: 1}
    - first:
        name: _LightWarpTint
      second: {r: 0.5, g: 0.5, b: 0.5, a: 1}
    - first:
        name: _RimColor
      second: {r: 0.7647059, g: 0.26989618, b: 0.6486815, a: 1}
    - first:
        name: _TopTint
      second: {r: 1, g: 1, b: 1, a: 1}
