%YAML 1.1
%TAG !u! tag:unity3d.com,2011:
--- !u!21 &2100000
Material:
  serializedVersion: 6
  m_ObjectHideFlags: 0
  m_PrefabParentObject: {fileID: 0}
  m_PrefabInternal: {fileID: 0}
  m_Name: RuinsArc00
  m_Shader: {fileID: 4800000, guid: 7815f578684d7f9439315024c84b796b, type: 3}
  m_ShaderKeywords: _METALLICGLOSSMAP _NORMALMAP _PARALLAXMAP _USELOCALNORMALS_ON
  m_LightmapFlags: 5
  m_CustomRenderQueue: 2000
  stringTagMap: {}
  m_SavedProperties:
    serializedVersion: 2
    m_TexEnvs:
    - first:
        name: _BumpMap
      second:
        m_Texture: {fileID: 2800000, guid: 299478409292aeb4587b445badd3daa1, type: 3}
        m_Scale: {x: 1, y: 1}
        m_Offset: {x: 0, y: 0}
    - first:
        name: _DetailAlbedoMap
      second:
        m_Texture: {fileID: 2800000, guid: b05249b2e90ca494e9c2389dee70e4a3, type: 3}
        m_Scale: {x: 5, y: 5}
        m_Offset: {x: 0, y: 0}
    - first:
        name: _DetailMask
      second:
        m_Texture: {fileID: 2800000, guid: 4f706a6b49c607040b05f4cbe982057d, type: 3}
        m_Scale: {x: 1, y: 1}
        m_Offset: {x: 0, y: 0}
    - first:
        name: _DetailNormalMap
      second:
        m_Texture: {fileID: 2800000, guid: 24131f72e8ddafa48a60e0b6d1c22475, type: 3}
        m_Scale: {x: 5, y: 5}
        m_Offset: {x: 0, y: 0}
    - first:
        name: _EmissionMap
      second:
        m_Texture: {fileID: 0}
        m_Scale: {x: 1, y: 1}
        m_Offset: {x: 0, y: 0}
    - first:
        name: _MainTex
      second:
        m_Texture: {fileID: 2800000, guid: 4f706a6b49c607040b05f4cbe982057d, type: 3}
        m_Scale: {x: 1, y: 1}
        m_Offset: {x: 0, y: 0}
    - first:
        name: _MetallicGlossMap
      second:
        m_Texture: {fileID: 2800000, guid: 18ddd087b20e39b41884b814026da73d, type: 3}
        m_Scale: {x: 1, y: 1}
        m_Offset: {x: 0, y: 0}
    - first:
        name: _OcclusionMap
      second:
        m_Texture: {fileID: 2800000, guid: edb8fddf88b15dc41a2682691421b06b, type: 3}
        m_Scale: {x: 1, y: 1}
        m_Offset: {x: 0, y: 0}
    - first:
        name: _ParallaxMap
      second:
        m_Texture: {fileID: 2800000, guid: ff615a0f2041a6b42830333808c07fa7, type: 3}
        m_Scale: {x: 1, y: 1}
        m_Offset: {x: 0, y: 0}
    - first:
        name: _UpAlbedo
      second:
        m_Texture: {fileID: 2800000, guid: b967ba89ed3cf3d438902fd36418b0da, type: 3}
        m_Scale: {x: 5, y: 5}
        m_Offset: {x: 0, y: 0}
    - first:
        name: _UpAmbientOc
      second:
        m_Texture: {fileID: 2800000, guid: 0910ab76c776c9d4bb8d46d04cd1549b, type: 3}
        m_Scale: {x: 5, y: 5}
        m_Offset: {x: 0, y: 0}
    - first:
        name: _UpMetalness
      second:
        m_Texture: {fileID: 2800000, guid: 0787be9905dd6184689430687361f900, type: 3}
        m_Scale: {x: 5, y: 5}
        m_Offset: {x: 0, y: 0}
    - first:
        name: _UpNormal
      second:
        m_Texture: {fileID: 2800000, guid: 2ed7d6a92d665034682654721bd97cdf, type: 3}
        m_Scale: {x: 5, y: 5}
        m_Offset: {x: 0, y: 0}
    m_Floats:
    - first:
        name: Depth
      second: -0.02
    - first:
        name: _BumpScale
      second: 1
    - first:
        name: _Cutoff
      second: 0.5
    - first:
        name: _DetailMaskMult
      second: 0.6
    - first:
        name: _DetailNormalMapScale
      second: 1
    - first:
        name: _DstBlend
      second: 0
    - first:
        name: _Glossiness
      second: 1.5
    - first:
        name: _HgtMapSmooth
      second: 4
    - first:
        name: _InvertAxis
      second: 0
    - first:
        name: _InvertDepth
      second: 0
    - first:
        name: _Metallic
      second: 0
    - first:
        name: _Mode
      second: 0
    - first:
        name: _NormalSmooth
      second: -1
    - first:
        name: _OcclusionStrenght
      second: 2.61
    - first:
        name: _OcclusionStrength
      second: 1
    - first:
        name: _Parallax
      second: 0.02
    - first:
        name: _SrcBlend
      second: 1
    - first:
        name: _TopBottom
      second: 0.18
    - first:
        name: _TopBottomMult
      second: 4.43
    - first:
        name: _TopBottomSmooth
      second: 3.91
    - first:
        name: _UVMasterTiling
      second: 1
    - first:
        name: _UVSec
      second: 0
    - first:
        name: _UpAOMult
      second: 1
    - first:
        name: _UpAlbPower
      second: 1
    - first:
        name: _UpGloss
      second: 1
    - first:
        name: _UpGlossSmooth
      second: 1
    - first:
        name: _UpMetallic
      second: 0
    - first:
        name: _UpNormalSmooth
      second: 0
    - first:
        name: _UseLocalNormals
      second: 1
    - first:
        name: _ZWrite
      second: 1
    m_Colors:
    - first:
        name: _Color
      second: {r: 0.60294116, g: 0.60294116, b: 0.60294116, a: 1}
    - first:
        name: _EmissionColor
      second: {r: 0, g: 0, b: 0, a: 1}
    - first:
        name: _UpColor
      second: {r: 1, g: 0.9951318, b: 0.9558824, a: 1}
