# Blender v2.78 (sub 0) OBJ File: ''
# www.blender.org
mtllib Apple_Tree_crk_m_03.mtl
o Apple_Tree_crk_m_03
v 3.396595 4.599574 -0.096999
v 3.021685 4.626722 -0.800833
v 2.908039 5.690101 -0.227694
v 2.802816 6.105096 0.480804
v 3.419453 5.215058 0.502787
v 3.070567 5.328638 1.169956
v 3.433940 3.852937 0.484497
v 3.000628 3.419243 1.167460
v 2.976923 2.978212 0.368556
v 3.093027 4.313179 1.524358
v 2.770505 3.439456 -0.596837
v 2.560038 4.348639 -1.243502
v 2.066410 5.945079 2.207569
v 2.330164 6.466262 1.130039
v 1.456380 6.710402 1.338260
v 2.750547 5.611704 1.742598
v 1.193169 5.781952 2.196524
v 0.423579 6.463816 1.076934
v 0.441178 5.729224 2.059301
v 1.814749 4.628935 2.580889
v 1.445807 3.846165 2.369705
v 2.310685 3.857830 2.208337
v 0.256319 4.533246 2.222879
v 2.605726 4.577696 2.065978
v -0.486781 5.355491 1.037967
v 0.148629 6.170984 0.179428
v -0.685871 4.897196 0.156089
v 0.224638 5.558378 -0.952426
v -0.464216 4.578854 -0.463870
v -0.752114 3.850135 1.143582
v 0.318960 2.737359 0.812921
v 0.042299 3.357131 1.717723
v -0.031329 3.468523 -0.223258
v -0.132710 5.665573 1.648649
v 0.921881 4.425957 -1.439363
v 1.186542 5.637567 -1.489193
v 1.931527 4.370859 -1.649775
v 2.142109 5.893792 -1.070474
v 1.461040 3.127353 -0.979912
v 1.998481 2.645170 -0.488480
v 1.035537 2.628196 -0.257392
v 0.033202 4.479908 -0.989710
v 1.862260 2.500522 0.203442
v 2.152666 2.445418 0.992093
v 2.263186 3.206795 1.801003
v 0.931584 2.986749 1.734745
v 0.935004 6.233719 -0.807706
v 1.005695 6.705186 -0.153945
v 1.382219 6.841865 0.643706
v 2.156971 6.545760 -0.110038
v -4.048281 1.440993 -4.322898
v -3.872772 1.115705 -4.648870
v -4.461800 0.899610 -4.045537
v -4.666478 0.934355 -3.464282
v -4.436430 1.441941 -3.816902
v -4.357893 1.415192 -3.258979
v -3.668962 1.873458 -4.143545
v -3.248327 2.013356 -3.679755
v -2.988107 1.967716 -4.263296
v -3.796772 1.859128 -3.290159
v -3.126688 1.469825 -4.707353
v -3.495619 0.964766 -4.781292
v -4.300362 1.097359 -2.218776
v -4.568140 0.843568 -2.884989
v -4.434310 0.502932 -2.447368
v -4.374555 1.337199 -2.766391
v -3.825844 0.842567 -2.047468
v -3.829958 0.231430 -2.438536
v -3.435050 0.645807 -2.077933
v -3.433227 1.499795 -2.321117
v -2.850676 1.605663 -2.467680
v -3.226192 1.881818 -2.791490
v -2.718024 0.915472 -2.105845
v -3.750314 1.680146 -2.771933
v -2.842621 0.222043 -2.494451
v -3.536310 0.052286 -2.988218
v -2.476263 0.038631 -3.097494
v -3.202253 -0.046553 -3.878783
v -2.387028 0.096918 -3.606003
v -2.088115 0.542188 -2.775701
v -1.863997 1.136944 -3.391397
v -1.992283 1.087639 -2.629419
v -1.969844 0.524262 -3.792709
v -3.160596 0.381739 -2.152597
v -2.870811 0.401314 -4.546642
v -3.640192 0.102201 -4.441883
v -3.253530 0.637051 -4.984125
v -4.199833 0.400171 -4.350794
v -2.412175 0.991295 -4.665871
v -2.366843 1.459769 -4.631096
v -1.975651 1.127739 -4.236149
v -2.518705 0.168671 -4.081374
v -2.276139 1.599619 -4.179475
v -2.384832 1.955677 -3.784976
v -2.843462 2.011102 -3.171589
v -2.148098 1.539192 -2.913109
v -3.901305 -0.010851 -3.812152
v -4.195125 0.038422 -3.294955
v -4.437259 0.317385 -2.848158
v -4.550498 0.483204 -3.583133
v -0.577029 0.091469 -0.399512
v -1.548641 0.251027 -1.287181
v -1.484680 0.200993 -1.355650
v -0.476254 0.021887 -0.530597
v -1.038667 0.376624 -0.946874
v -0.941742 0.306391 -1.077708
v -1.461951 0.351707 -1.465835
v -1.516153 0.409850 -1.388854
v -1.455312 0.246101 -1.445026
v -0.664611 0.144459 -0.779371
v -0.793657 0.253976 -0.599262
v -1.555915 0.358259 -1.299252
v -2.221293 0.489220 -1.977618
v -2.261548 0.465689 -1.908686
v -2.230537 0.395079 -1.992349
v -2.131799 0.443208 -1.982759
v -2.224583 0.393786 -1.887432
v -2.964960 0.402757 -2.192023
v -2.951784 0.395041 -2.215642
v -2.948193 0.440219 -2.211590
v -2.962740 0.430679 -2.189518
v -2.172141 0.427004 -2.265500
v -2.146982 0.457330 -2.261066
v -2.323413 0.442000 -2.066273
v -2.949654 0.417291 -2.230134
v -2.207882 0.453265 -2.274410
v -2.265947 0.428473 -2.673363
v -2.233590 0.405335 -2.679151
v -2.209827 0.432754 -2.677454
v -2.162686 0.489116 -2.257304
v -2.223469 0.460566 -2.669559
v 0.144893 0.349073 -0.153386
v 0.186749 0.760848 -0.123939
v 0.232745 0.749176 0.056271
v 0.193766 0.340479 0.060557
v -0.081793 0.847808 0.105613
v 0.016754 0.823262 -0.148542
v -0.069031 0.882652 -0.167821
v -0.135147 0.885736 0.018148
v 0.079644 0.775075 0.165617
v 0.051677 0.356398 0.188984
v 0.218445 1.491271 0.115056
v 0.119454 1.517261 0.042960
v 0.322229 1.475548 0.044171
v 0.290510 1.491213 -0.077136
v 0.169050 1.519549 -0.082868
v 0.387165 2.065504 0.085667
v 0.483038 2.132435 0.008366
v 0.578458 2.054996 -0.006304
v 0.593174 2.024900 0.080048
v 0.505719 2.083978 0.142210
v 1.149594 2.430779 0.115328
v 1.178774 2.379740 0.109402
v 1.181756 2.354004 0.163486
v 1.154419 2.389138 0.202838
v 0.567890 2.214260 0.108934
v 1.143541 2.440187 0.173996
v 0.004487 0.397857 -0.230170
v 0.009413 0.039313 -0.251845
v -0.155720 0.042735 -0.173987
v -0.116739 0.437824 -0.181280
v -0.094499 0.396491 0.183467
v -0.170538 0.038645 0.210601
v 0.017052 0.034577 0.235197
v 0.163955 0.033644 -0.159387
v 0.173622 0.032968 0.067788
v -0.185711 0.436999 0.072362
v -0.232051 0.042695 0.034297
v 0.207722 2.503450 0.236831
v 0.251779 2.514771 0.285171
v 1.837916 2.739438 0.306707
v 1.822648 2.763731 0.289086
v 1.833570 2.762269 0.257146
v 1.855587 2.737072 0.255027
v 1.858274 2.722963 0.285657
v 0.182790 2.461991 0.275854
v 0.221176 2.462747 0.310774
v 0.091408 3.035806 0.605027
v 0.067327 3.043115 0.589984
v 0.114021 3.049693 0.581972
v 0.083655 3.054170 0.562917
v -2.206934 1.764456 -3.367967
v -3.283123 0.232560 -4.542489
v 0.033747 0.176736 0.216133
v 0.417080 2.060723 0.119375
v 2.305395 3.570347 2.037201
v -2.296030 1.780507 -3.979803
v -3.302024 1.728675 -2.562056
v -0.140228 0.215998 -0.179423
v 0.170397 2.801384 0.444312
v -2.308279 0.419212 -2.052364
v -2.861364 -0.040986 -3.430657
v 2.702043 5.085011 1.950151
v 0.199702 2.458200 0.295925
v -2.160765 0.251699 -3.655974
v -0.092541 0.614109 0.154528
v -2.626072 0.466187 -2.108860
v -2.235515 0.449796 -2.145643
v -0.491013 0.047521 -0.433033
v -1.485572 0.386840 -1.429622
v 0.315558 1.481916 -0.019121
v 2.130216 3.236592 -0.902243
v 1.164670 2.406066 0.107810
v -4.503558 0.383825 -3.192638
v -0.042060 0.877442 -0.024637
v 0.076795 0.372435 -0.201884
v 0.438372 1.767532 0.058416
v -2.147267 0.414736 -1.979573
v -2.212572 0.450304 -2.673296
v -0.381318 4.188728 1.709111
v 0.980170 6.470320 -0.505170
v 2.777522 5.932380 1.136174
v -2.187425 0.473594 -2.266127
v -3.410877 0.823168 -4.887876
v 1.804079 2.819073 -0.714563
v 0.354036 2.262140 0.215001
v 2.780692 4.462693 -1.038795
v 3.339972 4.751022 0.988833
v -2.671705 1.606344 -4.474691
v -3.781020 1.884938 -3.739291
v -4.410448 1.429499 -3.507299
v -0.801687 4.351641 0.631092
v 2.261889 4.595304 2.353828
v -3.608749 -0.049185 -3.832453
v -3.057767 2.035803 -3.443821
v -1.917629 0.863907 -4.032192
v 2.724549 3.688999 1.710504
v -3.807478 0.024701 -4.146280
v -4.484727 0.964555 -2.507584
v 0.151434 5.904538 -0.388351
v 2.483861 2.702027 0.263353
v -4.515909 1.087851 -2.789218
v 0.830295 6.214635 1.678228
v -0.229516 5.808841 0.622366
v 0.868670 2.194113 0.117884
v -4.101135 1.617396 -2.992886
v -4.534053 0.559177 -2.890428
v -4.363747 1.386045 -3.041462
v -3.055613 0.512018 -4.822877
v 3.216419 4.579928 -0.457255
v 1.845024 2.750344 0.252849
v -2.947768 0.430364 -2.222573
v -0.658589 0.164023 -0.465792
v 0.105876 3.041835 0.595216
v -0.926529 0.325160 -0.780166
v -0.077801 0.041024 -0.228205
v -2.408489 0.060856 -3.408553
v -3.109824 1.234187 -2.155267
v 0.133593 2.799756 0.412481
v 0.185698 0.033306 -0.050296
v -3.003726 0.020120 -3.022035
v 0.138976 1.126526 0.139172
v -3.770993 1.782912 -2.994914
v -3.628296 0.462402 -2.197129
v -2.647249 0.452185 -2.075303
v 2.524275 6.356460 0.165791
v -0.205395 0.042715 -0.075437
v -2.965156 0.416621 -2.188505
v 0.122117 4.965584 -1.045315
v 1.162570 3.735593 -1.247420
v -2.508553 1.567061 -2.644001
v -2.949886 0.584532 -2.094241
v 2.308539 2.915838 -0.538616
v -4.271086 1.448363 -4.089537
v -3.293507 0.514869 -2.110346
v -2.648364 0.428813 -2.143205
v 1.367579 2.508415 0.004229
v -2.247518 0.447626 -2.670456
v 1.162194 6.810665 0.265803
v 0.494300 3.849669 -0.918081
v 1.569273 2.590539 -0.407256
v 0.355700 5.262040 2.200550
v -2.665765 0.265040 -4.273127
v -2.831300 2.037384 -3.752516
v -3.319131 1.937867 -4.245783
v 3.199121 4.029044 -0.321393
v 2.631606 2.665391 0.668167
v 2.678769 5.237818 -0.954569
v -4.528779 0.665476 -2.630122
v -4.098710 0.975230 -2.102043
v 0.739214 5.737105 2.118746
v 1.549354 2.574198 0.188194
v -3.611470 1.617378 -2.545127
v -0.658556 5.126126 0.614030
v 2.915722 3.145436 -0.050521
v -3.376541 -0.024197 -3.418740
v -4.072422 1.528837 -2.742423
v 3.037800 3.173688 0.766986
v 3.223858 5.132593 -0.156897
v -2.436186 0.360331 -2.588256
v -3.731116 0.486471 -4.739457
v 1.971036 5.286371 2.451501
v 1.806706 3.461781 2.116476
v 0.010903 1.176300 0.071614
v -2.196026 0.417293 -2.123462
v -2.459769 1.823496 -3.066592
v 0.640867 2.659565 0.212423
v -0.134929 0.196493 0.201982
v -1.537325 0.390494 -1.340751
v -4.185107 0.361502 -2.422906
v 0.077076 3.038497 0.600515
v -3.041709 1.776169 -2.622391
v 0.588972 5.992169 -0.886536
v 0.415324 1.790896 -0.044204
v 0.180397 0.342047 -0.048270
v -1.025594 0.184318 -1.101180
v -4.401241 0.233176 -3.482193
v 0.402355 4.459745 -1.180812
v -1.021812 0.161375 -0.802093
v 1.168853 2.368462 0.186535
v 0.135353 1.520284 -0.023257
v -2.651939 0.409524 -2.079966
v -3.064868 1.954691 -2.956093
v -0.101847 0.900081 -0.077234
v 0.231127 6.358359 0.600426
v 2.585018 6.312364 0.784364
v -2.191006 0.475107 -2.478694
v 1.525439 2.612289 0.192391
v -3.122149 1.045881 -4.911759
v 1.637442 3.003306 1.778153
v 0.073366 3.800773 1.959975
v 2.041618 5.148823 -1.481147
v 3.127100 4.937101 1.346054
v 2.091024 4.173100 2.428863
v -3.496067 1.972681 -3.508222
v -2.151911 0.475949 -2.258255
v -4.609789 0.891314 -3.759843
v -2.025946 1.405226 -3.821488
v -3.333021 1.177137 -4.809213
v 1.477607 5.212175 2.467288
v 1.394225 6.814655 0.991321
v 2.976981 5.706515 0.870371
v 1.529311 2.580316 0.259083
v -4.354324 1.231655 -2.479529
v 0.191835 2.482217 0.252790
v 0.010522 0.600206 -0.199528
v 0.067342 3.052222 1.343117
v -3.453541 1.915013 -3.030966
v -2.157017 0.763585 -4.290712
v 0.106164 0.033772 0.165358
v 3.261837 3.631176 0.872091
v 0.540775 2.203660 0.062394
v -2.834578 0.836899 -4.879567
v 1.828540 2.752428 0.300614
v -0.007220 0.811332 0.152005
v -4.024565 1.414487 -2.467714
v -3.302674 0.929103 -2.020453
v -2.164798 1.317762 -4.475741
v -0.035872 5.204751 1.922666
v 0.269501 1.106275 0.048741
v 1.079186 5.989895 -1.183146
v -0.082569 0.036611 0.242201
v -2.758256 1.316696 -2.274119
v 0.145901 5.698817 1.863276
v 1.165638 3.457492 2.098478
v 0.591674 2.036298 0.034552
v 2.539843 6.171035 -0.245773
v -2.177054 0.445023 -2.483896
v -1.170359 0.326275 -1.253286
v 0.275547 1.481849 0.087605
v 0.270423 1.803788 0.054102
v -4.323218 0.164359 -3.040595
v -2.248186 1.016307 -2.389116
v 0.155186 0.172944 -0.159385
v 0.222972 0.751557 -0.037192
v -2.157420 0.439763 -2.263013
v -1.910217 0.417665 -1.622678
v -2.827183 0.064191 -4.034848
v -3.874548 1.656446 -4.267880
v 1.188054 2.813277 -0.610350
v -3.430272 1.727261 -4.448747
v -4.077457 1.692192 -3.974419
v 1.087992 4.606977 2.500910
v -4.064795 0.787454 -4.533404
v -0.534229 4.136009 0.062529
v -4.409102 0.781336 -2.303729
v -3.125474 2.016620 -3.990596
v 2.991474 4.054292 -0.732529
v -0.288830 4.909940 1.634163
v -0.090276 0.684456 -0.177947
v 0.428240 6.088985 1.674623
v 0.239899 2.489262 0.301525
v 0.022787 3.028395 0.339854
v -0.317908 5.582703 0.161301
v 0.827666 2.231802 0.165702
v 3.450237 4.924827 0.188286
v 1.318397 6.327642 1.762771
v 3.240904 3.378549 0.385815
v -0.159973 0.440213 -0.056473
v 2.142589 6.319771 -0.584552
v 1.144842 2.439706 0.143758
v 2.981775 5.184236 -0.553244
v 1.826011 2.765454 0.272275
v 2.848585 4.441063 1.850170
v 0.976531 6.645343 1.222802
v 0.915817 6.763013 0.791269
v -3.625151 1.167308 -2.122906
v -4.637906 0.709270 -3.541894
v -1.895516 1.095686 -2.940382
v -2.301810 0.469762 -2.046272
v -0.808822 0.231586 -0.942207
v -4.441401 0.396702 -2.636270
v -2.384472 1.274903 -4.668663
v -3.663914 1.042334 -4.724381
v 1.125275 2.507040 0.494630
v 0.101130 3.052896 0.569434
v 0.095424 0.036479 -0.222250
v -1.250230 0.392335 -1.143168
v -3.082522 0.142413 -4.275448
v -2.135378 0.252416 -3.361983
v -0.058388 0.419982 -0.219624
v -2.192934 0.437409 -2.270885
v -1.155449 0.306817 -0.917877
v -4.144760 1.680973 -3.592448
v 1.503669 2.620552 1.355095
v 0.838967 2.302149 0.129953
v -0.933339 0.097841 -0.909047
v -2.792180 1.823434 -2.801692
v 0.541520 2.082067 -0.012702
v -4.266223 0.169438 -3.816479
v 0.061922 0.550622 0.176974
v -2.142196 0.470064 -1.970311
v -1.846442 0.322018 -1.724888
v 1.638182 5.781796 -1.356829
v -2.253844 0.413260 -2.676468
v -2.747255 1.221779 -4.775490
v 2.683816 3.292314 1.480493
v -2.218899 0.415938 -2.679307
v 1.968487 2.421619 0.602123
v 0.160963 0.538862 -0.140211
v 2.316786 4.372622 -1.432678
v 3.340189 4.110665 0.991669
v -1.878251 0.320491 -1.597315
v -3.758843 -0.005219 -3.413336
v 1.071774 5.074495 -1.546234
v -3.299655 1.990564 -3.230121
v 2.934079 5.443473 1.427022
v -3.946141 1.283975 -4.502169
v 2.395138 2.861953 -0.175878
v 2.503057 4.175698 2.138570
v 2.952019 4.961765 1.697465
v -0.699694 4.607409 1.137591
v 1.871969 6.711584 0.835295
v 1.551747 2.554438 0.229412
v -1.888533 1.102492 -3.847208
v -0.348529 3.555672 1.518936
v 1.912747 3.829410 2.332804
v -2.636001 1.814254 -4.257383
v -4.091022 0.126808 -4.062971
v 2.565715 6.095225 1.484009
v -3.904280 0.024744 -3.101818
v 2.257302 6.559350 0.488812
v 2.217696 6.280321 1.715858
v 3.237568 5.297812 0.870536
v 0.552450 2.175523 0.135375
v -2.330605 1.519337 -4.447744
v -4.557189 1.119262 -3.083950
v 0.232031 2.513280 0.258390
v -1.846017 0.810842 -3.558896
v -4.039594 0.092914 -2.848245
v -2.127307 1.054423 -4.445148
v -1.903109 0.807211 -3.073072
v -2.028366 0.848781 -2.659992
v -2.703680 0.519005 -2.269490
v -1.857055 0.451448 -1.677859
v 0.143952 2.770419 0.468595
v -2.633661 0.397160 -2.116406
v -4.180193 0.644295 -2.220995
v 0.036668 6.031696 1.396739
v 0.113807 2.774170 0.444474
v 1.240020 2.489264 0.918920
v 0.400105 3.186687 1.735465
v 2.420401 5.008389 -1.247196
v 0.403422 2.088098 0.042040
v -2.268360 0.435171 -1.908272
v -3.546576 1.309787 -4.710101
v -3.464765 0.010998 -4.197450
v 0.739527 3.229968 -0.682037
v -2.955711 0.437895 -2.199656
v -3.029473 0.314390 -2.278327
v -2.363578 1.260857 -2.459561
v 2.218506 2.779206 1.423321
v 3.211976 3.619689 -0.034797
v 1.749290 3.709971 -1.369929
v -1.958204 1.383803 -3.155025
v -2.442281 0.131517 -3.844795
v -4.500776 1.165399 -3.932913
v 1.564207 5.079423 -1.636191
v -0.105531 5.981450 1.013623
v 0.801079 5.164171 2.345110
v -4.188604 0.991266 -4.377448
v 0.353141 1.789175 0.120184
v -4.372412 0.652435 -4.209121
v -3.481612 1.809093 -2.807112
v 0.910660 4.105032 2.370324
v -2.254799 0.314285 -3.984061
v -0.505803 3.600916 0.501752
v 1.571680 4.212138 2.522972
v 3.445934 4.231124 0.149684
v -0.231458 5.044477 -0.683336
v 1.769688 6.400589 1.790128
v 3.490235 4.530667 0.534535
v -2.349880 0.694564 -2.392990
v -0.148137 0.418256 0.138964
v -0.119785 0.853896 0.060790
v 3.129307 5.712664 0.443337
v 0.130162 0.346659 0.133523
v -1.557741 0.304782 -1.288012
v 1.859304 2.727980 0.269182
v 2.694319 3.983484 1.912480
v -0.022981 0.375529 0.194298
v -4.540759 0.656922 -3.852947
v -4.206127 0.228482 -2.660743
v -2.236174 0.258247 -2.936538
v 0.592492 5.068612 -1.311179
v 0.230330 1.119334 -0.102118
v -1.965466 0.515654 -3.249394
v -3.180901 0.112009 -2.703013
v 2.360597 5.234950 2.206501
v 0.860582 2.223279 0.048000
v 0.072330 3.049558 0.574733
v -2.201013 0.416202 -2.487776
v -3.888941 0.526813 -2.204566
v 0.562901 2.037911 0.113174
v -4.160990 1.613889 -3.259129
v 1.567962 6.431087 -0.645301
v 0.545136 6.270271 -0.359511
v 1.147427 2.416466 0.192413
v -0.985548 0.344851 -1.011716
v -4.631095 0.884287 -3.187866
v 0.006879 0.199056 -0.246499
v 0.107835 0.788811 -0.151470
v -0.005980 4.017607 -0.704972
v 0.184187 0.168492 0.065163
v -4.054973 0.009669 -3.571015
v 0.162959 1.504774 0.086626
v -4.430909 0.410022 -3.941872
v 0.211312 0.528728 0.058916
v -2.243479 0.480769 -1.929285
v 2.328562 3.805096 -1.221011
v 3.074089 3.800397 1.348646
v -4.530626 1.198840 -3.343811
v -1.852650 0.298122 -1.624501
v 0.084764 1.161591 -0.112741
v 1.746013 6.744362 0.277352
v -3.473914 1.974544 -3.894461
v -0.159141 0.685072 0.048155
v -0.295374 5.328551 -0.372427
v 0.336464 2.307881 0.113026
v 2.443383 5.793067 2.004014
v -2.185537 0.493265 -2.114017
v -3.336381 0.183963 -2.457684
v 2.677440 3.935628 -1.039815
v -2.606050 0.682322 -4.629277
v -1.468012 0.217347 -1.403265
v -3.884932 1.316012 -2.240953
v -0.215788 0.040670 0.131292
v 0.660084 6.674762 0.430380
v 2.856593 5.974204 0.091169
v 0.164980 0.758433 0.120393
v -2.949760 0.404714 -2.224844
v -2.378686 0.487626 -4.248952
v -3.488426 0.334699 -4.744110
v -2.068283 1.356802 -4.181795
v -0.213373 0.215590 0.055464
v -2.163895 0.455035 -2.124452
v -0.279105 5.545985 1.403100
v -2.588062 2.010587 -3.474800
v -3.149197 0.754137 -2.026822
v -2.642444 0.114697 -2.772713
v 0.814580 2.278993 0.052627
v 0.737919 5.651035 -1.289527
v -2.733149 0.001605 -3.706762
v 0.555724 6.517695 0.038638
v 1.957625 2.580446 -0.201084
v 0.565218 3.672040 2.067529
v -3.101184 1.550592 -2.360316
v -3.584424 0.723326 -2.052919
v -1.454554 0.298288 -1.461386
v 0.315909 1.827070 -0.045911
v -0.225410 4.517574 -0.724168
v -0.666375 0.191275 -0.633279
v -1.568203 0.231736 -1.359692
v 0.230270 1.506019 -0.089669
v -3.639687 1.498736 -4.530088
v 0.642309 2.763460 1.305651
v 1.470628 6.186184 -0.971894
v 1.182291 2.363147 0.134533
v -2.958935 0.396393 -2.203330
v -2.250039 0.390487 -1.944837
v 0.523137 2.922304 -0.225152
v -0.036413 0.839964 -0.162409
v 2.666021 2.897052 1.095434
v -2.236170 0.440834 -2.487391
v -3.810537 0.712846 -4.661201
v -1.818322 0.398463 -1.729164
v -2.035929 1.274788 -2.734522
v 1.437292 4.376539 -1.623974
v 1.597468 6.668634 -0.210173
v 0.301025 2.258937 0.168809
v -2.686344 1.994312 -4.055049
v -3.428984 0.292798 -2.264548
v -4.595876 1.161832 -3.661895
v -4.280307 1.195385 -4.201531
v -2.071161 1.579559 -3.596716
v -3.043991 1.770860 -4.472287
v 2.581508 5.832422 -0.656034
v -2.647820 1.476695 -4.673793
v 1.513051 2.616071 0.236203
v -0.359555 4.096500 -0.342993
v -0.560254 4.699505 -0.229751
v 0.394059 2.332653 0.181692
v 1.656942 5.894333 2.249962
v 1.849117 2.729267 0.298702
v -0.339514 3.238639 0.973562
v 1.889721 6.639056 1.271952
v -0.538903 0.070697 -0.628261
v -3.917594 0.215276 -4.442212
v 3.206173 5.504231 0.132912
v -4.589322 0.653903 -3.239038
v -3.681615 0.112615 -2.705294
v -0.130917 0.691066 -0.068310
v -0.185491 0.217195 -0.065083
v 0.120804 2.787055 0.426058
v 0.153995 2.803016 0.425962
v 0.378832 2.298606 0.203315
v 0.313960 2.282199 0.135950
v 0.160071 2.785810 0.458873
v 0.324266 2.255371 0.195759
v 0.832748 2.269520 0.152977
v 0.126880 2.769849 0.458969
v 1.552454 2.561691 0.207412
v 1.517595 2.617212 0.213530
v 1.541295 2.565097 0.246879
v 1.537807 2.593900 0.186801
v 1.519751 2.599411 0.250660
v 0.368526 2.325434 0.143505
v -0.134660 0.652000 0.109737
v -0.183602 0.206797 0.137564
v 0.181561 0.169354 -0.049725
v 0.116747 0.171724 0.150224
v 0.085363 0.185485 -0.214233
v -0.042989 0.644685 -0.200066
v -0.018830 0.580271 0.173945
v -0.053561 0.186156 0.220332
v -0.069548 0.208598 -0.225644
v 0.087143 0.566392 -0.178211
v 0.159050 1.140269 -0.121397
v 0.036600 1.172822 -0.023724
v 0.868568 2.205008 0.080827
v 0.825463 2.295792 0.090023
v 0.847737 2.208752 0.146100
v 0.835949 2.251263 0.044238
v 0.400146 1.776943 0.096237
v 0.366585 1.811047 -0.053367
v 0.306397 1.796357 0.093782
v 0.434371 1.776657 0.004626
v 0.285670 1.817458 0.001308
v 0.261123 1.110345 -0.029687
v 0.211236 1.113774 0.102677
v 0.066465 1.152817 0.116798
v 0.144730 0.536939 0.127046
v -0.076243 0.881290 -0.051787
v 0.198283 0.530703 -0.043254
v -0.524259 0.105992 -0.481646
v -0.817984 0.273409 -0.818158
v -2.215713 0.460337 -2.482800
v -2.181040 0.462794 -2.480751
v -2.171164 0.477663 -2.117910
v -2.213171 0.474590 -2.130339
v -2.186909 0.428246 -2.486078
v -2.219322 0.430032 -2.135878
v -2.641256 0.410935 -2.132735
v -2.221581 0.425788 -2.488128
v -2.651467 0.430759 -2.074834
v -2.637031 0.449366 -2.128534
v -2.177316 0.433105 -2.123449
v -2.635348 0.462495 -2.090420
v -2.642184 0.400313 -2.097217
v -1.868175 0.310370 -1.695481
v -1.834363 0.429395 -1.705893
v -1.920510 0.376550 -1.621915
v -1.829114 0.358572 -1.731583
v -1.884709 0.440021 -1.647910
v -1.098492 0.256103 -1.189153
v -1.211265 0.358019 -1.030599
v -1.088403 0.233215 -0.846645
v -0.970106 0.132921 -1.003167
v -1.219882 0.368344 -1.213514
v -0.968634 0.120358 -0.843573
vt 0.4646 0.1872
vt 0.4668 0.1859
vt 0.4673 0.1894
vt 0.4700 0.1916
vt 0.4690 0.1940
vt 0.4666 0.1919
vt 0.4632 0.1921
vt 0.4656 0.1943
vt 0.4619 0.1937
vt 0.4595 0.1859
vt 0.4570 0.1859
vt 0.4586 0.1832
vt 0.4592 0.1919
vt 0.4614 0.1890
vt 0.4574 0.1887
vt 0.4647 0.1829
vt 0.4691 0.1846
vt 0.4670 0.1815
vt 0.4706 0.1827
vt 0.4622 0.1822
vt 0.4564 0.2072
vt 0.4615 0.2045
vt 0.4623 0.2085
vt 0.4588 0.1997
vt 0.4634 0.1980
vt 0.4627 0.2007
vt 0.4246 0.1669
vt 0.4302 0.1693
vt 0.4244 0.1708
vt 0.4242 0.1748
vt 0.4281 0.1784
vt 0.4243 0.1773
vt 0.4127 0.1732
vt 0.4123 0.1769
vt 0.4083 0.1752
vt 0.4216 0.1789
vt 0.4184 0.1740
vt 0.4158 0.1781
vt 0.4543 0.2014
vt 0.4576 0.2034
vt 0.4570 0.1956
vt 0.4597 0.1975
vt 0.4447 0.2012
vt 0.4448 0.1966
vt 0.4485 0.1984
vt 0.4266 0.1883
vt 0.4293 0.1851
vt 0.4300 0.1886
vt 0.4267 0.1905
vt 0.4268 0.1928
vt 0.4309 0.1952
vt 0.4269 0.1948
vt 0.4205 0.1911
vt 0.4179 0.1929
vt 0.4183 0.1900
vt 0.4240 0.1960
vt 0.4237 0.1919
vt 0.4209 0.1952
vt 0.4227 0.1857
vt 0.4260 0.1860
vt 0.4254 0.1838
vt 0.4222 0.1834
vt 0.4248 0.1819
vt 0.4197 0.1871
vt 0.4297 0.2071
vt 0.4323 0.2024
vt 0.4353 0.2063
vt 0.4302 0.2113
vt 0.4770 0.1766
vt 0.4767 0.1834
vt 0.4745 0.1787
vt 0.4178 0.2109
vt 0.4134 0.2105
vt 0.4160 0.2069
vt 0.4710 0.1775
vt 0.4727 0.1717
vt 0.4684 0.1669
vt 0.4667 0.1727
vt 0.4649 0.1686
vt 0.4254 0.2032
vt 0.4288 0.2040
vt 0.4280 0.2008
vt 0.4246 0.2000
vt 0.4275 0.1988
vt 0.4195 0.2050
vt 0.4540 0.1693
vt 0.4595 0.1739
vt 0.4558 0.1749
vt 0.4480 0.1765
vt 0.4513 0.1812
vt 0.4464 0.1808
vt 0.4447 0.1851
vt 0.4499 0.1883
vt 0.4448 0.1885
vt 0.4008 0.1846
vt 0.4064 0.1826
vt 0.4061 0.1867
vt 0.4115 0.1888
vt 0.4152 0.1860
vt 0.4138 0.1889
vt 0.4008 0.1943
vt 0.4080 0.1945
vt 0.4032 0.1981
vt 0.4152 0.1947
vt 0.4182 0.1970
vt 0.4147 0.1988
vt 0.4428 0.1956
vt 0.4389 0.1966
vt 0.4381 0.1922
vt 0.4433 0.1862
vt 0.4377 0.1840
vt 0.4419 0.1819
vt 0.4405 0.1776
vt 0.4363 0.1797
vt 0.4382 0.1747
vt 0.4734 0.1975
vt 0.4707 0.1970
vt 0.4717 0.1946
vt 0.4756 0.2084
vt 0.4711 0.2051
vt 0.4745 0.2030
vt 0.4833 0.2033
vt 0.4798 0.1968
vt 0.4852 0.1995
vt 0.4696 0.1881
vt 0.4732 0.1909
vt 0.4728 0.1874
vt 0.4639 0.1896
vt 0.4621 0.1865
vt 0.4301 0.1733
vt 0.4187 0.1700
vt 0.4506 0.2042
vt 0.4556 0.1977
vt 0.4523 0.1956
vt 0.4487 0.1938
vt 0.4538 0.1936
vt 0.4287 0.1829
vt 0.4301 0.1908
vt 0.4236 0.1897
vt 0.4315 0.1992
vt 0.4809 0.1818
vt 0.4237 0.2090
vt 0.4510 0.1729
vt 0.4528 0.1785
vt 0.4056 0.2019
vt 0.4099 0.2024
vt 0.4073 0.2060
vt 0.4577 0.1698
vt 0.4496 0.1855
vt 0.4008 0.1894
vt 0.4061 0.1916
vt 0.4023 0.1810
vt 0.4117 0.1847
vt 0.4104 0.1983
vt 0.4133 0.1918
vt 0.4430 0.1909
vt 0.4384 0.1875
vt 0.4419 0.2006
vt 0.4794 0.2059
vt 0.4783 0.2004
vt 0.4719 0.2091
vt 0.4700 0.1997
vt 0.4871 0.1956
vt 0.4818 0.1929
vt 0.4859 0.1913
vt 0.4749 0.1939
vt 0.4646 0.1872
vt 0.4668 0.1859
vt 0.4673 0.1894
vt 0.4700 0.1916
vt 0.4690 0.1940
vt 0.4666 0.1919
vt 0.4632 0.1921
vt 0.4656 0.1943
vt 0.4619 0.1937
vt 0.4595 0.1859
vt 0.4570 0.1859
vt 0.4586 0.1832
vt 0.4592 0.1919
vt 0.4614 0.1890
vt 0.4574 0.1887
vt 0.4647 0.1829
vt 0.4691 0.1846
vt 0.4670 0.1815
vt 0.4706 0.1827
vt 0.4622 0.1822
vt 0.4564 0.2072
vt 0.4615 0.2045
vt 0.4623 0.2085
vt 0.4588 0.1997
vt 0.4634 0.1980
vt 0.4627 0.2007
vt 0.4246 0.1669
vt 0.4302 0.1693
vt 0.4244 0.1708
vt 0.4242 0.1748
vt 0.4281 0.1784
vt 0.4243 0.1773
vt 0.4127 0.1732
vt 0.4123 0.1769
vt 0.4083 0.1752
vt 0.4216 0.1789
vt 0.4184 0.1740
vt 0.4158 0.1781
vt 0.4543 0.2014
vt 0.4576 0.2034
vt 0.4570 0.1956
vt 0.4597 0.1975
vt 0.4447 0.2012
vt 0.4448 0.1966
vt 0.4485 0.1984
vt 0.4266 0.1883
vt 0.4293 0.1851
vt 0.4300 0.1886
vt 0.4267 0.1905
vt 0.4268 0.1928
vt 0.4309 0.1952
vt 0.4269 0.1948
vt 0.4205 0.1911
vt 0.4179 0.1929
vt 0.4183 0.1900
vt 0.4240 0.1960
vt 0.4237 0.1919
vt 0.4209 0.1952
vt 0.4227 0.1857
vt 0.4260 0.1860
vt 0.4254 0.1838
vt 0.4222 0.1834
vt 0.4248 0.1819
vt 0.4197 0.1871
vt 0.4297 0.2071
vt 0.4323 0.2024
vt 0.4353 0.2063
vt 0.4302 0.2113
vt 0.4770 0.1766
vt 0.4767 0.1834
vt 0.4745 0.1787
vt 0.4178 0.2109
vt 0.4134 0.2105
vt 0.4160 0.2069
vt 0.4710 0.1775
vt 0.4727 0.1717
vt 0.4684 0.1669
vt 0.4667 0.1727
vt 0.4649 0.1686
vt 0.4254 0.2032
vt 0.4288 0.2040
vt 0.4280 0.2008
vt 0.4246 0.2000
vt 0.4275 0.1988
vt 0.4195 0.2050
vt 0.4540 0.1693
vt 0.4595 0.1739
vt 0.4558 0.1749
vt 0.4480 0.1765
vt 0.4513 0.1812
vt 0.4464 0.1808
vt 0.4447 0.1851
vt 0.4499 0.1883
vt 0.4448 0.1885
vt 0.4008 0.1846
vt 0.4064 0.1826
vt 0.4061 0.1867
vt 0.4115 0.1888
vt 0.4152 0.1860
vt 0.4138 0.1889
vt 0.4008 0.1943
vt 0.4080 0.1945
vt 0.4032 0.1981
vt 0.4152 0.1947
vt 0.4182 0.1970
vt 0.4147 0.1988
vt 0.4428 0.1956
vt 0.4389 0.1966
vt 0.4381 0.1922
vt 0.4433 0.1862
vt 0.4377 0.1840
vt 0.4419 0.1819
vt 0.4405 0.1776
vt 0.4363 0.1797
vt 0.4382 0.1747
vt 0.4734 0.1975
vt 0.4707 0.1970
vt 0.4717 0.1946
vt 0.4756 0.2084
vt 0.4711 0.2051
vt 0.4745 0.2030
vt 0.4833 0.2033
vt 0.4798 0.1968
vt 0.4852 0.1995
vt 0.4696 0.1881
vt 0.4732 0.1909
vt 0.4728 0.1874
vt 0.4639 0.1896
vt 0.4621 0.1865
vt 0.4301 0.1733
vt 0.4187 0.1700
vt 0.4506 0.2042
vt 0.4556 0.1977
vt 0.4523 0.1956
vt 0.4487 0.1938
vt 0.4538 0.1936
vt 0.4287 0.1829
vt 0.4301 0.1908
vt 0.4236 0.1897
vt 0.4315 0.1992
vt 0.4809 0.1818
vt 0.4237 0.2090
vt 0.4510 0.1729
vt 0.4528 0.1785
vt 0.4056 0.2019
vt 0.4099 0.2024
vt 0.4073 0.2060
vt 0.4577 0.1698
vt 0.4496 0.1855
vt 0.4008 0.1894
vt 0.4061 0.1916
vt 0.4023 0.1810
vt 0.4117 0.1847
vt 0.4104 0.1983
vt 0.4133 0.1918
vt 0.4430 0.1909
vt 0.4384 0.1875
vt 0.4419 0.2006
vt 0.4794 0.2059
vt 0.4783 0.2004
vt 0.4719 0.2091
vt 0.4700 0.1997
vt 0.4871 0.1956
vt 0.4818 0.1929
vt 0.4859 0.1913
vt 0.4749 0.1939
vt 0.3166 0.7775
vt 0.3174 0.7946
vt 0.3161 0.7944
vt 0.3147 0.7774
vt 0.3259 0.7878
vt 0.3277 0.7881
vt 0.3263 0.7952
vt 0.3250 0.7950
vt 0.3340 0.7816
vt 0.3381 0.7671
vt 0.3406 0.7629
vt 0.3359 0.7796
vt 0.3199 0.7797
vt 0.3198 0.7947
vt 0.3186 0.7948
vt 0.3185 0.7775
vt 0.3227 0.7848
vt 0.3224 0.7947
vt 0.3211 0.7947
vt 0.3214 0.7820
vt 0.3299 0.7859
vt 0.3324 0.7761
vt 0.3355 0.7713
vt 0.3321 0.7837
vt 0.3216 0.8049
vt 0.3226 0.8049
vt 0.3215 0.8151
vt 0.3208 0.8151
vt 0.3255 0.8055
vt 0.3265 0.8060
vt 0.3242 0.8160
vt 0.3235 0.8155
vt 0.3196 0.8050
vt 0.3206 0.8049
vt 0.3201 0.8151
vt 0.3194 0.8152
vt 0.3236 0.8050
vt 0.3246 0.8051
vt 0.3229 0.8150
vt 0.3222 0.8151
vt 0.3186 0.8051
vt 0.3275 0.8062
vt 0.3285 0.8065
vt 0.3257 0.8166
vt 0.3250 0.8163
vt 0.3224 0.8257
vt 0.3229 0.8259
vt 0.3201 0.8352
vt 0.3198 0.8352
vt 0.3194 0.8249
vt 0.3198 0.8249
vt 0.3182 0.8347
vt 0.3179 0.8347
vt 0.3325 0.8562
vt 0.3319 0.8564
vt 0.3316 0.8535
vt 0.3321 0.8535
vt 0.3203 0.8255
vt 0.3207 0.8261
vt 0.3189 0.8349
vt 0.3185 0.8348
vt 0.3183 0.8249
vt 0.3189 0.8249
vt 0.3176 0.8347
vt 0.3173 0.8346
vt 0.3308 0.8480
vt 0.3302 0.8480
vt 0.3301 0.8427
vt 0.3307 0.8426
vt 0.3213 0.8258
vt 0.3219 0.8255
vt 0.3195 0.8351
vt 0.3192 0.8350
vt 0.3311 0.8562
vt 0.3304 0.8559
vt 0.3304 0.8533
vt 0.3310 0.8534
vt 0.3319 0.8479
vt 0.3314 0.8480
vt 0.3312 0.8425
vt 0.3317 0.8425
vt 0.3294 0.8562
vt 0.3285 0.8564
vt 0.3287 0.8535
vt 0.3295 0.8534
vt 0.3280 0.8562
vt 0.3275 0.8559
vt 0.3279 0.8534
vt 0.3283 0.8535
vt 0.3283 0.8480
vt 0.3279 0.8479
vt 0.3279 0.8425
vt 0.3283 0.8426
vt 0.3295 0.8480
vt 0.3287 0.8481
vt 0.3287 0.8427
vt 0.3294 0.8427
vt 0.6853 0.7803
vt 0.6847 0.7873
vt 0.6713 0.7864
vt 0.6718 0.7806
vt 0.7102 0.7811
vt 0.7096 0.7881
vt 0.6982 0.7881
vt 0.6988 0.7800
vt 0.2966 0.7722
vt 0.2964 0.7765
vt 0.2942 0.7764
vt 0.2941 0.7722
vt 0.2813 0.7776
vt 0.2783 0.7783
vt 0.2781 0.7764
vt 0.2806 0.7760
vt 0.2919 0.7722
vt 0.2919 0.7765
vt 0.2896 0.7765
vt 0.2896 0.7722
vt 0.2885 0.7858
vt 0.2896 0.7943
vt 0.2879 0.7943
vt 0.2867 0.7863
vt 0.2924 0.7854
vt 0.2929 0.7943
vt 0.2912 0.7942
vt 0.2904 0.7853
vt 0.2962 0.7854
vt 0.2961 0.7944
vt 0.2945 0.7944
vt 0.2943 0.7854
vt 0.2880 0.8022
vt 0.2892 0.8014
vt 0.2905 0.8085
vt 0.2896 0.8095
vt 0.2962 0.8021
vt 0.2976 0.8021
vt 0.2976 0.8099
vt 0.2963 0.8098
vt 0.2906 0.8016
vt 0.2919 0.8017
vt 0.2927 0.8092
vt 0.2916 0.8088
vt 0.2990 0.8020
vt 0.3004 0.8019
vt 0.2999 0.8097
vt 0.2987 0.8098
vt 0.2934 0.8019
vt 0.2947 0.8020
vt 0.2950 0.8097
vt 0.2939 0.8095
vt 0.2970 0.8181
vt 0.2979 0.8182
vt 0.2960 0.8266
vt 0.2953 0.8264
vt 0.2931 0.8177
vt 0.2940 0.8178
vt 0.2931 0.8260
vt 0.2923 0.8259
vt 0.2894 0.8179
vt 0.2903 0.8185
vt 0.2902 0.8258
vt 0.2894 0.8258
vt 0.2951 0.8180
vt 0.2961 0.8181
vt 0.2946 0.8262
vt 0.2939 0.8261
vt 0.2842 0.7871
vt 0.2864 0.7948
vt 0.2999 0.7857
vt 0.3017 0.7859
vt 0.3008 0.7940
vt 0.2992 0.7941
vt 0.3009 0.7729
vt 0.3006 0.7772
vt 0.2986 0.7765
vt 0.2990 0.7723
vt 0.3048 0.7656
vt 0.3055 0.7613
vt 0.3076 0.7615
vt 0.3065 0.7659
vt 0.2874 0.7643
vt 0.2867 0.7602
vt 0.2890 0.7602
vt 0.2893 0.7641
vt 0.2878 0.7729
vt 0.2881 0.7684
vt 0.2896 0.7680
vt 0.3038 0.7746
vt 0.3042 0.7699
vt 0.3055 0.7703
vt 0.3048 0.7757
vt 0.3013 0.7648
vt 0.3012 0.7688
vt 0.2995 0.7681
vt 0.2994 0.7645
vt 0.2917 0.7642
vt 0.2919 0.7680
vt 0.2968 0.7644
vt 0.2968 0.7681
vt 0.2941 0.7680
vt 0.2941 0.7643
vt 0.2836 0.7650
vt 0.2850 0.7693
vt 0.2834 0.7698
vt 0.2817 0.7654
vt 0.2847 0.7745
vt 0.2866 0.7688
vt 0.2860 0.7736
vt 0.3097 0.8166
vt 0.3109 0.8164
vt 0.3101 0.8219
vt 0.3092 0.8220
vt 0.2903 0.8355
vt 0.2908 0.8355
vt 0.2901 0.8452
vt 0.2897 0.8452
vt 0.2936 0.8360
vt 0.2941 0.8361
vt 0.2923 0.8456
vt 0.2919 0.8455
vt 0.2914 0.8356
vt 0.2919 0.8356
vt 0.2908 0.8453
vt 0.2905 0.8453
vt 0.2892 0.8355
vt 0.2897 0.8355
vt 0.2893 0.8452
vt 0.2889 0.8452
vt 0.2925 0.8357
vt 0.2931 0.8358
vt 0.2916 0.8454
vt 0.2912 0.8454
vt 0.3066 0.8306
vt 0.3071 0.8306
vt 0.3075 0.8395
vt 0.3072 0.8396
vt 0.2912 0.8180
vt 0.2921 0.8175
vt 0.2916 0.8258
vt 0.2909 0.8258
vt 0.3054 0.8166
vt 0.3063 0.8163
vt 0.3067 0.8217
vt 0.3061 0.8217
vt 0.3078 0.8307
vt 0.3084 0.8309
vt 0.3084 0.8395
vt 0.3080 0.8395
vt 0.3119 0.8167
vt 0.3130 0.8169
vt 0.3118 0.8219
vt 0.3109 0.8219
vt 0.3074 0.8166
vt 0.3084 0.8168
vt 0.3084 0.8222
vt 0.3076 0.8219
vt 0.3090 0.8308
vt 0.3097 0.8307
vt 0.3093 0.8395
vt 0.3088 0.8395
vt 0.3103 0.8307
vt 0.3109 0.8307
vt 0.3101 0.8396
vt 0.3097 0.8396
vt 0.6791 0.8111
vt 0.6720 0.8112
vt 0.6728 0.7998
vt 0.6787 0.7997
vt 0.6783 0.8360
vt 0.6713 0.8361
vt 0.6713 0.8226
vt 0.6795 0.8225
vt 0.6853 0.8360
vt 0.6876 0.8225
vt 0.6830 0.8494
vt 0.6772 0.8495
vt 0.6713 0.8496
vt 0.6861 0.8110
vt 0.6846 0.7996
vt 0.3059 0.8110
vt 0.3072 0.8112
vt 0.3085 0.8114
vt 0.3117 0.8110
vt 0.3129 0.8115
vt 0.3141 0.8120
vt 0.3046 0.8167
vt 0.3054 0.8218
vt 0.3038 0.8117
vt 0.3048 0.8113
vt 0.2905 0.8113
vt 0.2916 0.8102
vt 0.3061 0.8307
vt 0.3068 0.8396
vt 0.2886 0.8355
vt 0.2885 0.8452
vt 0.2887 0.8258
vt 0.3101 0.8112
vt 0.2844 0.7796
vt 0.2854 0.7783
vt 0.2833 0.7809
vt 0.2833 0.7753
vt 0.2822 0.7606
vt 0.2800 0.7610
vt 0.2844 0.7602
vt 0.2855 0.7645
vt 0.2968 0.7607
vt 0.2942 0.7607
vt 0.2994 0.7608
vt 0.2916 0.7605
vt 0.3014 0.7609
vt 0.3034 0.7610
vt 0.3031 0.7652
vt 0.3029 0.7694
vt 0.3034 0.7794
vt 0.3041 0.7810
vt 0.3026 0.7778
vt 0.3027 0.7736
vt 0.2875 0.7774
vt 0.2981 0.7854
vt 0.2976 0.7943
vt 0.2818 0.7878
vt 0.2850 0.7954
vt 0.2786 0.7802
vt 0.2820 0.7793
vt 0.2885 0.8173
vt 0.2882 0.8087
vt 0.2893 0.8100
vt 0.2868 0.8030
vt 0.2886 0.8105
vt 0.2842 0.7770
vt 0.2830 0.7757
vt 0.7107 0.7741
vt 0.6994 0.7719
vt 0.7221 0.7763
vt 0.7216 0.7822
vt 0.7211 0.7881
vt 0.6858 0.7734
vt 0.6722 0.7748
vt 0.3282 0.8594
vt 0.3277 0.8590
vt 0.3271 0.8585
vt 0.3304 0.8586
vt 0.3293 0.8590
vt 0.3324 0.8479
vt 0.3321 0.8424
vt 0.3326 0.8534
vt 0.3322 0.8594
vt 0.3313 0.8590
vt 0.3226 0.8172
vt 0.3234 0.8166
vt 0.3178 0.8249
vt 0.3169 0.8346
vt 0.3186 0.8153
vt 0.3221 0.8162
vt 0.3331 0.8559
vt 0.3335 0.8585
vt 0.3328 0.8590
vt 0.3288 0.7960
vt 0.3300 0.7961
vt 0.3312 0.7963
vt 0.3174 0.8048
vt 0.3237 0.7948
vt 0.3275 0.7956
vt 0.3292 0.7810
vt 0.3231 0.7748
vt 0.3217 0.7693
vt 0.3244 0.7803
vt 0.3241 0.7875
vt 0.3200 0.7648
vt 0.3183 0.7602
vt 0.3268 0.7807
vt 0.3158 0.7603
vt 0.3133 0.7605
vt 0.4764 0.1902
vt 0.4806 0.1886
vt 0.4848 0.1870
vt 0.4674 0.1991
vt 0.4680 0.1964
vt 0.4667 0.2018
vt 0.4674 0.2058
vt 0.4682 0.2098
vt 0.4327 0.1854
vt 0.4320 0.1819
vt 0.4334 0.1889
vt 0.4380 0.2016
vt 0.4350 0.1976
vt 0.4409 0.2055
vt 0.4157 0.1918
vt 0.4161 0.1889
vt 0.4142 0.2029
vt 0.4154 0.1819
vt 0.4189 0.1831
vt 0.4119 0.1806
vt 0.4079 0.1790
vt 0.4038 0.1773
vt 0.4548 0.1887
vt 0.4552 0.1916
vt 0.4545 0.1859
vt 0.4560 0.1832
vt 0.4576 0.1805
vt 0.4632 0.1744
vt 0.4649 0.1785
vt 0.4615 0.1703
vt 0.4116 0.2065
vt 0.4090 0.2101
vt 0.4212 0.1992
vt 0.4685 0.1797
vt 0.4720 0.1808
vt 0.4243 0.2131
vt 0.4307 0.2154
vt 0.4309 0.1972
vt 0.4269 0.1968
vt 0.4241 0.1980
vt 0.4342 0.1933
vt 0.4281 0.1809
vt 0.4243 0.1799
vt 0.4501 0.1918
vt 0.4450 0.1920
vt 0.4216 0.1815
vt 0.4340 0.1768
vt 0.4359 0.1718
vt 0.4643 0.1958
vt 0.4606 0.1953
vt 0.4579 0.1935
vt 0.4742 0.1855
vt 0.4177 0.2011
vt 0.4175 0.1860
vt 0.4613 0.1795
vt 0.4358 0.2104
vt 0.4764 0.1902
vt 0.4806 0.1886
vt 0.4848 0.1870
vt 0.4674 0.1991
vt 0.4680 0.1964
vt 0.4667 0.2018
vt 0.4674 0.2058
vt 0.4682 0.2098
vt 0.4327 0.1854
vt 0.4320 0.1819
vt 0.4334 0.1889
vt 0.4380 0.2016
vt 0.4350 0.1976
vt 0.4409 0.2055
vt 0.4157 0.1918
vt 0.4161 0.1889
vt 0.4142 0.2029
vt 0.4154 0.1819
vt 0.4189 0.1831
vt 0.4119 0.1806
vt 0.4079 0.1790
vt 0.4038 0.1773
vt 0.4548 0.1887
vt 0.4552 0.1916
vt 0.4545 0.1859
vt 0.4560 0.1832
vt 0.4576 0.1805
vt 0.4632 0.1744
vt 0.4649 0.1785
vt 0.4615 0.1703
vt 0.4116 0.2065
vt 0.4090 0.2101
vt 0.4212 0.1992
vt 0.4685 0.1797
vt 0.4720 0.1808
vt 0.4243 0.2131
vt 0.4307 0.2154
vt 0.4309 0.1972
vt 0.4269 0.1968
vt 0.4241 0.1980
vt 0.4342 0.1933
vt 0.4281 0.1809
vt 0.4243 0.1799
vt 0.4501 0.1918
vt 0.4450 0.1920
vt 0.4216 0.1815
vt 0.4340 0.1768
vt 0.4359 0.1718
vt 0.4643 0.1958
vt 0.4606 0.1953
vt 0.4579 0.1935
vt 0.4742 0.1855
vt 0.4177 0.2011
vt 0.4175 0.1860
vt 0.4613 0.1795
vt 0.4358 0.2104
vn 0.9289 0.0398 -0.3683
vn 0.8824 0.0513 -0.4676
vn 0.8445 0.3127 -0.4347
vn 0.7747 0.4801 -0.4115
vn 0.7537 0.6099 -0.2450
vn 0.8407 0.4574 -0.2899
vn 0.9387 0.3327 0.0902
vn 0.8178 0.5725 0.0586
vn 0.8437 0.3930 0.3656
vn 0.9684 -0.2487 0.0172
vn 0.8762 -0.3605 0.3198
vn 0.8821 -0.4652 -0.0740
vn 0.9202 0.1147 0.3742
vn 0.9942 0.0076 0.1073
vn 0.9234 -0.1249 0.3630
vn 0.8661 -0.2388 -0.4392
vn 0.7913 0.0913 -0.6046
vn 0.7971 -0.2456 -0.5516
vn 0.6924 0.0064 -0.7215
vn 0.8510 -0.3628 -0.3798
vn 0.3101 0.5116 0.8013
vn 0.4770 0.7324 0.4859
vn 0.0819 0.7858 0.6131
vn 0.7975 0.3519 0.4900
vn 0.8267 0.5133 0.2306
vn 0.7246 0.5955 0.3468
vn -0.0908 0.5098 0.8555
vn -0.2127 0.4997 0.8397
vn -0.2699 0.7223 0.6367
vn -0.1970 0.5225 0.8296
vn 0.1635 0.0054 0.9865
vn -0.0223 -0.2489 0.9683
vn 0.3687 -0.2151 0.9043
vn -0.2418 0.2182 0.9455
vn -0.1068 0.2454 0.9635
vn -0.2154 -0.0026 0.9765
vn 0.5870 0.1485 0.7959
vn 0.6343 0.3985 0.6625
vn 0.8243 0.1381 0.5490
vn 0.8783 0.3480 0.3279
vn 0.5538 0.0165 0.8325
vn -0.8855 0.3970 0.2414
vn -0.7787 0.6182 0.1072
vn -0.8124 0.5803 -0.0563
vn -0.9299 0.3677 0.0130
vn -0.9499 0.1922 -0.2465
vn -0.8105 0.4363 -0.3908
vn -0.9323 0.0221 -0.3610
vn -0.9308 -0.2808 0.2341
vn -0.7252 -0.6839 0.0798
vn -0.6848 -0.4626 0.5630
vn -0.8873 -0.2971 -0.3526
vn -0.9916 -0.0605 -0.1146
vn -0.8340 -0.4735 -0.2832
vn -0.7945 0.1640 0.5847
vn -0.8702 0.3494 0.3473
vn -0.7541 0.4125 0.5111
vn -0.7076 0.1584 0.6887
vn -0.5467 0.4839 0.6834
vn -0.7276 -0.0362 0.6850
vn -0.4078 -0.2218 -0.8857
vn -0.4824 0.0712 -0.8730
vn -0.3229 0.0576 -0.9447
vn -0.1916 -0.2110 -0.9585
vn 0.2352 -0.1479 -0.9606
vn 0.4275 0.2655 -0.8642
vn 0.5437 -0.0725 -0.8362
vn -0.1225 -0.5919 -0.7966
vn 0.1165 -0.6734 -0.7300
vn -0.2943 -0.7018 -0.6488
vn 0.4355 -0.4458 -0.7820
vn 0.0572 -0.4939 -0.8676
vn 0.3529 -0.5637 -0.7468
vn -0.4785 -0.4537 -0.7518
vn -0.4601 -0.2314 -0.8572
vn -0.5892 -0.1970 -0.7836
vn -0.5870 -0.4475 -0.6747
vn -0.7301 -0.1460 -0.6675
vn -0.4753 -0.5359 -0.6978
vn 0.1611 -0.9692 -0.1861
vn 0.5275 -0.7849 -0.3251
vn 0.4191 -0.8517 -0.3146
vn 0.2667 -0.9238 0.2748
vn 0.6459 -0.6300 0.4312
vn 0.3539 -0.7084 0.6107
vn 0.4019 -0.5809 0.7078
vn 0.6875 -0.3798 0.6189
vn 0.4570 -0.4939 0.7397
vn 0.1127 -0.5717 0.8127
vn 0.0617 -0.6738 0.7364
vn -0.1622 -0.6899 0.7055
vn -0.2711 -0.4174 0.8674
vn -0.2923 -0.6311 0.7186
vn -0.1617 -0.9708 0.1773
vn 0.1248 -0.9864 -0.1070
vn -0.4544 -0.8883 0.0664
vn -0.6457 -0.7132 -0.2727
vn -0.4033 -0.8945 -0.1929
vn -0.2938 0.7762 -0.5579
vn -0.5068 0.6661 -0.5473
vn -0.5622 0.7138 -0.4176
vn -0.2425 0.8982 -0.3667
vn -0.4663 0.8824 -0.0627
vn -0.0933 0.9871 -0.1298
vn 0.0506 0.9987 0.0014
vn -0.2995 0.9446 0.1344
vn 0.0123 0.9818 0.1896
vn 0.4271 0.8618 -0.2735
vn 0.6374 0.7553 -0.1525
vn 0.6668 0.6503 -0.3641
vn 0.3268 0.9424 0.0713
vn 0.2436 0.9630 -0.1150
vn 0.0896 0.8217 -0.5628
vn -0.2939 0.7930 -0.5337
vn 0.8038 0.3368 -0.4904
vn 0.6931 0.5097 -0.5098
vn 0.6857 0.3123 -0.6574
vn 0.9581 0.1821 -0.2211
vn 0.9635 -0.1291 -0.2347
vn -0.2229 0.7054 0.6729
vn 0.2780 0.2170 0.9358
vn 0.6852 0.1219 0.7181
vn 0.6519 0.0188 0.7581
vn 0.6333 -0.1273 0.7634
vn 0.7358 -0.0479 0.6755
vn -0.6447 0.6701 0.3680
vn -0.8115 0.5455 -0.2094
vn -0.9199 0.1762 0.3504
vn -0.5952 0.1024 -0.7971
vn 0.0522 0.1682 -0.9844
vn -0.3393 -0.4459 -0.8283
vn 0.5712 -0.8196 0.0444
vn -0.0868 -0.9868 -0.1367
vn 0.3360 -0.9308 -0.1437
vn 0.6455 -0.4934 0.5830
vn -0.0368 -0.8536 0.5196
vn -0.1271 -0.5333 0.8363
vn -0.1853 -0.9817 -0.0435
vn -0.2870 -0.8607 0.4206
vn -0.5771 0.7594 -0.3003
vn -0.1901 0.6965 -0.6919
vn 0.1374 0.9247 -0.3549
vn 0.4786 0.8779 -0.0141
vn 0.0638 0.7658 -0.6399
vn 0.4152 0.7513 -0.5129
vn -0.5818 0.4754 -0.6600
vn -0.5614 0.4132 -0.7170
vn -0.7352 0.2483 -0.6307
vn -0.8480 0.0580 -0.5268
vn -0.9472 -0.0028 -0.3208
vn -0.8552 0.2306 -0.4643
vn -0.7846 0.5903 -0.1899
vn -0.9339 0.3432 -0.0999
vn -0.7610 0.6357 0.1294
vn -0.3736 0.8490 -0.3735
vn -0.2285 0.9689 -0.0950
vn -0.1859 0.8738 -0.4494
vn -0.5793 0.8144 0.0353
vn -0.5560 0.7861 -0.2701
vn -0.4025 0.9143 -0.0445
vn -0.3599 0.5565 -0.7489
vn -0.4880 0.1932 -0.8512
vn -0.2971 0.4198 -0.8576
vn -0.3287 0.0607 -0.9425
vn -0.2527 0.6511 -0.7157
vn -0.5899 0.3923 0.7058
vn -0.9261 0.1996 0.3202
vn -0.7426 -0.1066 0.6612
vn -0.7213 0.6554 0.2240
vn -0.9039 0.4098 0.1228
vn -0.9253 0.3219 0.2008
vn -0.2987 0.1150 0.9474
vn -0.1540 -0.0828 0.9846
vn -0.1998 -0.5220 0.8292
vn -0.0870 -0.3010 0.9497
vn -0.0996 0.6679 0.7375
vn 0.0767 0.6486 0.7572
vn -0.1342 0.8035 0.5799
vn 0.0158 0.1670 0.9858
vn -0.0695 0.4188 0.9054
vn 0.0975 0.4472 0.8891
vn -0.3762 0.7954 0.4752
vn -0.6904 0.6160 0.3794
vn -0.5446 0.8068 0.2291
vn -0.7461 0.6597 0.0901
vn -0.2824 0.8119 0.5110
vn 0.2404 -0.8172 0.5238
vn 0.0190 -0.9147 0.4037
vn 0.0288 -0.9540 0.2984
vn 0.2538 -0.8734 0.4157
vn 0.3482 -0.9167 0.1960
vn 0.0894 -0.9953 0.0374
vn 0.4155 -0.9091 -0.0314
vn 0.7717 -0.4628 0.4362
vn 0.9610 -0.1988 0.1924
vn 0.8254 -0.2548 0.5037
vn 0.7187 -0.6935 0.0495
vn 0.6354 -0.6939 0.3388
vn 0.8856 -0.4471 0.1256
vn 0.4369 -0.5090 0.7417
vn 0.2399 -0.7613 0.6024
vn 0.0764 -0.6047 0.7928
vn 0.2800 -0.3703 0.8857
vn -0.0930 -0.3856 0.9180
vn 0.5792 -0.3572 0.7328
vn 0.3936 -0.7138 -0.5793
vn 0.2262 -0.8539 -0.4688
vn 0.2273 -0.8192 -0.5265
vn 0.3504 -0.6278 -0.6950
vn -0.0358 -0.2322 -0.9720
vn -0.4908 -0.2346 -0.8391
vn -0.4253 0.2058 -0.8813
vn 0.5318 -0.2104 -0.8203
vn 0.4450 0.0692 -0.8929
vn 0.7257 -0.1860 -0.6624
vn -0.0051 0.2825 -0.9592
vn 0.3977 -0.1364 -0.9073
vn 0.2241 0.2526 -0.9413
vn 0.5624 -0.5650 -0.6037
vn 0.3709 -0.6983 -0.6122
vn 0.4135 -0.7715 -0.4836
vn 0.6262 -0.6165 -0.4773
vn 0.4223 -0.8683 -0.2603
vn 0.6611 -0.4750 -0.5808
vn 0.6458 0.6513 -0.3985
vn 0.2640 0.7471 -0.6100
vn 0.4121 0.6749 -0.6121
vn 0.5266 0.8398 -0.1317
vn 0.0583 0.9974 -0.0418
vn 0.2878 0.9498 0.1227
vn 0.1460 0.9580 0.2467
vn -0.1629 0.9756 0.1471
vn 0.0185 0.9403 0.3399
vn 0.2881 0.8262 0.4842
vn 0.4356 0.8196 0.3722
vn 0.6296 0.6606 0.4090
vn 0.4709 0.5170 0.7149
vn 0.7138 0.5095 0.4805
vn 0.8537 0.5128 -0.0907
vn 0.6862 0.6246 -0.3728
vn 0.9793 0.2023 0.0060
vn 0.9881 -0.1520 -0.0255
vn 0.9658 0.2194 -0.1384
vn -0.2470 -0.9641 -0.0973
vn -0.0635 -0.9968 -0.0490
vn -0.0558 -0.9948 0.0851
vn -0.4143 -0.9092 0.0427
vn -0.2238 -0.9312 0.2879
vn -0.6067 -0.7794 0.1566
vn -0.7737 -0.6065 0.1831
vn -0.4014 -0.8293 0.3889
vn -0.7563 -0.5856 0.2916
vn -0.9014 -0.4196 -0.1067
vn -0.9700 -0.2318 -0.0732
vn -0.9170 -0.2015 -0.3441
vn -0.9630 -0.2473 0.1070
vn -0.8878 -0.4579 0.0455
vn -0.6235 -0.7493 -0.2231
vn -0.2804 -0.9579 -0.0616
vn -0.7261 0.1707 -0.6660
vn -0.8229 -0.0961 -0.5600
vn -0.5986 -0.0388 -0.8001
vn -0.6873 0.5018 -0.5252
vn -0.4740 0.6521 -0.5917
vn -0.3602 -0.3892 0.8478
vn -0.2267 0.6482 0.7270
vn -0.4412 0.8152 0.3752
vn -0.3459 0.8365 0.4251
vn -0.3008 0.8546 0.4233
vn -0.3744 0.8652 0.3335
vn -0.0953 -0.7295 0.6773
vn 0.0100 -0.9761 0.2169
vn 0.4941 -0.6389 0.5897
vn 0.2089 -0.9023 -0.3770
vn -0.0869 -0.6732 -0.7344
vn 0.5258 -0.5221 -0.6715
vn 0.2754 0.9015 -0.3339
vn 0.8145 0.5257 -0.2455
vn 0.4831 0.7970 -0.3625
vn -0.0499 0.9977 0.0467
vn 0.6761 0.7233 0.1408
vn 0.4324 0.6787 0.5936
vn 0.8716 0.4604 -0.1680
vn 0.8796 0.4583 0.1278
vn -0.0587 -0.9870 0.1496
vn -0.2512 -0.9268 -0.2792
vn -0.7556 -0.6507 -0.0752
vn -0.9637 -0.2479 0.0987
vn -0.5238 -0.7927 -0.3119
vn -0.8206 -0.4671 -0.3293
vn -0.3600 -0.9015 0.2402
vn -0.4147 -0.8761 0.2461
vn -0.1452 -0.9865 -0.0750
vn -0.0204 -0.9851 -0.1710
vn 0.3310 0.8891 -0.3161
vn 0.5716 0.4408 -0.6921
vn 0.5746 0.3991 -0.7146
vn 0.3795 0.8462 -0.3741
vn 0.3242 -0.7848 -0.5282
vn 0.8180 -0.0810 -0.5695
vn 0.7776 -0.6241 -0.0768
vn -0.6729 -0.0029 0.7397
vn -0.6833 -0.0062 0.7301
vn -0.6202 -0.5447 0.5645
vn -0.6053 -0.5542 0.5714
vn -0.3437 0.8157 0.4653
vn -0.2680 0.8734 0.4068
vn -0.5482 0.5075 0.6647
vn -0.5651 0.4615 0.6839
vn 0.5882 -0.2485 -0.7696
vn 0.7624 0.2886 -0.5791
vn 0.7961 0.1079 -0.5955
vn 0.4875 -0.5571 -0.6723
vn -0.1873 0.9137 0.3606
vn 0.1295 0.9915 -0.0147
vn 0.0334 0.9994 0.0122
vn -0.1544 0.9411 0.3008
vn 0.5332 -0.3069 -0.7884
vn 0.2680 -0.7668 -0.5833
vn 0.0862 -0.9671 -0.2395
vn 0.5640 -0.6216 -0.5435
vn -0.6554 -0.0236 0.7549
vn -0.4944 0.5567 0.6676
vn -0.4078 0.5868 0.6996
vn -0.4838 0.0246 0.8748
vn 0.4346 0.8005 -0.4128
vn 0.6077 0.3014 -0.7348
vn 0.8518 0.0840 -0.5171
vn 0.5314 0.8035 -0.2681
vn -0.6152 -0.5678 0.5469
vn -0.0740 -0.9769 -0.2006
vn -0.2849 -0.9572 0.0510
vn -0.4873 -0.7228 0.4900
vn -0.0774 -0.9970 0.0002
vn -0.0693 -0.9823 0.1738
vn -0.2827 -0.6338 0.7200
vn -0.2524 -0.6182 0.7444
vn -0.0872 -0.9523 0.2924
vn -0.1661 0.9440 0.2852
vn -0.0048 0.9790 -0.2039
vn 0.0220 0.9517 -0.3063
vn -0.1796 0.9320 0.3148
vn 0.6932 -0.7183 -0.0594
vn 0.1209 -0.9833 -0.1358
vn 0.1846 -0.9827 -0.0166
vn 0.7744 -0.6327 0.0034
vn 0.1687 0.6432 -0.7469
vn 0.2596 0.0442 -0.9647
vn 0.2778 0.0053 -0.9606
vn 0.2021 0.5809 -0.7885
vn -0.3711 -0.0133 0.9285
vn -0.3328 0.5556 0.7619
vn -0.3260 0.4835 0.8124
vn -0.3373 -0.0768 0.9382
vn -0.5794 -0.8040 0.1338
vn -0.9890 0.0240 0.1459
vn -0.9815 -0.0919 0.1681
vn -0.5652 -0.8119 0.1463
vn 0.2261 -0.5797 -0.7829
vn 0.0898 -0.9473 -0.3074
vn 0.0979 -0.9517 -0.2909
vn 0.2492 -0.5469 -0.7992
vn -0.4353 -0.8538 -0.2855
vn -0.8679 0.0474 -0.4945
vn -0.9988 0.0408 -0.0253
vn -0.5800 -0.8145 -0.0164
vn 0.7678 -0.6357 -0.0795
vn 0.1354 -0.9902 0.0339
vn 0.1020 -0.9938 0.0442
vn 0.7440 -0.6628 -0.0841
vn -0.4803 0.8548 -0.1965
vn 0.0979 0.9950 -0.0193
vn 0.2171 0.9752 -0.0435
vn -0.6029 0.7965 -0.0459
vn 0.7908 0.6117 0.0214
vn 0.9938 -0.1055 -0.0362
vn 0.9922 -0.1242 -0.0063
vn 0.8890 0.4578 -0.0092
vn 0.8703 0.4662 -0.1589
vn 0.9809 -0.1350 -0.1398
vn 0.9691 -0.1964 -0.1495
vn 0.8805 0.4398 -0.1769
vn -0.6113 0.7905 0.0387
vn 0.1501 0.9848 -0.0875
vn 0.1210 0.9886 -0.0898
vn -0.6250 0.7791 0.0500
vn 0.5460 0.8321 -0.0975
vn 0.6600 0.4299 -0.6160
vn 0.4233 0.8849 -0.1943
vn 0.6511 0.7521 0.1019
vn 0.5645 0.8231 -0.0614
vn 0.9662 -0.0875 -0.2427
vn 0.9634 -0.0960 -0.2503
vn 0.9356 -0.0864 0.3424
vn 0.9439 -0.0810 0.3200
vn 0.3984 0.9123 0.0948
vn 0.2974 0.5719 -0.7645
vn -0.1899 0.7596 -0.6221
vn -0.3081 0.9386 -0.1551
vn 0.6225 -0.0251 0.7823
vn 0.5857 -0.0308 0.8099
vn 0.1820 0.0462 0.9822
vn 0.2656 0.0405 0.9632
vn -0.4074 0.1842 0.8945
vn -0.5164 0.2289 0.8252
vn -0.8883 0.3657 0.2778
vn -0.8974 0.2918 0.3310
vn 0.5662 -0.0477 0.8229
vn 0.5388 -0.1520 0.8286
vn -0.0045 0.0425 0.9991
vn 0.1062 0.0594 0.9926
vn 0.9591 -0.1131 -0.2594
vn 0.9309 -0.2374 -0.2777
vn 0.9055 -0.2482 0.3442
vn 0.9307 -0.1075 0.3497
vn -0.8295 0.4424 -0.3409
vn -0.8693 0.4010 0.2889
vn -0.9823 0.0156 0.1867
vn -0.7748 0.2238 -0.5913
vn 0.8660 -0.4050 -0.2933
vn 0.5607 -0.1848 -0.8072
vn 0.4450 -0.2670 -0.8548
vn 0.6917 -0.6310 -0.3512
vn -0.5506 0.2091 0.8081
vn -0.0160 -0.0481 0.9987
vn 0.0689 -0.2142 0.9744
vn -0.4972 -0.1717 0.8505
vn 0.0418 0.1156 -0.9924
vn -0.4455 0.3389 -0.8287
vn -0.2292 0.4040 -0.8856
vn 0.0431 0.1748 -0.9837
vn 0.4893 -0.2872 0.8234
vn 0.8394 -0.4385 0.3210
vn 0.6579 -0.7013 0.2745
vn 0.3591 -0.4499 0.8177
vn 0.0939 0.1799 -0.9792
vn -0.1413 0.6130 -0.7773
vn -0.1730 0.6715 -0.7205
vn 0.1124 0.1753 -0.9781
vn 0.2462 -0.6194 0.7455
vn 0.4557 -0.8659 0.2062
vn 0.4316 -0.8803 0.1970
vn 0.2274 -0.6482 0.7267
vn -0.3314 0.9152 -0.2294
vn -0.3824 0.8332 0.3994
vn -0.4363 0.8047 0.4025
vn -0.3872 0.9046 -0.1783
vn 0.4971 -0.7786 -0.3829
vn 0.3701 -0.3783 -0.8485
vn 0.3659 -0.3818 -0.8487
vn 0.4801 -0.7829 -0.3956
vn -0.8966 0.2469 -0.3677
vn -0.8725 0.3546 -0.3362
vn 0.1059 0.0676 -0.9921
vn -0.5169 0.1893 -0.8348
vn -0.5284 0.2703 -0.8048
vn 0.0591 0.0844 -0.9947
vn 0.3732 0.0897 -0.9234
vn 0.2186 0.0873 -0.9719
vn 0.6977 -0.0281 -0.7158
vn 0.7499 -0.0164 -0.6613
vn -0.3971 0.0430 -0.9168
vn -0.4169 0.0303 -0.9085
vn -0.7715 0.0693 -0.6325
vn -0.7695 0.0758 -0.6341
vn -0.0690 0.1393 0.9878
vn -0.1186 0.1428 0.9826
vn 0.3342 0.0900 0.9382
vn 0.3594 0.0886 0.9290
vn -0.1277 0.1061 0.9861
vn -0.0457 0.1169 0.9921
vn 0.3381 0.0686 0.9386
vn -0.0947 0.1407 -0.9855
vn -0.3087 0.0813 -0.9477
vn -0.7599 0.0917 -0.6435
vn -0.6478 0.1260 -0.7513
vn 0.5044 0.0676 -0.8608
vn 0.4696 0.0758 -0.8796
vn 0.7984 0.0249 -0.6016
vn 0.8412 0.0574 -0.5376
vn 0.7055 0.0113 0.7086
vn 0.6696 -0.0024 0.7427
vn 0.9913 0.0090 -0.1311
vn 0.9779 -0.0361 -0.2061
vn 0.9510 -0.0478 0.3054
vn 0.9472 -0.0221 0.3198
vn -0.8577 0.1452 0.4932
vn -0.7820 0.1297 0.6097
vn -0.9814 0.1227 0.1476
vn -0.9894 0.1283 0.0678
vn -0.7796 0.1597 0.6055
vn -0.4182 0.1403 0.8974
vn -0.4731 0.1466 0.8687
vn 0.3428 0.7106 -0.6145
vn -0.2505 0.3891 -0.8865
vn -0.3016 0.4095 -0.8610
vn 0.4892 0.6052 -0.6281
vn -0.3332 0.4015 0.8531
vn -0.0717 -0.1540 0.9855
vn -0.0417 -0.2135 0.9761
vn -0.3292 0.3853 0.8620
vn 0.1169 0.1818 -0.9764
vn -0.1761 0.6704 -0.7208
vn -0.1512 0.6351 -0.7575
vn 0.1299 0.1607 -0.9784
vn 0.2228 -0.6459 0.7302
vn 0.4405 -0.8750 0.2009
vn 0.4500 -0.8771 0.1678
vn 0.2336 -0.6606 0.7135
vn -0.3948 0.8997 -0.1859
vn -0.4487 0.7957 0.4070
vn -0.4497 0.7906 0.4156
vn -0.3934 0.8983 -0.1956
vn 0.4959 -0.7718 -0.3980
vn 0.3774 -0.3695 -0.8491
vn 0.3949 -0.4070 -0.8236
vn 0.4987 -0.7713 -0.3954
vn -0.5830 -0.4695 0.6631
vn 0.1381 -0.4276 0.8933
vn 0.0975 -0.4420 0.8917
vn -0.5915 -0.4577 0.6638
vn -0.2597 0.4373 0.8610
vn -0.0134 -0.1379 0.9904
vn -0.0593 -0.1428 0.9880
vn -0.3226 0.4246 0.8460
vn -0.4828 -0.5672 0.6672
vn 0.0727 -0.3317 0.9406
vn 0.0570 -0.4088 0.9108
vn -0.5596 -0.5489 0.6209
vn 0.7581 -0.1535 0.6338
vn 0.9655 0.2588 -0.0269
vn 0.9727 0.2313 -0.0198
vn 0.7571 -0.1734 0.6299
vn -0.7564 -0.0773 -0.6495
vn -0.8910 -0.4541 -0.0015
vn -0.9245 -0.3806 0.0197
vn -0.8348 -0.0284 -0.5498
vn 0.5249 0.0713 0.8482
vn 0.7278 0.6555 0.2014
vn 0.9136 0.4026 0.0572
vn 0.6822 -0.0551 0.7291
vn 0.5427 0.5145 -0.6639
vn -0.2526 0.4500 -0.8566
vn -0.3078 0.4356 -0.8459
vn 0.5354 0.5041 -0.6777
vn -0.8739 0.0896 -0.4778
vn -0.9639 -0.2460 0.1015
vn -0.9624 -0.2383 0.1306
vn -0.8847 0.0970 -0.4559
vn -0.9478 0.1160 -0.2971
vn -0.9409 0.1134 -0.3191
vn -0.9502 0.1017 -0.2946
vn -0.9556 0.1071 -0.2744
vn -0.9834 0.1349 0.1213
vn -0.5320 0.8125 0.2384
vn -0.9916 0.1296 -0.0031
vn 0.1308 0.2409 0.9617
vn 0.0436 0.9250 0.3773
vn -0.0086 0.8317 -0.5552
vn -0.5483 0.6515 0.5243
vn -0.6488 0.3831 0.6575
vn -0.9043 0.1500 0.3998
vn -0.5978 0.1741 0.7825
vn -0.5131 0.1655 0.8422
vn 0.9961 0.0115 -0.0875
vn 0.9403 -0.0245 0.3396
vn 0.8624 0.0576 -0.5029
vn 0.7110 0.0083 0.7031
vn 0.5169 0.0603 -0.8539
vn 0.0584 0.0439 -0.9973
vn 0.0718 0.0576 -0.9958
vn 0.1180 0.0931 -0.9886
vn -0.0012 0.3662 -0.9305
vn 0.1521 0.1419 -0.9781
vn -0.2759 0.1445 0.9503
vn 0.6527 -0.0400 -0.7566
vn 0.5976 -0.0958 -0.7960
vn -0.5721 0.7821 -0.2469
vn -0.1772 0.6330 0.7535
vn -0.1469 0.7923 0.5922
vn -0.0507 -0.0643 0.9966
vn 0.6566 -0.3388 0.6739
vn 0.0290 0.9495 0.3125
vn 0.0627 0.9871 0.1472
vn -0.0989 0.0489 -0.9939
vn -0.1351 0.8772 -0.4607
vn -0.0501 -0.8007 -0.5970
vn 0.3966 -0.6235 -0.6738
vn 0.1274 -0.9067 -0.4022
vn 0.0811 0.9966 0.0155
vn 0.5671 -0.1877 -0.8020
vn 0.0166 0.9978 0.0648
vn -0.6849 -0.4039 -0.6064
vn -0.4545 -0.6706 -0.5863
vn -0.1037 -0.8533 -0.5110
vn -0.9870 0.0023 0.1607
vn -0.9937 0.1119 0.0096
vn -0.9861 0.0039 0.1660
vn -0.9675 -0.1249 0.2200
vn -0.7163 -0.4570 0.5273
vn -0.0451 -0.9538 0.2969
vn -0.1726 -0.8089 0.5621
vn -0.0157 -0.9817 0.1899
vn 0.0757 -0.9444 -0.3201
vn 0.0812 -0.9835 -0.1616
vn 0.9691 0.1100 0.2207
vn 0.8109 0.1604 0.5627
vn 0.9113 0.1179 -0.3945
vn 0.3162 0.4988 0.8070
vn 0.3729 0.0665 0.9255
vn 0.2793 0.6870 0.6708
vn 0.1092 0.8163 0.5673
vn -0.1102 0.8962 0.4297
vn -0.2382 0.9701 0.0465
vn -0.4048 0.9033 0.1423
vn -0.1197 0.9927 -0.0119
vn -0.0721 0.9898 -0.1232
vn 0.0841 0.8650 -0.4948
vn 0.1456 0.6154 -0.7746
vn -0.0343 0.5372 -0.8427
vn 0.4135 0.5824 -0.6999
vn 0.7662 0.3231 -0.5555
vn 0.8353 -0.4834 -0.2621
vn -0.2497 0.3249 -0.9122
vn -0.4307 0.1809 -0.8842
vn 0.2254 -0.9612 -0.1588
vn 0.4341 -0.8861 -0.1628
vn 0.6655 -0.7260 -0.1731
vn -0.0332 -0.9941 0.1033
vn -0.1702 -0.5282 0.8319
vn -0.0841 -0.3842 0.9194
vn -0.2572 0.9268 0.2736
vn 0.0743 -0.1309 0.9886
vn -0.3465 -0.6954 0.6296
vn -0.8565 0.5057 0.1038
vn -0.7499 0.6496 0.1255
vn -0.6231 0.7714 0.1291
vn -0.5147 0.0276 -0.8569
vn 0.9068 -0.2263 -0.3557
vn 0.5913 0.1275 0.7963
vn 0.0798 0.6645 -0.7430
vn 0.4493 0.5607 -0.6955
vn 0.1982 0.5462 -0.8139
vn -0.1442 0.4072 -0.9019
vn 0.6966 0.7092 0.1088
vn 0.7590 0.6502 0.0354
vn 0.5515 0.8068 0.2119
vn 0.3142 0.9018 0.2967
vn -0.0290 0.8954 0.4443
vn -0.6805 0.7318 -0.0382
vn -0.5096 0.8107 0.2882
vn -0.7158 0.6576 -0.2351
vn -0.4595 0.3883 -0.7988
vn -0.6423 0.4172 -0.6430
vn -0.4996 -0.7646 0.4072
vn -0.4493 -0.5561 0.6992
vn -0.3185 -0.8695 -0.3775
vn -0.2663 -0.2925 0.9184
vn -0.4814 -0.0457 0.8753
vn -0.0724 -0.4478 0.8912
vn 0.1740 -0.4525 0.8746
vn 0.4905 -0.3624 0.7925
vn 0.7935 -0.2967 0.5313
vn 0.8398 -0.0884 0.5357
vn 0.7598 -0.4542 0.4653
vn 0.7919 -0.5483 0.2688
vn 0.7205 -0.6808 -0.1318
vn 0.5561 -0.6704 -0.4913
vn 0.6551 -0.5126 -0.5551
vn 0.3562 -0.8316 -0.4261
vn -0.0496 -0.9092 -0.4134
vn -0.6671 -0.5371 -0.5163
vn 0.6361 -0.3251 -0.6998
vn 0.6415 -0.0513 -0.7654
vn -0.7755 0.2205 -0.5916
vn -0.8660 -0.0905 -0.4918
vn -0.8039 -0.3812 -0.4566
vn -0.6855 0.6254 -0.3728
vn -0.3548 0.7266 0.5884
vn -0.3361 0.5159 0.7879
vn 0.7056 -0.2697 0.6553
vn -0.4195 0.2196 0.8808
vn -0.3007 0.8429 0.4462
vn 0.8175 0.5098 0.2679
vn 0.8543 0.3749 0.3600
vn 0.8833 0.1900 0.4286
vn 0.6039 0.2159 -0.7672
vn -0.5320 -0.6880 -0.4935
vn -0.4462 -0.3051 0.8413
vn 0.6596 -0.6240 -0.4191
usemtl None
s 1
f 1/1/1 240/2/2 289/3/3
f 3/4/4 559/5/5 619/6/6
f 5/7/7 506/8/8 454/9/9
f 7/10/10 341/11/11 388/12/12
f 5/7/7 218/13/13 502/14/14
f 7/10/10 432/15/15 341/11/11
f 1/1/1 276/16/16 240/2/2
f 2/17/17 378/18/18 217/19/19
f 7/10/10 388/12/12 483/20/20
f 13/21/21 453/22/22 501/23/23
f 16/24/24 212/25/25 450/26/26
f 13/27/21 501/28/23 613/29/27
f 17/30/28 233/31/29 281/32/30
f 20/33/31 498/34/32 324/35/33
f 17/30/28 490/36/34 330/37/35
f 20/33/31 373/38/36 498/34/32
f 13/21/21 519/39/37 550/40/38
f 16/24/24 441/41/39 437/42/40
f 20/43/31 324/44/33 223/45/41
f 25/46/42 489/47/43 234/48/44
f 25/46/42 234/48/44 284/49/45
f 27/50/46 548/51/47 611/52/48
f 30/53/49 615/54/50 446/55/51
f 27/50/46 375/56/52 222/57/53
f 30/53/49 497/58/54 615/54/50
f 25/46/42 379/59/55 567/60/56
f 34/61/57 349/62/58 354/63/59
f 30/53/49 446/55/51 210/64/60
f 35/65/61 515/66/62 435/67/63
f 35/65/61 435/67/63 598/68/64
f 37/69/65 322/70/66 431/71/67
f 39/72/68 215/73/69 370/74/70
f 37/69/65 540/75/71 484/76/72
f 39/77/68 202/78/73 215/79/69
f 35/65/61 270/80/74 308/81/75
f 42/82/76 533/83/77 581/84/78
f 39/72/68 370/74/70 478/85/79
f 43/86/80 439/87/81 231/88/82
f 44/89/83 593/90/84 482/91/85
f 45/92/86 227/93/87 186/94/88
f 45/95/86 293/96/89 320/97/90
f 46/98/91 576/99/92 472/100/93
f 44/101/83 471/102/94 429/103/95
f 31/104/96 383/105/97 297/106/98
f 47/107/99 303/108/100 527/109/101
f 48/110/102 558/111/103 269/112/104
f 49/113/105 396/114/106 331/115/107
f 50/116/108 256/117/109 357/118/110
f 49/119/105 443/120/111 545/121/112
f 48/122/102 526/123/113 211/124/114
f 3/4/4 392/125/115 607/126/116
f 2/17/17 217/19/19 278/127/117
f 1/1/1 289/3/3 386/128/118
f 1/1/1 386/128/118 499/129/119
f 5/7/7 454/9/9 218/13/13
f 1/1/1 499/129/119 276/16/16
f 13/21/21 550/40/38 453/22/22
f 16/24/24 437/42/40 212/25/25
f 17/30/28 387/130/120 233/31/29
f 13/27/21 613/29/27 292/131/121
f 17/30/28 281/32/30 490/36/34
f 13/21/21 292/132/121 519/39/37
f 16/24/24 193/133/122 441/41/39
f 24/134/123 440/135/124 394/136/125
f 25/46/42 567/60/56 489/47/43
f 34/61/57 354/63/59 469/137/126
f 27/50/46 384/138/127 548/51/47
f 25/46/42 284/49/45 442/139/128
f 27/50/46 611/52/48 375/56/52
f 25/46/42 442/139/128 379/59/55
f 35/65/61 308/81/75 515/66/62
f 42/82/76 581/84/78 259/140/129
f 37/69/65 488/141/130 322/70/66
f 35/65/61 598/68/64 260/142/131
f 37/69/65 431/71/67 540/75/71
f 35/65/61 260/142/131 270/80/74
f 44/89/83 429/143/95 277/144/132
f 43/145/80 267/146/133 575/147/134
f 43/86/80 575/148/134 439/87/81
f 44/89/83 277/144/132 593/90/84
f 45/92/86 427/149/135 227/93/87
f 44/101/83 482/150/85 415/151/136
f 45/95/86 186/152/88 293/96/89
f 46/98/91 355/153/137 576/99/92
f 44/101/83 415/151/136 471/102/94
f 43/145/80 405/154/138 267/146/133
f 46/98/91 472/100/93 586/155/139
f 48/110/102 211/156/114 574/157/140
f 47/107/99 351/158/141 303/108/100
f 48/110/102 574/157/140 558/111/103
f 48/122/102 269/159/104 599/160/142
f 49/119/105 331/161/107 443/120/111
f 50/116/108 452/162/143 256/117/109
f 48/122/102 599/160/142 526/123/113
f 47/163/99 587/164/144 351/165/141
f 50/116/108 357/118/110 390/166/145
f 51/167/146 438/168/147 604/169/148
f 53/170/149 327/171/150 487/172/151
f 55/173/152 603/174/153 221/175/154
f 57/176/155 546/177/156 275/178/157
f 55/173/152 414/179/158 372/180/159
f 57/176/155 220/181/160 546/177/156
f 51/167/146 585/182/161 438/168/147
f 52/183/162 476/184/163 404/185/164
f 57/176/155 275/178/157 371/186/165
f 63/187/166 229/188/167 376/189/168
f 66/190/169 457/191/170 232/192/171
f 63/193/166 376/194/168 280/195/172
f 67/196/173 523/197/174 578/198/175
f 70/199/176 577/200/177 188/201/178
f 67/196/173 347/202/179 397/203/180
f 70/199/176 248/204/181 577/200/177
f 63/187/166 346/205/182 334/206/183
f 66/190/169 236/207/184 238/208/185
f 70/209/176 188/210/178 283/211/186
f 75/212/187 552/213/188 518/214/189
f 75/212/187 518/214/189 570/215/190
f 77/216/191 192/217/192 247/218/193
f 80/219/194 462/220/195 463/221/196
f 77/216/191 410/222/197 514/223/198
f 80/219/194 517/224/199 462/220/195
f 75/212/187 464/225/200 480/226/201
f 84/227/202 262/228/203 265/229/204
f 80/219/194 463/221/196 503/230/205
f 85/231/206 409/232/207 183/233/208
f 85/231/206 183/233/208 239/234/209
f 87/235/210 291/236/211 214/237/212
f 89/238/213 403/239/214 461/240/215
f 87/235/210 319/241/216 343/242/217
f 89/243/213 426/244/218 403/245/214
f 85/231/206 562/246/219 273/247/220
f 92/248/221 496/249/222 486/250/223
f 89/238/213 461/240/215 339/251/224
f 93/252/225 219/253/226 448/254/227
f 94/255/228 274/256/229 568/257/230
f 95/258/231 436/259/232 313/260/233
f 95/261/231 418/262/234 296/263/235
f 96/264/236 481/265/237 597/266/238
f 94/267/228 605/268/239 187/269/240
f 81/270/241 459/271/242 445/272/243
f 97/273/244 224/274/245 434/275/246
f 98/276/247 460/277/248 362/278/249
f 99/279/250 513/280/251 402/281/252
f 100/282/253 398/283/254 512/284/255
f 99/285/250 237/286/256 204/287/257
f 98/288/247 420/289/258 535/290/259
f 53/170/149 491/291/260 493/292/261
f 52/183/162 404/185/164 374/293/262
f 51/167/146 604/169/148 264/294/263
f 51/167/146 264/294/263 369/295/264
f 55/173/152 221/175/154 414/179/158
f 51/167/146 369/295/264 585/182/161
f 63/187/166 334/206/183 229/188/167
f 66/190/169 238/208/185 457/191/170
f 67/196/173 468/296/265 523/197/174
f 63/193/166 280/195/172 556/297/266
f 67/196/173 578/198/175 347/202/179
f 63/187/166 556/298/266 346/205/182
f 66/190/169 287/299/267 236/207/184
f 74/300/268 494/301/269 253/302/270
f 75/212/187 480/226/201 552/213/188
f 84/227/202 265/229/204 602/303/271
f 77/216/191 251/304/272 192/217/192
f 75/212/187 570/215/190 290/305/273
f 77/216/191 247/218/193 410/222/197
f 75/212/187 290/305/273 464/225/200
f 85/231/206 273/247/220 409/232/207
f 92/248/221 486/250/223 368/306/274
f 87/235/210 563/307/275 291/236/211
f 85/231/206 239/234/209 554/308/276
f 87/235/210 214/237/212 319/241/216
f 85/231/206 554/308/276 562/246/219
f 94/255/228 187/309/240 601/310/277
f 93/311/225 564/312/278 456/313/279
f 93/252/225 456/314/279 219/253/226
f 94/255/228 601/310/277 274/256/229
f 95/258/231 225/315/280 436/259/232
f 94/267/228 568/316/230 182/317/281
f 95/261/231 313/318/233 418/262/234
f 96/264/236 261/319/282 481/265/237
f 94/267/228 182/317/281 605/268/239
f 93/311/225 328/320/283 564/312/278
f 96/264/236 597/266/238 485/321/284
f 98/276/247 535/322/259 451/323/285
f 97/273/244 228/324/286 224/274/245
f 98/276/247 451/323/285 460/277/248
f 98/288/247 362/325/249 307/326/287
f 99/285/250 402/327/252 237/286/256
f 100/282/253 620/328/288 398/283/254
f 98/288/247 307/326/287 420/289/258
f 97/329/244 449/330/289 228/331/286
f 100/282/253 512/284/255 537/332/290
f 690/333/291 583/334/292 103/335/293 417/336/294
f 689/337/295 359/338/296 107/339/297 200/340/298
f 688/341/299 617/342/300 104/343/301 417/344/294
f 687/345/302 508/346/303 102/347/304 309/348/305
f 686/349/306 299/350/307 112/351/308 413/352/309
f 685/353/310 401/354/311 110/355/312 306/356/313
f 684/357/314 465/358/315 113/359/316 539/360/317
f 683/361/318 423/362/319 115/363/320 208/364/321
f 682/365/322 367/366/323 114/367/324 475/368/325
f 681/369/326 596/370/327 116/371/328 422/372/329
f 102/347/304 433/373/330 583/334/292
f 680/374/331 543/375/332 117/376/333 590/377/334
f 679/378/335 312/379/336 118/380/337 589/381/338
f 678/382/339 197/383/340 120/384/341 479/385/342
f 677/386/343 295/387/344 122/388/345 366/389/346
f 676/390/347 266/391/348 125/392/349 242/393/350
f 675/394/351 255/395/352 121/396/353 258/397/354
f 674/398/355 594/399/356 127/400/357 425/401/358
f 673/402/359 467/403/360 119/404/361 561/405/362
f 672/406/363 198/407/364 126/408/365 412/409/366
f 671/410/367 522/411/368 128/412/369 428/413/370
f 670/414/371 551/415/372 130/416/373 213/417/374
f 669/418/375 566/419/376 123/420/377 326/421/378
f 668/422/379 358/423/380 129/424/381 209/425/382
f 667/426/383 317/427/384 131/428/385 268/429/386
f 666/430/387 401/431/311 106/432/388 529/433/389
f 665/434/390 617/435/300 110/436/312 582/437/391
f 664/438/392 365/439/393 134/440/394 538/441/395
f 663/442/396 592/443/397 138/444/398 314/445/399
f 662/446/400 560/447/401 140/448/402 421/449/403
f 661/450/404 536/451/405 143/452/406 294/453/407
f 660/454/408 360/455/409 142/456/410 252/457/411
f 659/458/412 201/459/413 144/460/414 350/461/415
f 658/462/416 361/463/417 147/464/418 474/465/419
f 657/466/420 304/467/421 149/468/422 356/469/423
f 656/470/424 492/471/425 151/472/426 185/473/427
f 655/474/428 580/475/429 148/476/430 419/477/431
f 654/478/432 207/479/433 150/480/434 524/481/435
f 653/482/436 571/483/437 152/484/438 203/485/439
f 652/486/440 235/487/441 154/488/442 310/489/443
f 651/490/444 416/491/445 157/492/446 391/493/447
f 650/494/448 520/495/449 153/496/450 588/497/451
f 649/498/452 294/453/407 143/452/406 311/499/453
f 648/500/454 544/501/455 146/502/456 584/503/457
f 647/504/458 532/505/459 133/506/460 430/507/461
f 646/508/462 246/509/463 160/510/464 189/511/465
f 645/512/466 352/513/467 164/514/468 184/515/469
f 644/516/470 511/517/471 141/518/472 421/449/403
f 643/519/473 411/520/474 161/521/475 380/522/476
f 642/523/477 206/524/478 132/525/479 364/526/480
f 641/527/481 507/528/482 141/518/472 184/515/469
f 640/529/483 305/530/484 135/531/485 534/532/486
f 639/533/487 504/534/488 167/535/489 565/536/490
f 638/537/491 504/534/488 162/538/492 196/539/493
f 637/540/494 549/541/495 169/542/496 458/543/497
f 636/544/498 333/545/499 171/546/500 344/547/501
f 635/548/502 318/549/503 173/550/504 241/551/505
f 634/552/506 444/553/507 175/554/508 614/555/509
f 633/556/510 609/557/511 172/558/512 393/559/513
f 632/560/514 282/561/515 174/562/516 509/563/517
f 631/564/518 466/565/519 178/566/520 301/567/521
f 630/568/522 385/569/523 155/570/524 528/571/525
f 629/572/526 216/573/527 177/574/528 194/575/529
f 628/576/530 190/577/531 180/578/532 244/579/533
f 627/580/534 600/581/535 176/582/536 335/583/537
f 626/584/538 612/585/539 170/586/540 382/587/541
f 625/588/542 249/589/543 181/590/544 406/591/545
f 624/592/546 470/593/547 179/594/548 521/595/549
f 623/596/550 189/597/465 160/598/464 257/599/551
f 622/600/552 380/601/476 161/602/475 389/603/553
f 547/604/554 622/600/552 389/603/553 167/605/489
f 139/606/555 314/607/399 622/600/552 547/604/554
f 314/607/399 138/608/398 380/601/476 622/600/552
f 565/609/490 623/596/550 257/599/551 168/610/556
f 167/605/489 389/603/553 623/596/550 565/609/490
f 389/603/553 161/602/475 189/597/465 623/596/550
f 249/589/543 624/592/546 521/595/549 181/590/544
f 169/542/496 335/583/537 624/592/546 249/589/543
f 335/583/537 176/582/536 470/593/547 624/592/546
f 190/577/531 625/588/542 406/591/545 180/578/532
f 170/586/540 458/543/497 625/588/542 190/577/531
f 458/543/497 169/542/496 249/589/543 625/588/542
f 216/573/527 626/584/538 382/587/541 177/574/528
f 151/611/426 455/612/557 626/584/538 216/573/527
f 455/612/557 156/613/558 612/585/539 626/584/538
f 549/541/495 627/580/534 335/583/537 169/542/496
f 148/614/430 474/615/419 627/580/534 549/541/495
f 474/615/419 147/616/418 600/581/535 627/580/534
f 466/565/519 628/576/530 244/579/533 178/566/520
f 177/574/528 382/587/541 628/576/530 466/565/519
f 382/587/541 170/586/540 190/577/531 628/576/530
f 600/617/535 629/572/526 194/575/529 176/618/536
f 147/619/418 185/620/427 629/572/526 600/617/535
f 185/620/427 151/611/426 216/573/527 629/572/526
f 416/491/445 630/568/522 528/571/525 157/492/446
f 156/621/558 455/622/557 630/568/522 416/491/445
f 455/622/557 151/472/426 385/569/523 630/568/522
f 470/623/547 631/564/518 301/567/521 179/624/548
f 176/618/536 194/575/529 631/564/518 470/623/547
f 194/575/529 177/574/528 466/565/519 631/564/518
f 444/553/507 632/560/514 509/563/517 175/554/508
f 154/488/442 588/497/451 632/560/514 444/553/507
f 588/497/451 153/496/450 282/561/515 632/560/514
f 318/625/503 633/556/510 393/559/513 173/626/504
f 152/627/438 391/493/447 633/556/510 318/625/503
f 391/493/447 157/492/446 609/557/511 633/556/510
f 333/545/499 634/552/506 614/555/509 171/546/500
f 155/570/524 310/489/443 634/552/506 333/545/499
f 310/489/443 154/488/442 444/553/507 634/552/506
f 282/561/515 635/548/502 241/551/505 174/562/516
f 153/496/450 203/485/439 635/548/502 282/561/515
f 203/485/439 152/484/438 318/549/503 635/548/502
f 609/557/511 636/544/498 344/547/501 172/558/512
f 157/492/446 528/571/525 636/544/498 609/557/511
f 528/571/525 155/570/524 333/545/499 636/544/498
f 612/585/539 637/540/494 458/543/497 170/586/540
f 156/613/558 342/628/559 637/540/494 612/585/539
f 342/628/559 148/614/430 549/541/495 637/540/494
f 505/629/560 638/537/491 196/539/493 136/630/561
f 139/631/555 547/632/554 638/537/491 505/629/560
f 547/632/554 167/535/489 504/534/488 638/537/491
f 557/633/562 639/533/487 565/536/490 168/634/556
f 163/635/563 298/636/564 639/533/487 557/633/562
f 298/636/564 162/538/492 504/534/488 639/533/487
f 250/637/565 640/529/483 534/532/486 166/638/566
f 165/639/567 364/526/480 640/529/483 250/637/565
f 364/526/480 132/525/479 305/530/484 640/529/483
f 340/640/568 641/527/481 184/515/469 164/514/468
f 166/638/566 534/532/486 641/527/481 340/640/568
f 534/532/486 135/531/485 507/528/482 641/527/481
f 407/641/569 642/523/477 364/526/480 165/639/567
f 159/642/570 531/643/571 642/523/477 407/641/569
f 531/643/571 158/644/572 206/524/478 642/523/477
f 592/645/397 643/519/473 380/522/476 138/646/398
f 137/647/573 336/648/574 643/519/473 592/645/397
f 336/648/574 158/644/572 411/520/474 643/519/473
f 345/649/575 644/516/470 421/449/403 140/448/402
f 136/630/561 196/539/493 644/516/470 345/649/575
f 196/539/493 162/538/492 511/517/471 644/516/470
f 511/517/471 645/512/466 184/515/469 141/518/472
f 162/538/492 298/636/564 645/512/466 511/517/471
f 298/636/564 163/635/563 352/513/467 645/512/466
f 411/520/474 646/508/462 189/511/465 161/521/475
f 158/644/572 531/643/571 646/508/462 411/520/474
f 531/643/571 159/642/570 246/509/463 646/508/462
f 206/524/478 647/504/458 430/507/461 132/525/479
f 158/644/572 336/648/574 647/504/458 206/524/478
f 336/648/574 137/647/573 532/505/459 647/504/458
f 516/650/576 648/500/454 584/503/457 145/651/577
f 133/506/460 532/505/459 648/500/454 516/650/576
f 532/505/459 137/647/573 544/501/455 648/500/454
f 544/652/455 649/498/452 311/499/453 146/653/456
f 137/654/573 205/655/578 649/498/452 544/652/455
f 205/655/578 136/630/561 294/453/407 649/498/452
f 235/487/441 650/494/448 588/497/451 154/488/442
f 150/480/434 356/469/423 650/494/448 235/487/441
f 356/469/423 149/468/422 520/495/449 650/494/448
f 571/656/437 651/490/444 391/493/447 152/627/438
f 148/657/430 342/658/559 651/490/444 571/656/437
f 342/658/559 156/621/558 416/491/445 651/490/444
f 385/569/523 652/486/440 310/489/443 155/570/524
f 151/472/426 524/481/435 652/486/440 385/569/523
f 524/481/435 150/480/434 235/487/441 652/486/440
f 520/495/449 653/482/436 203/485/439 153/496/450
f 149/468/422 419/477/431 653/482/436 520/495/449
f 419/477/431 148/476/430 571/483/437 653/482/436
f 492/471/425 654/478/432 524/481/435 151/472/426
f 142/456/410 360/455/409 654/478/432 492/471/425
f 360/455/409 144/460/414 207/479/433 654/478/432
f 304/467/421 655/474/428 419/477/431 149/468/422
f 145/651/577 584/503/457 655/474/428 304/467/421
f 584/503/457 146/502/456 580/475/429 655/474/428
f 361/463/417 656/470/424 185/473/427 147/464/418
f 143/452/406 536/451/405 656/470/424 361/463/417
f 536/451/405 142/456/410 492/471/425 656/470/424
f 207/479/433 657/466/420 356/469/423 150/480/434
f 144/460/414 201/459/413 657/466/420 207/479/433
f 201/459/413 145/651/577 304/467/421 657/466/420
f 580/659/429 658/462/416 474/465/419 148/660/430
f 146/653/456 311/499/453 658/462/416 580/659/429
f 311/499/453 143/452/406 361/463/417 658/462/416
f 365/439/393 659/458/412 350/461/415 134/440/394
f 133/506/460 516/650/576 659/458/412 365/439/393
f 516/650/576 145/651/577 201/459/413 659/458/412
f 560/447/401 660/454/408 252/457/411 140/448/402
f 134/440/394 350/461/415 660/454/408 560/447/401
f 350/461/415 144/460/414 360/455/409 660/454/408
f 345/649/575 661/450/404 294/453/407 136/630/561
f 140/448/402 252/457/411 661/450/404 345/649/575
f 252/457/411 142/456/410 536/451/405 661/450/404
f 507/528/482 662/446/400 421/449/403 141/518/472
f 135/531/485 538/441/395 662/446/400 507/528/482
f 538/441/395 134/440/394 560/447/401 662/446/400
f 505/661/560 663/442/396 314/445/399 139/662/555
f 136/630/561 205/655/578 663/442/396 505/661/560
f 205/655/578 137/654/573 592/443/397 663/442/396
f 305/530/484 664/438/392 538/441/395 135/531/485
f 132/525/479 430/507/461 664/438/392 305/530/484
f 430/507/461 133/506/460 365/439/393 664/438/392
f 243/663/579 665/434/390 582/437/391 111/664/580
f 101/665/581 199/666/582 665/434/390 243/663/579
f 199/666/582 104/667/301 617/435/300 665/434/390
f 245/668/583 666/430/387 529/433/389 105/669/584
f 111/664/580 582/437/391 666/430/387 245/668/583
f 582/437/391 110/436/312 401/431/311 666/430/387
f 594/399/356 667/426/383 268/429/386 127/400/357
f 126/408/365 213/417/374 667/426/383 594/399/356
f 213/417/374 130/416/373 317/427/384 667/426/383
f 317/427/384 668/422/379 209/425/382 131/428/385
f 130/416/373 326/421/378 668/422/379 317/427/384
f 326/421/378 123/420/377 358/423/380 668/422/379
f 551/415/372 669/418/375 326/421/378 130/416/373
f 113/670/316 422/671/329 669/418/375 551/415/372
f 422/671/329 116/672/328 566/419/376 669/418/375
f 198/407/364 670/414/371 213/417/374 126/408/365
f 124/673/585 400/674/586 670/414/371 198/407/364
f 400/674/586 113/670/316 551/415/372 670/414/371
f 358/675/380 671/410/367 428/413/370 129/676/381
f 123/677/377 366/389/346 671/410/367 358/675/380
f 366/389/346 122/388/345 522/411/368 671/410/367
f 295/387/344 672/406/363 412/409/366 122/388/345
f 115/678/320 191/679/587 672/406/363 295/387/344
f 191/679/587 124/673/585 198/407/364 672/406/363
f 266/391/348 673/402/359 561/405/362 125/392/349
f 124/680/585 191/681/587 673/402/359 266/391/348
f 191/681/587 115/363/320 467/403/360 673/402/359
f 522/411/368 674/398/355 425/401/358 128/412/369
f 122/388/345 412/409/366 674/398/355 522/411/368
f 412/409/366 126/408/365 594/399/356 674/398/355
f 312/682/336 675/394/351 258/397/354 118/683/337
f 117/684/333 475/368/325 675/394/351 312/682/336
f 475/368/325 114/367/324 255/395/352 675/394/351
f 197/383/340 676/390/347 242/393/350 120/384/341
f 113/359/316 400/685/586 676/390/347 197/383/340
f 400/685/586 124/680/585 266/391/348 676/390/347
f 566/686/376 677/386/343 366/389/346 123/677/377
f 116/687/328 208/688/321 677/386/343 566/686/376
f 208/688/321 115/678/320 295/387/344 677/386/343
f 255/395/352 678/382/339 479/385/342 121/396/353
f 114/367/324 539/360/317 678/382/339 255/395/352
f 539/360/317 113/359/316 197/383/340 678/382/339
f 467/403/360 679/378/335 589/381/338 119/404/361
f 115/363/320 590/377/334 679/378/335 467/403/360
f 590/377/334 117/376/333 312/379/336 679/378/335
f 423/362/319 680/374/331 590/377/334 115/363/320
f 109/689/588 555/690/589 680/374/331 423/362/319
f 555/690/589 103/691/293 543/375/332 680/374/331
f 583/334/292 543/692/332 103/335/293
f 583/334/292 433/373/330 543/692/332
f 433/373/330 117/684/333 543/692/332
f 465/358/315 681/369/326 422/372/329 113/359/316
f 108/693/590 200/340/298 681/369/326 465/358/315
f 200/340/298 107/339/297 596/370/327 681/369/326
f 433/373/330 682/365/322 475/368/325 117/684/333
f 102/347/304 508/346/303 682/365/322 433/373/330
f 508/346/303 112/351/308 367/366/323 682/365/322
f 596/370/327 683/361/318 208/364/321 116/371/328
f 107/339/297 579/694/591 683/361/318 596/370/327
f 579/694/591 109/689/588 423/362/319 683/361/318
f 367/366/323 684/357/314 539/360/317 114/367/324
f 112/351/308 299/350/307 684/357/314 367/366/323
f 299/350/307 108/693/590 465/358/315 684/357/314
f 579/694/591 685/353/310 306/356/313 109/689/588
f 107/339/297 359/338/296 685/353/310 579/694/591
f 359/338/296 106/695/388 401/354/311 685/353/310
f 245/696/583 686/349/306 413/352/309 111/697/580
f 105/698/584 408/699/592 686/349/306 245/696/583
f 408/699/592 108/693/590 299/350/307 686/349/306
f 243/700/579 687/345/302 309/348/305 101/701/581
f 111/697/580 413/352/309 687/345/302 243/700/579
f 413/352/309 112/351/308 508/346/303 687/345/302
f 555/690/589 688/341/299 417/344/294 103/691/293
f 109/689/588 306/356/313 688/341/299 555/690/589
f 306/356/313 110/355/312 617/342/300 688/341/299
f 408/699/592 689/337/295 200/340/298 108/693/590
f 105/698/584 529/702/389 689/337/295 408/699/592
f 529/702/389 106/695/388 359/338/296 689/337/295
f 199/703/582 690/333/291 417/336/294 104/704/301
f 101/701/581 309/348/305 690/333/291 199/703/582
f 309/348/305 102/347/304 583/334/292 690/333/291
f 537/332/290 493/292/261 88/705/593
f 537/332/290 512/284/255 493/292/261
f 512/284/255 53/170/149 493/292/261
f 228/331/286 618/706/594 86/707/595
f 228/331/286 449/330/289 618/706/594
f 449/330/289 88/705/593 618/706/594
f 420/289/258 537/332/290 88/705/593
f 420/289/258 307/326/287 537/332/290
f 307/326/287 100/282/253 537/332/290
f 398/283/254 530/708/596 54/709/597
f 398/283/254 620/328/288 530/708/596
f 620/328/288 64/710/598 530/708/596
f 237/286/256 279/711/599 64/710/598
f 237/286/256 402/327/252 279/711/599
f 402/327/252 65/712/600 279/711/599
f 307/326/287 204/287/257 100/282/253
f 307/326/287 362/325/249 204/287/257
f 362/325/249 99/285/250 204/287/257
f 460/277/248 621/713/601 68/714/602
f 460/277/248 451/323/285 621/713/601
f 451/323/285 76/715/603 621/713/601
f 224/274/245 477/716/604 78/717/605
f 224/274/245 228/324/286 477/716/604
f 228/324/286 86/718/595 477/716/604
f 451/323/285 434/275/246 76/715/603
f 451/323/285 535/322/259 434/275/246
f 535/322/259 97/273/244 434/275/246
f 485/321/284 399/719/606 81/270/241
f 485/321/284 597/266/238 399/719/606
f 597/266/238 82/720/607 399/719/606
f 564/312/278 445/272/243 91/721/608
f 564/312/278 328/320/283 445/272/243
f 328/320/283 81/270/241 445/272/243
f 605/268/239 485/321/284 81/270/241
f 605/268/239 182/317/281 485/321/284
f 182/317/281 96/264/236 485/321/284
f 481/265/237 353/722/609 73/723/610
f 481/265/237 261/319/282 353/722/609
f 261/319/282 71/724/611 353/722/609
f 418/262/234 302/725/612 71/724/611
f 418/262/234 313/318/233 302/725/612
f 313/318/233 72/726/613 302/725/612
f 182/317/281 296/263/235 96/264/236
f 182/317/281 568/316/230 296/263/235
f 568/316/230 95/261/231 296/263/235
f 436/259/232 325/727/614 60/728/615
f 436/259/232 225/315/280 325/727/614
f 225/315/280 58/729/616 325/727/614
f 274/256/229 377/730/617 58/729/616
f 274/256/229 601/310/277 377/730/617
f 601/310/277 59/731/618 377/730/617
f 219/253/226 608/732/619 61/733/620
f 219/253/226 456/314/279 608/732/619
f 456/314/279 90/734/621 608/732/619
f 456/313/279 348/735/622 90/736/621
f 456/313/279 564/312/278 348/735/622
f 564/312/278 91/721/608 348/735/622
f 601/310/277 448/254/227 59/731/618
f 601/310/277 187/309/240 448/254/227
f 187/309/240 93/252/225 448/254/227
f 562/246/219 339/251/224 83/737/623
f 562/246/219 554/308/276 339/251/224
f 554/308/276 89/238/213 339/251/224
f 319/241/216 329/738/624 61/733/620
f 319/241/216 214/237/212 329/738/624
f 214/237/212 62/739/625 329/738/624
f 554/308/276 343/740/217 89/238/213
f 554/308/276 239/234/209 343/740/217
f 239/234/209 87/741/210 343/740/217
f 291/236/211 618/706/594 88/705/593
f 291/236/211 563/307/275 618/706/594
f 563/307/275 86/707/595 618/706/594
f 368/306/274 573/742/626 78/717/605
f 368/306/274 486/250/223 573/742/626
f 486/250/223 79/743/627 573/742/626
f 409/232/207 368/306/274 78/717/605
f 409/232/207 273/247/220 368/306/274
f 273/247/220 92/248/221 368/306/274
f 464/225/200 503/230/205 73/723/610
f 464/225/200 290/305/273 503/230/205
f 290/305/273 80/219/194 503/230/205
f 410/222/197 195/744/628 83/737/623
f 410/222/197 247/218/193 195/744/628
f 247/218/193 79/743/627 195/744/628
f 290/305/273 514/223/198 80/219/194
f 290/305/273 570/215/190 514/223/198
f 570/215/190 77/216/191 514/223/198
f 192/217/192 286/745/629 78/717/605
f 192/217/192 251/304/272 286/745/629
f 251/304/272 76/715/603 286/745/629
f 602/303/271 254/746/630 68/714/602
f 602/303/271 265/229/204 254/746/630
f 265/229/204 69/747/631 254/746/630
f 552/213/188 602/303/271 68/714/602
f 552/213/188 480/226/201 602/303/271
f 480/226/201 84/227/202 602/303/271
f 253/302/270 338/748/632 60/728/615
f 253/302/270 494/301/269 338/748/632
f 494/301/269 72/749/613 338/748/632
f 236/207/184 253/302/270 60/728/615
f 236/207/184 287/299/267 253/302/270
f 287/299/267 74/300/268 253/302/270
f 346/205/182 283/211/186 74/300/268
f 346/205/182 556/298/266 283/211/186
f 556/298/266 70/209/176 283/211/186
f 347/202/179 569/750/633 73/723/610
f 347/202/179 578/198/175 569/750/633
f 578/198/175 69/747/631 569/750/633
f 556/297/266 397/203/180 70/199/176
f 556/297/266 280/195/172 397/203/180
f 280/195/172 67/196/173 397/203/180
f 523/197/174 300/751/634 68/714/602
f 523/197/174 468/296/265 300/751/634
f 468/296/265 65/752/600 300/751/634
f 457/191/170 542/753/635 54/709/597
f 457/191/170 238/208/185 542/753/635
f 238/208/185 56/754/636 542/753/635
f 229/188/167 232/192/171 64/710/598
f 229/188/167 334/206/183 232/192/171
f 334/206/183 66/190/169 232/192/171
f 585/182/161 371/186/165 61/733/620
f 585/182/161 369/295/264 371/186/165
f 369/295/264 57/176/155 371/186/165
f 414/179/158 525/755/637 60/728/615
f 414/179/158 221/175/154 525/755/637
f 221/175/154 56/754/636 525/755/637
f 369/295/264 372/180/159 57/176/155
f 369/295/264 264/294/263 372/180/159
f 264/294/263 55/173/152 372/180/159
f 264/294/263 487/172/151 55/173/152
f 264/294/263 604/169/148 487/172/151
f 604/169/148 53/170/149 487/172/151
f 374/293/262 595/756/638 88/705/593
f 374/293/262 404/185/164 595/756/638
f 404/185/164 62/739/625 595/756/638
f 493/292/261 374/293/262 88/705/593
f 493/292/261 491/291/260 374/293/262
f 491/291/260 52/183/162 374/293/262
f 535/290/259 449/330/289 97/329/244
f 535/290/259 420/289/258 449/330/289
f 420/289/258 88/705/593 449/330/289
f 204/287/257 620/328/288 100/282/253
f 204/287/257 237/286/256 620/328/288
f 237/286/256 64/710/598 620/328/288
f 512/284/255 327/171/150 53/170/149
f 512/284/255 398/283/254 327/171/150
f 398/283/254 54/709/597 327/171/150
f 402/281/252 300/751/634 65/752/600
f 402/281/252 513/280/251 300/751/634
f 513/280/251 68/714/602 300/751/634
f 362/278/249 513/280/251 99/279/250
f 362/278/249 460/277/248 513/280/251
f 460/277/248 68/714/602 513/280/251
f 434/275/246 286/745/629 76/715/603
f 434/275/246 224/274/245 286/745/629
f 224/274/245 78/717/605 286/745/629
f 445/272/243 226/757/639 91/721/608
f 445/272/243 459/271/242 226/757/639
f 459/271/242 83/737/623 226/757/639
f 187/269/240 328/320/283 93/311/225
f 187/269/240 605/268/239 328/320/283
f 605/268/239 81/270/241 328/320/283
f 597/266/238 363/758/640 82/720/607
f 597/266/238 481/265/237 363/758/640
f 481/265/237 73/723/610 363/758/640
f 296/263/235 261/319/282 96/264/236
f 296/263/235 418/262/234 261/319/282
f 418/262/234 71/724/611 261/319/282
f 313/260/233 338/748/632 72/749/613
f 313/260/233 436/259/232 338/748/632
f 436/259/232 60/728/615 338/748/632
f 568/257/230 225/315/280 95/258/231
f 568/257/230 274/256/229 225/315/280
f 274/256/229 58/729/616 225/315/280
f 448/254/227 606/759/641 59/731/618
f 448/254/227 219/253/226 606/759/641
f 219/253/226 61/733/620 606/759/641
f 339/251/224 226/757/639 83/737/623
f 339/251/224 461/240/215 226/757/639
f 461/240/215 91/721/608 226/757/639
f 486/250/223 195/744/628 79/743/627
f 486/250/223 496/249/222 195/744/628
f 496/249/222 83/737/623 195/744/628
f 273/247/220 496/249/222 92/248/221
f 273/247/220 562/246/219 496/249/222
f 562/246/219 83/737/623 496/249/222
f 403/245/214 608/732/619 90/734/621
f 403/245/214 426/244/218 608/732/619
f 426/244/218 61/733/620 608/732/619
f 343/242/217 426/244/218 89/243/213
f 343/242/217 319/241/216 426/244/218
f 319/241/216 61/733/620 426/244/218
f 461/240/215 348/735/622 91/721/608
f 461/240/215 403/239/214 348/735/622
f 403/239/214 90/736/621 348/735/622
f 214/237/212 595/756/638 62/739/625
f 214/237/212 291/236/211 595/756/638
f 291/236/211 88/705/593 595/756/638
f 239/234/209 563/760/275 87/741/210
f 239/234/209 183/233/208 563/760/275
f 183/233/208 86/718/595 563/760/275
f 183/233/208 477/716/604 86/718/595
f 183/233/208 409/232/207 477/716/604
f 409/232/207 78/717/605 477/716/604
f 503/230/205 363/758/640 73/723/610
f 503/230/205 463/221/196 363/758/640
f 463/221/196 82/720/607 363/758/640
f 265/229/204 569/750/633 69/747/631
f 265/229/204 262/228/203 569/750/633
f 262/228/203 73/723/610 569/750/633
f 480/226/201 262/228/203 84/227/202
f 480/226/201 464/225/200 262/228/203
f 464/225/200 73/723/610 262/228/203
f 462/220/195 459/271/242 81/270/241
f 462/220/195 517/224/199 459/271/242
f 517/224/199 83/737/623 459/271/242
f 514/223/198 517/224/199 80/219/194
f 514/223/198 410/222/197 517/224/199
f 410/222/197 83/737/623 517/224/199
f 463/221/196 399/719/606 82/720/607
f 463/221/196 462/220/195 399/719/606
f 462/220/195 81/270/241 399/719/606
f 247/218/193 573/742/626 79/743/627
f 247/218/193 192/217/192 573/742/626
f 192/217/192 78/717/605 573/742/626
f 570/215/190 251/304/272 77/216/191
f 570/215/190 518/214/189 251/304/272
f 518/214/189 76/715/603 251/304/272
f 518/214/189 621/713/601 76/715/603
f 518/214/189 552/213/188 621/713/601
f 552/213/188 68/714/602 621/713/601
f 283/211/186 494/301/269 74/300/268
f 283/211/186 188/210/178 494/301/269
f 188/210/178 72/749/613 494/301/269
f 238/208/185 525/755/637 56/754/636
f 238/208/185 236/207/184 525/755/637
f 236/207/184 60/728/615 525/755/637
f 334/206/183 287/299/267 66/190/169
f 334/206/183 346/205/182 287/299/267
f 346/205/182 74/300/268 287/299/267
f 577/200/177 353/722/609 71/724/611
f 577/200/177 248/204/181 353/722/609
f 248/204/181 73/723/610 353/722/609
f 397/203/180 248/204/181 70/199/176
f 397/203/180 347/202/179 248/204/181
f 347/202/179 73/723/610 248/204/181
f 188/201/178 302/725/612 72/726/613
f 188/201/178 577/200/177 302/725/612
f 577/200/177 71/724/611 302/725/612
f 578/198/175 254/746/630 69/747/631
f 578/198/175 523/197/174 254/746/630
f 523/197/174 68/714/602 254/746/630
f 280/195/172 468/296/265 67/196/173
f 280/195/172 376/194/168 468/296/265
f 376/194/168 65/752/600 468/296/265
f 232/192/171 530/708/596 64/710/598
f 232/192/171 457/191/170 530/708/596
f 457/191/170 54/709/597 530/708/596
f 376/189/168 279/711/599 65/712/600
f 376/189/168 229/188/167 279/711/599
f 229/188/167 64/710/598 279/711/599
f 371/186/165 606/759/641 61/733/620
f 371/186/165 275/178/157 606/759/641
f 275/178/157 59/731/618 606/759/641
f 404/185/164 329/738/624 62/739/625
f 404/185/164 476/184/163 329/738/624
f 476/184/163 61/733/620 329/738/624
f 438/168/147 476/184/163 52/183/162
f 438/168/147 585/182/161 476/184/163
f 585/182/161 61/733/620 476/184/163
f 546/177/156 325/727/614 58/729/616
f 546/177/156 220/181/160 325/727/614
f 220/181/160 60/728/615 325/727/614
f 372/180/159 220/181/160 57/176/155
f 372/180/159 414/179/158 220/181/160
f 414/179/158 60/728/615 220/181/160
f 275/178/157 377/730/617 59/731/618
f 275/178/157 546/177/156 377/730/617
f 546/177/156 58/729/616 377/730/617
f 221/175/154 542/753/635 56/754/636
f 221/175/154 603/174/153 542/753/635
f 603/174/153 54/709/597 542/753/635
f 487/172/151 603/174/153 55/173/152
f 487/172/151 327/171/150 603/174/153
f 327/171/150 54/709/597 603/174/153
f 604/169/148 491/291/260 53/170/149
f 604/169/148 438/168/147 491/291/260
f 438/168/147 52/183/162 491/291/260
f 390/166/145 607/126/116 38/761/642
f 390/166/145 357/118/110 607/126/116
f 357/118/110 3/4/4 607/126/116
f 351/165/141 424/762/643 36/763/644
f 351/165/141 587/164/144 424/762/643
f 587/164/144 38/761/642 424/762/643
f 526/123/113 390/166/145 38/761/642
f 526/123/113 599/160/142 390/166/145
f 599/160/142 50/116/108 390/166/145
f 256/117/109 316/764/645 4/765/646
f 256/117/109 452/162/143 316/764/645
f 452/162/143 14/766/647 316/764/645
f 443/120/111 616/767/648 14/766/647
f 443/120/111 331/161/107 616/767/648
f 331/161/107 15/768/649 616/767/648
f 599/160/142 545/121/112 50/116/108
f 599/160/142 269/159/104 545/121/112
f 269/159/104 49/119/105 545/121/112
f 558/111/103 315/769/650 18/770/651
f 558/111/103 574/157/140 315/769/650
f 574/157/140 26/771/652 315/769/650
f 303/108/100 572/772/653 28/773/654
f 303/108/100 351/158/141 572/772/653
f 351/158/141 36/774/644 572/772/653
f 574/157/140 527/109/101 26/771/652
f 574/157/140 211/156/114 527/109/101
f 211/156/114 47/107/99 527/109/101
f 586/155/139 337/775/655 31/104/96
f 586/155/139 472/100/93 337/775/655
f 472/100/93 32/776/656 337/775/655
f 267/146/133 297/106/98 41/777/657
f 267/146/133 405/154/138 297/106/98
f 405/154/138 31/104/96 297/106/98
f 471/102/94 586/155/139 31/104/96
f 471/102/94 415/151/136 586/155/139
f 415/151/136 46/98/91 586/155/139
f 576/99/92 495/778/658 23/779/659
f 576/99/92 355/153/137 495/778/658
f 355/153/137 21/780/660 495/778/658
f 293/96/89 447/781/661 21/780/660
f 293/96/89 186/152/88 447/781/661
f 186/152/88 22/782/662 447/781/661
f 415/151/136 320/97/90 46/98/91
f 415/151/136 482/150/85 320/97/90
f 482/150/85 45/95/86 320/97/90
f 227/93/87 541/783/663 10/784/664
f 227/93/87 427/149/135 541/783/663
f 427/149/135 8/785/665 541/783/663
f 593/90/84 288/786/666 8/785/665
f 593/90/84 277/144/132 288/786/666
f 277/144/132 9/787/667 288/786/666
f 439/87/81 263/788/668 11/789/669
f 439/87/81 575/148/134 263/788/668
f 575/148/134 40/790/670 263/788/668
f 575/147/134 271/791/671 40/792/670
f 575/147/134 267/146/133 271/791/671
f 267/146/133 41/777/657 271/791/671
f 277/144/132 231/88/82 9/787/667
f 277/144/132 429/143/95 231/88/82
f 429/143/95 43/86/80 231/88/82
f 270/80/74 478/85/79 33/793/672
f 270/80/74 260/142/131 478/85/79
f 260/142/131 39/72/68 478/85/79
f 540/75/71 553/794/673 11/789/669
f 540/75/71 431/71/67 553/794/673
f 431/71/67 12/795/674 553/794/673
f 260/142/131 484/796/72 39/72/68
f 260/142/131 598/68/64 484/796/72
f 598/68/64 37/797/65 484/796/72
f 322/70/66 424/762/643 38/761/642
f 322/70/66 488/141/130 424/762/643
f 488/141/130 36/763/644 424/762/643
f 259/140/129 500/798/675 28/773/654
f 259/140/129 581/84/78 500/798/675
f 581/84/78 29/799/676 500/798/675
f 515/66/62 259/140/129 28/773/654
f 515/66/62 308/81/75 259/140/129
f 308/81/75 42/82/76 259/140/129
f 379/59/55 210/64/60 23/779/659
f 379/59/55 442/139/128 210/64/60
f 442/139/128 30/53/49 210/64/60
f 375/56/52 610/800/677 33/793/672
f 375/56/52 611/52/48 610/800/677
f 611/52/48 29/799/676 610/800/677
f 442/139/128 222/57/53 30/53/49
f 442/139/128 284/49/45 222/57/53
f 284/49/45 27/50/46 222/57/53
f 548/51/47 230/801/678 28/773/654
f 548/51/47 384/138/127 230/801/678
f 384/138/127 26/771/652 230/801/678
f 469/137/126 381/802/679 18/770/651
f 469/137/126 354/63/59 381/802/679
f 354/63/59 19/803/680 381/802/679
f 489/47/43 469/137/126 18/770/651
f 489/47/43 567/60/56 469/137/126
f 567/60/56 34/61/57 469/137/126
f 394/136/125 510/804/681 10/784/664
f 394/136/125 440/135/124 510/804/681
f 440/135/124 22/805/662 510/804/681
f 441/41/39 394/136/125 10/784/664
f 441/41/39 193/133/122 394/136/125
f 193/133/122 24/134/123 394/136/125
f 519/39/37 223/45/41 24/134/123
f 519/39/37 292/132/121 223/45/41
f 292/132/121 20/43/31 223/45/41
f 490/36/34 272/806/682 23/779/659
f 490/36/34 281/32/30 272/806/682
f 281/32/30 19/803/680 272/806/682
f 292/131/121 330/37/35 20/33/31
f 292/131/121 613/29/27 330/37/35
f 613/29/27 17/30/28 330/37/35
f 233/31/29 395/807/683 18/770/651
f 233/31/29 387/130/120 395/807/683
f 387/130/120 15/808/649 395/807/683
f 212/25/25 332/809/684 4/765/646
f 212/25/25 437/42/40 332/809/684
f 437/42/40 6/810/685 332/809/684
f 453/22/22 450/26/26 14/766/647
f 453/22/22 550/40/38 450/26/26
f 550/40/38 16/24/24 450/26/26
f 276/16/16 483/20/20 11/789/669
f 276/16/16 499/129/119 483/20/20
f 499/129/119 7/10/10 483/20/20
f 218/13/13 323/811/686 10/784/664
f 218/13/13 454/9/9 323/811/686
f 454/9/9 6/810/685 323/811/686
f 499/129/119 502/14/14 7/10/10
f 499/129/119 386/128/118 502/14/14
f 386/128/118 5/7/7 502/14/14
f 386/128/118 619/6/6 5/7/7
f 386/128/118 289/3/3 619/6/6
f 289/3/3 3/4/4 619/6/6
f 278/127/117 473/812/687 38/761/642
f 278/127/117 217/19/19 473/812/687
f 217/19/19 12/795/674 473/812/687
f 607/126/116 278/127/117 38/761/642
f 607/126/116 392/125/115 278/127/117
f 392/125/115 2/17/17 278/127/117
f 211/124/114 587/164/144 47/163/99
f 211/124/114 526/123/113 587/164/144
f 526/123/113 38/761/642 587/164/144
f 545/121/112 452/162/143 50/116/108
f 545/121/112 443/120/111 452/162/143
f 443/120/111 14/766/647 452/162/143
f 357/118/110 559/5/5 3/4/4
f 357/118/110 256/117/109 559/5/5
f 256/117/109 4/765/646 559/5/5
f 331/115/107 395/807/683 15/808/649
f 331/115/107 396/114/106 395/807/683
f 396/114/106 18/770/651 395/807/683
f 269/112/104 396/114/106 49/113/105
f 269/112/104 558/111/103 396/114/106
f 558/111/103 18/770/651 396/114/106
f 527/109/101 230/801/678 26/771/652
f 527/109/101 303/108/100 230/801/678
f 303/108/100 28/773/654 230/801/678
f 297/106/98 591/813/688 41/777/657
f 297/106/98 383/105/97 591/813/688
f 383/105/97 33/793/672 591/813/688
f 429/103/95 405/154/138 43/145/80
f 429/103/95 471/102/94 405/154/138
f 471/102/94 31/104/96 405/154/138
f 472/100/93 321/814/689 32/776/656
f 472/100/93 576/99/92 321/814/689
f 576/99/92 23/779/659 321/814/689
f 320/97/90 355/153/137 46/98/91
f 320/97/90 293/96/89 355/153/137
f 293/96/89 21/780/660 355/153/137
f 186/94/88 510/804/681 22/805/662
f 186/94/88 227/93/87 510/804/681
f 227/93/87 10/784/664 510/804/681
f 482/91/85 427/149/135 45/92/86
f 482/91/85 593/90/84 427/149/135
f 593/90/84 8/785/665 427/149/135
f 231/88/82 285/815/690 9/787/667
f 231/88/82 439/87/81 285/815/690
f 439/87/81 11/789/669 285/815/690
f 478/85/79 591/813/688 33/793/672
f 478/85/79 370/74/70 591/813/688
f 370/74/70 41/777/657 591/813/688
f 581/84/78 610/800/677 29/799/676
f 581/84/78 533/83/77 610/800/677
f 533/83/77 33/793/672 610/800/677
f 308/81/75 533/83/77 42/82/76
f 308/81/75 270/80/74 533/83/77
f 270/80/74 33/793/672 533/83/77
f 215/79/69 263/788/668 40/790/670
f 215/79/69 202/78/73 263/788/668
f 202/78/73 11/789/669 263/788/668
f 484/76/72 202/78/73 39/77/68
f 484/76/72 540/75/71 202/78/73
f 540/75/71 11/789/669 202/78/73
f 370/74/70 271/791/671 41/777/657
f 370/74/70 215/73/69 271/791/671
f 215/73/69 40/792/670 271/791/671
f 431/71/67 473/812/687 12/795/674
f 431/71/67 322/70/66 473/812/687
f 322/70/66 38/761/642 473/812/687
f 598/68/64 488/816/130 37/797/65
f 598/68/64 435/67/63 488/816/130
f 435/67/63 36/774/644 488/816/130
f 435/67/63 572/772/653 36/774/644
f 435/67/63 515/66/62 572/772/653
f 515/66/62 28/773/654 572/772/653
f 210/64/60 321/814/689 23/779/659
f 210/64/60 446/55/51 321/814/689
f 446/55/51 32/776/656 321/814/689
f 354/63/59 272/806/682 19/803/680
f 354/63/59 349/62/58 272/806/682
f 349/62/58 23/779/659 272/806/682
f 567/60/56 349/62/58 34/61/57
f 567/60/56 379/59/55 349/62/58
f 379/59/55 23/779/659 349/62/58
f 615/54/50 383/105/97 31/104/96
f 615/54/50 497/58/54 383/105/97
f 497/58/54 33/793/672 383/105/97
f 222/57/53 497/58/54 30/53/49
f 222/57/53 375/56/52 497/58/54
f 375/56/52 33/793/672 497/58/54
f 446/55/51 337/775/655 32/776/656
f 446/55/51 615/54/50 337/775/655
f 615/54/50 31/104/96 337/775/655
f 611/52/48 500/798/675 29/799/676
f 611/52/48 548/51/47 500/798/675
f 548/51/47 28/773/654 500/798/675
f 284/49/45 384/138/127 27/50/46
f 284/49/45 234/48/44 384/138/127
f 234/48/44 26/771/652 384/138/127
f 234/48/44 315/769/650 26/771/652
f 234/48/44 489/47/43 315/769/650
f 489/47/43 18/770/651 315/769/650
f 223/45/41 440/135/124 24/134/123
f 223/45/41 324/44/33 440/135/124
f 324/44/33 22/805/662 440/135/124
f 437/42/40 323/811/686 6/810/685
f 437/42/40 441/41/39 323/811/686
f 441/41/39 10/784/664 323/811/686
f 550/40/38 193/133/122 16/24/24
f 550/40/38 519/39/37 193/133/122
f 519/39/37 24/134/123 193/133/122
f 498/34/32 495/778/658 21/780/660
f 498/34/32 373/38/36 495/778/658
f 373/38/36 23/779/659 495/778/658
f 330/37/35 373/38/36 20/33/31
f 330/37/35 490/36/34 373/38/36
f 490/36/34 23/779/659 373/38/36
f 324/35/33 447/781/661 22/782/662
f 324/35/33 498/34/32 447/781/661
f 498/34/32 21/780/660 447/781/661
f 281/32/30 381/802/679 19/803/680
f 281/32/30 233/31/29 381/802/679
f 233/31/29 18/770/651 381/802/679
f 613/29/27 387/130/120 17/30/28
f 613/29/27 501/28/23 387/130/120
f 501/28/23 15/808/649 387/130/120
f 450/26/26 316/764/645 14/766/647
f 450/26/26 212/25/25 316/764/645
f 212/25/25 4/765/646 316/764/645
f 501/23/23 616/767/648 15/768/649
f 501/23/23 453/22/22 616/767/648
f 453/22/22 14/766/647 616/767/648
f 483/20/20 285/815/690 11/789/669
f 483/20/20 388/12/12 285/815/690
f 388/12/12 9/787/667 285/815/690
f 217/19/19 553/794/673 12/795/674
f 217/19/19 378/18/18 553/794/673
f 378/18/18 11/789/669 553/794/673
f 240/2/2 378/18/18 2/17/17
f 240/2/2 276/16/16 378/18/18
f 276/16/16 11/789/669 378/18/18
f 341/11/11 541/783/663 8/785/665
f 341/11/11 432/15/15 541/783/663
f 432/15/15 10/784/664 541/783/663
f 502/14/14 432/15/15 7/10/10
f 502/14/14 218/13/13 432/15/15
f 218/13/13 10/784/664 432/15/15
f 388/12/12 288/786/666 9/787/667
f 388/12/12 341/11/11 288/786/666
f 341/11/11 8/785/665 288/786/666
f 454/9/9 332/809/684 6/810/685
f 454/9/9 506/8/8 332/809/684
f 506/8/8 4/765/646 332/809/684
f 619/6/6 506/8/8 5/7/7
f 619/6/6 559/5/5 506/8/8
f 559/5/5 4/765/646 506/8/8
f 289/3/3 392/125/115 3/4/4
f 289/3/3 240/2/2 392/125/115
f 240/2/2 2/17/17 392/125/115
