# Blender v2.78 (sub 0) OBJ File: ''
# www.blender.org
mtllib Apple_Tree_NoLeaves_m_01.mtl
o Apple_Tree_NoLeaves_m_01
v 0.115883 0.054237 0.176414
v 0.145500 0.470963 0.183346
v -0.027862 0.458252 0.184463
v -0.098926 0.052245 0.177181
v -0.165305 0.051630 -0.027170
v -0.081434 0.454324 0.019118
v 0.058819 0.464607 -0.084234
v 0.008479 0.053241 -0.154323
v 0.182263 0.054853 -0.028453
v 0.199072 0.474891 0.017293
v 0.120928 1.223063 0.102051
v 0.078486 1.218653 0.234873
v -0.058858 1.204386 0.235239
v -0.100265 1.192879 0.103015
v 0.009814 1.211520 0.020445
v -0.063238 2.149346 0.102117
v -0.097155 2.145616 0.207608
v -0.241225 2.150483 0.199639
v -0.282401 2.008692 0.100010
v -0.188547 2.155114 0.036486
v 0.011346 3.174816 0.083343
v 0.054644 3.172098 0.116593
v 0.038340 3.173210 0.167188
v -0.015646 3.176421 0.167053
v -0.267467 2.329076 0.099141
v -0.030574 3.188960 0.115183
v -0.565463 2.478606 0.065641
v -0.591222 2.426957 0.123709
v 0.405118 4.132071 0.106852
v 0.399966 4.131430 0.090504
v 0.412949 4.132950 0.082033
v 0.394023 4.066092 0.105970
v -0.559279 2.414670 0.023387
v -0.618125 2.393995 0.061945
v -1.223750 2.770452 -0.156778
v -1.186426 2.773064 -0.179162
v -1.179891 2.811641 -0.153063
v -1.203384 2.785835 -0.119759
v -1.482702 3.245315 -0.292376
v -1.497422 3.259726 -0.309458
v -1.483538 3.267063 -0.308548
v -1.478484 3.239522 -0.311867
v 0.011347 3.174816 0.172328
v -0.142883 1.652074 0.226239
v -0.012651 3.182268 0.095047
v -0.066755 0.213763 0.182049
v -0.239631 2.300405 0.059822
v -0.590355 2.399042 0.036961
v -0.028025 3.183305 0.142722
v -0.092517 1.197273 0.173453
v -0.898559 2.594957 0.008096
v -0.161990 0.051938 0.084824
v -1.179613 2.793896 -0.169300
v -0.870565 2.632670 -0.036633
v -0.080360 1.659206 0.031400
v 0.171093 0.826628 0.062716
v 0.020288 1.674294 0.105600
v -0.129400 0.211570 -0.010905
v 0.432638 4.167073 0.089959
v 0.188473 0.474278 0.105483
v -0.394255 2.346485 0.092581
v 0.073377 1.218132 0.050002
v -1.206712 2.768680 -0.171610
v 0.079007 3.251777 0.140684
v -1.492958 3.274562 -0.306425
v 0.211870 3.719226 0.133992
v -0.152035 2.139581 0.218837
v -0.018354 1.669886 0.226293
v -1.497149 3.268570 -0.315944
v -0.427636 2.224076 0.091794
v 0.047249 0.815108 -0.027539
v 0.227495 3.718471 0.085201
v -0.161906 2.697812 0.109005
v -0.100931 2.145302 0.060273
v 0.058819 0.464607 0.200998
v -0.923707 2.572557 -0.040958
v 0.123789 0.822228 0.210090
v 0.202097 3.719656 0.103445
v 0.034607 0.217312 -0.131232
v -1.190013 2.801815 -0.132771
v 0.217103 3.635757 0.116582
v -0.269380 2.298080 0.151821
v 0.008479 0.053241 0.208244
v -0.061296 2.651617 0.189128
v -0.245813 2.030895 0.057416
v -0.069345 2.148837 0.158458
v -1.369186 3.030566 -0.258443
v -0.609815 2.406856 0.098011
v 0.421931 4.165627 0.085146
v -0.029290 0.807989 0.210929
v -0.177445 1.619683 0.106850
v 0.198614 0.223055 -0.012548
v -0.576690 2.458072 0.100380
v -0.143234 2.653495 0.188669
v 0.113834 0.054047 -0.116898
v -1.515682 3.312463 -0.323527
v 0.428029 4.166586 0.104555
v -0.101827 2.655443 0.060535
v -0.070836 0.454936 0.107195
v 0.178947 0.054545 0.083612
v 0.036033 3.173077 0.095757
v -0.053232 1.201359 0.050533
v -1.362709 3.054078 -0.242137
v -1.392249 3.031498 -0.244493
v -0.035705 2.652820 0.109657
v -1.498939 3.271494 -0.306812
v -0.076594 0.803590 0.064081
v 0.112662 1.222217 0.172709
v -0.364364 2.269771 0.038970
v -0.874523 2.580724 -0.070601
v -0.021312 0.458630 -0.046314
v -1.378790 3.039796 -0.221409
v 0.135969 0.220861 0.181056
v 0.211336 3.636370 0.134498
v -1.491169 3.271638 -0.315557
v -1.217112 2.776599 -0.135081
v -0.557229 2.450258 0.039330
v -0.096877 0.052436 -0.116133
v 0.009814 1.211520 0.248925
v 0.138950 0.470584 -0.047377
v -0.277784 2.028025 0.156435
v 0.418162 4.165034 0.097138
v -0.406510 2.273864 0.169680
v -1.381839 3.029242 -0.253684
v -1.363744 3.043074 -0.252241
v -0.915476 2.581175 -0.012245
v -0.882924 2.617998 -0.009596
v -1.369627 3.048728 -0.229556
v -1.387722 3.034896 -0.230999
v -0.375059 2.314787 0.058464
v -0.421324 2.242311 0.138049
v -0.868200 2.609279 -0.057803
v -0.395507 2.239804 0.057981
v -0.160015 2.678169 0.151358
v -0.900753 2.572456 -0.060452
v -0.023678 0.808511 0.005795
v 0.471044 4.266789 0.090468
v 0.213029 3.719175 0.091417
v 0.227684 3.718531 0.137219
v 0.241309 3.717562 0.094758
v 0.203973 3.719573 0.119709
v -0.400876 2.317294 0.138531
v -0.040618 2.652589 0.151997
v -0.136300 2.679284 0.077996
v -0.102704 2.649669 0.197277
v -0.064333 2.651474 0.078365
v -0.136000 1.636831 0.058947
v -0.080877 1.662755 0.238889
v -0.022939 1.669364 0.058166
v -0.171808 1.632746 0.170512
v 0.012870 1.673448 0.169868
v 0.047250 0.815108 0.225991
v 0.118177 0.821706 0.005013
v -0.067513 0.804434 0.142370
v 0.162012 0.825783 0.141108
v 0.128536 0.220601 -0.088409
v -0.117374 0.211991 0.091956
v 0.186588 0.222634 0.090448
v -0.059323 0.214023 -0.087466
v 0.034607 0.217312 0.201892
vt 0.3161 0.7810
vt 0.3167 0.7846
vt 0.3151 0.7846
vt 0.3143 0.7810
vt 0.3270 0.7814
vt 0.3260 0.7846
vt 0.3245 0.7845
vt 0.3252 0.7811
vt 0.3198 0.7811
vt 0.3198 0.7846
vt 0.3183 0.7846
vt 0.3179 0.7810
vt 0.3124 0.7814
vt 0.3135 0.7849
vt 0.3119 0.7851
vt 0.3106 0.7818
vt 0.3234 0.7811
vt 0.3230 0.7846
vt 0.3214 0.7846
vt 0.3216 0.7811
vt 0.3199 0.7906
vt 0.3185 0.7907
vt 0.3143 0.7909
vt 0.3128 0.7910
vt 0.3227 0.7905
vt 0.3212 0.7905
vt 0.3171 0.7907
vt 0.3175 0.7968
vt 0.3163 0.7969
vt 0.3157 0.7908
vt 0.3201 0.8045
vt 0.3212 0.8044
vt 0.3213 0.8123
vt 0.3202 0.8124
vt 0.3154 0.8044
vt 0.3166 0.8046
vt 0.3169 0.8124
vt 0.3158 0.8118
vt 0.3224 0.8044
vt 0.3235 0.8043
vt 0.3235 0.8121
vt 0.3224 0.8122
vt 0.3178 0.8046
vt 0.3189 0.8045
vt 0.3191 0.8124
vt 0.3180 0.8124
vt 0.3247 0.8041
vt 0.3259 0.8040
vt 0.3257 0.8111
vt 0.3246 0.8116
vt 0.3224 0.8211
vt 0.3232 0.8210
vt 0.3230 0.8299
vt 0.3225 0.8300
vt 0.3193 0.8212
vt 0.3201 0.8212
vt 0.3210 0.8301
vt 0.3205 0.8301
vt 0.3240 0.8214
vt 0.3248 0.8218
vt 0.3240 0.8298
vt 0.3235 0.8299
vt 0.3209 0.8212
vt 0.3216 0.8212
vt 0.3220 0.8301
vt 0.3215 0.8301
vt 0.3317 0.8005
vt 0.3327 0.8009
vt 0.3327 0.8038
vt 0.3320 0.8037
vt 0.3209 0.8402
vt 0.3212 0.8401
vt 0.3225 0.8502
vt 0.3223 0.8502
vt 0.3228 0.8402
vt 0.3231 0.8401
vt 0.3232 0.8504
vt 0.3230 0.8504
vt 0.3216 0.8402
vt 0.3220 0.8403
vt 0.3229 0.8505
vt 0.3227 0.8504
vt 0.3234 0.8401
vt 0.3238 0.8400
vt 0.3236 0.8502
vt 0.3234 0.8503
vt 0.3276 0.8182
vt 0.3276 0.8181
vt 0.3277 0.8180
vt 0.3277 0.8182
vt 0.3254 0.7907
vt 0.3248 0.7967
vt 0.3236 0.7965
vt 0.3241 0.7905
vt 0.3347 0.8098
vt 0.3352 0.8102
vt 0.3351 0.8166
vt 0.3347 0.8163
vt 0.3178 0.8219
vt 0.3185 0.8212
vt 0.3200 0.8301
vt 0.3195 0.8302
vt 0.3349 0.7996
vt 0.3357 0.8000
vt 0.3353 0.8038
vt 0.3347 0.8033
vt 0.3336 0.8098
vt 0.3343 0.8095
vt 0.3344 0.8161
vt 0.3339 0.8163
vt 0.3297 0.8002
vt 0.3307 0.8001
vt 0.3312 0.8035
vt 0.3306 0.8038
vt 0.3334 0.8001
vt 0.3340 0.7994
vt 0.3341 0.8029
vt 0.3334 0.8033
vt 0.3326 0.8218
vt 0.3329 0.8216
vt 0.3334 0.8269
vt 0.3333 0.8270
vt 0.3332 0.8217
vt 0.3335 0.8218
vt 0.3336 0.8270
vt 0.3335 0.8270
vt 0.3324 0.8100
vt 0.3331 0.8102
vt 0.3334 0.8165
vt 0.3329 0.8164
vt 0.3313 0.8102
vt 0.3318 0.8099
vt 0.3323 0.8163
vt 0.3320 0.8166
vt 0.3285 0.8219
vt 0.3284 0.8219
vt 0.3284 0.8218
vt 0.3283 0.8217
vt 0.3284 0.8217
vt 0.3338 0.8216
vt 0.3341 0.8215
vt 0.3338 0.8269
vt 0.3337 0.8270
vt 0.3343 0.8217
vt 0.3345 0.8219
vt 0.3340 0.8271
vt 0.3339 0.8270
vt 0.3285 0.8218
vt 0.3285 0.8217
vt 0.3283 0.8218
vt 0.3283 0.8219
vt 0.3307 0.8104
vt 0.3316 0.8168
vt 0.3299 0.8041
vt 0.3324 0.8219
vt 0.3332 0.8271
vt 0.3327 0.7981
vt 0.3333 0.7969
vt 0.3339 0.7958
vt 0.3288 0.8003
vt 0.3276 0.7966
vt 0.3289 0.7966
vt 0.3302 0.7966
vt 0.3350 0.7959
vt 0.3362 0.7961
vt 0.3171 0.8225
vt 0.3190 0.8302
vt 0.3151 0.8147
vt 0.3160 0.8135
vt 0.3275 0.7848
vt 0.3268 0.7908
vt 0.3261 0.7968
vt 0.3276 0.8184
vt 0.3277 0.8184
vt 0.3275 0.8183
vt 0.3275 0.8182
vt 0.3275 0.8181
vt 0.3224 0.8403
vt 0.3206 0.8402
vt 0.3221 0.8502
vt 0.3314 0.7973
vt 0.3245 0.8130
vt 0.3255 0.8138
vt 0.3187 0.7967
vt 0.3211 0.7965
vt 0.3223 0.7965
vt 0.3142 0.8041
vt 0.3147 0.8112
vt 0.3138 0.7970
vt 0.3151 0.7969
vt 0.3199 0.7966
vt 0.3239 0.7776
vt 0.3218 0.7776
vt 0.3260 0.7777
vt 0.3114 0.7780
vt 0.3093 0.7786
vt 0.3135 0.7775
vt 0.3196 0.7775
vt 0.3175 0.7775
vt 0.3281 0.7781
vt 0.3302 0.7784
vt 0.3288 0.7816
vt 0.3155 0.7775
vn 0.0111 0.0043 0.9999
vn 0.0165 -0.0351 0.9992
vn -0.5752 0.0092 0.8180
vn -0.5800 0.1038 0.8079
vn -0.5761 0.2319 -0.7838
vn -0.5854 0.1697 -0.7928
vn 0.0038 0.1723 -0.9850
vn -0.0006 0.1771 -0.9842
vn 0.9508 -0.0548 0.3050
vn 0.9529 0.0081 0.3032
vn 0.6059 -0.0268 0.7951
vn 0.5952 -0.0469 0.8022
vn -0.9336 0.1882 0.3050
vn -0.9487 0.0708 0.3080
vn -0.9411 0.1421 -0.3067
vn -0.9226 0.2448 -0.2980
vn 0.5870 0.0817 -0.8055
vn 0.5809 0.1298 -0.8036
vn 0.9486 0.0746 -0.3076
vn 0.9504 0.0015 -0.3111
vn 0.9493 0.0671 0.3071
vn 0.5973 -0.0026 0.8020
vn -0.9492 -0.0536 0.3102
vn -0.9530 0.0126 -0.3028
vn 0.5760 0.1549 -0.8026
vn 0.9442 0.1307 -0.3025
vn 0.0143 -0.0634 0.9979
vn 0.0105 -0.0162 0.9998
vn -0.5656 -0.0916 0.8196
vn -0.5750 -0.0793 0.8143
vn 0.9326 0.1889 0.3076
vn 0.9331 0.1863 -0.3075
vn 0.9456 0.0568 -0.3204
vn 0.9484 0.0593 0.3114
vn -0.9099 -0.1872 0.3702
vn -0.5270 -0.0768 0.8464
vn -0.3441 -0.0196 0.9387
vn -0.7985 -0.3012 0.5212
vn 0.5588 0.1181 -0.8208
vn 0.0049 0.0103 -0.9999
vn 0.0544 -0.0016 -0.9985
vn 0.5327 0.0450 -0.8451
vn -0.0078 0.0311 0.9995
vn 0.5710 0.1318 0.8103
vn 0.5631 0.0590 0.8242
vn -0.0212 0.0401 0.9990
vn -0.5526 -0.1180 -0.8251
vn -0.9307 -0.2050 -0.3028
vn -0.8755 -0.3818 -0.2961
vn -0.4479 -0.2008 -0.8713
vn 0.5674 -0.0495 -0.8220
vn 0.0298 0.0468 -0.9985
vn 0.0135 0.0240 -0.9996
vn 0.6307 -0.1677 -0.7577
vn -0.0089 0.0469 0.9989
vn 0.5507 -0.0390 0.8338
vn 0.5455 -0.0911 0.8332
vn 0.0127 0.0535 0.9985
vn -0.5311 0.1676 -0.8306
vn -0.9190 0.2590 -0.2972
vn -0.9029 0.3199 -0.2872
vn -0.5573 0.1959 -0.8068
vn 0.9474 -0.1105 0.3003
vn 0.9297 -0.1067 -0.3525
vn 0.9203 -0.2178 -0.3248
vn 0.9059 -0.2949 0.3038
vn 0.2045 0.6349 0.7450
vn 0.4251 0.9041 0.0440
vn 0.5125 0.8578 0.0395
vn 0.2448 0.6791 0.6920
vn -0.8635 0.4065 0.2985
vn -0.5465 0.2934 0.7844
vn -0.5419 0.3102 0.7811
vn -0.8393 0.4731 0.2679
vn 0.7485 -0.3162 -0.5829
vn 0.0790 -0.0309 -0.9964
vn 0.1576 -0.0697 -0.9850
vn 0.8619 -0.2998 -0.4091
vn 0.1346 0.0091 0.9909
vn 0.6741 -0.2156 0.7065
vn 0.8674 -0.3296 0.3729
vn 0.2968 0.0423 0.9540
vn -0.5482 0.2352 -0.8026
vn -0.8723 0.3918 -0.2925
vn -0.8626 0.4094 -0.2972
vn -0.3593 0.2532 -0.8982
vn 0.3462 0.9372 -0.0424
vn -0.5968 0.0812 -0.7983
vn -0.5931 -0.0246 -0.8048
vn 0.0011 0.0734 -0.9973
vn -0.0090 0.1401 -0.9901
vn -0.2356 -0.7454 -0.6236
vn -0.5272 -0.8496 -0.0186
vn -0.7209 -0.6887 -0.0778
vn -0.3583 -0.6557 -0.6646
vn -0.8936 0.2423 0.3778
vn -0.4988 0.1400 0.8553
vn -0.5619 0.2207 0.7972
vn -0.8910 0.3147 0.3273
vn -0.3513 -0.3874 -0.8524
vn -0.7271 -0.6531 -0.2116
vn -0.5580 -0.8269 -0.0705
vn -0.2689 -0.6211 -0.7362
vn 0.4986 0.4607 -0.7343
vn 0.1985 -0.1924 -0.9610
vn 0.1587 -0.2432 -0.9569
vn 0.5998 0.3579 -0.7157
vn -0.6267 -0.4891 0.6067
vn -0.2232 0.0369 0.9741
vn -0.2193 0.1032 0.9702
vn -0.5815 -0.5750 0.5756
vn 0.2867 0.5719 -0.7686
vn -0.0079 0.0159 -0.9998
vn 0.1515 -0.0257 -0.9881
vn 0.5044 0.5442 -0.6704
vn -0.7973 -0.2643 0.5427
vn -0.2807 0.1879 0.9412
vn -0.2406 0.2188 0.9456
vn -0.6550 0.0476 0.7541
vn 0.4504 0.5411 0.7101
vn 0.8328 0.5516 0.0473
vn 0.8544 0.5185 0.0328
vn 0.2289 0.5170 0.8248
vn 0.1375 0.7130 0.6875
vn 0.4845 0.8744 -0.0250
vn 0.6841 0.7292 0.0140
vn 0.2631 0.6450 0.7175
vn -0.5754 -0.5835 0.5731
vn -0.3139 0.0948 0.9447
vn -0.3383 0.0965 0.9361
vn -0.6951 -0.4514 0.5595
vn -0.8968 -0.4263 -0.1180
vn -0.4381 0.8603 -0.2608
vn 0.4928 0.1312 -0.8602
vn 0.7150 0.2652 -0.6469
vn 0.1626 -0.1699 -0.9719
vn 0.1594 -0.1554 -0.9749
vn -0.4770 -0.4864 -0.7321
vn -0.8598 -0.4962 -0.1206
vn -0.3445 -0.2977 -0.8904
vn -0.5635 0.7813 -0.2684
vn -0.1876 0.2962 -0.9365
vn -0.4388 0.4609 0.7714
vn -0.9495 -0.0962 -0.2988
vn 0.9337 -0.3468 -0.0893
vn 0.5891 0.0790 0.8042
vn 0.9395 0.1785 -0.2925
vn 0.5810 0.1477 -0.8004
vn -0.9401 -0.1271 0.3164
vn 0.9391 0.1499 0.3092
vn 0.5625 0.0630 -0.8244
vn 0.9408 -0.0295 -0.3376
vn -0.0434 0.1764 -0.9834
vn -0.9339 0.2180 0.2832
vn -0.9162 0.2655 -0.3001
vn -0.6159 0.1307 0.7769
vn 0.9492 -0.0843 0.3031
vn 0.5726 -0.0617 0.8175
vn -0.5859 0.2442 -0.7727
vn -0.0217 0.0132 0.9997
usemtl None
s 1
f 160/1/1 75/2/2 3/3/3 46/4/4
f 159/5/5 111/6/6 7/7/7 79/8/8
f 158/9/9 60/10/10 2/11/11 113/12/12
f 157/13/13 99/14/14 6/15/15 58/16/16
f 156/17/17 120/18/18 10/19/19 92/20/20
f 155/21/21 77/22/22 2/11/11 60/10/10
f 154/23/23 107/24/24 6/15/15 99/14/14
f 153/25/25 56/26/26 10/19/19 120/18/18
f 152/27/27 119/28/28 13/29/29 90/30/30
f 151/31/31 57/32/32 16/33/33 86/34/34
f 150/35/35 44/36/36 18/37/37 121/38/38
f 149/39/39 55/40/40 20/41/41 74/42/42
f 148/43/43 68/44/44 17/45/45 67/46/46
f 147/47/47 91/48/48 19/49/49 85/50/50
f 146/51/51 98/52/52 21/53/53 101/54/54
f 145/55/55 84/56/56 23/57/57 43/58/58
f 144/59/59 73/60/60 26/61/61 45/62/62
f 143/63/63 105/64/64 22/65/65 64/66/66
f 142/67/67 61/68/68 27/69/69 93/70/70
f 141/71/71 66/72/72 29/73/73 122/74/74
f 140/75/75 72/76/76 31/77/77 59/78/78
f 139/79/79 114/80/80 32/81/81 97/82/82
f 138/83/83 78/84/84 30/85/85 89/86/86
f 23/57/57 64/66/66 114/80/80
f 137/87/87 97/88/82 32/89/81 59/90/78
f 136/91/88 102/92/89 15/93/90 71/94/91
f 135/95/92 76/96/93 35/97/94 63/98/95
f 134/99/96 94/100/97 24/101/98 49/102/99
f 133/103/100 70/104/101 34/105/102 48/106/103
f 132/107/104 110/108/105 36/109/106 53/110/107
f 131/111/108 123/112/109 28/113/110 88/114/111
f 130/115/112 109/116/113 33/117/114 117/118/115
f 129/119/116 112/120/117 39/121/118 106/122/119
f 128/123/120 103/124/121 41/125/122 65/126/123
f 127/127/124 54/128/125 37/129/126 80/130/127
f 126/131/128 51/132/129 38/133/130 116/134/131
f 40/135/132 106/136/119 96/137/133
f 41/138/122 115/139/134 96/137/133
f 125/140/135 87/141/136 42/142/137 115/143/134
f 124/144/138 104/145/139 40/146/132 69/147/140
f 87/141/136 124/144/138 69/147/140 42/142/137
f 36/109/106 63/98/95 124/144/138 87/141/136
f 63/98/95 35/97/94 104/145/139 124/144/138
f 103/124/121 125/140/135 115/143/134 41/125/122
f 37/129/126 53/110/107 125/140/135 103/124/121
f 53/110/107 36/109/106 87/141/136 125/140/135
f 96/137/133 69/148/140 40/135/132
f 96/137/133 115/139/134 69/148/140
f 115/139/134 42/149/137 69/148/140
f 96/137/133 65/150/123 41/138/122
f 96/137/133 106/136/119 65/150/123
f 106/136/119 39/151/118 65/150/123
f 76/152/93 126/131/128 116/134/131 35/153/94
f 34/154/102 88/114/111 126/131/128 76/152/93
f 88/114/111 28/113/110 51/132/129 126/131/128
f 51/132/129 127/127/124 80/130/127 38/133/130
f 28/113/110 93/70/70 127/127/124 51/132/129
f 93/70/70 27/69/69 54/128/125 127/127/124
f 112/120/117 128/123/120 65/126/123 39/121/118
f 38/133/130 80/130/127 128/123/120 112/120/117
f 80/130/127 37/129/126 103/124/121 128/123/120
f 104/155/139 129/119/116 106/122/119 40/156/132
f 35/153/94 116/134/131 129/119/116 104/155/139
f 116/134/131 38/133/130 112/120/117 129/119/116
f 61/68/68 130/115/112 117/118/115 27/69/69
f 25/157/141 47/158/142 130/115/112 61/68/68
f 47/158/142 20/159/41 109/116/113 130/115/112
f 70/160/101 131/111/108 88/114/111 34/154/102
f 19/161/49 121/162/38 131/111/108 70/160/101
f 121/162/38 18/163/37 123/112/109 131/111/108
f 54/128/125 132/107/104 53/110/107 37/129/126
f 27/69/69 117/118/115 132/107/104 54/128/125
f 117/118/115 33/117/114 110/108/105 132/107/104
f 109/116/113 133/103/100 48/106/103 33/117/114
f 20/159/41 85/164/50 133/103/100 109/116/113
f 85/164/50 19/165/49 70/104/101 133/103/100
f 73/166/60 134/99/96 49/102/99 26/167/61
f 25/168/141 82/169/143 134/99/96 73/166/60
f 82/169/143 18/37/37 94/100/97 134/99/96
f 110/108/105 135/95/92 63/98/95 36/109/106
f 33/117/114 48/106/103 135/95/92 110/108/105
f 48/106/103 34/105/102 76/96/93 135/95/92
f 111/6/6 136/91/88 71/94/91 7/7/7
f 6/170/15 107/171/24 136/91/88 111/6/6
f 107/171/24 14/172/144 102/92/89 136/91/88
f 89/173/86 137/87/87 59/90/78 31/174/77
f 30/175/85 122/176/74 137/87/87 89/173/86
f 122/176/74 29/177/73 97/88/82 137/87/87
f 114/80/80 81/178/145 32/81/81
f 114/80/80 64/66/66 81/178/145
f 64/66/66 22/65/65 81/178/145
f 72/76/76 138/83/83 89/86/86 31/77/77
f 21/53/53 45/62/62 138/83/83 72/76/76
f 45/62/62 26/61/61 78/84/84 138/83/83
f 66/72/72 139/79/79 97/82/82 29/73/73
f 24/101/98 43/58/58 139/79/79 66/72/72
f 43/58/58 23/57/57 114/80/80 139/79/79
f 81/178/145 140/75/75 59/78/78 32/81/81
f 22/65/65 101/54/54 140/75/75 81/178/145
f 101/54/54 21/53/53 72/76/76 140/75/75
f 78/179/84 141/71/71 122/74/74 30/180/85
f 26/167/61 49/102/99 141/71/71 78/179/84
f 49/102/99 24/101/98 66/72/72 141/71/71
f 123/112/109 142/67/67 93/70/70 28/113/110
f 18/163/37 82/181/143 142/67/67 123/112/109
f 82/181/143 25/157/141 61/68/68 142/67/67
f 84/56/56 143/63/63 64/66/66 23/57/57
f 17/45/45 86/34/34 143/63/63 84/56/56
f 86/34/34 16/33/33 105/64/64 143/63/63
f 98/52/52 144/59/59 45/62/62 21/53/53
f 20/41/41 47/182/142 144/59/59 98/52/52
f 47/182/142 25/183/141 73/60/60 144/59/59
f 94/100/97 145/55/55 43/58/58 24/101/98
f 18/37/37 67/46/46 145/55/55 94/100/97
f 67/46/46 17/45/45 84/56/56 145/55/55
f 105/64/64 146/51/51 101/54/54 22/65/65
f 16/33/33 74/42/42 146/51/51 105/64/64
f 74/42/42 20/41/41 98/52/52 146/51/51
f 55/40/40 147/47/47 85/50/50 20/41/41
f 15/93/90 102/92/89 147/47/47 55/40/40
f 102/92/89 14/172/144 91/48/48 147/47/47
f 44/36/36 148/43/43 67/46/46 18/37/37
f 13/29/29 119/28/28 148/43/43 44/36/36
f 119/28/28 12/184/146 68/44/44 148/43/43
f 57/32/32 149/39/39 74/42/42 16/33/33
f 11/185/147 62/186/148 149/39/39 57/32/32
f 62/186/148 15/93/90 55/40/40 149/39/39
f 91/187/48 150/35/35 121/38/38 19/188/49
f 14/189/144 50/190/149 150/35/35 91/187/48
f 50/190/149 13/29/29 44/36/36 150/35/35
f 68/44/44 151/31/31 86/34/34 17/45/45
f 12/184/146 108/191/150 151/31/31 68/44/44
f 108/191/150 11/185/147 57/32/32 151/31/31
f 75/2/2 152/27/27 90/30/30 3/3/3
f 2/11/11 77/22/22 152/27/27 75/2/2
f 77/22/22 12/184/146 119/28/28 152/27/27
f 71/94/91 153/25/25 120/18/18 7/7/7
f 15/93/90 62/186/148 153/25/25 71/94/91
f 62/186/148 11/185/147 56/26/26 153/25/25
f 90/30/30 154/23/23 99/14/14 3/3/3
f 13/29/29 50/190/149 154/23/23 90/30/30
f 50/190/149 14/189/144 107/24/24 154/23/23
f 56/26/26 155/21/21 60/10/10 10/19/19
f 11/185/147 108/191/150 155/21/21 56/26/26
f 108/191/150 12/184/146 77/22/22 155/21/21
f 95/192/151 156/17/17 92/20/20 9/193/152
f 8/194/153 79/8/8 156/17/17 95/192/151
f 79/8/8 7/7/7 120/18/18 156/17/17
f 52/195/154 157/13/13 58/16/16 5/196/155
f 4/197/156 46/4/4 157/13/13 52/195/154
f 46/4/4 3/3/3 99/14/14 157/13/13
f 100/198/157 158/9/9 113/12/12 1/199/158
f 9/193/152 92/20/20 158/9/9 100/198/157
f 92/20/20 10/19/19 60/10/10 158/9/9
f 118/200/159 159/5/5 79/8/8 8/194/153
f 5/201/155 58/202/16 159/5/5 118/200/159
f 58/202/16 6/170/15 111/6/6 159/5/5
f 83/203/160 160/1/1 46/4/4 4/197/156
f 1/199/158 113/12/12 160/1/1 83/203/160
f 113/12/12 2/11/11 75/2/2 160/1/1
