# Blender v2.78 (sub 0) OBJ File: ''
# www.blender.org
mtllib Apple_Tree_Apples_s_02.mtl
o Apple_Tree_Apples_s_02
v 0.445748 2.397003 -0.831407
v 0.237199 2.070303 -0.843042
v -0.194016 2.415714 -0.861897
v -0.295290 2.746278 -0.631986
v 0.251196 2.739850 -0.684837
v 0.207160 3.007894 -0.516705
v 0.832837 2.526282 -0.600589
v 1.023556 2.632017 -0.272689
v 1.061250 2.243374 -0.363981
v 0.687181 2.920747 -0.275064
v 0.789148 1.870656 -0.637809
v 0.222672 1.790941 -0.737175
v -0.111965 3.156690 0.081026
v -0.493590 2.925257 -0.349670
v -0.655494 2.918831 0.015599
v 0.074018 3.092093 -0.239956
v -0.248611 3.007500 0.423515
v -0.833166 2.581109 0.377719
v -0.390377 2.845436 0.689183
v 0.426212 3.077240 0.398788
v 0.684248 2.834446 0.593825
v 0.841303 2.965326 0.221328
v 0.137362 2.653639 0.913287
v 0.525286 3.084500 -0.010738
v -0.542020 2.175884 0.804001
v -0.916715 2.077812 0.326807
v -0.454473 1.769767 0.708182
v -0.721454 1.628277 0.056939
v -0.336336 1.516055 0.517876
v 0.117433 1.965222 1.024328
v 0.684754 1.846414 0.720737
v 0.554844 2.208813 1.020509
v 0.196280 1.463558 0.550010
v -0.475064 2.551528 0.765055
v -0.168598 1.341379 -0.175770
v -0.646547 1.624207 -0.469520
v 0.063959 1.546632 -0.537967
v -0.512304 2.021728 -0.757784
v 0.521544 1.315866 -0.076240
v 0.876400 1.608449 -0.148262
v 0.726099 1.518808 0.262641
v -0.274468 1.352345 0.235510
v 1.009683 1.862354 0.051432
v 1.114041 2.252044 0.142727
v 1.010650 2.659477 0.204105
v 0.831504 2.335892 0.703325
v -0.894429 1.914898 -0.231970
v -0.990376 2.278324 -0.164598
v -0.861283 2.648936 -0.108987
v -0.673294 2.496320 -0.577187
v 0.002022 0.036430 -0.046672
v 0.017510 0.377195 -0.034267
v 0.052748 0.377167 0.000944
v 0.048637 0.036430 -0.000056
v 0.002022 0.036430 0.046559
v 0.017537 0.377202 0.036182
v -0.017700 0.377230 0.000970
v -0.044594 0.036430 -0.000056
v 0.022123 0.714741 0.019389
v -0.005053 0.715137 0.046866
v -0.005352 0.715053 -0.007791
v -0.032528 0.715449 0.019686
v -0.002174 1.008567 -0.008765
v 0.040482 0.989352 0.029020
v 0.002757 0.999892 0.065500
v -0.041379 0.989661 0.034667
v 0.012270 1.065111 0.025159
v -0.068322 1.161048 0.097447
v -0.078407 1.145607 0.118741
v -0.098547 1.137722 0.101755
v -0.086606 1.149058 0.080091
v 0.186239 1.090721 0.050633
v -0.250342 1.283901 0.229897
v -0.263230 1.290664 0.185922
v -0.244447 1.314483 0.207707
v -0.232066 1.292255 0.236544
v 0.196161 1.103758 0.020823
v 0.431773 1.296566 0.016341
v 0.436011 1.288068 0.043552
v 0.183167 1.119332 0.041194
v 0.408613 1.300049 0.031542
v 0.049144 1.040382 -0.008623
v 0.091929 1.289480 -0.179149
v 0.065549 1.301560 -0.164517
v 0.447945 1.333627 0.031662
v 0.584195 1.409067 0.047349
v 0.591779 1.398850 0.035754
v 0.594681 1.398571 0.053523
v -0.278707 1.532073 0.471904
v -0.280841 1.506642 0.468963
v -0.277374 1.329835 0.228590
v -0.293133 1.531738 0.475661
v -0.330722 1.438440 0.091588
v -0.345370 1.442510 0.101609
v -0.344272 1.430960 0.088401
v 0.065023 1.282340 -0.189012
v 0.098313 1.587171 -0.313619
v 0.079661 1.590707 -0.306613
v 0.083301 1.585649 -0.323878
v 0.400205 1.391850 -0.037199
v 0.405932 1.404721 -0.025047
v 0.393998 1.396772 -0.026516
v 0.547654 2.608016 -0.702674
v 0.599761 2.611865 -0.659027
v 0.620115 2.631444 -0.699590
v 0.587080 2.634378 -0.742446
v 0.562814 2.600386 -0.776976
v 0.524861 2.569074 -0.754268
v 0.642496 2.609554 -0.773517
v 0.669830 2.613229 -0.711131
v 0.692970 2.567122 -0.727722
v 0.679720 2.552590 -0.778217
v 0.635669 2.536065 -0.805109
v 0.596969 2.573739 -0.809533
v 0.670270 2.492606 -0.747148
v 0.690362 2.526777 -0.691638
v 0.656703 2.492533 -0.675338
v 0.633259 2.461463 -0.707244
v 0.595107 2.464408 -0.746316
v 0.617500 2.487286 -0.790040
v 0.558330 2.521215 -0.789508
v 0.544407 2.484171 -0.740867
v 0.522212 2.526905 -0.726233
v 0.659594 2.579409 -0.660313
v -0.637525 1.814662 -0.663534
v -0.593536 1.846451 -0.700428
v -0.616770 1.813905 -0.733489
v -0.653108 1.783926 -0.711747
v -0.655606 1.745297 -0.677198
v -0.642918 1.759212 -0.628851
v -0.540478 1.822683 -0.730177
v -0.558824 1.845170 -0.666508
v -0.514306 1.826202 -0.670446
v -0.492151 1.782057 -0.686330
v -0.504838 1.768142 -0.734677
v -0.547014 1.752321 -0.760424
v -0.584068 1.788392 -0.764660
v -0.513886 1.710712 -0.704929
v -0.494649 1.743429 -0.651781
v -0.530987 1.713449 -0.630039
v -0.554220 1.680903 -0.663100
v -0.585850 1.683712 -0.704133
v -0.564410 1.705618 -0.745996
v -0.607279 1.704672 -0.633352
v -0.563689 1.738963 -0.598868
v -0.602833 1.767422 -0.602719
v -0.633450 1.701151 -0.693083
v -0.621062 1.738103 -0.745488
v -0.522048 1.785150 -0.619834
v -0.500337 1.753113 0.697182
v -0.491496 1.723788 0.764083
v -0.448417 1.763265 0.765747
v -0.444832 1.794287 0.722535
v -0.479550 1.751635 0.635654
v -0.486232 1.700357 0.629971
v -0.515539 1.683792 0.677759
v -0.504670 1.675102 0.734534
v -0.342624 1.651342 0.700411
v -0.347940 1.676835 0.637984
v -0.334671 1.721635 0.665628
v -0.327422 1.720662 0.719834
v -0.356728 1.704098 0.767623
v -0.374908 1.648554 0.766469
v -0.412980 1.615935 0.736411
v -0.398950 1.608558 0.680146
v -0.394543 1.641190 0.631847
v -0.437337 1.680507 0.788725
v -0.397438 1.742223 0.785120
v -0.468966 1.630118 0.745432
v -0.469859 1.626404 0.671953
v -0.448932 1.657041 0.615395
v -0.374329 1.776369 0.732605
v -0.689129 2.854890 0.395574
v -0.681331 2.824131 0.464582
v -0.636559 2.865160 0.466311
v -0.631979 2.899075 0.416114
v -0.617397 2.891408 0.357638
v -0.656966 2.857507 0.326398
v -0.674006 2.800154 0.325893
v -0.692533 2.785345 0.380031
v -0.693168 2.773905 0.434567
v -0.592083 2.824298 0.303266
v -0.559211 2.876667 0.348262
v -0.522103 2.829915 0.359588
v -0.536539 2.791940 0.323910
v -0.638155 2.763351 0.307265
v -0.625043 2.779150 0.490193
v -0.565054 2.747289 0.472074
v -0.541265 2.803668 0.468262
v -0.583576 2.843292 0.486446
v -0.657915 2.726780 0.445198
v -0.602231 2.715391 0.444076
v -0.663336 2.727389 0.369396
v -0.558282 2.880527 0.424629
v -0.512064 2.827756 0.420033
v 0.747717 2.149471 0.740383
v 0.770423 2.149471 0.798011
v 0.784171 2.200095 0.784264
v 0.770673 2.213593 0.738634
v 0.770423 2.085100 0.733639
v 0.784171 2.098846 0.784264
v 0.841538 2.149471 0.646562
v 0.839790 2.213593 0.669517
v 0.885419 2.200096 0.683015
v 0.899167 2.149471 0.669267
v 0.885419 2.098847 0.683015
v 0.834795 2.085100 0.669267
v 0.921873 2.149471 0.733639
v 0.899167 2.213843 0.733639
v 0.885419 2.200095 0.784264
v 0.899167 2.149471 0.798011
v 0.885419 2.098847 0.784264
v 0.899167 2.085100 0.733639
v 0.834795 2.149471 0.820717
v 0.834795 2.213843 0.798011
v 0.834795 2.085100 0.798011
v 0.834795 2.062393 0.733639
v 0.787542 2.092104 0.686387
v 0.834795 2.236548 0.733639
v -0.643091 2.750566 0.470775
v 0.520322 1.371003 0.041630
v 0.923914 2.833806 0.213225
v 0.840664 2.229566 0.699331
v 0.395929 1.393135 -0.032768
v -0.337261 1.441674 0.097631
v 0.834795 2.228567 0.767511
v -0.328538 1.720207 0.689223
v 0.312894 1.194253 0.020517
v 0.315756 3.102947 -0.118544
v -0.624604 2.897051 0.384918
v -0.089495 1.140633 0.111960
v -0.528923 2.808863 0.338546
v -0.520203 1.796672 -0.734750
v 0.627540 2.512340 -0.799649
v 0.663671 2.582387 -0.778293
v -0.545785 1.724629 -0.613916
v 0.543579 2.586466 -0.767229
v -0.585863 1.720027 -0.613002
v 0.665645 1.544433 -0.376726
v -0.446884 1.780293 0.743970
v -0.532377 1.692614 -0.683974
v -0.564255 1.769427 -0.764176
v -0.646726 1.801840 -0.685509
v 0.683696 2.508067 -0.719041
v -0.356019 1.647557 0.735244
v 0.110558 2.291651 1.024005
v -0.947863 2.085667 -0.206499
v -0.142246 2.942380 -0.443215
v -0.603746 1.763399 -0.758478
v 0.024537 0.859006 0.025142
v 0.743937 1.467242 -0.131232
v 0.893136 2.091130 0.761012
v 0.237603 1.916367 -0.792042
v 0.489971 2.843085 -0.510304
v 0.893136 2.176844 0.675298
v -0.267873 1.335910 0.224383
v 0.010549 0.190071 0.042663
v -0.177978 1.841246 0.889114
v 0.495027 3.100157 0.181306
v 0.901204 2.805024 -0.037337
v 0.018781 0.985761 0.008235
v -0.844778 1.852695 0.202547
v 1.058395 2.051452 -0.183865
v 0.198508 1.099175 0.034156
v 0.755699 2.149471 0.767511
v -0.568838 2.835883 0.393562
v -0.656276 2.780815 0.315152
v -0.761195 2.125302 0.589101
v -0.491027 1.752480 0.660071
v -0.621692 1.762415 -0.612161
v 0.356907 2.221724 -0.848782
v -0.688722 2.841122 0.431822
v -0.583967 2.727321 0.457047
v -0.336505 1.433716 0.088531
v 0.409105 1.292855 0.020996
v -0.339160 1.702537 0.651085
v -0.173692 1.206015 0.158816
v -0.396076 1.624161 0.653624
v -0.560154 2.822772 0.478569
v -0.071761 1.154053 0.109485
v 0.576417 2.547636 -0.803076
v -0.497346 2.622611 -0.636272
v 0.036990 0.549550 0.009788
v 0.404192 1.398436 -0.031679
v 0.043340 1.013904 0.012059
v -0.480190 1.453339 0.137072
v -0.469729 1.745603 0.766405
v 0.673666 2.505672 -0.682560
v 0.182968 1.302939 -0.109797
v -0.526138 1.759685 -0.749752
v 0.867657 1.694607 -0.351177
v -0.655412 2.801791 0.480974
v 0.578269 2.588709 -0.793816
v 0.526592 1.351139 0.048890
v 0.421939 1.369231 0.001456
v 0.877038 1.680920 0.199310
v -0.556480 2.882086 0.385716
v -0.609010 1.690360 -0.699304
v -0.002994 0.377213 -0.019548
v -0.942850 2.475956 -0.122647
v -0.005481 0.859496 0.055531
v 0.050206 1.345513 0.166628
v 0.820200 1.548568 0.043710
v -0.172002 2.793890 0.798361
v 0.665945 2.596160 -0.682166
v 0.079664 1.284513 -0.185826
v -0.002981 0.377216 0.021475
v 0.644224 2.170032 -0.776060
v -0.422141 1.645231 0.622612
v 1.113859 2.251397 -0.130444
v -0.117679 2.052808 -0.840584
v 0.036346 0.993319 0.049963
v 0.834795 2.070375 0.699768
v -0.513274 1.806879 -0.643786
v -0.000800 1.053602 0.003085
v -0.332545 2.909053 0.587774
v -0.155966 1.214848 0.169026
v -0.513004 1.963103 0.783789
v 0.091392 1.077784 0.037915
v 0.034296 1.141188 -0.099084
v 0.970773 2.078341 -0.498372
v -0.424479 1.754472 0.776525
v 0.564265 2.622146 -0.720644
v 0.569017 2.472224 -0.746620
v 1.055831 2.448099 -0.330524
v 0.143571 2.418761 -0.863163
v -0.454702 1.653004 0.770041
v -0.286237 1.533306 0.472629
v 0.594682 1.397664 0.044294
v 0.166859 3.141922 0.241171
v 0.872675 2.738903 0.431083
v -0.459257 1.641803 0.639433
v -0.554798 1.729605 -0.755197
v -0.491572 1.763874 -0.669809
v -0.242995 1.300192 0.250051
v 0.699787 1.650603 0.489763
v -0.364063 1.677418 0.768567
v 0.644305 2.624500 -0.704633
v -0.667541 2.827650 0.324478
v -0.027036 0.036430 0.029001
v -0.853945 1.782629 -0.099617
v -0.539594 1.760382 -0.605637
v -0.561893 1.807327 -0.750526
v 0.658468 2.614295 -0.742993
v -0.235987 1.345086 0.061652
v 0.400013 1.401772 -0.024315
v -0.264084 1.429625 0.352946
v -0.483633 1.729543 0.632133
v -0.027036 0.036430 -0.029114
v 0.646178 2.476820 -0.687783
v -0.501031 1.725515 -0.678019
v -0.619081 1.833920 -0.683826
v -0.912394 2.312043 0.362622
v -0.409510 2.833565 -0.503998
v -0.573176 1.848125 -0.682482
v 0.958577 2.494803 0.452939
v 0.395319 2.390502 1.004865
v -0.023420 0.549926 0.009945
v -0.242873 1.754271 -0.678175
v 0.408182 2.989839 -0.420762
v 0.673187 3.034072 0.315080
v 0.893136 2.176844 0.791980
v 0.754700 2.183780 0.739509
v 0.407144 1.356380 0.000703
v 0.097760 1.451714 -0.254472
v 0.840664 2.183780 0.653544
v 0.053505 0.190071 -0.000294
v -0.665902 2.724096 0.408127
v -0.618739 2.795004 0.299656
v -0.275863 1.305408 0.203814
v -0.021125 0.715279 0.003789
v 0.091038 3.056734 0.437094
v 0.416591 1.349200 -0.013023
v -0.781569 2.786479 -0.041796
v -0.023001 2.900536 -0.572164
v -0.531011 2.852733 0.422724
v -0.470926 1.676712 0.621614
v -0.028427 0.989964 0.015380
v 0.316014 1.190251 0.046619
v 0.612643 2.036399 0.924024
v 0.431166 1.319529 0.032714
v 0.945938 2.606170 -0.440607
v -0.663449 2.880415 0.406059
v -0.627553 1.730682 -0.628778
v -0.506392 1.738519 -0.721637
v 0.101484 1.039021 0.043474
v -0.076446 1.156085 0.087057
v 0.066219 1.153420 -0.091318
v -0.233656 2.596634 0.860210
v 0.418618 1.289785 0.040296
v -0.038579 1.074847 0.089709
v -0.792814 1.770725 -0.379045
v -0.394479 1.629748 0.751691
v -0.250969 1.296705 0.182670
v -0.591653 2.760647 0.482279
v -0.431399 2.703574 0.732597
v -0.683696 2.793126 0.350638
v 0.744812 2.602892 0.663291
v -0.464292 2.439020 -0.754047
v 0.573512 2.617882 -0.761541
v 0.114124 1.058580 0.012213
v -0.569301 2.864524 0.458427
v 0.862168 2.091130 0.791981
v 0.025008 1.024924 -0.012836
v 0.079375 1.588284 -0.315534
v 0.868667 2.149471 0.812736
v -0.570894 1.680618 -0.684880
v -0.501029 1.803695 -0.678788
v 0.530253 2.506447 -0.731651
v 0.754700 2.115163 0.739509
v 0.633283 1.390475 0.128126
v 0.893136 2.207812 0.761012
v 0.290664 2.913925 0.660308
v 0.893136 2.091131 0.706267
v 0.062825 1.292192 -0.176592
v -0.120774 1.621675 0.708845
v 0.524867 1.982335 -0.785737
v -0.601972 1.802726 -0.749611
v -0.268707 1.394710 0.350282
v -0.213350 2.381440 0.914789
v -0.595001 2.751659 0.557808
v 0.454217 1.640812 0.689563
v -0.717723 1.917008 0.531396
v 0.189073 1.109105 0.048534
v -0.678359 2.750566 0.440391
v -0.312724 1.383089 0.154653
v 0.345457 2.571856 -0.777554
v -0.483000 2.971769 0.212119
v 0.973899 2.369717 -0.509007
v -0.635718 2.276464 -0.683880
v -0.289605 1.524819 0.479630
v 0.006966 2.235715 -0.874711
v -0.652916 2.741885 0.334478
v -0.589597 2.886271 0.352275
v 0.613347 3.023958 -0.127754
v -0.757358 2.775726 0.183181
v -0.894534 2.614465 0.103553
v -0.557725 2.806962 0.313302
v -0.278794 1.525730 0.477525
v -0.675901 2.858684 0.359111
v -0.406045 1.610506 0.710162
v -0.255458 1.276115 0.203544
v -0.552860 2.776073 0.474307
v -0.476021 1.777444 0.713950
v 0.884886 1.841727 0.385794
v 0.800923 2.070375 0.733639
v -0.694057 2.778934 0.409398
v 0.868667 2.228567 0.733639
v 0.449170 1.325613 0.021620
v -0.027910 0.989873 0.053641
v -0.331033 1.685500 0.710705
v 0.645357 2.487287 -0.770819
v 0.688455 2.560549 -0.752119
v 0.995071 2.268525 0.441872
v -0.525025 2.818342 0.446970
v -0.511711 1.678692 0.707999
v 0.571745 2.613486 -0.677883
v -0.541230 1.696697 -0.644817
v 0.605608 2.473594 -0.767860
v -0.599290 1.796446 -0.618841
v -0.593401 1.719844 -0.748658
v 0.538474 2.545181 -0.773997
v 0.074688 1.458996 -0.244125
v -0.635186 1.800577 -0.724156
v -0.020949 0.715329 0.035461
v 1.028518 2.651734 -0.053386
v -0.656185 1.763481 -0.693719
v 1.068684 2.048596 0.119779
v 0.893136 2.207812 0.706267
v -0.489306 1.652870 0.740555
v -0.538172 1.839178 -0.669236
v 0.159063 1.695659 -0.667360
v 0.763802 2.739078 -0.464394
v 0.913891 2.183342 0.733639
v 0.868667 2.149471 0.654543
v 0.038041 0.377185 0.021462
v 0.834795 2.070375 0.767511
v -0.611680 2.856021 0.477514
v -0.428174 1.473055 -0.349787
v -0.383703 1.762652 0.758161
v 0.152790 3.043696 -0.394931
v 0.776454 2.091130 0.761012
v 0.010549 0.190071 -0.043251
v 0.962968 1.868477 -0.308450
v 0.708731 3.032640 0.092794
v 0.392854 3.044615 -0.257632
v -0.434751 1.613560 0.675041
v -0.267973 1.306302 0.235534
v 0.010720 0.714912 0.035286
v -0.219120 2.078016 0.948943
v -0.703037 2.784416 -0.253563
v 0.779420 2.086229 0.706704
v 0.370329 2.114790 1.045767
v 0.785125 2.916191 0.407570
v 0.807422 2.091130 0.791981
v -0.035868 0.859881 0.025509
v -0.224746 3.027235 -0.298603
v -0.374902 1.722480 0.777540
v -0.609614 2.715846 -0.474724
v -0.320896 3.068778 -0.138592
v 0.221316 2.894424 -0.591104
v -0.603974 2.811872 0.492479
v -0.471593 1.624905 0.709394
v 0.300934 1.206757 0.038670
v -0.341218 1.712108 0.746132
v -0.636625 2.877053 0.341757
v 0.614925 2.625423 -0.759471
v 0.008183 1.040087 0.055594
v -0.656654 2.554404 0.619656
v 0.609614 2.622257 -0.678046
v 0.935731 2.040812 0.444886
v -0.369090 1.655629 0.634477
v -0.501742 1.692347 0.651462
v 0.673499 2.258645 0.897154
v -0.095366 1.874455 -0.769511
v -0.629730 1.717494 -0.720815
v -0.580881 1.689477 -0.646800
v 0.092293 1.586031 -0.320273
v -0.622571 1.700132 -0.662576
v -0.512571 1.726777 -0.639372
v 0.006706 0.549716 -0.020340
v 0.620129 2.593515 -0.794771
v 0.630605 2.598444 -0.655610
v 0.657472 2.543756 -0.793962
v 0.076743 1.447941 -0.265300
v 0.372737 1.342039 0.224007
v 0.587220 2.502145 -0.792819
v 1.085034 2.459405 0.176987
v 0.848728 2.224300 -0.658876
v 0.320330 1.410062 -0.333389
v 0.893136 2.122098 0.791980
v 0.913891 2.149471 0.699768
v -0.261839 1.397562 0.350918
v -0.329480 1.578642 -0.530441
v -0.741100 2.352796 0.602437
v 0.913891 2.149471 0.767511
v 0.862168 2.207812 0.675298
v -0.507683 1.766305 -0.632892
v -0.033509 2.895885 0.673935
v 0.037102 1.170850 -0.070045
v 0.038028 0.377181 -0.019561
v -0.005850 0.859392 -0.004880
v 0.463961 2.766100 0.759052
v 0.164419 1.708150 0.834394
v 0.565479 2.962384 0.532793
v 0.645242 2.450378 -0.735031
v -0.528741 1.560579 0.333592
v -0.410798 3.054040 0.039053
v -0.042277 1.076615 0.036682
v 0.562066 2.658888 -0.645266
v -0.500144 1.697933 0.749528
v -0.046770 2.741575 -0.688718
v -0.658708 2.846804 0.466995
v -0.640074 1.761049 -0.730636
v 0.080011 1.296675 -0.170260
v 0.087948 1.040623 0.057375
v -0.283506 1.431711 0.361738
v -0.064277 1.068859 0.064143
v 0.807896 2.944122 -0.003432
v 0.679980 2.554853 -0.674676
v 0.188876 1.112693 0.029324
v -0.484645 1.459337 -0.108853
v 0.807422 2.207812 0.791981
v -0.574035 2.852882 0.322685
v -0.694282 2.820780 0.387458
v -0.232166 1.301397 0.227435
v 0.229696 3.141087 0.045388
v 0.650957 2.473705 -0.725262
v -0.028765 1.101300 0.063380
v -0.499277 1.740000 0.732311
v -0.537738 1.705619 -0.727593
v 0.006864 0.549760 0.040072
v -0.811745 2.160485 -0.482825
v -0.941849 1.990403 0.033838
v 0.604495 2.634675 -0.719699
v 0.449261 1.314878 0.040403
v -0.343683 1.664455 0.665282
v -0.067019 1.375474 0.368669
v 0.089607 1.589211 -0.308303
v 0.868667 2.070375 0.733639
v -0.575796 1.692508 -0.724760
v -0.368670 1.626512 0.689821
v -0.496474 1.775763 -0.709689
v 0.617662 2.553931 -0.809027
v 0.523440 1.352661 0.027506
v 0.862168 2.207812 0.791981
v 0.549277 2.499691 -0.763740
v 0.031080 0.036430 -0.029114
v 0.834795 2.183342 0.812736
v 0.840664 2.115163 0.653544
v -0.525185 1.827222 -0.700952
v 0.678096 2.521649 -0.764598
v 0.455056 1.646927 -0.583780
v 0.893970 2.769166 -0.278586
v -0.514829 2.832308 0.389148
v -0.311308 1.368184 0.137609
v 0.862168 2.091131 0.675298
v 0.776454 2.122098 0.791980
v -0.645400 1.787423 -0.645677
v -0.293822 1.377837 0.141721
v -0.796194 2.578899 -0.333947
v -0.032408 0.190071 -0.000294
v 0.521182 2.544642 -0.740264
v 0.776454 2.207812 0.761012
v -0.346979 1.750458 0.730186
v -0.511928 1.718955 0.686889
v -0.638696 1.713127 0.405449
v -0.466557 1.702292 0.779855
v -0.019878 3.138669 -0.086413
v 0.807859 2.086229 0.678264
v -0.152786 1.229650 0.149049
v 0.480883 1.803071 -0.719000
v -0.969313 2.417470 0.116031
v -0.279601 2.580838 -0.758559
v 0.586967 1.404469 0.039992
v -0.625473 2.842800 0.311181
v -0.417065 1.711992 0.790924
v -0.508397 2.396696 0.784064
v -0.346597 1.436520 0.095435
v -0.689624 2.797400 0.449716
v -0.713383 1.611839 -0.240854
v 0.434267 1.285378 0.031546
v -0.993093 2.193905 0.090716
v 0.944449 1.721021 -0.077616
v 0.535460 2.505543 0.855393
v -0.094180 1.142665 0.089532
v -0.634966 2.882858 0.443678
v 0.800923 2.149471 0.812736
v -0.538071 2.853021 0.353330
v -0.302509 1.431202 0.382151
v 0.683698 2.589722 -0.719845
v -0.586688 1.753469 -0.598914
v 0.799905 2.092065 0.726594
v -0.772396 1.964028 -0.496154
v 0.615690 2.460295 -0.728957
v 0.513111 1.472462 0.420528
v 0.693575 2.548131 -0.710467
v 1.100484 2.459709 -0.089802
v -0.606527 1.830657 -0.718710
v 0.834795 2.115599 0.812736
v -0.651283 1.751591 -0.653839
v -0.055445 1.407375 -0.368618
v -0.850987 2.373962 -0.398656
v -0.566875 1.837877 -0.716728
v 0.031080 0.036430 0.029001
v 0.893136 2.122098 0.675298
v 0.038448 1.059901 0.002655
v 0.010544 0.714862 0.003614
v -0.362561 2.232642 -0.843083
v -0.594770 2.893876 0.421419
v 0.913891 2.115600 0.733639
v -0.115570 1.482714 0.565190
v 0.800486 2.229566 0.739509
v -0.627155 2.718856 0.447387
v -0.173500 1.219167 0.138136
v -0.385021 1.615045 0.594971
v 0.776454 2.176844 0.791980
v -0.677831 2.752385 0.373839
v -0.496099 1.653147 0.673786
v -0.176284 3.106086 0.249067
v 0.406606 1.869756 0.920547
v -0.409118 1.790556 0.728914
v -0.405210 1.662704 0.781110
v -0.589002 2.939251 -0.162051
v -0.646727 1.723659 -0.684740
v 0.589007 1.404355 0.052339
v 0.014649 2.586236 -0.795091
v -0.439729 1.620879 0.741570
v 0.532911 2.592438 -0.730329
v 0.804173 2.221140 0.764262
v 0.865417 2.221140 0.703017
v 0.865417 2.221140 0.764262
v 0.865417 2.077802 0.764262
v 0.865417 2.077803 0.703017
v 0.804173 2.077803 0.703017
v 0.804173 2.077802 0.764262
v 0.865417 2.118849 0.805308
v 0.804173 2.118849 0.805308
v 0.804173 2.180093 0.805308
v 0.865417 2.180093 0.805308
v 0.906464 2.118849 0.703017
v 0.906464 2.118849 0.764262
v 0.906464 2.180093 0.764262
v 0.906464 2.180093 0.703017
v 0.865417 2.118849 0.661970
v 0.865417 2.180093 0.661970
v 0.763126 2.118849 0.764262
v 0.763126 2.180093 0.764262
v -0.601796 2.877243 0.451970
v -0.590205 2.893120 0.386235
v -0.532563 2.855923 0.387414
v -0.544154 2.840046 0.453150
v -0.668135 2.764377 0.342123
v -0.679726 2.748500 0.407858
v -0.610987 2.736834 0.464433
v -0.668630 2.774030 0.463254
v -0.633266 2.829455 0.482876
v -0.575624 2.792259 0.484056
v -0.641502 2.811189 0.309404
v -0.548496 2.829417 0.330206
v -0.606138 2.866614 0.329026
v -0.694657 2.810576 0.420218
v -0.683066 2.826453 0.354483
v -0.652539 2.880902 0.372293
v -0.664130 2.865025 0.438028
v -0.414969 1.774890 0.751948
v -0.359507 1.739101 0.753083
v -0.439144 1.614288 0.708895
v -0.427991 1.629565 0.645646
v -0.483453 1.665354 0.644511
v -0.494606 1.650078 0.707760
v -0.423813 1.639791 0.763939
v -0.479275 1.675581 0.762804
v -0.445249 1.728910 0.781685
v -0.389786 1.693120 0.782820
v -0.368015 1.641320 0.659060
v -0.379167 1.626043 0.722310
v -0.345141 1.679372 0.741190
v -0.333988 1.694649 0.677941
v -0.508972 1.709806 0.719653
v -0.497820 1.725083 0.656404
v -0.474946 1.763135 0.738533
v -0.502200 1.786850 -0.654488
v -0.525692 1.745350 -0.620438
v -0.603361 1.703252 -0.725333
v -0.579870 1.744753 -0.759383
v -0.622065 1.782005 -0.743090
v -0.645556 1.740504 -0.709040
v -0.596864 1.687493 -0.672474
v -0.639059 1.724745 -0.656181
v -0.605873 1.742732 -0.611363
v -0.563678 1.705480 -0.627655
v -0.529349 1.731841 -0.740264
v -0.552840 1.690340 -0.706214
v -0.519655 1.708328 -0.661396
v -0.496163 1.749828 -0.695446
v -0.584079 1.821874 -0.735872
v -0.541884 1.784622 -0.752165
v -0.508698 1.802609 -0.707347
v -0.550892 1.839861 -0.691054
v -0.651594 1.777526 -0.668082
v -0.628102 1.819026 -0.702132
v 0.638405 2.611036 -0.677448
v 0.682474 2.572128 -0.694465
v 0.576818 2.484815 -0.768458
v 0.601353 2.528161 -0.804021
v 0.557284 2.567068 -0.787004
v 0.532748 2.523723 -0.751441
v 0.654119 2.514675 -0.784053
v 0.629584 2.471330 -0.748490
v 0.664245 2.490117 -0.701680
v 0.688780 2.533461 -0.737243
v 0.596958 2.608709 -0.779466
v 0.641027 2.569802 -0.796483
v 0.675688 2.588588 -0.749673
v 0.631618 2.627495 -0.732656
v 0.550978 2.605735 -0.744226
v 0.585638 2.624521 -0.697416
v 0.073695 1.453629 -0.254735
v -0.010899 0.549834 -0.007726
v 0.410944 1.351284 -0.006858
v 0.414353 1.364052 0.002371
v 0.420376 1.359475 -0.006378
v 0.523458 1.361841 0.046887
v 0.088403 1.448987 -0.261330
v 0.087092 1.456034 -0.247832
v 0.032903 1.156257 -0.083945
v 0.051463 1.145147 -0.097506
v 0.102582 1.070105 0.022952
v -0.301634 1.372087 0.138292
v -0.313683 1.375435 0.146535
v -0.302537 1.381588 0.149156
v -0.278942 1.420695 0.364500
v -0.274320 1.432261 0.356528
v -0.262387 1.421670 0.359878
v 0.525446 1.350149 0.037884
v 0.521449 1.362812 0.033256
v 0.308069 1.198893 0.044672
v 0.053252 1.164055 -0.078995
v 0.115608 1.050533 0.024846
v 0.306080 1.201445 0.028033
v 0.092015 1.062922 0.050446
v -0.034186 1.090393 0.047774
v 0.315693 1.190923 0.033100
v -0.152762 1.223059 0.159924
v -0.164971 1.209258 0.165627
v -0.163002 1.225582 0.141886
v -0.175210 1.211780 0.147589
v -0.052763 1.070417 0.079183
v -0.054923 1.071450 0.048219
v -0.032026 1.089360 0.078738
v -0.023410 0.859669 0.007794
v 0.012078 0.859218 0.042857
v -0.023195 0.859730 0.043071
v 0.011863 0.859157 0.007580
v -0.010807 0.549860 0.027551
v 0.024377 0.549616 -0.007818
v 0.024469 0.549641 0.027459
v -0.014535 0.190071 -0.025378
v 0.035633 0.190071 0.024790
v -0.014535 0.190071 0.024790
v 0.035633 0.190071 -0.025378
vt 0.5866 0.1872
vt 0.5889 0.1859
vt 0.5893 0.1894
vt 0.5920 0.1916
vt 0.5910 0.1940
vt 0.5886 0.1919
vt 0.5852 0.1921
vt 0.5876 0.1943
vt 0.5840 0.1937
vt 0.5815 0.1859
vt 0.5791 0.1859
vt 0.5806 0.1832
vt 0.5812 0.1919
vt 0.5834 0.1890
vt 0.5793 0.1887
vt 0.5868 0.1829
vt 0.5912 0.1846
vt 0.5890 0.1815
vt 0.5926 0.1827
vt 0.5842 0.1822
vt 0.5784 0.2072
vt 0.5835 0.2045
vt 0.5843 0.2085
vt 0.5809 0.1997
vt 0.5854 0.1980
vt 0.5848 0.2007
vt 0.5467 0.1669
vt 0.5524 0.1693
vt 0.5465 0.1708
vt 0.5462 0.1748
vt 0.5501 0.1784
vt 0.5463 0.1773
vt 0.5347 0.1732
vt 0.5343 0.1769
vt 0.5302 0.1752
vt 0.5436 0.1789
vt 0.5404 0.1740
vt 0.5378 0.1781
vt 0.5763 0.2014
vt 0.5797 0.2034
vt 0.5791 0.1956
vt 0.5818 0.1975
vt 0.5667 0.2012
vt 0.5669 0.1966
vt 0.5705 0.1984
vt 0.5486 0.1883
vt 0.5513 0.1851
vt 0.5520 0.1886
vt 0.5488 0.1905
vt 0.5489 0.1928
vt 0.5530 0.1952
vt 0.5489 0.1948
vt 0.5425 0.1911
vt 0.5399 0.1929
vt 0.5403 0.1900
vt 0.5461 0.1960
vt 0.5457 0.1919
vt 0.5429 0.1952
vt 0.5447 0.1857
vt 0.5480 0.1860
vt 0.5474 0.1838
vt 0.5441 0.1834
vt 0.5469 0.1819
vt 0.5417 0.1871
vt 0.5517 0.2071
vt 0.5544 0.2024
vt 0.5574 0.2063
vt 0.5522 0.2113
vt 0.5991 0.1766
vt 0.5988 0.1834
vt 0.5965 0.1787
vt 0.5399 0.2109
vt 0.5354 0.2105
vt 0.5381 0.2069
vt 0.5930 0.1775
vt 0.5947 0.1717
vt 0.5904 0.1669
vt 0.5886 0.1727
vt 0.5870 0.1686
vt 0.5475 0.2032
vt 0.5509 0.2040
vt 0.5501 0.2008
vt 0.5467 0.2000
vt 0.5495 0.1988
vt 0.5416 0.2050
vt 0.5760 0.1693
vt 0.5814 0.1739
vt 0.5778 0.1749
vt 0.5700 0.1765
vt 0.5733 0.1812
vt 0.5683 0.1808
vt 0.5667 0.1851
vt 0.5719 0.1883
vt 0.5669 0.1885
vt 0.5228 0.1846
vt 0.5283 0.1826
vt 0.5282 0.1867
vt 0.5335 0.1888
vt 0.5372 0.1860
vt 0.5358 0.1889
vt 0.5228 0.1943
vt 0.5301 0.1945
vt 0.5252 0.1981
vt 0.5373 0.1947
vt 0.5403 0.1970
vt 0.5368 0.1988
vt 0.5649 0.1956
vt 0.5609 0.1966
vt 0.5602 0.1922
vt 0.5654 0.1862
vt 0.5597 0.1840
vt 0.5640 0.1819
vt 0.5626 0.1776
vt 0.5583 0.1797
vt 0.5603 0.1747
vt 0.5954 0.1975
vt 0.5927 0.1970
vt 0.5937 0.1946
vt 0.5976 0.2084
vt 0.5932 0.2051
vt 0.5965 0.2030
vt 0.6054 0.2033
vt 0.6020 0.1968
vt 0.6072 0.1995
vt 0.5916 0.1881
vt 0.5953 0.1909
vt 0.5949 0.1874
vt 0.5859 0.1896
vt 0.5840 0.1865
vt 0.5521 0.1733
vt 0.5407 0.1700
vt 0.5725 0.2042
vt 0.5776 0.1977
vt 0.5743 0.1956
vt 0.5707 0.1938
vt 0.5757 0.1936
vt 0.5507 0.1829
vt 0.5522 0.1908
vt 0.5455 0.1897
vt 0.5536 0.1992
vt 0.6029 0.1818
vt 0.5458 0.2090
vt 0.5730 0.1729
vt 0.5748 0.1785
vt 0.5276 0.2019
vt 0.5319 0.2024
vt 0.5293 0.2060
vt 0.5798 0.1698
vt 0.5717 0.1855
vt 0.5228 0.1894
vt 0.5282 0.1916
vt 0.5243 0.1810
vt 0.5337 0.1847
vt 0.5324 0.1983
vt 0.5354 0.1918
vt 0.5652 0.1909
vt 0.5604 0.1875
vt 0.5640 0.2006
vt 0.6015 0.2059
vt 0.6004 0.2004
vt 0.5940 0.2091
vt 0.5920 0.1997
vt 0.6091 0.1956
vt 0.6038 0.1929
vt 0.6079 0.1913
vt 0.5969 0.1939
vt 0.4270 0.7821
vt 0.4247 0.8005
vt 0.4220 0.8002
vt 0.4236 0.7817
vt 0.4132 0.7814
vt 0.4139 0.8002
vt 0.4111 0.8003
vt 0.4098 0.7814
vt 0.4201 0.7815
vt 0.4193 0.8002
vt 0.4166 0.8002
vt 0.4167 0.7814
vt 0.4064 0.7818
vt 0.4084 0.8004
vt 0.4057 0.8006
vt 0.4029 0.7822
vt 0.4185 0.8250
vt 0.4177 0.8498
vt 0.4161 0.8499
vt 0.4164 0.8250
vt 0.4228 0.8252
vt 0.4209 0.8499
vt 0.4193 0.8498
vt 0.4207 0.8250
vt 0.4141 0.8251
vt 0.4144 0.8500
vt 0.4128 0.8500
vt 0.4119 0.8252
vt 0.4205 0.8577
vt 0.4220 0.8577
vt 0.4215 0.8655
vt 0.4201 0.8655
vt 0.4148 0.8579
vt 0.4165 0.8578
vt 0.4170 0.8657
vt 0.4153 0.8658
vt 0.4178 0.8577
vt 0.4190 0.8576
vt 0.4188 0.8654
vt 0.4179 0.8656
vt 0.4114 0.8579
vt 0.4132 0.8579
vt 0.4135 0.8659
vt 0.4117 0.8659
vt 0.4391 0.7694
vt 0.4405 0.7701
vt 0.4403 0.7747
vt 0.4392 0.7748
vt 0.4451 0.7697
vt 0.4464 0.7706
vt 0.4446 0.7758
vt 0.4435 0.7755
vt 0.4182 0.8658
vt 0.4362 0.7693
vt 0.4377 0.7687
vt 0.4381 0.7749
vt 0.4370 0.7751
vt 0.4430 0.7842
vt 0.4441 0.7844
vt 0.4437 0.7931
vt 0.4426 0.7929
vt 0.4408 0.7839
vt 0.4419 0.7839
vt 0.4414 0.7927
vt 0.4403 0.7928
vt 0.4365 0.7838
vt 0.4374 0.7839
vt 0.4368 0.7928
vt 0.4360 0.7926
vt 0.4386 0.7838
vt 0.4398 0.7838
vt 0.4392 0.7929
vt 0.4380 0.7929
vt 0.4194 0.8659
vt 0.4194 0.8659
vt 0.4195 0.8660
vt 0.4195 0.8660
vt 0.4421 0.7695
vt 0.4437 0.7689
vt 0.4425 0.7752
vt 0.4414 0.7750
vt 0.4185 0.8659
vt 0.4195 0.8658
vt 0.4194 0.8658
vt 0.4194 0.8659
vt 0.4194 0.8659
vt 0.4195 0.8660
vt 0.4195 0.8660
vt 0.4191 0.8659
vt 0.4192 0.8662
vt 0.4194 0.8659
vt 0.4194 0.8659
vt 0.4554 0.7760
vt 0.4574 0.7763
vt 0.4568 0.7883
vt 0.4552 0.7882
vt 0.4195 0.8660
vt 0.4195 0.8660
vt 0.4195 0.8659
vt 0.4195 0.8659
vt 0.4195 0.8660
vt 0.4195 0.8660
vt 0.4195 0.8660
vt 0.4195 0.8660
vt 0.4195 0.8660
vt 0.4195 0.8660
vt 0.4195 0.8660
vt 0.4195 0.8660
vt 0.4195 0.8660
vt 0.4367 0.8084
vt 0.4377 0.8085
vt 0.4362 0.8241
vt 0.4355 0.8239
vt 0.4412 0.7939
vt 0.4385 0.8090
vt 0.4393 0.8096
vt 0.4376 0.8242
vt 0.4369 0.8241
vt 0.4352 0.7924
vt 0.4349 0.8080
vt 0.4403 0.8091
vt 0.4414 0.8086
vt 0.4391 0.8240
vt 0.4383 0.8241
vt 0.4648 0.7707
vt 0.4660 0.7706
vt 0.4650 0.7787
vt 0.4641 0.7788
vt 0.4626 0.7707
vt 0.4636 0.7709
vt 0.4632 0.7790
vt 0.4624 0.7788
vt 0.4669 0.7708
vt 0.4678 0.7710
vt 0.4666 0.7789
vt 0.4658 0.7788
vt 0.4190 0.8664
vt 0.4189 0.8659
vt 0.4202 0.8659
vt 0.4190 0.8661
vt 0.4187 0.8661
vt 0.4194 0.8658
vt 0.4194 0.8658
vt 0.4590 0.7757
vt 0.4606 0.7752
vt 0.4596 0.7879
vt 0.4582 0.7881
vt 0.4515 0.7755
vt 0.4534 0.7758
vt 0.4536 0.7881
vt 0.4521 0.7880
vt 0.4549 0.8024
vt 0.4546 0.8167
vt 0.4536 0.8165
vt 0.4536 0.8023
vt 0.4574 0.8025
vt 0.4566 0.8169
vt 0.4557 0.8168
vt 0.4563 0.8025
vt 0.4195 0.8660
vt 0.4195 0.8660
vt 0.4195 0.8660
vt 0.4195 0.8660
vt 0.4744 0.7674
vt 0.4755 0.7671
vt 0.4749 0.7718
vt 0.4740 0.7720
vt 0.4724 0.7674
vt 0.4733 0.7678
vt 0.4731 0.7721
vt 0.4725 0.7719
vt 0.4707 0.7671
vt 0.4715 0.7672
vt 0.4718 0.7717
vt 0.4711 0.7717
vt 0.4098 0.8252
vt 0.4112 0.8500
vt 0.4095 0.8499
vt 0.4076 0.8253
vt 0.4524 0.8023
vt 0.4527 0.8167
vt 0.4518 0.8168
vt 0.4513 0.8023
vt 0.2864 0.2158
vt 0.2862 0.2116
vt 0.2901 0.2120
vt 0.2905 0.2159
vt 0.2864 0.2240
vt 0.2905 0.2238
vt 0.2901 0.2277
vt 0.2862 0.2280
vt 0.2957 0.2140
vt 0.2940 0.2081
vt 0.2957 0.2257
vt 0.2940 0.2316
vt 0.2901 0.2277
vt 0.2905 0.2238
vt 0.2957 0.2140
vt 0.2905 0.2159
vt 0.2901 0.2120
vt 0.2940 0.2081
vt 0.2957 0.2257
vt 0.2940 0.2316
vt 0.2864 0.2240
vt 0.2862 0.2280
vt 0.2782 0.2240
vt 0.2783 0.2280
vt 0.2744 0.2277
vt 0.2740 0.2238
vt 0.2782 0.2158
vt 0.2740 0.2159
vt 0.2744 0.2120
vt 0.2783 0.2116
vt 0.2864 0.2158
vt 0.2862 0.2116
vt 0.2764 0.2333
vt 0.2706 0.2316
vt 0.2744 0.2277
vt 0.2783 0.2280
vt 0.2882 0.2333
vt 0.2881 0.2064
vt 0.2764 0.2064
vt 0.2706 0.2081
vt 0.2882 0.2333
vt 0.2881 0.2064
vt 0.2869 0.1606
vt 0.2910 0.1604
vt 0.2906 0.1643
vt 0.2867 0.1646
vt 0.2787 0.1606
vt 0.2788 0.1646
vt 0.2749 0.1643
vt 0.2745 0.1604
vt 0.2962 0.1506
vt 0.2910 0.1525
vt 0.2906 0.1486
vt 0.2945 0.1447
vt 0.2962 0.1623
vt 0.2945 0.1682
vt 0.2906 0.1643
vt 0.2910 0.1604
vt 0.2962 0.1506
vt 0.2910 0.1525
vt 0.2906 0.1486
vt 0.2945 0.1447
vt 0.2962 0.1623
vt 0.2945 0.1682
vt 0.2869 0.1606
vt 0.2867 0.1646
vt 0.2787 0.1606
vt 0.2788 0.1646
vt 0.2749 0.1643
vt 0.2745 0.1604
vt 0.2787 0.1524
vt 0.2745 0.1525
vt 0.2749 0.1486
vt 0.2788 0.1482
vt 0.2869 0.1524
vt 0.2867 0.1482
vt 0.2693 0.1623
vt 0.2710 0.1682
vt 0.2693 0.1506
vt 0.2710 0.1447
vt 0.2749 0.1486
vt 0.2745 0.1525
vt 0.2693 0.1623
vt 0.2710 0.1682
vt 0.2693 0.1506
vt 0.2710 0.1447
vt 0.2769 0.1699
vt 0.2886 0.1699
vt 0.2887 0.1430
vt 0.2769 0.1430
vt 0.2769 0.1699
vt 0.2886 0.1699
vt 0.3380 0.2173
vt 0.3340 0.2174
vt 0.3343 0.2135
vt 0.3382 0.2132
vt 0.3462 0.2255
vt 0.3503 0.2253
vt 0.3500 0.2292
vt 0.3460 0.2296
vt 0.3380 0.2255
vt 0.3382 0.2296
vt 0.3343 0.2293
vt 0.3340 0.2253
vt 0.3462 0.2255
vt 0.3503 0.2253
vt 0.3500 0.2292
vt 0.3460 0.2296
vt 0.3380 0.2255
vt 0.3382 0.2296
vt 0.3343 0.2293
vt 0.3340 0.2253
vt 0.3380 0.2173
vt 0.3340 0.2174
vt 0.3343 0.2135
vt 0.3382 0.2132
vt 0.3462 0.2173
vt 0.3460 0.2132
vt 0.3500 0.2135
vt 0.3503 0.2174
vt 0.3287 0.2273
vt 0.3304 0.2332
vt 0.3287 0.2155
vt 0.3304 0.2096
vt 0.3287 0.2273
vt 0.3304 0.2332
vt 0.3287 0.2155
vt 0.3304 0.2096
vt 0.3363 0.2349
vt 0.3480 0.2348
vt 0.3539 0.2331
vt 0.3480 0.2079
vt 0.3539 0.2096
vt 0.3363 0.2079
vt 0.3363 0.2349
vt 0.3363 0.2079
vt 0.2792 0.2193
vt 0.2751 0.2195
vt 0.2754 0.2156
vt 0.2794 0.2153
vt 0.2874 0.2193
vt 0.2872 0.2153
vt 0.2911 0.2156
vt 0.2914 0.2195
vt 0.2864 0.2274
vt 0.2915 0.2273
vt 0.2912 0.2313
vt 0.2853 0.2314
vt 0.2782 0.2274
vt 0.2774 0.2314
vt 0.2754 0.2313
vt 0.2751 0.2273
vt 0.2967 0.2175
vt 0.2950 0.2117
vt 0.2968 0.2293
vt 0.2951 0.2351
vt 0.2912 0.2313
vt 0.2915 0.2273
vt 0.2968 0.2293
vt 0.2951 0.2351
vt 0.2699 0.2293
vt 0.2751 0.2273
vt 0.2754 0.2313
vt 0.2715 0.2351
vt 0.2698 0.2176
vt 0.2715 0.2117
vt 0.2699 0.2293
vt 0.2715 0.2351
vt 0.2698 0.2176
vt 0.2715 0.2117
vt 0.2754 0.2156
vt 0.2751 0.2195
vt 0.2765 0.2368
vt 0.2882 0.2368
vt 0.2774 0.2369
vt 0.2794 0.2316
vt 0.2892 0.2369
vt 0.2873 0.2316
vt 0.2891 0.2100
vt 0.2774 0.2100
vt 0.2782 0.2158
vt 0.2740 0.2159
vt 0.2744 0.2120
vt 0.2783 0.2116
vt 0.2782 0.2240
vt 0.2783 0.2280
vt 0.2744 0.2277
vt 0.2740 0.2238
vt 0.2957 0.2257
vt 0.2940 0.2316
vt 0.2901 0.2277
vt 0.2905 0.2238
vt 0.2957 0.2140
vt 0.2905 0.2159
vt 0.2901 0.2120
vt 0.2940 0.2081
vt 0.2864 0.2240
vt 0.2862 0.2280
vt 0.2782 0.2240
vt 0.2783 0.2280
vt 0.2744 0.2277
vt 0.2740 0.2238
vt 0.2782 0.2158
vt 0.2740 0.2159
vt 0.2744 0.2120
vt 0.2783 0.2116
vt 0.2864 0.2158
vt 0.2862 0.2116
vt 0.2688 0.2257
vt 0.2706 0.2316
vt 0.2688 0.2140
vt 0.2706 0.2081
vt 0.2688 0.2257
vt 0.2706 0.2316
vt 0.2688 0.2140
vt 0.2706 0.2081
vt 0.2764 0.2333
vt 0.2882 0.2333
vt 0.2862 0.2280
vt 0.2901 0.2277
vt 0.2940 0.2316
vt 0.2881 0.2064
vt 0.2764 0.2064
vt 0.2764 0.2333
vt 0.2882 0.2333
vt 0.2764 0.2064
vt 0.2745 0.2012
vt 0.2667 0.2043
vt 0.2823 0.1980
vt 0.2823 0.2046
vt 0.2823 0.2113
vt 0.2901 0.2386
vt 0.2979 0.2355
vt 0.2823 0.2417
vt 0.2823 0.2350
vt 0.2823 0.2284
vt 0.2745 0.2386
vt 0.2667 0.2355
vt 0.2745 0.2012
vt 0.2667 0.2043
vt 0.2823 0.1980
vt 0.2823 0.2046
vt 0.2823 0.2113
vt 0.2901 0.2012
vt 0.2979 0.2043
vt 0.2901 0.2386
vt 0.2979 0.2355
vt 0.2823 0.2417
vt 0.2823 0.2350
vt 0.2823 0.2284
vt 0.2745 0.2386
vt 0.2667 0.2355
vt 0.2671 0.2199
vt 0.2737 0.2199
vt 0.2605 0.2199
vt 0.2636 0.2121
vt 0.2636 0.2277
vt 0.2671 0.2199
vt 0.2737 0.2199
vt 0.2636 0.2121
vt 0.2636 0.2277
vt 0.2865 0.2199
vt 0.2908 0.2199
vt 0.2823 0.2199
vt 0.2823 0.2156
vt 0.2780 0.2199
vt 0.2823 0.2242
vt 0.3010 0.2121
vt 0.3041 0.2199
vt 0.2975 0.2199
vt 0.3010 0.2277
vt 0.2780 0.2199
vt 0.2823 0.2199
vt 0.2823 0.2242
vt 0.2823 0.2156
vt 0.2755 0.2047
vt 0.2677 0.2078
vt 0.2833 0.2016
vt 0.2833 0.2083
vt 0.2833 0.2149
vt 0.2911 0.2047
vt 0.2989 0.2078
vt 0.2911 0.2421
vt 0.2989 0.2390
vt 0.2833 0.2452
vt 0.2833 0.2386
vt 0.2833 0.2320
vt 0.2755 0.2421
vt 0.2677 0.2390
vt 0.2911 0.2421
vt 0.2989 0.2390
vt 0.2833 0.2452
vt 0.2814 0.2384
vt 0.2794 0.2316
vt 0.2755 0.2421
vt 0.2677 0.2390
vt 0.2682 0.2234
vt 0.2748 0.2234
vt 0.2615 0.2234
vt 0.2646 0.2156
vt 0.2677 0.2078
vt 0.2646 0.2312
vt 0.2682 0.2234
vt 0.2748 0.2234
vt 0.2646 0.2156
vt 0.2646 0.2312
vt 0.2984 0.2234
vt 0.2918 0.2234
vt 0.3051 0.2234
vt 0.3020 0.2312
vt 0.2984 0.2234
vt 0.2918 0.2234
vt 0.3020 0.2312
vt 0.3020 0.2156
vt 0.2790 0.2234
vt 0.2833 0.2234
vt 0.2814 0.2275
vt 0.2876 0.2234
vt 0.2833 0.2192
vt 0.3343 0.2027
vt 0.3265 0.2058
vt 0.3421 0.1996
vt 0.3421 0.2062
vt 0.3421 0.2129
vt 0.3421 0.2366
vt 0.3421 0.2299
vt 0.3421 0.2432
vt 0.3343 0.2401
vt 0.3265 0.2370
vt 0.3343 0.2027
vt 0.3265 0.2058
vt 0.3421 0.1996
vt 0.3421 0.2062
vt 0.3421 0.2129
vt 0.3499 0.2027
vt 0.3577 0.2058
vt 0.3499 0.2401
vt 0.3577 0.2370
vt 0.3421 0.2432
vt 0.3421 0.2366
vt 0.3421 0.2299
vt 0.3343 0.2401
vt 0.3265 0.2370
vt 0.3270 0.2214
vt 0.3336 0.2214
vt 0.3203 0.2214
vt 0.3234 0.2136
vt 0.3234 0.2292
vt 0.3270 0.2214
vt 0.3336 0.2214
vt 0.3234 0.2136
vt 0.3234 0.2292
vt 0.3464 0.2214
vt 0.3507 0.2214
vt 0.3421 0.2214
vt 0.3421 0.2172
vt 0.3379 0.2214
vt 0.3421 0.2256
vt 0.3379 0.2214
vt 0.3421 0.2214
vt 0.3421 0.2256
vt 0.3464 0.2214
vt 0.3507 0.2214
vt 0.3421 0.2172
vt 0.2906 0.1752
vt 0.2984 0.1721
vt 0.2828 0.1783
vt 0.2828 0.1716
vt 0.2828 0.1650
vt 0.2750 0.1752
vt 0.2672 0.1721
vt 0.2750 0.1378
vt 0.2672 0.1409
vt 0.2828 0.1347
vt 0.2828 0.1413
vt 0.2828 0.1479
vt 0.2906 0.1378
vt 0.2984 0.1409
vt 0.2906 0.1752
vt 0.2984 0.1721
vt 0.2828 0.1783
vt 0.2828 0.1716
vt 0.2828 0.1650
vt 0.2750 0.1752
vt 0.2672 0.1721
vt 0.2676 0.1565
vt 0.2742 0.1565
vt 0.2610 0.1565
vt 0.2641 0.1487
vt 0.2641 0.1643
vt 0.2676 0.1565
vt 0.2742 0.1565
vt 0.2641 0.1487
vt 0.2672 0.1409
vt 0.2641 0.1643
vt 0.2871 0.1565
vt 0.2913 0.1565
vt 0.2828 0.1565
vt 0.2828 0.1522
vt 0.2785 0.1565
vt 0.2828 0.1608
vt 0.2979 0.1565
vt 0.2913 0.1565
vt 0.3046 0.1565
vt 0.3015 0.1643
vt 0.3015 0.1487
vt 0.2979 0.1565
vt 0.3015 0.1643
vt 0.3015 0.1487
vt 0.2984 0.1409
vt 0.2785 0.1565
vt 0.2828 0.1565
vt 0.2828 0.1608
vt 0.2871 0.1565
vt 0.2823 0.2046
vt 0.2823 0.2113
vt 0.2823 0.1980
vt 0.2901 0.2012
vt 0.2979 0.2043
vt 0.2901 0.2386
vt 0.2979 0.2355
vt 0.2823 0.2417
vt 0.2823 0.2350
vt 0.2823 0.2284
vt 0.2745 0.2012
vt 0.2667 0.2043
vt 0.2823 0.1980
vt 0.2823 0.2046
vt 0.2823 0.2113
vt 0.2901 0.2012
vt 0.2979 0.2043
vt 0.2901 0.2386
vt 0.2979 0.2355
vt 0.2823 0.2417
vt 0.2823 0.2350
vt 0.2823 0.2284
vt 0.2745 0.2386
vt 0.2667 0.2355
vt 0.2865 0.2199
vt 0.2908 0.2199
vt 0.2823 0.2199
vt 0.2823 0.2156
vt 0.2780 0.2199
vt 0.2737 0.2199
vt 0.2823 0.2242
vt 0.2975 0.2199
vt 0.2908 0.2199
vt 0.3041 0.2199
vt 0.3010 0.2277
vt 0.3010 0.2121
vt 0.2975 0.2199
vt 0.3010 0.2277
vt 0.3010 0.2121
vt 0.2823 0.2242
vt 0.2823 0.2199
vt 0.2865 0.2199
vt 0.2823 0.2156
vt 0.4507 0.7878
vt 0.4699 0.7671
vt 0.4705 0.7716
vt 0.4692 0.7625
vt 0.4703 0.7625
vt 0.4713 0.7626
vt 0.4724 0.7630
vt 0.4734 0.7634
vt 0.4748 0.7630
vt 0.4762 0.7625
vt 0.4195 0.8660
vt 0.4195 0.8660
vt 0.4586 0.8024
vt 0.4575 0.8169
vt 0.4495 0.7752
vt 0.4483 0.7625
vt 0.4508 0.7630
vt 0.4533 0.7635
vt 0.4580 0.7642
vt 0.4597 0.7634
vt 0.4615 0.7625
vt 0.4185 0.8663
vt 0.4180 0.8663
vt 0.4669 0.7625
vt 0.4680 0.7628
vt 0.4691 0.7631
vt 0.4616 0.7705
vt 0.4616 0.7785
vt 0.4616 0.7625
vt 0.4629 0.7626
vt 0.4641 0.7627
vt 0.4655 0.7626
vt 0.4410 0.7950
vt 0.4424 0.7940
vt 0.4358 0.8082
vt 0.4347 0.8236
vt 0.4401 0.7940
vt 0.4195 0.8660
vt 0.4557 0.7638
vt 0.4191 0.8656
vt 0.4194 0.8659
vt 0.4175 0.8660
vt 0.4408 0.7655
vt 0.4429 0.7641
vt 0.4450 0.7626
vt 0.4194 0.8659
vt 0.4356 0.7838
vt 0.4359 0.7752
vt 0.4347 0.7698
vt 0.4334 0.7644
vt 0.4353 0.7635
vt 0.4372 0.7625
vt 0.4466 0.7639
vt 0.4483 0.7653
vt 0.4390 0.7640
vt 0.4097 0.8579
vt 0.4099 0.8659
vt 0.4226 0.8500
vt 0.4273 0.8008
vt 0.4250 0.8254
vt 0.4043 0.7631
vt 0.4002 0.7637
vt 0.4085 0.7625
vt 0.4209 0.7628
vt 0.4168 0.7625
vt 0.4251 0.7632
vt 0.4126 0.7625
vt 0.4293 0.7636
vt 0.4334 0.7640
vt 0.4304 0.7824
vt 0.5985 0.1902
vt 0.6027 0.1886
vt 0.6068 0.1870
vt 0.5893 0.1991
vt 0.5900 0.1964
vt 0.5887 0.2018
vt 0.5895 0.2058
vt 0.5903 0.2098
vt 0.5547 0.1854
vt 0.5540 0.1819
vt 0.5555 0.1889
vt 0.5600 0.2016
vt 0.5570 0.1976
vt 0.5630 0.2055
vt 0.5377 0.1918
vt 0.5381 0.1889
vt 0.5363 0.2029
vt 0.5374 0.1819
vt 0.5409 0.1831
vt 0.5339 0.1806
vt 0.5299 0.1790
vt 0.5258 0.1773
vt 0.5769 0.1887
vt 0.5772 0.1916
vt 0.5766 0.1859
vt 0.5782 0.1832
vt 0.5797 0.1805
vt 0.5853 0.1744
vt 0.5869 0.1785
vt 0.5836 0.1703
vt 0.5337 0.2065
vt 0.5310 0.2101
vt 0.5432 0.1992
vt 0.5904 0.1797
vt 0.5940 0.1808
vt 0.5463 0.2131
vt 0.5527 0.2154
vt 0.5530 0.1972
vt 0.5489 0.1968
vt 0.5461 0.1980
vt 0.5562 0.1933
vt 0.5502 0.1809
vt 0.5464 0.1799
vt 0.5721 0.1918
vt 0.5671 0.1920
vt 0.5437 0.1815
vt 0.5560 0.1768
vt 0.5580 0.1718
vt 0.5863 0.1958
vt 0.5827 0.1953
vt 0.5799 0.1935
vt 0.5962 0.1855
vt 0.5397 0.2011
vt 0.5395 0.1860
vt 0.5833 0.1795
vt 0.5579 0.2104
vn 0.2452 0.2087 -0.9467
vn 0.1486 -0.0526 -0.9875
vn 0.0587 0.2188 -0.9740
vn -0.1504 0.2421 -0.9585
vn -0.2452 0.4944 -0.8339
vn -0.0178 0.4790 -0.8776
vn 0.1501 0.5535 -0.8192
vn -0.0874 0.5721 -0.8155
vn 0.1638 0.5617 -0.8109
vn 0.5496 0.3825 -0.7427
vn 0.6993 0.4635 -0.5442
vn 0.7933 0.1275 -0.5953
vn 0.3602 0.6425 -0.6763
vn 0.3261 0.5677 -0.7558
vn 0.4546 0.6620 -0.5959
vn 0.3956 -0.0434 -0.9174
vn 0.0676 -0.2132 -0.9747
vn 0.2469 -0.2635 -0.9325
vn 0.0455 -0.3613 -0.9313
vn 0.6290 0.0094 -0.7773
vn -0.1561 0.9874 0.0269
vn -0.2934 0.9259 -0.2379
vn -0.4150 0.9084 0.0513
vn -0.0271 0.9418 -0.3352
vn -0.2031 0.8172 -0.5394
vn -0.1699 0.8704 -0.4622
vn -0.2502 0.9210 0.2987
vn -0.2888 0.8703 0.3990
vn -0.5691 0.7579 0.3190
vn -0.2988 0.8689 0.3946
vn 0.1437 0.9155 0.3759
vn 0.2987 0.7611 0.5758
vn 0.3789 0.8865 0.2656
vn -0.0479 0.8024 0.5949
vn -0.0634 0.8826 0.4658
vn 0.0734 0.7560 0.6504
vn 0.1054 0.9920 -0.0692
vn -0.0512 0.9729 -0.2255
vn 0.2335 0.9264 -0.2954
vn -0.0511 0.9418 -0.3322
vn 0.2198 0.9740 0.0559
vn -0.5544 0.0006 0.8323
vn -0.7401 0.1437 0.6570
vn -0.7697 -0.1397 0.6229
vn -0.5558 -0.3058 0.7730
vn -0.4988 -0.5608 0.6608
vn -0.6804 -0.6044 0.4144
vn -0.4473 -0.6661 0.5968
vn -0.0756 -0.3249 0.9427
vn 0.2764 -0.5489 0.7889
vn 0.1279 -0.1555 0.9795
vn -0.1716 -0.6943 0.6990
vn -0.2747 -0.4901 0.8272
vn 0.0306 -0.6781 0.7343
vn -0.3091 0.1806 0.9337
vn -0.5124 0.1810 0.8395
vn -0.5001 0.2594 0.8262
vn -0.2904 0.2811 0.9147
vn -0.4910 0.3618 0.7924
vn -0.1425 0.1565 0.9773
vn -0.1803 -0.9656 -0.1873
vn -0.4697 -0.8800 -0.0702
vn -0.3241 -0.8733 -0.3637
vn -0.0557 -0.8571 -0.5122
vn 0.0097 -0.7157 -0.6983
vn -0.1368 -0.5418 -0.8293
vn 0.0119 -0.6291 -0.7772
vn 0.2847 -0.9472 -0.1476
vn 0.6081 -0.7706 -0.1908
vn 0.4867 -0.8470 0.2138
vn 0.2072 -0.6999 -0.6836
vn 0.1329 -0.8407 -0.5249
vn 0.4102 -0.7413 -0.5312
vn -0.0265 -0.9870 0.1585
vn -0.2028 -0.9792 -0.0052
vn -0.2612 -0.9475 0.1845
vn -0.0205 -0.9493 0.3137
vn -0.3647 -0.8420 0.3975
vn 0.1148 -0.9534 0.2790
vn 0.9146 -0.3929 0.0954
vn 0.8859 -0.3691 -0.2808
vn 0.9435 -0.2930 -0.1548
vn 0.9789 -0.0734 0.1905
vn 0.9765 0.2088 -0.0541
vn 0.9530 0.2093 0.2192
vn 0.8964 0.3990 0.1930
vn 0.7665 0.6251 -0.1472
vn 0.8660 0.4864 0.1162
vn 0.7828 0.3823 0.4910
vn 0.8428 0.2402 0.4817
vn 0.7621 0.1605 0.6272
vn 0.4569 0.4320 0.7775
vn 0.6822 0.1834 0.7078
vn 0.8601 -0.2913 0.4188
vn 0.9412 -0.2901 0.1731
vn 0.6338 -0.5063 0.5848
vn 0.3323 -0.7018 0.6301
vn 0.6238 -0.6088 0.4901
vn -0.9186 -0.3044 -0.2520
vn -0.8629 -0.5052 -0.0138
vn -0.9399 -0.3370 0.0552
vn -0.9680 0.0555 -0.2449
vn -0.9632 0.2308 0.1380
vn -0.9140 0.3450 -0.2136
vn -0.8424 0.4915 -0.2210
vn -0.8762 0.4699 0.1067
vn -0.7702 0.6314 -0.0904
vn -0.6748 0.3453 -0.6523
vn -0.4510 0.5045 -0.7362
vn -0.4453 0.3036 -0.8423
vn -0.7067 0.5995 -0.3758
vn -0.7829 0.4327 -0.4470
vn -0.8091 -0.0442 -0.5861
vn -0.9413 -0.1939 -0.2761
vn -0.0054 -0.0598 -0.9982
vn -0.2957 -0.0160 -0.9551
vn -0.0838 -0.2714 -0.9588
vn 0.1832 0.4705 -0.8632
vn 0.4070 0.3096 -0.8594
vn -0.4882 0.8232 0.2898
vn 0.0239 0.9781 0.2067
vn 0.1509 0.9595 -0.2378
vn 0.2579 0.9528 -0.1602
vn 0.4302 0.8977 -0.0957
vn 0.3827 0.8715 -0.3067
vn -0.6751 0.3094 0.6697
vn -0.7319 -0.4400 0.5202
vn -0.3396 -0.0871 0.9365
vn -0.5319 -0.8375 0.1254
vn -0.1627 -0.6974 -0.6980
vn -0.0092 -0.9905 -0.1373
vn 0.9913 -0.0764 -0.1074
vn 0.8151 -0.5092 0.2763
vn 0.8933 -0.4479 -0.0367
vn 0.8611 0.5082 -0.0156
vn 0.8965 -0.0491 0.4402
vn 0.6290 0.3485 0.6949
vn 0.8190 -0.4110 0.4003
vn 0.7999 -0.2205 0.5582
vn -0.9903 -0.0878 0.1076
vn -0.8274 -0.4020 -0.3922
vn -0.8296 0.2124 -0.5163
vn -0.6025 0.5549 -0.5737
vn -0.7815 -0.1794 -0.5975
vn -0.6473 0.0739 -0.7586
vn 0.7077 0.0004 -0.7066
vn 0.7069 0.0580 -0.7049
vn 0.9988 0.0473 -0.0083
vn 1.0000 -0.0090 -0.0016
vn -0.7050 0.0622 0.7065
vn -0.7052 -0.0004 0.7090
vn -0.9997 0.0236 -0.0076
vn -0.9965 0.0838 -0.0014
vn 0.7082 -0.0033 0.7060
vn 0.7113 0.0176 0.7027
vn 0.0193 0.0066 0.9998
vn 0.0033 0.0346 0.9994
vn -0.7045 0.0658 -0.7066
vn -0.7033 0.0411 -0.7097
vn 0.0173 0.0642 -0.9978
vn 0.0032 0.0395 -0.9992
vn 0.7092 0.0284 0.7045
vn 0.7082 -0.0093 0.7059
vn -0.0077 -0.0517 0.9986
vn 0.0052 -0.0312 0.9995
vn 0.7017 0.1053 -0.7047
vn 0.7013 0.0607 -0.7103
vn 0.9993 0.0373 -0.0008
vn 0.9959 0.0907 -0.0022
vn -0.7037 -0.0671 0.7073
vn -0.7039 -0.0625 0.7075
vn -0.9992 -0.0381 0.0086
vn -0.9990 -0.0440 0.0005
vn 0.6884 -0.0150 -0.7252
vn -0.0245 0.0020 -0.9997
vn -0.3245 -0.1526 -0.9335
vn 0.6178 -0.2171 -0.7558
vn -0.6745 -0.0596 0.7359
vn 0.0025 -0.0797 0.9968
vn 0.0700 -0.1340 0.9885
vn -0.5966 -0.2420 0.7651
vn 0.7108 -0.0902 0.6976
vn 0.9940 -0.0728 -0.0812
vn 0.8463 -0.4978 -0.1897
vn 0.5826 -0.4278 0.6911
vn -0.7256 0.0070 -0.6881
vn -0.9994 -0.0351 0.0006
vn -0.9879 -0.1509 -0.0356
vn -0.7454 0.0103 -0.6666
vn 0.7707 0.2603 0.5816
vn 0.7445 0.6629 -0.0794
vn 0.6977 0.7069 -0.1162
vn 0.7646 0.3468 0.5433
vn -0.7829 -0.0349 -0.6212
vn -0.9274 -0.3733 0.0230
vn -0.7500 -0.6535 0.1024
vn -0.7845 -0.2745 -0.5561
vn 0.2607 -0.2512 0.9321
vn -0.4921 -0.4946 0.7164
vn 0.2312 -0.1987 0.9524
vn 0.3766 -0.1813 0.9085
vn -0.3101 -0.6466 0.6969
vn -0.7289 -0.6129 -0.3050
vn -0.5082 -0.8118 0.2875
vn -0.4840 -0.7375 0.4710
vn -0.7234 -0.6904 -0.0024
vn 0.0931 0.6454 -0.7582
vn -0.5176 -0.0049 -0.8556
vn -0.6284 -0.5150 -0.5830
vn 0.2851 0.2921 -0.9129
vn -0.0423 -0.6782 0.7337
vn 0.5431 -0.1167 0.8315
vn 0.7218 -0.1463 0.6765
vn 0.0858 -0.7106 0.6983
vn 0.7543 0.4913 0.4355
vn 0.5745 0.7933 -0.2015
vn 0.7445 0.6122 -0.2665
vn 0.9028 0.3966 0.1660
vn 0.6080 -0.7677 -0.2025
vn 0.1755 -0.2528 -0.9515
vn 0.2989 -0.4881 -0.8200
vn 0.5919 -0.7717 -0.2327
vn 0.1090 0.6756 -0.7292
vn -0.5219 0.2575 -0.8132
vn -0.3476 0.3113 -0.8845
vn 0.2184 0.6645 -0.7147
vn -0.1384 0.4563 0.8790
vn 0.4023 -0.5464 0.7345
vn -0.1722 0.3239 0.9303
vn -0.4550 0.5307 -0.7151
vn -0.6034 0.7630 0.2320
vn -0.7523 0.4429 0.4877
vn -0.6136 0.2101 -0.7611
vn 0.5018 -0.7788 -0.3763
vn 0.2875 -0.1369 -0.9480
vn 0.2097 -0.2263 -0.9512
vn 0.5692 -0.7964 -0.2045
vn 0.6807 0.3516 0.6427
vn 0.9753 -0.2088 -0.0725
vn 0.9907 -0.1273 -0.0485
vn 0.5863 0.3486 0.7312
vn -0.2309 0.2926 0.9279
vn -0.3427 0.3992 0.8504
vn -0.1988 0.2917 0.9356
vn 0.4108 -0.4901 0.7688
vn 0.3456 -0.4822 0.8050
vn -0.2233 0.5565 -0.8003
vn -0.5033 0.8471 0.1709
vn -0.5217 0.8146 0.2534
vn -0.2853 0.5784 -0.7643
vn 0.5693 -0.8044 -0.1696
vn 0.3107 -0.2794 -0.9085
vn 0.3406 -0.3466 -0.8740
vn 0.5712 -0.8141 -0.1048
vn 0.9924 0.0757 0.0973
vn 0.6629 0.6261 -0.4106
vn 0.6244 0.6289 -0.4632
vn 0.9948 0.0661 0.0780
vn -0.8796 -0.4607 0.1182
vn -0.2031 0.7545 -0.6240
vn -0.9402 0.2284 -0.2527
vn -0.9307 0.2321 -0.2828
vn -0.2381 0.7215 -0.6502
vn -0.2752 -0.7168 0.6407
vn -0.8298 -0.4491 0.3313
vn 0.2280 -0.6805 0.6963
vn -0.8864 -0.3808 0.2632
vn 0.4713 0.7775 0.4163
vn 0.8723 0.4124 -0.2627
vn 0.9071 0.3090 -0.2858
vn 0.5066 0.7130 0.4848
vn -0.9176 -0.3639 0.1600
vn -0.5799 0.4275 0.6935
vn -0.5046 0.3985 0.7658
vn -0.9247 -0.3162 0.2121
vn 0.4654 -0.3120 -0.8283
vn -0.4955 -0.6665 -0.5570
vn -0.5428 -0.6790 -0.4943
vn 0.4057 -0.4206 -0.8115
vn 0.6562 -0.2972 -0.6936
vn 0.5513 -0.5996 -0.5801
vn 0.3817 -0.5624 -0.7335
vn -0.1225 0.7322 -0.6700
vn -0.2512 0.9474 0.1983
vn -0.4881 0.8521 0.1887
vn -0.3533 0.6109 -0.7085
vn 0.3856 -0.5662 -0.7285
vn -0.5443 -0.3650 -0.7553
vn -0.5052 -0.3571 -0.7857
vn 0.4260 -0.4735 -0.7709
vn -0.9756 0.2097 -0.0643
vn -0.3356 0.6446 0.6870
vn -0.4417 0.4986 0.7458
vn -0.9921 0.0989 -0.0772
vn 0.4843 0.3598 0.7975
vn 0.4359 0.3668 0.8218
vn -0.6326 0.3488 0.6915
vn -0.5311 0.3907 0.7518
vn 0.4789 -0.3718 -0.7952
vn 0.5024 -0.3519 -0.7898
vn 0.9999 -0.0122 -0.0109
vn 0.9998 -0.0147 0.0145
vn -0.2501 0.2754 0.9282
vn 0.3075 -0.5204 0.7966
vn 0.3280 -0.5558 0.7639
vn -0.2349 0.2518 0.9388
vn 0.8473 0.0961 -0.5223
vn 0.1824 -0.3961 -0.8999
vn 0.1703 -0.4441 -0.8796
vn 0.8883 0.0790 -0.4525
vn -0.3883 0.4309 0.8146
vn 0.5788 0.6854 0.4418
vn 0.6785 0.6075 0.4130
vn -0.3716 0.4420 0.8164
vn -0.7899 -0.4077 -0.4581
vn -0.8982 0.0975 0.4286
vn -0.9036 -0.0140 0.4281
vn -0.8233 -0.4775 -0.3068
vn -0.7086 0.0105 -0.7056
vn -0.7136 0.0054 -0.7006
vn -0.0182 0.0471 -0.9987
vn -0.0022 0.0783 -0.9969
vn -0.9951 0.0108 -0.0982
vn -0.9881 -0.0240 -0.1520
vn -0.4214 -0.3411 -0.8403
vn -0.4678 -0.3355 -0.8177
vn -0.2780 0.9185 0.2812
vn 0.0560 0.8898 0.4529
vn 0.1427 0.9532 0.2666
vn -0.0126 0.9976 0.0678
vn -0.6678 0.7050 -0.2389
vn -0.4101 0.7822 -0.4691
vn -0.5113 0.5987 -0.6166
vn -0.7002 0.4639 -0.5426
vn 0.2992 0.9415 -0.1549
vn 0.3878 0.8953 0.2193
vn 0.7889 0.5092 -0.3440
vn 0.8931 0.4491 0.0241
vn 0.9742 0.2191 -0.0544
vn 0.9410 0.1557 -0.3005
vn 0.4038 0.3005 -0.8641
vn 0.5435 -0.0597 -0.8373
vn 0.3202 -0.1354 -0.9376
vn 0.1431 0.0426 -0.9888
vn -0.0859 0.7328 -0.6750
vn -0.3622 0.4888 -0.7936
vn 0.9602 -0.2122 -0.1813
vn 0.9946 0.0308 0.0987
vn 0.7099 -0.6861 0.1594
vn 0.7428 -0.6372 0.2057
vn 0.6761 -0.6906 0.2569
vn 0.6661 -0.7213 0.1899
vn 0.3148 -0.8885 -0.3339
vn 0.2780 -0.9133 -0.2977
vn -0.0566 -0.8903 -0.4518
vn -0.0296 -0.8629 -0.5045
vn 0.5751 -0.4210 -0.7014
vn 0.2425 -0.3757 -0.8945
vn -0.8549 -0.2862 -0.4328
vn -0.8602 -0.3312 -0.3877
vn -0.8957 -0.2889 -0.3379
vn -0.8848 -0.2212 -0.4102
vn -0.6051 0.1878 -0.7737
vn -0.1154 -0.2445 -0.9628
vn -0.3729 -0.7127 -0.5941
vn -0.3819 -0.7446 -0.5474
vn 0.8851 0.3081 0.3487
vn 0.3944 0.7467 0.5357
vn -0.6928 0.6787 -0.2437
vn -0.4042 0.7746 -0.4864
vn -0.7111 0.4662 -0.5263
vn -0.9691 0.1907 0.1567
vn -0.9925 -0.0308 -0.1184
vn -0.9742 -0.2191 0.0544
vn -0.9408 -0.1733 0.2914
vn 0.3150 0.9263 -0.2068
vn 0.2331 0.9521 -0.1978
vn 0.2861 0.9515 -0.1134
vn 0.3739 0.9162 -0.1445
vn 0.8970 0.4421 0.0060
vn 0.9925 0.0308 0.1184
vn 0.6876 -0.6939 0.2138
vn 0.7111 -0.4662 0.5263
vn 0.5113 -0.5987 0.6166
vn 0.4101 -0.7822 0.4691
vn 0.3025 -0.9026 -0.3063
vn 0.0126 -0.9976 -0.0678
vn -0.1427 -0.9532 -0.2666
vn -0.0389 -0.8727 -0.4866
vn 0.0859 -0.7328 0.6750
vn 0.3604 -0.5058 0.7837
vn -0.4086 -0.3521 0.8420
vn -0.3339 -0.3342 0.8814
vn -0.3990 -0.2588 0.8797
vn -0.4746 -0.2982 0.8281
vn -0.7889 -0.5092 0.3440
vn -0.8931 -0.4491 -0.0241
vn -0.2992 -0.9415 0.1549
vn -0.3878 -0.8953 -0.2193
vn -0.8777 -0.2938 -0.3785
vn -0.3880 -0.7261 -0.5676
vn 0.6172 -0.2147 0.7570
vn 0.8934 0.2733 0.3566
vn -0.6202 0.6546 0.4322
vn -0.4873 0.4892 0.7234
vn -0.2850 0.6458 0.7083
vn -0.2773 0.7890 0.5482
vn -0.8835 0.2320 -0.4069
vn -0.8579 0.2050 -0.4711
vn -0.8163 -0.0825 -0.5717
vn -0.8491 -0.1010 -0.5185
vn -0.9693 0.1220 0.2134
vn -0.9568 -0.2571 0.1355
vn -0.8802 -0.2870 0.3781
vn -0.8490 -0.0777 0.5226
vn 0.9698 -0.1684 -0.1765
vn 0.9588 -0.1548 -0.2380
vn 0.9692 -0.0814 -0.2322
vn 0.9848 -0.1064 -0.1370
vn 0.8544 -0.2794 0.4381
vn 0.8350 0.0769 0.5448
vn 0.6851 0.0198 0.7282
vn 0.6253 -0.2287 0.7461
vn 0.5039 -0.8287 0.2436
vn 0.2635 -0.7957 0.5454
vn 0.0899 -0.9130 0.3980
vn 0.1557 -0.9750 0.1582
vn 0.6149 -0.6905 -0.3809
vn 0.2725 -0.8248 -0.4955
vn 0.2773 -0.7883 -0.5493
vn 0.6060 -0.6675 -0.4326
vn 0.3128 -0.1126 0.9431
vn 0.5242 0.1914 0.8298
vn -0.2585 0.2561 0.9314
vn -0.0654 0.5719 0.8177
vn -0.6090 -0.2932 0.7370
vn -0.7480 -0.4979 0.4390
vn -0.0377 -0.6619 0.7487
vn -0.1583 -0.8783 0.4511
vn -0.7950 -0.6026 0.0691
vn -0.6975 -0.4533 -0.5550
vn -0.6784 -0.4237 -0.6002
vn -0.1097 -0.8325 -0.5430
vn -0.0894 -0.8038 -0.5881
vn -0.2237 -0.9713 0.0808
vn 0.6715 0.4243 0.6075
vn 0.0957 0.7937 0.6007
vn -0.6228 0.6695 0.4047
vn -0.4886 0.4891 0.7225
vn -0.2743 0.8126 0.5142
vn -0.5093 0.8255 -0.2431
vn -0.1557 0.9750 -0.1582
vn -0.0899 0.9130 -0.3980
vn -0.2656 0.7952 -0.5451
vn -0.9146 0.1720 -0.3660
vn -0.6795 0.1931 -0.7078
vn -0.7674 -0.0579 -0.6386
vn -0.9079 -0.1388 -0.3956
vn -0.9932 0.0661 0.0954
vn -0.9730 -0.2303 -0.0143
vn -0.9213 -0.2766 0.2734
vn -0.8810 -0.0869 0.4651
vn 0.0377 0.6619 -0.7487
vn 0.1583 0.8783 -0.4511
vn 0.5931 0.3534 -0.7234
vn 0.7340 0.5148 -0.4430
vn 0.7737 0.4646 -0.4308
vn 0.6512 0.3348 -0.6811
vn -0.3469 0.1275 -0.9292
vn -0.6165 -0.1702 -0.7687
vn 0.2905 -0.0896 0.9527
vn 0.3392 -0.1131 0.9339
vn 0.5537 0.1634 0.8165
vn 0.5085 0.2059 0.8361
vn -0.6166 -0.2938 0.7304
vn -0.7907 -0.4667 0.3963
vn -0.0671 -0.6214 0.7806
vn -0.1168 -0.6612 0.7410
vn -0.0251 -0.6937 0.7199
vn -0.0072 -0.6401 0.7683
vn -0.8733 -0.4870 -0.0149
vn -0.8022 -0.3677 -0.4704
vn 0.6563 0.4659 0.5934
vn 0.6903 0.4200 0.5891
vn 0.7745 0.6278 -0.0769
vn 0.8088 0.5823 -0.0827
vn 0.2237 0.9713 -0.0808
vn 0.1088 0.8139 0.5707
vn -0.8623 0.3396 0.3757
vn -0.6621 0.3509 0.6621
vn -0.5773 0.5774 0.5773
vn -0.6513 0.6513 0.3895
vn -0.8626 -0.3445 0.3704
vn -0.6483 -0.6692 0.3632
vn -0.5774 -0.5774 0.5773
vn -0.6621 -0.3509 0.6621
vn 0.3757 0.3396 -0.8623
vn 0.3895 0.6513 -0.6513
vn 0.5773 0.5774 -0.5773
vn 0.6621 0.3509 -0.6621
vn 0.3704 -0.3445 -0.8626
vn 0.6621 -0.3509 -0.6621
vn 0.5773 -0.5774 -0.5773
vn 0.3632 -0.6692 -0.6483
vn 0.8768 0.3400 -0.3400
vn 0.6621 0.6621 -0.3509
vn 0.8768 0.3400 0.3400
vn 0.6621 0.6621 0.3509
vn 0.5773 0.5774 0.5773
vn 0.6621 0.3509 0.6621
vn 0.8768 -0.3400 0.3400
vn 0.6621 -0.3509 0.6621
vn 0.5774 -0.5774 0.5773
vn 0.6621 -0.6621 0.3509
vn 0.8768 -0.3400 -0.3400
vn 0.6621 -0.6621 -0.3509
vn 0.3400 0.3400 0.8768
vn 0.3509 0.6621 0.6621
vn -0.3400 0.3400 0.8768
vn -0.3509 0.6621 0.6621
vn -0.3400 -0.3400 0.8768
vn -0.3509 -0.6621 0.6621
vn 0.3400 -0.3400 0.8768
vn 0.3509 -0.6621 0.6621
vn -0.3400 -0.8768 0.3400
vn -0.3046 -0.9025 -0.3046
vn -0.3824 -0.8827 -0.2730
vn -0.3674 -0.8544 -0.3674
vn -0.2730 -0.8827 -0.3824
vn 0.3400 -0.8768 -0.3400
vn 0.3400 -0.8768 0.3400
vn 0.3400 0.8768 0.3400
vn 0.3673 0.8685 -0.3327
vn -0.3327 0.8685 0.3673
vn 0.0101 0.9341 0.3569
vn -0.0000 0.7071 0.7071
vn 0.1152 0.9867 0.1152
vn -0.3217 0.8948 0.3097
vn -0.6618 0.6618 0.3524
vn 0.3097 0.8948 -0.3217
vn 0.3524 0.6618 -0.6618
vn 0.3569 0.9341 0.0101
vn 0.7071 0.7071 0.0000
vn 0.0000 -0.9374 0.3481
vn 0.0000 -0.7071 0.7071
vn -0.0000 -1.0000 -0.0000
vn 0.3481 -0.9374 -0.0000
vn 0.7071 -0.7071 -0.0000
vn 0.0138 -0.9418 -0.3359
vn 0.1395 -0.7991 -0.5848
vn -0.3359 -0.9418 0.0138
vn -0.5848 -0.7991 0.1395
vn 0.3481 -0.0000 0.9374
vn 0.7071 -0.0000 0.7071
vn 0.0000 -0.0000 1.0000
vn 0.0000 -0.3481 0.9374
vn -0.3481 -0.0000 0.9374
vn -0.7071 -0.0000 0.7071
vn -0.0000 0.3481 0.9374
vn 0.9374 -0.0000 -0.3481
vn 0.7071 -0.0000 -0.7071
vn 1.0000 -0.0000 0.0000
vn 0.9374 -0.3481 -0.0000
vn 0.9374 -0.0000 0.3481
vn 0.9374 0.3481 -0.0000
vn 0.3151 -0.3570 -0.8794
vn 0.3164 -0.0000 -0.9486
vn 0.3826 -0.0000 -0.9239
vn 0.3267 0.3413 -0.8813
vn -0.9239 -0.0000 0.3826
vn -0.9486 -0.0000 0.3164
vn -0.8794 -0.3569 0.3151
vn -0.8813 0.3413 0.3267
vn 0.4244 0.6767 0.6016
vn 0.2450 0.4076 0.8797
vn 0.5154 0.8078 0.2860
vn 0.1907 0.9460 0.2621
vn -0.2296 0.9545 0.1901
vn 0.5420 0.8378 -0.0654
vn 0.4839 0.7348 -0.4752
vn 0.7448 0.6067 0.2779
vn 0.7810 0.5616 0.2733
vn -0.7688 -0.3859 -0.5099
vn -0.5769 -0.1834 -0.7959
vn -0.8524 -0.4528 -0.2615
vn -0.8743 -0.4151 -0.2515
vn -0.9596 -0.1875 -0.2096
vn -0.8466 -0.5315 0.0275
vn -0.5783 -0.5748 0.5789
vn 0.0923 -0.3841 0.9186
vn 0.1415 -0.4094 0.9013
vn -0.1689 -0.2314 0.9581
vn -0.3452 -0.4818 0.8054
vn -0.4522 -0.0285 0.8915
vn -0.7304 0.2132 0.6488
vn 0.0211 0.0643 0.9977
vn -0.1392 0.4171 -0.8981
vn -0.4984 0.5333 -0.6836
vn 0.1293 0.3838 -0.9143
vn -0.2805 0.1147 -0.9530
vn 0.5392 0.3268 -0.7762
vn 0.6132 0.3172 -0.7235
vn 0.3333 0.5099 -0.7930
vn -0.8759 0.3957 0.2761
vn -0.8759 0.4810 -0.0386
vn -0.9840 0.1027 -0.1457
vn -0.7705 0.5404 -0.3381
vn -0.6139 0.7852 0.0812
vn 0.4116 0.6578 0.6308
vn 0.4355 0.6931 0.5744
vn 0.1123 0.8214 0.5592
vn -0.2744 0.8118 0.5155
vn 0.6999 0.4439 0.5596
vn 0.9492 0.0069 0.3146
vn -0.5420 -0.8378 0.0654
vn -0.4839 -0.7348 0.4752
vn -0.5154 -0.8078 -0.2860
vn -0.1907 -0.9460 -0.2621
vn 0.2296 -0.9545 -0.1901
vn -0.4405 -0.7004 -0.5616
vn -0.4214 -0.6723 -0.6086
vn -0.7757 -0.5685 -0.2741
vn -0.9585 -0.1879 -0.2144
vn 0.1341 -0.4057 0.9041
vn 0.4746 -0.5470 0.6896
vn -0.3378 -0.4982 0.7986
vn -0.4508 -0.0282 0.8922
vn -0.7135 0.2197 0.6653
vn 0.8519 -0.4471 -0.2726
vn 0.8452 -0.4241 -0.3253
vn 0.8401 -0.5421 0.0172
vn 0.6081 -0.7894 -0.0834
vn 0.7287 -0.5888 0.3497
vn 0.9620 -0.2425 0.1255
vn -0.8502 0.4156 0.3230
vn -0.9077 0.4152 0.0604
vn -0.9704 0.2157 -0.1085
vn -0.8854 0.2958 -0.3587
vn -0.8634 0.2531 -0.4363
vn -0.6382 0.6733 0.3733
vn 0.8681 0.3224 0.3775
vn 0.7520 0.6568 -0.0558
vn 0.7651 0.0900 0.6376
vn 0.7988 0.0404 0.6003
vn 0.9096 -0.2325 0.3442
vn 0.5818 -0.1832 0.7924
vn 0.1113 -0.4751 0.8729
vn -0.6705 -0.5343 -0.5147
vn -0.6840 -0.7179 -0.1299
vn -0.5663 -0.3070 -0.7649
vn -0.2802 -0.5091 -0.8138
vn 0.1087 -0.6666 -0.7375
vn -0.3913 -0.0412 -0.9193
vn -0.1170 0.2838 -0.9517
vn -0.7816 -0.0664 -0.6202
vn -0.9096 0.2325 -0.3442
vn -0.1251 -0.8853 0.4479
vn 0.2257 -0.9503 0.2143
vn -0.4009 -0.7082 0.5811
vn -0.5730 -0.7708 0.2785
vn -0.6273 -0.4578 0.6301
vn -0.8205 -0.2370 0.5203
vn -0.1774 -0.5727 0.8003
vn 0.8146 -0.3494 -0.4630
vn 0.7927 0.0513 -0.6075
vn 0.7201 -0.6357 -0.2780
vn 0.4779 -0.7028 -0.5269
vn 0.5355 -0.8425 -0.0584
vn 0.8722 -0.4891 0.0056
vn 0.1279 0.8763 -0.4645
vn -0.1797 0.8949 -0.4084
vn 0.4009 0.7082 -0.5811
vn 0.1787 0.5571 -0.8110
vn 0.6265 0.4426 -0.6415
vn 0.5777 0.7613 -0.2942
vn -0.9548 0.2095 0.2109
vn -0.8623 0.5060 0.0218
vn -0.8820 0.4699 -0.0357
vn -0.6686 0.7151 -0.2040
vn 0.3843 0.7189 0.5792
vn 0.0395 0.8734 0.4854
vn 0.6641 0.5153 0.5417
vn 0.6766 0.5546 0.4843
vn 0.6840 0.7179 0.1299
vn 0.8814 0.2662 0.3902
vn 0.9625 -0.2297 0.1441
vn -0.6609 -0.5063 -0.5540
vn -0.6720 -0.5392 -0.5076
vn -0.5664 -0.3070 -0.7649
vn -0.7697 -0.0658 -0.6350
vn -0.8178 0.2253 -0.5296
vn 0.7201 -0.6357 -0.2781
vn 0.5656 -0.8197 -0.0898
vn 0.5300 -0.8464 -0.0527
vn 0.8739 -0.4859 -0.0130
vn 0.1251 0.8853 -0.4479
vn -0.2257 0.9503 -0.2143
vn 0.5730 0.7708 -0.2785
vn -0.7090 0.6727 -0.2116
vn -0.5563 0.8272 0.0799
vn -0.5119 0.8583 0.0346
vn -0.3104 0.8965 0.3163
vn -0.1169 0.8726 0.4742
vn 0.3544 0.3258 -0.8765
vn -0.2449 0.2869 0.9261
vn -0.7624 0.4468 -0.4682
vn 0.0819 0.9705 0.2270
vn 0.5528 0.8308 0.0649
vn -0.9699 0.1683 0.1762
vn 0.1721 0.9701 -0.1709
vn -0.8129 -0.4873 0.3190
vn 0.7153 -0.4241 0.5554
vn 0.5565 -0.8242 0.1048
vn 0.3760 0.3923 0.8395
vn -0.7092 0.0667 -0.7019
vn -0.0194 0.0328 -0.9993
vn -0.9961 0.0885 0.0005
vn 0.7034 -0.0095 0.7108
vn -0.0193 0.0359 0.9992
vn 0.9998 -0.0222 0.0006
vn -0.7089 0.0688 0.7020
vn 0.7036 -0.0117 -0.7105
vn -0.4342 -0.2393 -0.8685
vn -0.4802 -0.4108 -0.7750
vn -0.5364 -0.6622 -0.5231
vn -0.3100 0.6968 -0.6468
vn -0.2504 0.6378 -0.7284
vn -0.4268 0.7718 -0.4714
vn -0.5561 0.7980 -0.2320
vn -0.6146 0.7869 0.0558
vn -0.9003 0.0940 0.4250
vn -0.8079 0.4216 0.4119
vn -0.8955 -0.2486 0.3691
vn -0.6721 -0.7307 -0.1198
vn -0.7047 -0.6941 0.1471
vn 0.5629 -0.3522 0.7478
vn 0.4548 0.0659 0.8882
vn 0.6403 -0.6797 0.3579
vn 0.3052 0.5388 0.7852
vn 0.0125 0.4870 0.8733
vn 0.5298 0.5199 0.6701
vn 0.6345 0.6147 0.4685
vn 0.6952 0.7109 0.1064
vn 0.6330 0.7158 -0.2948
vn 0.4845 0.7744 -0.4070
vn 0.8419 0.4786 -0.2491
vn 0.9243 0.1769 -0.3382
vn 0.9333 -0.0716 -0.3519
vn 0.7404 -0.5418 -0.3978
vn 0.5712 -0.4193 -0.7056
vn 0.7999 -0.5832 -0.1416
vn 0.7562 -0.6435 0.1186
vn 0.0833 -0.8494 0.5212
vn 0.2068 -0.5311 -0.8217
vn 0.0309 -0.5150 -0.8566
vn -0.6032 -0.7145 0.3545
vn -0.3976 -0.7481 0.5312
vn -0.1331 -0.7979 0.5879
vn -0.8211 -0.5048 0.2664
vn -0.6426 0.6028 0.4729
vn -0.4018 0.6920 0.5997
vn 0.6717 0.6979 -0.2484
vn -0.1530 0.6107 0.7770
vn -0.7032 0.6643 0.2536
vn -0.1833 0.7263 -0.6624
vn 0.0775 0.8093 -0.5823
vn 0.3382 0.8041 -0.4889
vn -0.0857 -0.4527 -0.8875
vn 0.3581 -0.8040 0.4747
vn 0.2196 0.3694 0.9029
vn 0.8379 -0.2194 -0.4997
usemtl None
s 1
f 1/1/1 271/2/2 326/3/3
f 3/4/4 614/5/5 667/6/6
f 5/7/7 552/8/8 501/9/9
f 7/10/10 382/11/11 429/12/12
f 5/7/7 254/13/13 550/14/14
f 7/10/10 473/15/15 382/11/11
f 1/1/1 308/16/16 271/2/2
f 2/17/17 417/18/18 253/19/19
f 7/10/10 429/12/12 529/20/20
f 13/21/21 500/22/22 548/23/23
f 16/24/24 248/25/25 497/26/26
f 13/27/21 548/28/23 660/29/27
f 17/30/28 266/31/29 316/32/30
f 20/33/31 545/34/32 361/35/33
f 17/30/28 539/36/34 372/37/35
f 20/33/31 413/38/36 545/34/32
f 13/21/21 567/39/37 609/40/38
f 16/24/24 486/41/39 481/42/40
f 20/43/31 361/44/33 259/45/41
f 25/46/42 535/47/43 268/48/44
f 25/46/42 268/48/44 318/49/45
f 27/50/46 607/51/47 656/52/48
f 30/53/49 661/54/50 493/55/51
f 27/50/46 416/56/52 258/57/53
f 30/53/49 544/58/54 661/54/50
f 25/46/42 420/59/55 618/60/56
f 34/61/57 389/62/58 396/63/59
f 30/53/49 493/55/51 246/64/60
f 35/65/61 562/66/62 479/67/63
f 35/65/61 479/67/63 642/68/64
f 37/69/65 359/70/66 472/71/67
f 39/72/68 251/73/69 411/74/70
f 37/69/65 593/75/71 530/76/72
f 39/77/68 239/78/73 251/79/69
f 35/65/61 302/80/74 345/81/75
f 42/82/76 578/83/77 630/84/78
f 39/72/68 411/74/70 526/85/79
f 43/86/80 484/87/81 263/88/82
f 44/89/83 638/90/84 528/91/85
f 45/92/86 260/93/87 222/94/88
f 45/95/86 331/96/89 356/97/90
f 46/98/91 625/99/92 514/100/93
f 44/101/83 511/102/94 468/103/95
f 31/104/96 422/105/97 336/106/98
f 47/107/99 341/108/100 574/109/101
f 48/110/102 613/111/103 300/112/104
f 49/113/105 437/114/106 374/115/107
f 50/116/108 282/117/109 399/118/110
f 49/119/105 491/120/111 601/121/112
f 48/122/102 573/123/113 247/124/114
f 3/4/4 432/125/115 649/126/116
f 2/17/17 253/19/19 311/127/117
f 1/1/1 326/3/3 427/128/118
f 1/1/1 427/128/118 546/129/119
f 5/7/7 501/9/9 254/13/13
f 1/1/1 546/129/119 308/16/16
f 13/21/21 609/40/38 500/22/22
f 16/24/24 481/42/40 248/25/25
f 17/30/28 428/130/120 266/31/29
f 13/27/21 660/29/27 330/131/121
f 17/30/28 316/32/30 539/36/34
f 13/21/21 330/132/121 567/39/37
f 16/24/24 229/133/122 486/41/39
f 24/134/123 485/135/124 435/136/125
f 25/46/42 618/60/56 535/47/43
f 34/61/57 396/63/59 509/137/126
f 27/50/46 423/138/127 607/51/47
f 25/46/42 318/49/45 490/139/128
f 27/50/46 656/52/48 416/56/52
f 25/46/42 490/139/128 420/59/55
f 35/65/61 345/81/75 562/66/62
f 42/82/76 630/84/78 286/140/129
f 37/69/65 534/141/130 359/70/66
f 35/65/61 642/68/64 289/142/131
f 37/69/65 472/71/67 593/75/71
f 35/65/61 289/142/131 302/80/74
f 44/89/83 468/143/95 310/144/132
f 43/145/80 296/146/133 624/147/134
f 43/86/80 624/148/134 484/87/81
f 44/89/83 310/144/132 638/90/84
f 45/92/86 466/149/135 260/93/87
f 44/101/83 528/150/85 454/151/136
f 45/95/86 222/152/88 331/96/89
f 46/98/91 398/153/137 625/99/92
f 44/101/83 454/151/136 511/102/94
f 43/145/80 445/154/138 296/146/133
f 46/98/91 514/100/93 633/155/139
f 48/110/102 247/156/114 623/157/140
f 47/107/99 392/158/141 341/108/100
f 48/110/102 623/157/140 613/111/103
f 48/122/102 300/159/104 643/160/142
f 49/119/105 374/161/107 491/120/111
f 50/116/108 499/162/143 282/117/109
f 48/122/102 643/160/142 573/123/113
f 47/163/99 634/164/144 392/165/141
f 50/116/108 399/118/110 430/166/145
f 802/167/146 541/168/147 53/169/148 367/170/149
f 801/171/150 307/172/151 57/173/152 602/174/153
f 800/175/154 476/176/155 56/177/156 257/178/157
f 799/179/158 299/180/159 52/181/160 483/182/161
f 798/183/162 489/184/163 60/185/164 572/186/165
f 797/187/166 648/188/167 59/189/168 283/190/169
f 796/191/170 465/192/171 62/193/172 358/194/173
f 795/195/174 542/196/175 63/197/176 261/198/177
f 794/199/178 301/200/179 65/201/180 450/202/181
f 793/203/182 250/204/183 64/205/184 312/206/185
f 792/207/186 496/208/187 66/209/188 378/210/189
f 791/211/190 569/212/191 68/213/192 280/214/193
f 790/215/194 558/216/195 70/217/196 626/218/197
f 65/201/180 312/206/185 556/219/198
f 789/220/199 391/221/200 69/222/201 231/223/202
f 788/224/203 277/225/204 73/226/205 442/227/206
f 787/228/207 655/229/208 74/230/209 394/231/210
f 786/232/211 317/233/212 76/234/213 335/235/214
f 785/236/215 611/237/216 75/238/217 566/239/218
f 784/240/219 228/241/220 78/242/221 622/243/222
f 783/244/223 549/245/224 71/246/225 387/247/226
f 782/248/227 556/219/198 72/249/228 424/250/229
f 781/251/230 504/252/231 81/253/232 275/254/233
f 780/255/234 401/256/235 77/257/236 264/258/237
f 779/259/238 388/260/239 83/261/240 555/262/241
f 81/253/232 390/263/242 381/264/243
f 778/265/244 379/266/245 79/267/246 390/263/242
f 777/268/247 221/269/248 86/270/249 615/271/250
f 776/272/251 585/273/252 87/274/253 329/275/254
f 775/276/255 347/277/256 89/278/257 439/279/258
f 74/230/209 442/227/206 370/280/259
f 774/281/260 557/282/261 92/283/262 328/284/263
f 73/285/205 335/235/214 419/286/264
f 773/287/265 419/288/264 90/289/266 431/290/267
f 772/291/268 600/292/269 93/293/270 225/294/271
f 771/295/272 426/296/273 94/297/274 619/298/275
f 770/299/276 596/300/277 95/301/278 274/302/279
f 82/303/280 285/304/281 404/305/282
f 769/306/283 319/307/284 80/308/285 561/309/286
f 768/310/287 320/311/288 96/312/289 306/313/290
f 767/314/291 540/315/292 84/316/293 415/317/294
f 766/318/295 579/319/296 98/320/297 463/321/298
f 765/322/299 518/323/300 97/324/301 365/325/302
f 764/326/303 294/327/304 88/328/305 666/329/306
f 763/330/307 373/331/308 100/332/309 284/333/310
f 762/334/311 295/335/312 101/336/313 346/337/314
f 761/338/315 364/339/316 102/340/317 224/341/318
f 760/342/319 371/343/320 61/344/321 521/345/322
f 759/346/323 405/347/324 99/348/325 525/349/326
f 758/350/327 510/351/328 105/352/329 575/353/330
f 757/354/331 400/355/332 107/356/333 237/357/334
f 756/358/335 575/353/330 105/352/329 338/359/336
f 755/360/337 631/361/338 111/362/339 453/363/340
f 754/364/341 524/365/342 113/366/343 584/367/344
f 753/368/345 293/369/346 107/356/333 400/355/332
f 752/370/347 453/363/340 111/362/339 637/371/348
f 751/372/349 288/373/350 117/374/351 350/375/352
f 750/376/353 635/377/354 119/378/355 459/379/356
f 749/380/357 234/381/358 113/366/343 524/365/342
f 748/382/359 409/383/360 123/384/361 603/385/362
f 747/386/363 237/357/334 107/356/333 293/369/346
f 746/387/364 584/367/344 113/366/343 234/381/358
f 745/388/365 459/379/356 119/378/355 324/389/366
f 744/390/367 637/371/348 111/362/339 631/361/338
f 743/391/368 338/359/336 105/352/329 510/351/328
f 742/392/369 639/393/370 127/394/333 464/395/371
f 741/396/372 467/397/373 129/398/374 641/399/375
f 740/400/376 355/401/377 132/402/378 471/403/379
f 739/404/337 408/405/380 134/406/339 583/407/340
f 738/408/341 290/409/342 136/410/343 242/411/344
f 737/412/345 418/413/346 127/394/333 639/393/370
f 736/414/347 583/407/340 134/406/339 334/415/381
f 735/416/382 520/417/383 140/418/384 458/419/385
f 734/420/386 407/421/387 142/422/388 581/423/389
f 733/424/357 333/425/358 136/410/343 290/409/342
f 732/426/390 458/419/385 140/418/384 236/427/391
f 731/428/392 632/429/393 146/430/394 270/431/395
f 730/432/396 641/399/375 129/398/374 665/433/397
f 729/434/398 298/435/399 142/422/388 407/421/387
f 728/436/400 665/433/397 129/398/374 467/397/373
f 727/437/363 464/395/371 127/394/333 418/413/346
f 726/438/364 242/411/344 136/410/343 333/425/358
f 725/439/401 581/423/389 142/422/388 298/435/399
f 724/440/402 236/427/391 140/418/384 520/417/383
f 723/441/403 334/415/381 134/406/339 408/405/380
f 722/442/404 287/443/405 152/444/406 240/445/407
f 721/446/408 348/447/409 155/448/410 513/449/411
f 720/450/412 456/451/413 157/452/414 551/453/415
f 719/454/416 276/455/417 160/456/418 227/457/419
f 718/458/420 505/459/421 162/460/422 337/461/423
f 717/462/424 393/463/425 164/464/426 441/465/427
f 716/466/428 278/467/429 166/468/430 512/469/431
f 715/470/432 337/461/423 162/460/422 498/471/433
f 714/472/434 322/473/435 152/444/406 287/443/405
f 713/474/436 551/453/415 157/452/414 470/475/437
f 712/476/438 668/477/439 164/464/426 393/463/425
f 711/478/440 470/475/437 157/452/414 456/451/413
f 710/479/441 513/449/411 155/448/410 377/480/442
f 709/481/443 309/482/444 166/468/430 278/467/429
f 708/483/445 441/465/427 164/464/426 668/477/439
f 707/484/446 498/471/433 162/460/422 505/459/421
f 706/485/447 240/445/407 152/444/406 322/473/435
f 705/486/448 553/487/449 175/488/406 627/489/450
f 704/490/451 230/491/452 177/492/453 506/493/454
f 703/494/455 339/495/456 179/496/457 397/497/458
f 702/498/459 447/499/460 181/500/461 620/501/462
f 701/502/463 506/493/454 177/492/453 434/503/464
f 700/504/465 629/505/466 184/506/467 232/507/468
f 699/508/469 267/509/470 179/496/457 339/495/456
f 698/510/471 443/511/472 189/512/473 279/513/474
f 697/514/434 478/515/435 175/488/406 553/487/449
f 696/516/475 620/501/462 181/500/461 425/517/476
f 695/518/477 654/519/478 192/520/479 273/521/480
f 694/522/481 425/517/476 181/500/461 447/499/460
f 693/523/482 397/497/458 179/496/457 267/509/470
f 692/524/483 279/513/474 189/512/473 455/525/484
f 691/526/485 595/527/486 184/506/467 629/505/466
f 690/528/487 434/503/464 177/492/453 230/491/452
f 689/529/488 627/489/450 175/488/406 478/515/435
f 688/530/489 657/531/490 198/532/491 604/533/492
f 687/534/493 482/535/494 201/536/495 598/537/496
f 686/538/497 537/539/498 204/540/499 255/541/500
f 685/542/501 646/543/502 206/544/503 597/545/504
f 684/546/505 255/541/500 204/540/499 469/547/506
f 683/548/507 412/549/508 210/550/509 362/551/510
f 682/552/511 531/553/512 212/554/513 252/555/514
f 681/556/515 414/557/516 206/544/503 646/543/502
f 680/558/517 362/551/510 210/550/509 586/559/518
f 679/560/519 563/561/520 198/532/491 657/531/490
f 678/562/521 598/537/496 201/536/495 495/563/522
f 677/564/523 403/565/524 212/554/513 531/553/512
f 676/566/525 495/563/522 201/536/495 482/535/494
f 675/567/526 492/568/527 218/569/528 610/570/529
f 674/571/530 597/545/504 206/544/503 414/557/516
f 673/572/531 252/555/514 212/554/513 403/565/524
f 672/573/532 586/559/518 210/550/509 412/549/508
f 671/574/533 469/547/506 204/540/499 537/539/498
f 670/575/534 604/533/492 198/532/491 563/561/520
f 226/576/535 670/575/534 563/561/520 215/577/536
f 219/578/537 653/579/538 670/575/534 226/576/535
f 653/579/538 199/580/539 604/533/492 670/575/534
f 223/581/540 671/574/533 537/539/498 203/582/541
f 219/583/537 448/584/542 671/574/533 223/581/540
f 448/584/542 209/585/543 469/547/506 671/574/533
f 448/584/542 672/573/532 412/549/508 209/585/543
f 219/583/537 226/586/535 672/573/532 448/584/542
f 226/586/535 215/587/536 586/559/518 672/573/532
f 477/588/544 673/572/531 403/565/524 216/589/545
f 217/590/546 580/591/547 673/572/531 477/588/544
f 580/591/547 213/592/548 252/555/514 673/572/531
f 580/591/547 674/571/530 414/557/516 213/592/548
f 217/590/546 313/593/549 674/571/530 580/591/547
f 313/593/549 207/594/550 597/545/504 674/571/530
f 313/595/549 675/567/526 610/570/529 207/596/550
f 217/597/546 446/598/551 675/567/526 313/595/549
f 446/598/551 200/599/552 492/568/527 675/567/526
f 446/598/551 676/566/525 482/535/494 200/599/552
f 217/597/546 477/600/544 676/566/525 446/598/551
f 477/600/544 216/601/545 495/563/522 676/566/525
f 406/602/553 677/564/523 531/553/512 211/603/554
f 214/604/555 640/605/556 677/564/523 406/602/553
f 640/605/556 216/589/545 403/565/524 677/564/523
f 640/606/556 678/562/521 495/563/522 216/601/545
f 214/604/555 628/607/557 678/562/521 640/606/556
f 628/607/557 197/608/558 598/537/496 678/562/521
f 628/607/557 679/560/519 657/531/490 197/608/558
f 214/604/555 589/609/559 679/560/519 628/607/557
f 589/609/559 215/577/536 563/561/520 679/560/519
f 589/610/559 680/558/517 586/559/518 215/587/536
f 214/604/555 406/602/553 680/558/517 589/610/559
f 406/602/553 211/603/554 362/551/510 680/558/517
f 532/611/560 681/556/515 646/543/502 205/612/561
f 208/613/562 651/614/563 681/556/515 532/611/560
f 651/614/563 213/592/548 414/557/516 681/556/515
f 651/614/563 682/552/511 252/555/514 213/592/548
f 208/613/562 536/615/564 682/552/511 651/614/563
f 536/615/564 211/603/554 531/553/512 682/552/511
f 536/615/564 683/548/507 362/551/510 211/603/554
f 208/613/562 474/616/565 683/548/507 536/615/564
f 474/616/565 209/585/543 412/549/508 683/548/507
f 474/616/565 684/546/505 469/547/506 209/585/543
f 208/613/562 532/611/560 684/546/505 474/616/565
f 532/611/560 205/612/561 255/541/500 684/546/505
f 590/617/566 685/542/501 597/545/504 207/594/550
f 202/618/567 475/619/568 685/542/501 590/617/566
f 475/619/568 205/612/561 646/543/502 685/542/501
f 475/619/568 686/538/497 255/541/500 205/612/561
f 202/618/567 366/620/569 686/538/497 475/619/568
f 366/620/569 203/582/541 537/539/498 686/538/497
f 265/621/570 687/534/493 598/537/496 197/608/558
f 196/622/571 410/623/572 687/534/493 265/621/570
f 410/623/572 200/599/552 482/535/494 687/534/493
f 363/624/573 688/530/489 604/533/492 199/580/539
f 196/622/571 265/621/570 688/530/489 363/624/573
f 265/621/570 197/608/558 657/531/490 688/530/489
f 402/625/574 689/529/488 478/515/435 190/626/575
f 194/627/576 650/628/577 689/529/488 402/625/574
f 650/628/577 176/629/578 627/489/450 689/529/488
f 650/628/577 690/528/487 230/491/452 176/629/578
f 194/627/576 297/630/579 690/528/487 650/628/577
f 297/630/579 183/631/580 434/503/464 690/528/487
f 297/632/579 691/526/485 629/505/466 183/633/580
f 194/634/576 376/635/581 691/526/485 297/632/579
f 376/635/581 195/636/582 595/527/486 691/526/485
f 376/635/581 692/524/483 455/525/484 195/636/582
f 194/634/576 402/637/574 692/524/483 376/635/581
f 402/637/574 190/638/575 279/513/474 692/524/483
f 433/639/583 693/523/482 267/509/470 186/640/584
f 193/641/585 658/642/586 693/523/482 433/639/583
f 658/642/586 180/643/587 397/497/458 693/523/482
f 658/642/586 694/522/481 447/499/460 180/643/587
f 193/641/585 368/644/588 694/522/481 658/642/586
f 368/644/588 191/645/589 425/517/476 694/522/481
f 395/646/590 695/518/477 273/521/480 188/647/591
f 187/648/592 220/649/593 695/518/477 395/646/590
f 220/649/593 191/650/589 654/519/478 695/518/477
f 220/651/593 696/516/475 425/517/476 191/645/589
f 187/648/592 292/652/594 696/516/475 220/651/593
f 292/652/594 174/653/595 620/501/462 696/516/475
f 292/652/594 697/514/434 553/487/449 174/653/595
f 187/648/592 502/654/596 697/514/434 292/652/594
f 502/654/596 190/626/575 478/515/435 697/514/434
f 502/655/596 698/510/471 279/513/474 190/638/575
f 187/648/592 395/646/590 698/510/471 502/655/596
f 395/646/590 188/647/591 443/511/472 698/510/471
f 616/656/597 699/508/469 339/495/456 178/657/598
f 182/658/599 369/659/600 699/508/469 616/656/597
f 369/659/600 186/640/584 267/509/470 699/508/469
f 438/660/601 700/504/465 232/507/468 185/661/602
f 182/658/599 564/662/603 700/504/465 438/660/601
f 564/662/603 183/633/580 629/505/466 700/504/465
f 564/663/603 701/502/463 434/503/464 183/631/580
f 182/658/599 616/656/597 701/502/463 564/663/603
f 616/656/597 178/657/598 506/493/454 701/502/463
f 272/664/604 702/498/459 620/501/462 174/653/595
f 173/665/605 565/666/606 702/498/459 272/664/604
f 565/666/606 180/643/587 447/499/460 702/498/459
f 565/666/606 703/494/455 397/497/458 180/643/587
f 173/665/605 440/667/607 703/494/455 565/666/606
f 440/667/607 178/657/598 339/495/456 703/494/455
f 440/667/607 704/490/451 506/493/454 178/657/598
f 173/665/605 383/668/608 704/490/451 440/667/607
f 383/668/608 176/629/578 230/491/452 704/490/451
f 383/668/608 705/486/448 627/489/450 176/629/578
f 173/665/605 272/664/604 705/486/448 383/668/608
f 272/664/604 174/653/595 553/487/449 705/486/448
f 480/669/609 706/485/447 322/473/435 168/670/575
f 172/671/610 662/672/611 706/485/447 480/669/609
f 662/672/611 153/673/612 240/445/407 706/485/447
f 605/674/613 707/484/446 505/459/421 161/675/614
f 172/676/610 480/677/609 707/484/446 605/674/613
f 480/677/609 168/678/575 498/471/433 707/484/446
f 503/679/615 708/483/445 668/477/439 169/680/616
f 170/681/617 487/682/618 708/483/445 503/679/615
f 487/682/618 165/683/619 441/465/427 708/483/445
f 487/682/618 709/481/443 278/467/429 165/683/619
f 170/681/617 332/684/620 709/481/443 487/682/618
f 332/684/620 171/685/621 309/482/444 709/481/443
f 332/686/620 710/479/441 377/480/442 171/687/621
f 170/688/617 659/689/622 710/479/441 332/686/620
f 659/689/622 156/690/623 513/449/411 710/479/441
f 659/689/622 711/478/440 456/451/413 156/690/623
f 170/688/617 503/691/615 711/478/440 659/689/622
f 503/691/615 169/692/616 470/475/437 711/478/440
f 663/693/624 712/476/438 393/463/425 163/694/625
f 167/695/592 327/696/626 712/476/438 663/693/624
f 327/696/626 169/680/616 668/477/439 712/476/438
f 327/697/626 713/474/436 470/475/437 169/692/616
f 167/695/592 608/698/627 713/474/436 327/697/626
f 608/698/627 151/699/628 551/453/415 713/474/436
f 608/698/627 714/472/434 287/443/405 151/699/628
f 167/695/592 617/700/596 714/472/434 608/698/627
f 617/700/596 168/670/575 322/473/435 714/472/434
f 617/701/596 715/470/432 498/471/433 168/678/575
f 167/695/592 663/693/624 715/470/432 617/701/596
f 663/693/624 163/694/625 337/461/423 715/470/432
f 577/702/629 716/466/428 512/469/431 159/703/630
f 158/704/631 582/705/632 716/466/428 577/702/629
f 582/705/632 165/683/619 278/467/429 716/466/428
f 582/705/632 717/462/424 441/465/427 165/683/619
f 158/704/631 245/706/633 717/462/424 582/705/632
f 245/706/633 163/694/625 393/463/425 717/462/424
f 245/706/633 718/458/420 337/461/423 163/694/625
f 158/704/631 451/707/634 718/458/420 245/706/633
f 451/707/634 161/675/614 505/459/421 718/458/420
f 451/707/634 719/454/416 227/457/419 161/675/614
f 158/704/631 577/702/629 719/454/416 451/707/634
f 577/702/629 159/703/630 276/455/417 719/454/416
f 570/708/635 720/450/412 551/453/415 151/699/628
f 150/709/636 606/710/637 720/450/412 570/708/635
f 606/710/637 156/690/623 456/451/413 720/450/412
f 606/710/637 721/446/408 513/449/411 156/690/623
f 150/709/636 269/711/638 721/446/408 606/710/637
f 269/711/638 154/712/639 348/447/409 721/446/408
f 444/713/640 722/442/404 240/445/407 153/673/612
f 150/709/636 570/708/635 722/442/404 444/713/640
f 570/708/635 151/699/628 287/443/405 722/442/404
f 314/714/641 723/441/403 408/405/380 133/715/642
f 149/716/643 538/717/644 723/441/403 314/714/641
f 538/717/644 139/718/645 334/415/381 723/441/403
f 538/717/644 724/440/402 520/417/383 139/718/645
f 149/716/643 342/719/646 724/440/402 538/717/644
f 342/719/646 145/720/647 236/427/391 724/440/402
f 516/721/648 725/439/401 298/435/399 147/722/649
f 148/723/650 461/724/651 725/439/401 516/721/648
f 461/724/651 143/725/652 581/423/389 725/439/401
f 461/724/651 726/438/364 333/425/358 143/725/652
f 148/723/650 249/726/653 726/438/364 461/724/651
f 249/726/653 137/727/654 242/411/344 726/438/364
f 249/728/653 727/437/363 418/413/346 137/729/654
f 148/730/650 554/731/655 727/437/363 249/728/653
f 554/731/655 128/732/656 464/395/371 727/437/363
f 554/731/655 728/436/400 467/397/373 128/732/656
f 148/730/650 516/733/648 728/436/400 554/731/655
f 516/733/648 147/734/649 665/433/397 728/436/400
f 517/735/657 729/434/398 407/421/387 141/736/658
f 144/737/659 519/738/660 729/434/398 517/735/657
f 519/738/660 147/722/649 298/435/399 729/434/398
f 519/739/660 730/432/396 665/433/397 147/734/649
f 144/737/659 384/740/661 730/432/396 519/739/660
f 384/740/661 130/741/662 641/399/375 730/432/396
f 384/740/661 731/428/392 270/431/395 130/741/662
f 144/737/659 238/742/663 731/428/392 384/740/661
f 238/742/663 145/743/647 632/429/393 731/428/392
f 238/744/663 732/426/390 236/427/391 145/720/647
f 144/737/659 517/735/657 732/426/390 238/744/663
f 517/735/657 141/736/658 458/419/385 732/426/390
f 385/745/664 733/424/357 290/409/342 135/746/665
f 138/747/666 571/748/667 733/424/357 385/745/664
f 571/748/667 143/725/652 333/425/358 733/424/357
f 571/748/667 734/420/386 581/423/389 143/725/652
f 138/747/666 241/749/668 734/420/386 571/748/667
f 241/749/668 141/736/658 407/421/387 734/420/386
f 241/749/668 735/416/382 458/419/385 141/736/658
f 138/747/666 351/750/669 735/416/382 241/749/668
f 351/750/669 139/718/645 520/417/383 735/416/382
f 351/750/669 736/414/347 334/415/381 139/718/645
f 138/747/666 385/745/664 736/414/347 351/750/669
f 385/745/664 135/746/665 583/407/340 736/414/347
f 644/751/670 737/412/345 639/393/370 126/752/671
f 131/753/672 343/754/673 737/412/345 644/751/670
f 343/754/673 137/729/654 418/413/346 737/412/345
f 343/755/673 738/408/341 242/411/344 137/727/654
f 131/753/672 233/756/674 738/408/341 343/755/673
f 233/756/674 135/746/665 290/409/342 738/408/341
f 233/756/674 739/404/337 583/407/340 135/746/665
f 131/753/672 591/757/675 739/404/337 233/756/674
f 591/757/675 133/715/642 408/405/380 739/404/337
f 591/758/675 740/400/376 471/403/379 133/759/642
f 131/753/672 644/751/670 740/400/376 591/758/675
f 644/751/670 126/752/671 355/401/377 740/400/376
f 599/760/676 741/396/372 641/399/375 130/741/662
f 125/761/677 243/762/678 741/396/372 599/760/676
f 243/762/678 128/732/656 467/397/373 741/396/372
f 243/762/678 742/392/369 464/395/371 128/732/656
f 125/761/677 352/763/679 742/392/369 243/762/678
f 352/763/679 126/752/671 639/393/370 742/392/369
f 523/764/680 743/391/368 510/351/328 104/765/681
f 124/766/682 305/767/683 743/391/368 523/764/680
f 305/767/683 110/768/684 338/359/336 743/391/368
f 305/769/683 744/390/367 631/361/338 110/770/684
f 124/771/682 560/772/685 744/390/367 305/769/683
f 560/772/685 116/773/686 637/371/348 744/390/367
f 587/774/687 745/388/365 324/389/366 122/775/688
f 121/776/689 527/777/651 745/388/365 587/774/687
f 527/777/651 120/778/652 459/379/356 745/388/365
f 527/777/651 746/387/364 234/381/358 120/778/652
f 121/776/689 281/779/653 746/387/364 527/777/651
f 281/779/653 114/780/654 584/367/344 746/387/364
f 281/781/653 747/386/363 293/369/346 114/782/654
f 121/783/689 462/784/690 747/386/363 281/781/653
f 462/784/690 108/785/691 237/357/334 747/386/363
f 462/784/690 748/382/359 603/385/362 108/785/691
f 121/783/689 587/786/687 748/382/359 462/784/690
f 587/786/687 122/787/688 409/383/360 748/382/359
f 592/788/664 749/380/357 524/365/342 112/789/665
f 115/790/692 452/791/667 749/380/357 592/788/664
f 452/791/667 120/778/652 234/381/358 749/380/357
f 452/791/667 750/376/353 459/379/356 120/778/652
f 115/790/692 568/792/693 750/376/353 452/791/667
f 568/792/693 118/793/694 635/377/354 750/376/353
f 568/792/693 751/372/349 350/375/352 118/793/694
f 115/790/692 244/794/695 751/372/349 568/792/693
f 244/794/695 116/773/686 288/373/350 751/372/349
f 244/794/695 752/370/347 637/371/348 116/773/686
f 115/790/692 592/788/664 752/370/347 244/794/695
f 592/788/664 112/789/665 453/363/340 752/370/347
f 507/795/696 753/368/345 400/355/332 106/796/697
f 109/797/672 522/798/673 753/368/345 507/795/696
f 522/798/673 114/782/654 293/369/346 753/368/345
f 522/799/673 754/364/341 584/367/344 114/780/654
f 109/797/672 235/800/674 754/364/341 522/799/673
f 235/800/674 112/789/665 524/365/342 754/364/341
f 235/800/674 755/360/337 453/363/340 112/789/665
f 109/797/672 344/801/698 755/360/337 235/800/674
f 344/801/698 110/770/684 631/361/338 755/360/337
f 344/802/698 756/358/335 338/359/336 110/768/684
f 109/797/672 507/795/696 756/358/335 344/802/698
f 507/795/696 106/796/697 575/353/330 756/358/335
f 669/803/699 757/354/331 237/357/334 108/785/691
f 103/804/700 323/805/701 757/354/331 669/803/699
f 323/805/701 106/796/697 400/355/332 757/354/331
f 323/805/701 758/350/327 575/353/330 106/796/697
f 103/804/700 457/806/702 758/350/327 323/805/701
f 457/806/702 104/765/681 510/351/328 758/350/327
f 415/317/294 759/346/323 525/349/326 96/807/289
f 84/316/293 463/321/298 759/346/323 415/317/294
f 463/321/298 98/320/297 405/347/324 759/346/323
f 299/180/159 760/342/319 521/345/322 52/181/160
f 57/173/152 358/194/173 760/342/319 299/180/159
f 358/194/173 62/193/172 371/343/320 760/342/319
f 373/808/308 761/338/315 224/341/318 100/809/309
f 78/810/221 275/811/233 761/338/315 373/808/308
f 275/811/233 81/812/232 364/339/316 761/338/315
f 364/339/316 762/334/311 346/337/314 102/340/317
f 81/812/232 381/813/243 762/334/311 364/339/316
f 381/813/243 85/814/703 295/335/312 762/334/311
f 295/335/312 763/330/307 284/333/310 101/336/313
f 85/814/703 449/815/704 763/330/307 295/335/312
f 449/815/704 78/816/221 373/331/308 763/330/307
f 221/269/248 764/326/303 666/329/306 86/270/249
f 85/817/703 576/818/705 764/326/303 221/269/248
f 576/818/705 79/267/246 294/327/304 764/326/303
f 306/313/290 765/322/299 365/325/302 83/261/240
f 96/312/289 525/819/326 765/322/299 306/313/290
f 525/819/326 99/820/325 518/323/300 765/322/299
f 555/262/241 766/318/295 463/321/298 84/316/293
f 83/261/240 365/325/302 766/318/295 555/262/241
f 365/325/302 97/324/301 579/319/296 766/318/295
f 320/821/288 767/314/291 415/317/294 96/807/289
f 63/822/176 315/823/706 767/314/291 320/821/288
f 315/823/706 67/824/707 540/315/292 767/314/291
f 388/260/239 768/310/287 306/313/290 83/261/240
f 82/825/280 404/826/282 768/310/287 388/260/239
f 404/826/282 63/827/176 320/311/288 768/310/287
f 401/256/235 769/306/283 561/309/286 77/257/236
f 82/303/280 647/828/708 769/306/283 401/256/235
f 647/828/708 67/829/707 319/307/284 769/306/283
f 404/305/282 261/198/177 63/197/176
f 404/305/282 285/304/281 261/198/177
f 285/304/281 64/205/184 261/198/177
f 600/292/269 770/299/276 274/302/279 93/293/270
f 75/830/217 394/831/210 770/299/276 600/292/269
f 394/831/210 74/832/209 596/300/277 770/299/276
f 596/833/277 771/295/272 619/298/275 95/834/278
f 74/835/209 370/836/259 771/295/272 596/833/277
f 370/836/259 91/837/709 426/296/273 771/295/272
f 426/296/273 772/291/268 225/294/271 94/297/274
f 91/837/709 256/838/710 772/291/268 426/296/273
f 256/838/710 75/830/217 600/292/269 772/291/268
f 557/282/261 773/287/265 431/290/267 92/283/262
f 91/839/709 488/840/711 773/287/265 557/282/261
f 488/840/711 73/226/205 419/288/264 773/287/265
f 419/286/264 533/841/712 90/842/266
f 419/286/264 335/235/214 533/841/712
f 335/235/214 76/234/213 533/841/712
f 347/277/256 774/281/260 328/284/263 89/278/257
f 75/238/217 256/843/710 774/281/260 347/277/256
f 256/843/710 91/839/709 557/282/261 774/281/260
f 370/280/259 488/840/711 91/839/709
f 370/280/259 442/227/206 488/840/711
f 442/227/206 73/226/205 488/840/711
f 533/841/712 775/276/255 439/279/258 90/842/266
f 76/234/213 566/239/218 775/276/255 533/841/712
f 566/239/218 75/238/217 347/277/256 775/276/255
f 294/327/304 776/272/251 329/275/254 88/328/305
f 79/267/246 622/243/222 776/272/251 294/327/304
f 622/243/222 78/242/221 585/273/252 776/272/251
f 585/273/252 777/268/247 615/271/250 87/274/253
f 78/242/221 449/844/704 777/268/247 585/273/252
f 449/844/704 85/817/703 221/269/248 777/268/247
f 504/252/231 778/265/244 390/263/242 81/253/232
f 80/308/285 424/250/229 778/265/244 504/252/231
f 424/250/229 72/249/228 379/266/245 778/265/244
f 381/264/243 576/818/705 85/817/703
f 381/264/243 390/263/242 576/818/705
f 390/263/242 79/267/246 576/818/705
f 540/315/292 779/259/238 555/262/241 84/316/293
f 67/824/707 647/845/708 779/259/238 540/315/292
f 647/845/708 82/825/280 388/260/239 779/259/238
f 386/846/713 780/255/234 264/258/237 72/847/228
f 64/205/184 285/304/281 780/255/234 386/846/713
f 285/304/281 82/303/280 401/256/235 780/255/234
f 228/241/220 781/251/230 275/254/233 78/242/221
f 77/257/236 561/309/286 781/251/230 228/241/220
f 561/309/286 80/308/285 504/252/231 781/251/230
f 319/307/284 782/248/227 424/250/229 80/308/285
f 67/829/707 508/848/714 782/248/227 319/307/284
f 508/848/714 65/201/180 556/219/198 782/248/227
f 569/212/191 783/244/223 387/247/226 68/213/192
f 67/849/707 315/850/706 783/244/223 569/212/191
f 315/850/706 63/851/176 549/245/224 783/244/223
f 379/852/245 784/240/219 622/243/222 79/267/246
f 72/847/228 264/258/237 784/240/219 379/852/245
f 264/258/237 77/257/236 228/241/220 784/240/219
f 317/233/212 785/236/215 566/239/218 76/234/213
f 69/222/201 280/214/193 785/236/215 317/233/212
f 280/214/193 68/213/192 611/237/216 785/236/215
f 277/853/204 786/232/211 335/235/214 73/285/205
f 70/854/196 231/223/202 786/232/211 277/853/204
f 231/223/202 69/222/201 317/233/212 786/232/211
f 611/237/216 787/228/207 394/231/210 75/238/217
f 68/213/192 387/247/226 787/228/207 611/237/216
f 387/247/226 71/246/225 655/229/208 787/228/207
f 655/229/208 788/224/203 442/227/206 74/230/209
f 71/246/225 626/218/197 788/224/203 655/229/208
f 626/218/197 70/217/196 277/225/204 788/224/203
f 558/855/195 789/220/199 231/223/202 70/854/196
f 66/856/188 450/857/181 789/220/199 558/855/195
f 450/857/181 65/858/180 391/221/200 789/220/199
f 556/219/198 386/846/713 72/249/228
f 556/219/198 312/206/185 386/846/713
f 312/206/185 64/205/184 386/846/713
f 549/245/224 790/215/194 626/218/197 71/246/225
f 63/851/176 378/859/189 790/215/194 549/245/224
f 378/859/189 66/860/188 558/216/195 790/215/194
f 391/221/200 791/211/190 280/214/193 69/222/201
f 65/858/180 508/861/714 791/211/190 391/221/200
f 508/861/714 67/849/707 569/212/191 791/211/190
f 542/862/175 792/207/186 378/210/189 63/863/176
f 61/344/321 371/343/320 792/207/186 542/862/175
f 371/343/320 62/193/172 496/208/187 792/207/186
f 301/200/179 793/203/182 312/206/185 65/201/180
f 60/185/164 489/184/163 793/203/182 301/200/179
f 489/184/163 59/189/168 250/204/183 793/203/182
f 496/208/187 794/199/178 450/202/181 66/209/188
f 62/193/172 465/192/171 794/199/178 496/208/187
f 465/192/171 60/185/164 301/200/179 794/199/178
f 250/204/183 795/195/174 261/198/177 64/205/184
f 59/189/168 648/188/167 795/195/174 250/204/183
f 648/188/167 61/864/321 542/196/175 795/195/174
f 307/172/151 796/191/170 358/194/173 57/173/152
f 56/177/156 572/186/165 796/191/170 307/172/151
f 572/186/165 60/185/164 465/192/171 796/191/170
f 541/168/147 797/187/166 283/190/169 53/169/148
f 52/865/160 521/866/322 797/187/166 541/168/147
f 521/866/322 61/864/321 648/188/167 797/187/166
f 476/176/155 798/183/162 572/186/165 56/177/156
f 53/169/148 283/190/169 798/183/162 476/176/155
f 283/190/169 59/189/168 489/184/163 798/183/162
f 349/867/715 799/179/158 483/182/161 51/868/716
f 58/869/717 602/174/153 799/179/158 349/867/715
f 602/174/153 57/173/152 299/180/159 799/179/158
f 645/870/718 800/175/154 257/178/157 55/871/719
f 54/872/720 367/170/149 800/175/154 645/870/718
f 367/170/149 53/169/148 476/176/155 800/175/154
f 340/873/721 801/171/150 602/174/153 58/869/717
f 55/871/719 257/178/157 801/171/150 340/873/721
f 257/178/157 56/177/156 307/172/151 801/171/150
f 588/874/722 802/167/146 367/170/149 54/872/720
f 51/875/716 483/876/161 802/167/146 588/874/722
f 483/876/161 52/865/160 541/168/147 802/167/146
f 430/166/145 649/126/116 38/877/723
f 430/166/145 399/118/110 649/126/116
f 399/118/110 3/4/4 649/126/116
f 392/165/141 460/878/724 36/879/725
f 392/165/141 634/164/144 460/878/724
f 634/164/144 38/877/723 460/878/724
f 573/123/113 430/166/145 38/877/723
f 573/123/113 643/160/142 430/166/145
f 643/160/142 50/116/108 430/166/145
f 282/117/109 354/880/726 4/881/727
f 282/117/109 499/162/143 354/880/726
f 499/162/143 14/882/728 354/880/726
f 491/120/111 664/883/729 14/882/728
f 491/120/111 374/161/107 664/883/729
f 374/161/107 15/884/730 664/883/729
f 643/160/142 601/121/112 50/116/108
f 643/160/142 300/159/104 601/121/112
f 300/159/104 49/119/105 601/121/112
f 613/111/103 353/885/731 18/886/732
f 613/111/103 623/157/140 353/885/731
f 623/157/140 26/887/733 353/885/731
f 341/108/100 621/888/734 28/889/735
f 341/108/100 392/158/141 621/888/734
f 392/158/141 36/890/725 621/888/734
f 623/157/140 574/109/101 26/887/733
f 623/157/140 247/156/114 574/109/101
f 247/156/114 47/107/99 574/109/101
f 633/155/139 380/891/736 31/104/96
f 633/155/139 514/100/93 380/891/736
f 514/100/93 32/892/737 380/891/736
f 296/146/133 336/106/98 41/893/738
f 296/146/133 445/154/138 336/106/98
f 445/154/138 31/104/96 336/106/98
f 511/102/94 633/155/139 31/104/96
f 511/102/94 454/151/136 633/155/139
f 454/151/136 46/98/91 633/155/139
f 625/99/92 543/894/739 23/895/740
f 625/99/92 398/153/137 543/894/739
f 398/153/137 21/896/741 543/894/739
f 331/96/89 494/897/742 21/896/741
f 331/96/89 222/152/88 494/897/742
f 222/152/88 22/898/743 494/897/742
f 454/151/136 356/97/90 46/98/91
f 454/151/136 528/150/85 356/97/90
f 528/150/85 45/95/86 356/97/90
f 260/93/87 594/899/744 10/900/745
f 260/93/87 466/149/135 594/899/744
f 466/149/135 8/901/746 594/899/744
f 638/90/84 325/902/747 8/901/746
f 638/90/84 310/144/132 325/902/747
f 310/144/132 9/903/748 325/902/747
f 484/87/81 291/904/749 11/905/750
f 484/87/81 624/148/134 291/904/749
f 624/148/134 40/906/751 291/904/749
f 624/147/134 303/907/752 40/908/751
f 624/147/134 296/146/133 303/907/752
f 296/146/133 41/893/738 303/907/752
f 310/144/132 263/88/82 9/903/748
f 310/144/132 468/143/95 263/88/82
f 468/143/95 43/86/80 263/88/82
f 302/80/74 526/85/79 33/909/753
f 302/80/74 289/142/131 526/85/79
f 289/142/131 39/72/68 526/85/79
f 593/75/71 612/910/754 11/905/750
f 593/75/71 472/71/67 612/910/754
f 472/71/67 12/911/755 612/910/754
f 289/142/131 530/912/72 39/72/68
f 289/142/131 642/68/64 530/912/72
f 642/68/64 37/913/65 530/912/72
f 359/70/66 460/878/724 38/877/723
f 359/70/66 534/141/130 460/878/724
f 534/141/130 36/879/725 460/878/724
f 286/140/129 547/914/756 28/889/735
f 286/140/129 630/84/78 547/914/756
f 630/84/78 29/915/757 547/914/756
f 562/66/62 286/140/129 28/889/735
f 562/66/62 345/81/75 286/140/129
f 345/81/75 42/82/76 286/140/129
f 420/59/55 246/64/60 23/895/740
f 420/59/55 490/139/128 246/64/60
f 490/139/128 30/53/49 246/64/60
f 416/56/52 652/916/758 33/909/753
f 416/56/52 656/52/48 652/916/758
f 656/52/48 29/915/757 652/916/758
f 490/139/128 258/57/53 30/53/49
f 490/139/128 318/49/45 258/57/53
f 318/49/45 27/50/46 258/57/53
f 607/51/47 262/917/759 28/889/735
f 607/51/47 423/138/127 262/917/759
f 423/138/127 26/887/733 262/917/759
f 509/137/126 421/918/760 18/886/732
f 509/137/126 396/63/59 421/918/760
f 396/63/59 19/919/761 421/918/760
f 535/47/43 509/137/126 18/886/732
f 535/47/43 618/60/56 509/137/126
f 618/60/56 34/61/57 509/137/126
f 435/136/125 559/920/762 10/900/745
f 435/136/125 485/135/124 559/920/762
f 485/135/124 22/921/743 559/920/762
f 486/41/39 435/136/125 10/900/745
f 486/41/39 229/133/122 435/136/125
f 229/133/122 24/134/123 435/136/125
f 567/39/37 259/45/41 24/134/123
f 567/39/37 330/132/121 259/45/41
f 330/132/121 20/43/31 259/45/41
f 539/36/34 304/922/763 23/895/740
f 539/36/34 316/32/30 304/922/763
f 316/32/30 19/919/761 304/922/763
f 330/131/121 372/37/35 20/33/31
f 330/131/121 660/29/27 372/37/35
f 660/29/27 17/30/28 372/37/35
f 266/31/29 436/923/764 18/886/732
f 266/31/29 428/130/120 436/923/764
f 428/130/120 15/924/730 436/923/764
f 248/25/25 375/925/765 4/881/727
f 248/25/25 481/42/40 375/925/765
f 481/42/40 6/926/766 375/925/765
f 500/22/22 497/26/26 14/882/728
f 500/22/22 609/40/38 497/26/26
f 609/40/38 16/24/24 497/26/26
f 308/16/16 529/20/20 11/905/750
f 308/16/16 546/129/119 529/20/20
f 546/129/119 7/10/10 529/20/20
f 254/13/13 360/927/767 10/900/745
f 254/13/13 501/9/9 360/927/767
f 501/9/9 6/926/766 360/927/767
f 546/129/119 550/14/14 7/10/10
f 546/129/119 427/128/118 550/14/14
f 427/128/118 5/7/7 550/14/14
f 427/128/118 667/6/6 5/7/7
f 427/128/118 326/3/3 667/6/6
f 326/3/3 3/4/4 667/6/6
f 311/127/117 515/928/768 38/877/723
f 311/127/117 253/19/19 515/928/768
f 253/19/19 12/911/755 515/928/768
f 649/126/116 311/127/117 38/877/723
f 649/126/116 432/125/115 311/127/117
f 432/125/115 2/17/17 311/127/117
f 247/124/114 634/164/144 47/163/99
f 247/124/114 573/123/113 634/164/144
f 573/123/113 38/877/723 634/164/144
f 601/121/112 499/162/143 50/116/108
f 601/121/112 491/120/111 499/162/143
f 491/120/111 14/882/728 499/162/143
f 399/118/110 614/5/5 3/4/4
f 399/118/110 282/117/109 614/5/5
f 282/117/109 4/881/727 614/5/5
f 374/115/107 436/923/764 15/924/730
f 374/115/107 437/114/106 436/923/764
f 437/114/106 18/886/732 436/923/764
f 300/112/104 437/114/106 49/113/105
f 300/112/104 613/111/103 437/114/106
f 613/111/103 18/886/732 437/114/106
f 574/109/101 262/917/759 26/887/733
f 574/109/101 341/108/100 262/917/759
f 341/108/100 28/889/735 262/917/759
f 336/106/98 636/929/769 41/893/738
f 336/106/98 422/105/97 636/929/769
f 422/105/97 33/909/753 636/929/769
f 468/103/95 445/154/138 43/145/80
f 468/103/95 511/102/94 445/154/138
f 511/102/94 31/104/96 445/154/138
f 514/100/93 357/930/770 32/892/737
f 514/100/93 625/99/92 357/930/770
f 625/99/92 23/895/740 357/930/770
f 356/97/90 398/153/137 46/98/91
f 356/97/90 331/96/89 398/153/137
f 331/96/89 21/896/741 398/153/137
f 222/94/88 559/920/762 22/921/743
f 222/94/88 260/93/87 559/920/762
f 260/93/87 10/900/745 559/920/762
f 528/91/85 466/149/135 45/92/86
f 528/91/85 638/90/84 466/149/135
f 638/90/84 8/901/746 466/149/135
f 263/88/82 321/931/771 9/903/748
f 263/88/82 484/87/81 321/931/771
f 484/87/81 11/905/750 321/931/771
f 526/85/79 636/929/769 33/909/753
f 526/85/79 411/74/70 636/929/769
f 411/74/70 41/893/738 636/929/769
f 630/84/78 652/916/758 29/915/757
f 630/84/78 578/83/77 652/916/758
f 578/83/77 33/909/753 652/916/758
f 345/81/75 578/83/77 42/82/76
f 345/81/75 302/80/74 578/83/77
f 302/80/74 33/909/753 578/83/77
f 251/79/69 291/904/749 40/906/751
f 251/79/69 239/78/73 291/904/749
f 239/78/73 11/905/750 291/904/749
f 530/76/72 239/78/73 39/77/68
f 530/76/72 593/75/71 239/78/73
f 593/75/71 11/905/750 239/78/73
f 411/74/70 303/907/752 41/893/738
f 411/74/70 251/73/69 303/907/752
f 251/73/69 40/908/751 303/907/752
f 472/71/67 515/928/768 12/911/755
f 472/71/67 359/70/66 515/928/768
f 359/70/66 38/877/723 515/928/768
f 642/68/64 534/932/130 37/913/65
f 642/68/64 479/67/63 534/932/130
f 479/67/63 36/890/725 534/932/130
f 479/67/63 621/888/734 36/890/725
f 479/67/63 562/66/62 621/888/734
f 562/66/62 28/889/735 621/888/734
f 246/64/60 357/930/770 23/895/740
f 246/64/60 493/55/51 357/930/770
f 493/55/51 32/892/737 357/930/770
f 396/63/59 304/922/763 19/919/761
f 396/63/59 389/62/58 304/922/763
f 389/62/58 23/895/740 304/922/763
f 618/60/56 389/62/58 34/61/57
f 618/60/56 420/59/55 389/62/58
f 420/59/55 23/895/740 389/62/58
f 661/54/50 422/105/97 31/104/96
f 661/54/50 544/58/54 422/105/97
f 544/58/54 33/909/753 422/105/97
f 258/57/53 544/58/54 30/53/49
f 258/57/53 416/56/52 544/58/54
f 416/56/52 33/909/753 544/58/54
f 493/55/51 380/891/736 32/892/737
f 493/55/51 661/54/50 380/891/736
f 661/54/50 31/104/96 380/891/736
f 656/52/48 547/914/756 29/915/757
f 656/52/48 607/51/47 547/914/756
f 607/51/47 28/889/735 547/914/756
f 318/49/45 423/138/127 27/50/46
f 318/49/45 268/48/44 423/138/127
f 268/48/44 26/887/733 423/138/127
f 268/48/44 353/885/731 26/887/733
f 268/48/44 535/47/43 353/885/731
f 535/47/43 18/886/732 353/885/731
f 259/45/41 485/135/124 24/134/123
f 259/45/41 361/44/33 485/135/124
f 361/44/33 22/921/743 485/135/124
f 481/42/40 360/927/767 6/926/766
f 481/42/40 486/41/39 360/927/767
f 486/41/39 10/900/745 360/927/767
f 609/40/38 229/133/122 16/24/24
f 609/40/38 567/39/37 229/133/122
f 567/39/37 24/134/123 229/133/122
f 545/34/32 543/894/739 21/896/741
f 545/34/32 413/38/36 543/894/739
f 413/38/36 23/895/740 543/894/739
f 372/37/35 413/38/36 20/33/31
f 372/37/35 539/36/34 413/38/36
f 539/36/34 23/895/740 413/38/36
f 361/35/33 494/897/742 22/898/743
f 361/35/33 545/34/32 494/897/742
f 545/34/32 21/896/741 494/897/742
f 316/32/30 421/918/760 19/919/761
f 316/32/30 266/31/29 421/918/760
f 266/31/29 18/886/732 421/918/760
f 660/29/27 428/130/120 17/30/28
f 660/29/27 548/28/23 428/130/120
f 548/28/23 15/924/730 428/130/120
f 497/26/26 354/880/726 14/882/728
f 497/26/26 248/25/25 354/880/726
f 248/25/25 4/881/727 354/880/726
f 548/23/23 664/883/729 15/884/730
f 548/23/23 500/22/22 664/883/729
f 500/22/22 14/882/728 664/883/729
f 529/20/20 321/931/771 11/905/750
f 529/20/20 429/12/12 321/931/771
f 429/12/12 9/903/748 321/931/771
f 253/19/19 612/910/754 12/911/755
f 253/19/19 417/18/18 612/910/754
f 417/18/18 11/905/750 612/910/754
f 271/2/2 417/18/18 2/17/17
f 271/2/2 308/16/16 417/18/18
f 308/16/16 11/905/750 417/18/18
f 382/11/11 594/899/744 8/901/746
f 382/11/11 473/15/15 594/899/744
f 473/15/15 10/900/745 594/899/744
f 550/14/14 473/15/15 7/10/10
f 550/14/14 254/13/13 473/15/15
f 254/13/13 10/900/745 473/15/15
f 429/12/12 325/902/747 9/903/748
f 429/12/12 382/11/11 325/902/747
f 382/11/11 8/901/746 325/902/747
f 501/9/9 375/925/765 6/926/766
f 501/9/9 552/8/8 375/925/765
f 552/8/8 4/881/727 375/925/765
f 667/6/6 552/8/8 5/7/7
f 667/6/6 614/5/5 552/8/8
f 614/5/5 4/881/727 552/8/8
f 326/3/3 432/125/115 3/4/4
f 326/3/3 271/2/2 432/125/115
f 271/2/2 2/17/17 432/125/115
