# Blender v2.78 (sub 0) OBJ File: ''
# www.blender.org
mtllib Apple_Tree_m_07.mtl
o Apple_Tree_m_07
v -0.265635 5.512457 -1.350565
v 0.256996 5.522213 -1.061297
v 0.661885 4.724808 -1.733173
v 0.378230 4.360742 -2.023029
v -0.342994 5.039101 -1.890369
v -0.584609 4.705204 -1.915361
v -0.938969 5.850901 -1.349916
v -1.476357 5.783084 -1.222886
v -1.133607 6.186902 -0.691198
v -1.284043 5.219817 -1.616031
v -0.343893 6.154447 -0.581550
v 0.439467 5.656034 -0.569885
v -0.777737 3.644408 -1.924521
v 0.269602 3.696548 -2.113395
v -0.014929 3.170897 -1.904841
v -0.730600 4.255781 -1.961241
v -0.955437 3.238657 -1.413619
v 0.095545 2.753420 -1.198598
v -0.959840 2.802425 -0.869215
v -1.782344 4.048274 -1.177856
v -2.229426 4.365463 -0.625462
v -1.979209 4.969367 -1.233145
v -1.693489 3.326564 -0.024340
v -1.464703 4.699428 -1.561635
v -0.353615 2.884356 0.143290
v 0.599223 2.879039 -0.460074
v -0.022905 3.380692 0.866904
v 1.035363 3.738967 0.241448
v 0.115603 4.028254 0.911760
v -1.256734 3.814495 0.983366
v -1.627653 5.064218 0.806207
v -2.064376 4.204194 0.704082
v -0.448077 4.750485 1.125175
v -0.716390 2.795710 -0.372148
v 0.749059 4.924532 0.569221
v 1.204395 4.361121 -0.355352
v 0.610424 5.385822 -0.089224
v 1.103145 4.464558 -1.124244
v -0.209986 5.738473 0.443691
v -0.694399 6.163899 0.161829
v -0.874117 5.755659 0.798016
v 0.442428 4.424789 0.934487
v -1.242311 6.081207 0.084444
v -1.752089 5.817101 -0.379283
v -2.132793 5.516728 -0.931430
v -2.334483 4.987411 0.077430
v 1.133671 3.596647 -0.651874
v 0.935312 3.267743 -1.189736
v 0.626798 3.103563 -1.738310
v 0.850604 3.933639 -1.728324
v 2.054353 3.251561 -0.269960
v 1.831193 2.763512 0.018654
v 0.875910 2.910834 -0.715146
v 0.620756 3.388648 -1.026132
v 1.633912 3.633932 -0.852076
v 1.414036 4.066874 -0.884474
v 2.684482 3.657575 -0.226844
v 2.836463 4.186568 -0.056091
v 3.111774 3.620630 0.472188
v 2.214515 4.373777 -0.514206
v 2.715636 2.904119 0.549020
v 1.857483 2.492547 0.532083
v 0.439839 4.903829 -0.926175
v -0.040093 3.877347 -1.129032
v -0.455241 4.457766 -0.907277
v 1.034430 4.482754 -0.946742
v 0.115526 5.305798 -0.407212
v -0.970923 4.583638 -0.153677
v -0.333929 5.565347 0.157124
v 1.333236 5.555242 -0.154422
v 1.859988 5.739090 0.410378
v 2.279509 5.155039 -0.108488
v 0.587643 5.876062 0.958611
v 1.794539 4.863159 -0.490943
v -0.605867 4.902127 1.223947
v -1.135054 4.001335 0.640081
v -0.290044 4.276496 1.983799
v -0.488413 3.047791 1.380050
v 0.312192 3.758580 1.996290
v 0.840134 5.129672 1.964030
v 2.280020 4.712289 1.822345
v 1.643179 5.539606 1.560898
v 1.362618 3.868223 2.146118
v -0.483773 5.317213 0.674024
v 0.895087 2.609950 1.701274
v 0.164649 2.571393 0.744379
v 1.482241 2.486821 1.022900
v 0.452984 2.694720 -0.075990
v 2.229119 3.029071 1.561011
v 2.902082 3.223963 1.309250
v 2.597732 3.644362 1.910406
v 0.537934 3.207132 2.049182
v 3.084579 3.783034 1.237170
v 3.013087 4.401435 0.796930
v 2.830618 4.938161 0.295276
v 2.541589 5.435212 1.143106
v -0.611412 3.090636 0.435112
v -0.857102 3.477777 -0.137064
v -0.882536 3.865895 -0.725551
v -0.048450 3.204768 -0.718812
v 0.144823 0.348544 -0.154398
v 0.187243 0.758303 -0.125045
v 0.233839 0.746792 0.056818
v 0.194917 0.340082 0.061173
v -0.084128 0.846719 0.107290
v 0.016214 0.821194 -0.149866
v -0.079048 0.945119 -0.175663
v -0.144292 0.947148 0.011136
v 0.079060 0.772623 0.166864
v 0.051625 0.356034 0.189377
v 0.217501 1.492276 0.115511
v 0.117986 1.518260 0.042477
v -0.251187 0.135176 0.022041
v -0.434714 1.507143 -0.120244
v -0.406437 1.493986 -0.222520
v -0.177345 0.133867 -0.180566
v 0.322044 1.476634 0.044179
v 0.290042 1.492356 -0.077967
v 0.167515 1.520442 -0.083657
v 0.389608 2.066199 0.085011
v 0.482375 2.132525 0.006565
v 0.576951 2.056379 -0.007117
v 0.591758 2.025863 0.079986
v 0.505291 2.083370 0.142074
v 1.148963 2.430639 0.114796
v 1.178061 2.378949 0.108747
v 1.180976 2.352938 0.163237
v 1.153678 2.388552 0.202965
v 0.567300 2.211967 0.107835
v 1.142205 2.439899 0.173878
v -0.245743 1.588630 -0.204562
v -0.264962 1.591002 -0.095272
v 0.004274 0.398005 -0.231062
v 0.009549 0.036315 -0.253487
v -0.125485 0.514152 -0.208701
v -0.324266 1.543750 -0.263348
v -0.203383 0.513550 0.084641
v -0.358311 1.547474 -0.054934
v -0.093843 0.396225 0.184123
v -0.172605 0.035697 0.212169
v 0.017148 0.031939 0.237390
v 0.165528 0.031078 -0.160582
v 0.174783 0.030454 0.068276
v -0.439312 2.495110 -0.170085
v -0.505352 2.471369 -0.126892
v -0.507332 2.485161 -0.238296
v -0.415432 2.428310 -0.235116
v -0.541293 2.415837 -0.173007
v 0.206720 2.502085 0.235467
v 0.251263 2.513520 0.284455
v 1.843636 2.742346 0.307895
v 1.828194 2.766667 0.290177
v 1.839221 2.765244 0.258120
v 1.861476 2.740043 0.256026
v 1.864205 2.725892 0.286788
v -0.921986 3.127225 -0.122974
v -0.911067 3.131704 -0.148491
v -0.878422 3.139065 -0.117687
v -0.901810 3.131775 -0.103936
v -0.342315 2.636143 -0.408378
v -0.306868 2.624074 -0.394795
v -0.505259 2.608263 -0.222539
v -0.888647 3.145537 -0.144393
v 0.181639 2.459934 0.274875
v 0.220328 2.460695 0.310145
v 0.090405 3.040611 0.607905
v 0.066120 3.048196 0.592851
v 0.113483 3.054311 0.584447
v 0.082569 3.059032 0.565340
v -0.342928 2.674609 -0.383483
v -0.194867 2.991266 -0.584322
v -0.188818 2.965739 -0.616044
v -0.154991 2.955751 -0.605689
v -0.295092 2.641364 -0.365591
v -0.146183 2.967607 -0.576723
v 2.848171 4.924399 1.010921
v 0.493930 2.526732 1.229632
v 0.100143 3.057562 0.572113
v -2.067575 5.227063 -1.110122
v 0.009606 1.176730 0.072415
v 3.054493 4.105507 1.054710
v 1.872552 5.386505 -0.123284
v -0.325026 2.627957 -0.403608
v -0.513197 3.687478 1.670314
v -1.129586 4.486099 -1.775104
v 0.737908 3.839936 2.116582
v 1.525366 2.612504 0.192143
v 0.180093 0.341792 -0.048326
v -0.107610 0.981105 -0.084459
v -0.476369 2.476760 -0.137862
v 0.185305 0.168427 0.065639
v -0.236874 5.995416 -0.050586
v 1.831770 2.768222 0.273372
v -0.147786 0.417900 0.139453
v -0.527950 3.533144 -0.729005
v -0.294260 0.781634 -0.200541
v -0.881276 3.143024 -0.131511
v 0.560953 2.039349 0.112919
v -1.495003 3.494191 0.560841
v -0.022559 0.375283 0.194207
v 1.047638 3.428036 -0.914503
v -0.144337 4.264390 -2.027584
v 1.700439 2.483268 0.722333
v -0.490108 6.015193 0.275269
v 0.350568 5.609418 -0.804227
v -0.820143 5.169695 -1.776916
v 3.014360 3.325117 0.888557
v 2.458815 3.996987 -0.425137
v 1.507829 3.867238 -0.890800
v -0.620481 3.583802 0.983260
v -1.634358 4.406972 -1.413765
v -0.677839 2.852478 -0.138409
v -0.642915 3.057665 0.850803
v 2.850448 4.533011 0.091933
v 2.089905 3.777307 2.046658
v -1.759644 5.433716 -1.298313
v -0.297839 2.630971 -0.378990
v -0.247085 2.797881 0.563961
v 0.163248 4.406577 -1.083117
v 0.845363 3.253079 -0.092028
v -1.182004 6.177464 -0.329820
v 0.468620 4.181932 -1.082840
v -0.426276 2.955383 -1.391770
v -0.401212 1.527644 -0.082452
v 0.147877 2.819638 -0.160419
v -0.077955 0.037895 -0.228252
v 1.642879 4.472507 -0.745834
v -0.496658 3.830119 -0.956815
v 1.258657 4.247076 -0.909064
v 1.205481 2.504249 1.379123
v 0.001212 5.542334 -1.199427
v 0.048035 3.956445 2.020650
v 0.957163 5.788914 0.346476
v 0.143968 2.770183 0.468904
v -0.810766 4.139338 1.350217
v 2.011625 4.650365 -0.511899
v -0.631755 5.152885 -0.023699
v 0.671095 4.157998 -1.915320
v -0.531157 2.467411 -0.144440
v 0.138980 1.126310 0.140111
v -0.281162 1.567082 -0.239360
v 0.755256 4.140646 0.644793
v 1.834306 2.755285 0.301547
v 0.267351 5.342030 0.558199
v 1.549488 2.574083 0.187910
v -0.222912 0.998537 -0.236156
v 2.171383 5.639961 0.773631
v -0.095500 5.608864 0.847110
v -0.561357 6.196153 -0.143282
v 1.841068 3.430622 -0.584865
v -0.412333 5.458180 0.416060
v -1.106274 5.916596 0.498752
v 0.779484 3.152840 -1.481418
v -0.470246 1.955884 -0.198788
v 0.170188 4.931885 0.890773
v -0.781752 6.009565 0.472624
v -1.296231 2.976628 -0.511493
v 0.665169 2.930347 1.921146
v 0.269606 1.803688 0.054311
v 2.972357 4.278344 0.336573
v 2.946195 3.593151 0.128282
v -0.334579 5.868207 -1.025869
v -1.433322 6.048103 -0.553936
v 0.698279 5.047899 -1.129797
v -0.295821 4.177592 -1.051610
v -0.224458 2.798258 -0.508680
v 0.286094 5.126043 -0.713399
v -0.963349 2.980684 -1.091801
v 1.598632 5.199955 -0.362188
v -0.191416 3.088329 0.538801
v -0.802020 6.221128 -0.648764
v 0.113487 2.774034 0.444537
v -0.373671 2.544115 -0.307592
v -0.885989 3.530330 1.031229
v 1.437773 4.698574 -0.730996
v -1.311555 5.997354 -0.972919
v 0.176354 5.142314 -1.560176
v -0.158200 1.241029 -0.190137
v 0.071425 3.054460 0.577509
v 0.010153 0.600036 -0.199859
v 0.068888 5.075756 1.660637
v 0.969389 2.523985 0.498676
v -1.304643 3.850020 -1.580947
v -2.254861 4.972544 -0.749123
v -0.263147 2.840972 -0.491453
v 2.765949 5.204244 0.722273
v -1.207465 5.438877 0.852670
v -0.706450 2.881060 -0.177429
v -0.913436 3.128919 -0.111683
v -0.730377 4.520860 -0.603123
v 2.101369 5.466254 0.127505
v 1.133772 3.605944 -0.263800
v -0.174776 0.745107 0.057439
v 0.061889 0.550367 0.177819
v -0.462910 3.295866 -0.436965
v 0.599725 4.630031 0.798574
v -0.446586 2.429197 -0.245272
v 0.827265 2.231569 0.166218
v 0.161545 0.538553 -0.141152
v 1.865034 2.731085 0.270335
v 1.551903 2.554152 0.229484
v 0.314531 1.483142 -0.019332
v 2.542458 5.066749 0.065776
v 0.033816 0.176665 0.217118
v 1.163962 2.405539 0.107564
v 0.385411 2.770404 -0.826549
v 0.353261 4.033125 -2.074802
v 2.156965 2.641450 0.855456
v -2.287509 5.309662 -0.436853
v -1.956800 3.824566 0.449253
v 0.915091 4.949697 -0.582905
v -0.889359 4.911591 -1.816146
v -1.939605 4.544248 -1.195078
v 0.134530 1.521087 -0.023641
v 2.600439 4.282385 -0.273616
v 0.696925 3.116898 -0.909751
v 2.762448 4.232749 1.552320
v 1.512871 2.616318 0.236334
v 2.256487 2.618519 0.554377
v -1.398537 3.601701 -1.272756
v 0.333594 3.099839 -1.840253
v -0.151823 4.544739 -1.984674
v -0.421039 2.555144 -0.319568
v 0.394709 2.333311 0.181956
v 0.732165 4.685973 -0.963813
v -0.414658 2.607250 -0.298161
v -1.915685 4.581933 0.793297
v 2.329280 4.789519 -0.283479
v 1.847641 3.378626 1.901680
v -1.226383 5.830843 -1.309458
v -0.744587 2.835598 -0.146718
v 1.895648 2.706303 1.305795
v -0.196470 2.980313 -0.601104
v 1.149955 4.931975 -0.706011
v 0.361188 5.680540 0.222404
v 2.797764 3.402418 1.610435
v -1.138694 2.948444 -0.173918
v 1.216088 3.969851 -0.528322
v -0.008211 0.809570 0.152216
v 1.326579 5.872729 0.679848
v -0.850743 2.788904 -0.618188
v -2.308934 4.636338 -0.284617
v 0.231099 2.511654 0.257549
v 0.836727 4.332240 -1.743331
v -0.035673 0.842421 -0.163574
v 0.814065 2.279167 0.052164
v 0.315583 1.827480 -0.046545
v -0.905966 3.691289 -0.449713
v 1.215793 5.734482 1.361409
v 0.006846 0.199120 -0.247347
v -0.433848 1.558567 -0.173502
v -0.480201 1.962031 -0.155738
v 0.155879 0.172801 -0.160260
v 0.589765 2.037750 0.034291
v 0.072867 3.073251 1.776557
v 2.387412 3.433211 -0.251362
v 1.146507 2.415891 0.192113
v -0.559394 5.750314 0.678220
v 2.765274 3.275238 0.124503
v 2.191848 3.687774 -0.560613
v -1.789871 3.653422 -0.652758
v 1.197742 2.684091 -0.069236
v -0.321413 4.012178 1.091527
v -0.050784 4.674623 -0.962829
v 2.989981 3.902083 0.191579
v -0.034987 5.877042 -0.852111
v -0.516634 2.581018 -0.233651
v 0.230976 1.119144 -0.102966
v -1.035395 3.055941 0.175837
v -0.500111 2.761406 -1.059413
v -1.086870 4.898573 1.050713
v 0.329886 3.060688 0.230554
v -0.712954 2.841085 -0.117302
v 1.854864 2.732332 0.299670
v -0.340740 2.025420 -0.214968
v -0.291237 5.277665 -1.643704
v -0.449406 3.180242 -1.710747
v 0.300448 2.258623 0.168904
v -1.025285 6.074858 -1.018801
v 1.021620 4.144422 -1.473831
v 0.488770 5.112338 -1.396015
v -0.145959 2.959869 -0.590286
v -0.172004 2.958770 -0.614319
v -1.404174 4.952761 -1.597982
v 0.048355 2.950071 -1.621018
v 0.437719 2.906917 -1.529355
v 0.705370 5.485874 -0.265510
v 0.076493 0.372324 -0.202065
v 0.272856 3.238675 -0.916677
v 1.945580 5.213826 1.718183
v -0.725395 4.156458 -0.835741
v 2.650308 3.123129 1.409863
v 0.198877 2.456463 0.294922
v 0.336312 2.308011 0.112174
v 1.866814 2.615260 0.288303
v -0.421608 2.023619 -0.097095
v -1.461313 5.642547 0.455640
v -0.120242 0.856681 0.061805
v 0.164442 2.727422 1.543324
v 0.530300 4.185264 2.150247
v 0.860848 2.223124 0.047536
v 0.162210 1.505737 0.086030
v 1.969499 3.986080 -0.708768
v -2.086886 5.458933 -0.122073
v -0.918642 3.128876 -0.136743
v 0.212582 0.528566 0.059459
v 2.410774 5.385695 0.385757
v -0.285906 3.059337 -0.148148
v -0.363522 2.562690 -0.266992
v 0.105967 0.031197 0.165641
v -0.083110 0.033818 0.242609
v -0.230731 0.139905 -0.087200
v 1.183892 4.404166 -0.721301
v -0.058456 0.419769 -0.219840
v 1.168034 2.367873 0.186217
v 2.501863 2.897867 1.077219
v -1.792304 5.679549 -1.112251
v -1.510911 5.945235 -0.104720
v 0.521773 5.543244 -0.383318
v -1.099802 5.549885 -1.535964
v -0.940989 3.496410 0.521631
v 1.036915 4.645211 0.107023
v 2.600921 4.661730 -0.119762
v -0.651752 4.517106 -1.933510
v -0.414096 2.021055 -0.251781
v 1.963442 2.985043 -0.119241
v -0.834734 6.212739 -0.261170
v -1.735566 4.869735 -1.399489
v -1.049394 4.732073 -1.800514
v -0.827204 3.289214 0.623465
v 0.499647 3.389633 -1.952749
v 2.447847 4.126568 1.918998
v -1.740504 4.007586 0.847550
v -2.139225 4.688450 -0.959772
v -0.216389 0.037568 0.131175
v 3.136538 3.669664 0.833845
v -0.180800 2.883993 0.157687
v -0.211247 3.950463 -2.076223
v 0.133471 2.799906 0.412050
v -1.071583 3.761436 0.198759
v 0.609151 3.795323 -1.953317
v -0.247120 3.637218 -2.071373
v -0.469870 4.853908 -1.924271
v 0.104864 3.046616 0.597762
v -0.367318 1.517812 -0.249138
v 0.439045 1.767236 0.058670
v 3.011138 3.446984 1.276388
v 0.768118 3.933246 -1.026492
v 1.844777 4.344043 2.059794
v -1.042728 3.997356 -0.164096
v 2.426791 3.354341 1.790639
v 1.571815 4.943104 1.970861
v -0.309241 1.569679 -0.068765
v 1.285017 5.403664 1.753095
v -0.049082 5.430469 1.205508
v 0.095612 0.033696 -0.222400
v 0.869005 2.193705 0.118025
v -0.213586 4.866305 -0.707472
v -0.342574 2.733222 -0.721838
v -1.753666 5.492145 0.224034
v -2.206654 4.542165 0.450500
v 0.756362 5.161579 -0.797721
v 0.550748 2.172058 0.134010
v -0.407550 2.434828 -0.205189
v -0.135451 0.196494 0.202717
v 2.303611 2.798697 0.253030
v -0.197044 2.735421 1.043118
v -0.258512 2.809478 -0.521288
v -0.295914 5.312058 0.830105
v 0.406729 2.089319 0.041192
v -0.552734 5.146227 0.895141
v 1.641864 5.760365 1.092843
v -1.991325 5.695203 -0.667675
v -0.669701 6.054539 -1.004454
v -0.248686 1.590535 -0.148850
v 0.213044 5.617061 0.184811
v 2.485930 5.106517 1.484713
v 0.435687 3.485967 2.018410
v 1.231608 3.248009 -0.825284
v 0.971405 4.854125 -0.228426
v -0.062046 2.747082 -0.519099
v -1.393864 3.253561 -0.773621
v 1.335066 2.821383 -0.347182
v 0.661705 2.776424 -0.451165
v 2.079524 5.000003 -0.301336
v -2.058712 3.890989 -0.323772
v 0.922234 3.465699 2.121219
v -0.896061 4.266403 1.120303
v -2.045750 4.158385 -0.848664
v -0.594008 5.703165 -1.351768
v 0.547149 3.850249 0.655177
v 0.170823 2.801607 0.444372
v -0.364727 3.375509 -1.955844
v -0.692976 5.454445 -1.641892
v 0.647508 5.554741 1.529589
v 0.077267 4.691955 -1.983101
v -0.213368 2.812826 -0.480054
v 0.076146 3.043513 0.603158
v 0.420328 2.061836 0.118564
v -1.701420 5.154776 -1.411448
v 0.393076 2.990154 -0.733143
v -0.992623 4.163818 -0.501498
v 0.252267 4.700965 2.036072
v 0.992074 4.343294 0.403217
v 1.107125 4.550342 2.120466
v -0.951672 4.467709 0.936176
v -1.173197 4.174371 -1.737436
v -0.097952 0.744470 -0.199977
v -0.468431 4.971098 -0.368716
v 1.748386 4.213586 -0.759089
v 1.089262 3.810512 -1.195273
v 0.928581 3.212556 -0.574085
v -0.042769 0.872667 -0.024219
v 0.283825 3.604481 -1.085670
v -0.888951 3.135649 -0.108706
v 0.070462 4.597038 1.052271
v -0.738816 3.278486 0.155903
v 0.185775 0.030766 -0.050306
v 0.274585 1.483014 0.087226
v 0.132714 2.946769 -0.448375
v -0.341946 0.789535 -0.054306
v -0.899626 3.138838 -0.148839
v 0.084347 1.161752 -0.114024
v 0.539613 2.083691 -0.012962
v 0.143672 5.836121 -0.266250
v -1.426048 5.562797 -1.418345
v 1.054581 3.767009 -0.972139
v 1.143990 2.439170 0.143502
v 0.270564 1.106090 0.049132
v 0.238956 2.487572 0.300581
v -0.093045 0.614045 0.154932
v 0.762795 3.476763 -1.739815
v 2.784606 3.931937 -0.165664
v 0.540611 3.462148 0.537033
v 0.354116 2.261666 0.215495
v -0.746470 3.950232 -1.969609
v -0.901257 4.723585 0.551674
v 0.122035 5.915803 -0.561145
v -0.318576 2.660138 -0.372515
v 1.575951 2.816412 1.676233
v 0.164565 0.756297 0.120570
v 0.903045 5.253337 -0.568377
v 0.590538 2.936105 -1.215308
v 0.572575 4.516742 -1.913988
v 1.212154 3.164837 1.970145
v 0.782577 2.487650 0.874742
v 2.866900 3.757341 1.629192
v -0.199774 1.241399 -0.043362
v -0.558980 2.818588 -0.165350
v -0.345206 2.032937 -0.131521
v 2.968556 4.696796 0.541861
v 0.026290 5.754429 0.494864
v -0.493395 4.615499 1.639546
v 1.529273 2.580254 0.259413
v 1.191117 4.055829 -0.078676
v -0.111458 3.447489 1.771920
v 0.780942 3.012024 -0.877254
v -0.928392 6.157549 0.124614
v -2.142076 4.161870 0.089814
v 1.571077 5.711809 0.175032
v -0.146651 5.463384 -0.075880
v 0.538980 2.200247 0.060659
v -0.538905 2.466749 -0.204086
v 0.272240 4.232937 0.922755
v 0.222757 0.749356 -0.037215
v 2.432070 3.083701 0.081194
v -2.053693 5.064525 0.452987
v 1.179212 3.956155 -0.907843
v 1.850761 2.753266 0.254082
v 0.229231 1.506988 -0.089742
v -0.729584 5.323420 0.987091
v -0.345763 2.657124 -0.397133
v -0.280674 1.000435 0.014278
v -1.630503 5.849863 -0.848259
v 1.181390 2.362502 0.134227
v 1.267256 2.546021 0.279755
v 0.839281 2.302771 0.130222
v 2.049968 5.523036 1.397542
v 0.704602 5.185847 0.253749
v 0.940847 3.607836 -1.466945
v 0.191020 2.480545 0.251890
v 3.102647 3.976104 0.621458
v -0.753545 5.007319 0.328548
v 1.096717 3.463885 -0.970074
v 1.498544 3.086009 -0.512160
v 2.733724 4.586659 1.325218
v 2.996222 3.290963 0.500051
v 0.915586 4.597809 -1.479925
v 2.865517 3.079272 0.999174
v 0.353137 1.789256 0.120988
v -0.137645 4.306642 1.062654
v 0.078284 3.757383 0.919692
v -0.478894 2.586481 -0.198860
v -0.885871 3.439274 -1.713763
v -0.170425 2.981412 -0.577071
v -1.471200 4.431165 0.998226
v -0.232083 0.306885 0.063243
v -0.150676 0.306515 -0.202340
v 0.139208 3.396076 -2.040618
v 0.107348 0.786752 -0.151523
v 0.130143 0.346415 0.133360
v 0.289745 2.612780 0.353095
v 0.190919 4.873499 -1.848935
v -0.093741 3.503713 -0.958837
v -1.121832 4.283084 0.247477
v -0.729023 2.843599 -0.186006
v 0.415798 1.790802 -0.044837
v -0.238003 2.828716 -0.483448
v -0.215607 2.803990 -0.493420
v -0.364712 2.551210 -0.285590
v -0.388438 2.587758 -0.280131
v -0.241740 2.802052 -0.517290
v -0.421733 2.583390 -0.310566
v -0.718266 2.863762 -0.184655
v -0.264135 2.826778 -0.507317
v 0.120804 2.787055 0.426058
v 0.153995 2.803016 0.425962
v 0.378832 2.298606 0.203315
v 0.313960 2.282199 0.135950
v 0.160071 2.785810 0.458873
v 0.324266 2.255371 0.195759
v 0.832748 2.269520 0.152977
v 0.126880 2.769849 0.458969
v -0.730803 2.837796 -0.129716
v -0.690015 2.868662 -0.158383
v -0.398007 2.546842 -0.316025
v -0.693028 2.845764 -0.125301
v -0.738740 2.837835 -0.167810
v -0.445878 2.013254 -0.231353
v 1.552454 2.561691 0.207412
v 1.517595 2.617212 0.213530
v 1.541295 2.565097 0.246879
v 1.537807 2.593900 0.186801
v 1.519751 2.599411 0.250660
v 0.368526 2.325434 0.143505
v -0.337417 2.029646 -0.173166
v -0.457155 2.018889 -0.120125
v -0.375173 2.023520 -0.238283
v -0.381218 2.028911 -0.109207
v -0.134660 0.652000 0.109737
v -0.183602 0.206797 0.137564
v 0.181561 0.169354 -0.049725
v 0.116747 0.171724 0.150224
v 0.085363 0.185485 -0.214233
v -0.042989 0.644685 -0.200066
v -0.186477 1.127646 -0.219746
v -0.018830 0.580271 0.173945
v -0.053561 0.186156 0.220332
v -0.239496 1.128517 -0.006598
v -0.316059 0.886414 -0.012495
v -0.259200 0.880811 -0.225304
v -0.069548 0.208598 -0.225644
v 0.087143 0.566392 -0.178211
v 0.159050 1.140269 -0.121397
v -0.173624 1.259060 -0.117314
v 0.036600 1.172822 -0.023724
v 0.868568 2.205008 0.080827
v 0.825463 2.295792 0.090023
v 0.847737 2.208752 0.146100
v 0.835949 2.251263 0.044238
v 0.400146 1.776943 0.096237
v 0.366585 1.811047 -0.053367
v 0.306397 1.796357 0.093782
v 0.434371 1.776657 0.004626
v 0.285670 1.817458 0.001308
v 0.261123 1.110345 -0.029687
v 0.211236 1.113774 0.102677
v -0.322910 0.770121 -0.128768
v 0.066465 1.152817 0.116798
v 0.144730 0.536939 0.127046
v -0.076243 0.881290 -0.051787
v 0.198284 0.530703 -0.043254
vt 0.4646 0.1872
vt 0.4668 0.1859
vt 0.4673 0.1894
vt 0.4700 0.1916
vt 0.4690 0.1940
vt 0.4666 0.1919
vt 0.4632 0.1921
vt 0.4656 0.1943
vt 0.4619 0.1937
vt 0.4595 0.1859
vt 0.4570 0.1859
vt 0.4586 0.1832
vt 0.4592 0.1919
vt 0.4614 0.1890
vt 0.4574 0.1887
vt 0.4647 0.1829
vt 0.4691 0.1846
vt 0.4670 0.1815
vt 0.4706 0.1827
vt 0.4622 0.1822
vt 0.4564 0.2072
vt 0.4615 0.2045
vt 0.4623 0.2085
vt 0.4588 0.1997
vt 0.4634 0.1980
vt 0.4627 0.2007
vt 0.4246 0.1669
vt 0.4302 0.1693
vt 0.4244 0.1708
vt 0.4242 0.1748
vt 0.4281 0.1784
vt 0.4243 0.1773
vt 0.4127 0.1732
vt 0.4123 0.1769
vt 0.4083 0.1752
vt 0.4216 0.1789
vt 0.4184 0.1740
vt 0.4158 0.1781
vt 0.4543 0.2014
vt 0.4576 0.2034
vt 0.4570 0.1956
vt 0.4597 0.1975
vt 0.4447 0.2012
vt 0.4448 0.1966
vt 0.4485 0.1984
vt 0.4266 0.1883
vt 0.4293 0.1851
vt 0.4300 0.1886
vt 0.4267 0.1905
vt 0.4268 0.1928
vt 0.4309 0.1952
vt 0.4269 0.1948
vt 0.4205 0.1911
vt 0.4179 0.1929
vt 0.4183 0.1900
vt 0.4240 0.1960
vt 0.4237 0.1919
vt 0.4209 0.1952
vt 0.4227 0.1857
vt 0.4260 0.1860
vt 0.4254 0.1838
vt 0.4222 0.1834
vt 0.4248 0.1819
vt 0.4197 0.1871
vt 0.4297 0.2071
vt 0.4323 0.2024
vt 0.4353 0.2063
vt 0.4302 0.2113
vt 0.4770 0.1766
vt 0.4767 0.1834
vt 0.4745 0.1787
vt 0.4178 0.2109
vt 0.4134 0.2105
vt 0.4160 0.2069
vt 0.4710 0.1775
vt 0.4727 0.1717
vt 0.4684 0.1669
vt 0.4667 0.1727
vt 0.4649 0.1686
vt 0.4254 0.2032
vt 0.4288 0.2040
vt 0.4280 0.2008
vt 0.4246 0.2000
vt 0.4275 0.1988
vt 0.4195 0.2050
vt 0.4540 0.1693
vt 0.4595 0.1739
vt 0.4558 0.1749
vt 0.4480 0.1765
vt 0.4513 0.1812
vt 0.4464 0.1808
vt 0.4447 0.1851
vt 0.4499 0.1883
vt 0.4448 0.1885
vt 0.4008 0.1846
vt 0.4064 0.1826
vt 0.4061 0.1867
vt 0.4115 0.1888
vt 0.4152 0.1860
vt 0.4138 0.1889
vt 0.4008 0.1943
vt 0.4080 0.1945
vt 0.4032 0.1981
vt 0.4152 0.1947
vt 0.4182 0.1970
vt 0.4147 0.1988
vt 0.4428 0.1956
vt 0.4389 0.1966
vt 0.4381 0.1922
vt 0.4433 0.1862
vt 0.4377 0.1840
vt 0.4419 0.1819
vt 0.4405 0.1776
vt 0.4363 0.1797
vt 0.4382 0.1747
vt 0.4734 0.1975
vt 0.4707 0.1970
vt 0.4717 0.1946
vt 0.4756 0.2084
vt 0.4711 0.2051
vt 0.4745 0.2030
vt 0.4833 0.2033
vt 0.4798 0.1968
vt 0.4852 0.1995
vt 0.4696 0.1881
vt 0.4732 0.1909
vt 0.4728 0.1874
vt 0.4639 0.1896
vt 0.4621 0.1865
vt 0.4301 0.1733
vt 0.4187 0.1700
vt 0.4506 0.2042
vt 0.4556 0.1977
vt 0.4523 0.1956
vt 0.4487 0.1938
vt 0.4538 0.1936
vt 0.4287 0.1829
vt 0.4301 0.1908
vt 0.4236 0.1897
vt 0.4315 0.1992
vt 0.4809 0.1818
vt 0.4237 0.2090
vt 0.4510 0.1729
vt 0.4528 0.1785
vt 0.4056 0.2019
vt 0.4099 0.2024
vt 0.4073 0.2060
vt 0.4577 0.1698
vt 0.4496 0.1855
vt 0.4008 0.1894
vt 0.4061 0.1916
vt 0.4023 0.1810
vt 0.4117 0.1847
vt 0.4104 0.1983
vt 0.4133 0.1918
vt 0.4430 0.1909
vt 0.4384 0.1875
vt 0.4419 0.2006
vt 0.4794 0.2059
vt 0.4783 0.2004
vt 0.4719 0.2091
vt 0.4700 0.1997
vt 0.4871 0.1956
vt 0.4818 0.1929
vt 0.4859 0.1913
vt 0.4749 0.1939
vt 0.4646 0.1872
vt 0.4668 0.1859
vt 0.4673 0.1894
vt 0.4700 0.1916
vt 0.4690 0.1940
vt 0.4666 0.1919
vt 0.4632 0.1921
vt 0.4656 0.1943
vt 0.4619 0.1937
vt 0.4595 0.1859
vt 0.4570 0.1859
vt 0.4586 0.1832
vt 0.4592 0.1919
vt 0.4614 0.1890
vt 0.4574 0.1887
vt 0.4647 0.1829
vt 0.4691 0.1846
vt 0.4670 0.1815
vt 0.4706 0.1827
vt 0.4622 0.1822
vt 0.4564 0.2072
vt 0.4615 0.2045
vt 0.4623 0.2085
vt 0.4588 0.1997
vt 0.4634 0.1980
vt 0.4627 0.2007
vt 0.4246 0.1669
vt 0.4302 0.1693
vt 0.4244 0.1708
vt 0.4242 0.1748
vt 0.4281 0.1784
vt 0.4243 0.1773
vt 0.4127 0.1732
vt 0.4123 0.1769
vt 0.4083 0.1752
vt 0.4216 0.1789
vt 0.4184 0.1740
vt 0.4158 0.1781
vt 0.4543 0.2014
vt 0.4576 0.2034
vt 0.4570 0.1956
vt 0.4597 0.1975
vt 0.4447 0.2012
vt 0.4448 0.1966
vt 0.4485 0.1984
vt 0.4266 0.1883
vt 0.4293 0.1851
vt 0.4300 0.1886
vt 0.4267 0.1905
vt 0.4268 0.1928
vt 0.4309 0.1952
vt 0.4269 0.1948
vt 0.4205 0.1911
vt 0.4179 0.1929
vt 0.4183 0.1900
vt 0.4240 0.1960
vt 0.4237 0.1919
vt 0.4209 0.1952
vt 0.4227 0.1857
vt 0.4260 0.1860
vt 0.4254 0.1838
vt 0.4222 0.1834
vt 0.4248 0.1819
vt 0.4197 0.1871
vt 0.4297 0.2071
vt 0.4323 0.2024
vt 0.4353 0.2063
vt 0.4302 0.2113
vt 0.4770 0.1766
vt 0.4767 0.1834
vt 0.4745 0.1787
vt 0.4178 0.2109
vt 0.4134 0.2105
vt 0.4160 0.2069
vt 0.4710 0.1775
vt 0.4727 0.1717
vt 0.4684 0.1669
vt 0.4667 0.1727
vt 0.4649 0.1686
vt 0.4254 0.2032
vt 0.4288 0.2040
vt 0.4280 0.2008
vt 0.4246 0.2000
vt 0.4275 0.1988
vt 0.4195 0.2050
vt 0.4540 0.1693
vt 0.4595 0.1739
vt 0.4558 0.1749
vt 0.4480 0.1765
vt 0.4513 0.1812
vt 0.4464 0.1808
vt 0.4447 0.1851
vt 0.4499 0.1883
vt 0.4448 0.1885
vt 0.4008 0.1846
vt 0.4064 0.1826
vt 0.4061 0.1867
vt 0.4115 0.1888
vt 0.4152 0.1860
vt 0.4138 0.1889
vt 0.4008 0.1943
vt 0.4080 0.1945
vt 0.4032 0.1981
vt 0.4152 0.1947
vt 0.4182 0.1970
vt 0.4147 0.1988
vt 0.4428 0.1956
vt 0.4389 0.1966
vt 0.4381 0.1922
vt 0.4433 0.1862
vt 0.4377 0.1840
vt 0.4419 0.1819
vt 0.4405 0.1776
vt 0.4363 0.1797
vt 0.4382 0.1747
vt 0.4734 0.1975
vt 0.4707 0.1970
vt 0.4717 0.1946
vt 0.4756 0.2084
vt 0.4711 0.2051
vt 0.4745 0.2030
vt 0.4833 0.2033
vt 0.4798 0.1968
vt 0.4852 0.1995
vt 0.4696 0.1881
vt 0.4732 0.1909
vt 0.4728 0.1874
vt 0.4639 0.1896
vt 0.4621 0.1865
vt 0.4301 0.1733
vt 0.4187 0.1700
vt 0.4506 0.2042
vt 0.4556 0.1977
vt 0.4523 0.1956
vt 0.4487 0.1938
vt 0.4538 0.1936
vt 0.4287 0.1829
vt 0.4301 0.1908
vt 0.4236 0.1897
vt 0.4315 0.1992
vt 0.4809 0.1818
vt 0.4237 0.2090
vt 0.4510 0.1729
vt 0.4528 0.1785
vt 0.4056 0.2019
vt 0.4099 0.2024
vt 0.4073 0.2060
vt 0.4577 0.1698
vt 0.4496 0.1855
vt 0.4008 0.1894
vt 0.4061 0.1916
vt 0.4023 0.1810
vt 0.4117 0.1847
vt 0.4104 0.1983
vt 0.4133 0.1918
vt 0.4430 0.1909
vt 0.4384 0.1875
vt 0.4419 0.2006
vt 0.4794 0.2059
vt 0.4783 0.2004
vt 0.4719 0.2091
vt 0.4700 0.1997
vt 0.4871 0.1956
vt 0.4818 0.1929
vt 0.4859 0.1913
vt 0.4749 0.1939
vt 0.2966 0.7722
vt 0.2964 0.7765
vt 0.2942 0.7764
vt 0.2941 0.7722
vt 0.2813 0.7776
vt 0.2783 0.7783
vt 0.2781 0.7764
vt 0.2806 0.7760
vt 0.2919 0.7722
vt 0.2919 0.7765
vt 0.2896 0.7765
vt 0.2896 0.7722
vt 0.2885 0.7858
vt 0.2896 0.7943
vt 0.2879 0.7943
vt 0.2867 0.7863
vt 0.3166 0.7775
vt 0.3174 0.7946
vt 0.3161 0.7944
vt 0.3147 0.7774
vt 0.2924 0.7854
vt 0.2929 0.7943
vt 0.2912 0.7942
vt 0.2904 0.7853
vt 0.2962 0.7854
vt 0.2961 0.7944
vt 0.2945 0.7944
vt 0.2943 0.7854
vt 0.2880 0.8022
vt 0.2892 0.8014
vt 0.2905 0.8085
vt 0.2896 0.8095
vt 0.2962 0.8021
vt 0.2976 0.8021
vt 0.2976 0.8099
vt 0.2963 0.8098
vt 0.2906 0.8016
vt 0.2919 0.8017
vt 0.2927 0.8092
vt 0.2916 0.8088
vt 0.2990 0.8020
vt 0.3004 0.8019
vt 0.2999 0.8097
vt 0.2987 0.8098
vt 0.2934 0.8019
vt 0.2947 0.8020
vt 0.2950 0.8097
vt 0.2939 0.8095
vt 0.2970 0.8181
vt 0.2979 0.8182
vt 0.2960 0.8266
vt 0.2953 0.8264
vt 0.2931 0.8177
vt 0.2940 0.8178
vt 0.2931 0.8260
vt 0.2923 0.8259
vt 0.2894 0.8179
vt 0.2903 0.8185
vt 0.2902 0.8258
vt 0.2894 0.8258
vt 0.2951 0.8180
vt 0.2961 0.8181
vt 0.2946 0.8262
vt 0.2939 0.8261
vt 0.2842 0.7871
vt 0.2864 0.7948
vt 0.3259 0.7878
vt 0.3277 0.7881
vt 0.3263 0.7952
vt 0.3250 0.7950
vt 0.2999 0.7857
vt 0.3017 0.7859
vt 0.3008 0.7940
vt 0.2992 0.7941
vt 0.3009 0.7729
vt 0.3006 0.7772
vt 0.2986 0.7765
vt 0.2990 0.7723
vt 0.3048 0.7656
vt 0.3055 0.7613
vt 0.3076 0.7615
vt 0.3065 0.7659
vt 0.3340 0.7816
vt 0.3381 0.7671
vt 0.3406 0.7629
vt 0.3359 0.7796
vt 0.3199 0.7797
vt 0.3198 0.7947
vt 0.3186 0.7948
vt 0.3185 0.7775
vt 0.3227 0.7848
vt 0.3224 0.7947
vt 0.3211 0.7947
vt 0.3214 0.7820
vt 0.2874 0.7643
vt 0.2867 0.7602
vt 0.2890 0.7602
vt 0.2893 0.7641
vt 0.2878 0.7729
vt 0.2881 0.7684
vt 0.2896 0.7680
vt 0.3299 0.7859
vt 0.3324 0.7761
vt 0.3355 0.7713
vt 0.3321 0.7837
vt 0.3038 0.7746
vt 0.3042 0.7699
vt 0.3055 0.7703
vt 0.3048 0.7757
vt 0.3013 0.7648
vt 0.3012 0.7688
vt 0.2995 0.7681
vt 0.2994 0.7645
vt 0.2917 0.7642
vt 0.2919 0.7680
vt 0.2968 0.7644
vt 0.2968 0.7681
vt 0.2941 0.7680
vt 0.2941 0.7643
vt 0.2836 0.7650
vt 0.2850 0.7693
vt 0.2834 0.7698
vt 0.2817 0.7654
vt 0.2847 0.7745
vt 0.2866 0.7688
vt 0.2860 0.7736
vt 0.3216 0.8049
vt 0.3226 0.8049
vt 0.3215 0.8151
vt 0.3208 0.8151
vt 0.3255 0.8055
vt 0.3265 0.8060
vt 0.3242 0.8160
vt 0.3235 0.8155
vt 0.3196 0.8050
vt 0.3206 0.8049
vt 0.3201 0.8151
vt 0.3194 0.8152
vt 0.3236 0.8050
vt 0.3246 0.8051
vt 0.3229 0.8150
vt 0.3222 0.8151
vt 0.3097 0.8166
vt 0.3109 0.8164
vt 0.3101 0.8219
vt 0.3092 0.8220
vt 0.2903 0.8355
vt 0.2908 0.8355
vt 0.2901 0.8452
vt 0.2897 0.8452
vt 0.2936 0.8360
vt 0.2941 0.8361
vt 0.2923 0.8456
vt 0.2919 0.8455
vt 0.2914 0.8356
vt 0.2919 0.8356
vt 0.2908 0.8453
vt 0.2905 0.8453
vt 0.2892 0.8355
vt 0.2897 0.8355
vt 0.2893 0.8452
vt 0.2889 0.8452
vt 0.2925 0.8357
vt 0.2931 0.8358
vt 0.2916 0.8454
vt 0.2912 0.8454
vt 0.3186 0.8051
vt 0.3275 0.8062
vt 0.3285 0.8065
vt 0.3257 0.8166
vt 0.3250 0.8163
vt 0.3224 0.8257
vt 0.3229 0.8259
vt 0.3201 0.8352
vt 0.3198 0.8352
vt 0.3194 0.8249
vt 0.3198 0.8249
vt 0.3182 0.8347
vt 0.3179 0.8347
vt 0.3325 0.8562
vt 0.3319 0.8564
vt 0.3316 0.8535
vt 0.3321 0.8535
vt 0.3203 0.8255
vt 0.3207 0.8261
vt 0.3189 0.8349
vt 0.3185 0.8348
vt 0.3183 0.8249
vt 0.3189 0.8249
vt 0.3176 0.8347
vt 0.3173 0.8346
vt 0.3066 0.8306
vt 0.3071 0.8306
vt 0.3075 0.8395
vt 0.3072 0.8396
vt 0.2912 0.8180
vt 0.2921 0.8175
vt 0.2916 0.8258
vt 0.2909 0.8258
vt 0.3054 0.8166
vt 0.3063 0.8163
vt 0.3067 0.8217
vt 0.3061 0.8217
vt 0.3078 0.8307
vt 0.3084 0.8309
vt 0.3084 0.8395
vt 0.3080 0.8395
vt 0.3119 0.8167
vt 0.3130 0.8169
vt 0.3118 0.8219
vt 0.3109 0.8219
vt 0.3074 0.8166
vt 0.3084 0.8168
vt 0.3084 0.8222
vt 0.3076 0.8219
vt 0.3090 0.8308
vt 0.3097 0.8307
vt 0.3093 0.8395
vt 0.3088 0.8395
vt 0.3103 0.8307
vt 0.3109 0.8307
vt 0.3101 0.8396
vt 0.3097 0.8396
vt 0.3308 0.8480
vt 0.3302 0.8480
vt 0.3301 0.8427
vt 0.3307 0.8426
vt 0.3213 0.8258
vt 0.3219 0.8255
vt 0.3195 0.8351
vt 0.3192 0.8350
vt 0.3311 0.8562
vt 0.3304 0.8559
vt 0.3304 0.8533
vt 0.3310 0.8534
vt 0.3319 0.8479
vt 0.3314 0.8480
vt 0.3312 0.8425
vt 0.3317 0.8425
vt 0.3294 0.8562
vt 0.3285 0.8564
vt 0.3287 0.8535
vt 0.3295 0.8534
vt 0.3280 0.8562
vt 0.3275 0.8559
vt 0.3279 0.8534
vt 0.3283 0.8535
vt 0.3283 0.8480
vt 0.3279 0.8479
vt 0.3279 0.8425
vt 0.3283 0.8426
vt 0.3295 0.8480
vt 0.3287 0.8481
vt 0.3287 0.8427
vt 0.3294 0.8427
vt 0.3282 0.8594
vt 0.3277 0.8590
vt 0.3271 0.8585
vt 0.3304 0.8586
vt 0.3293 0.8590
vt 0.3324 0.8479
vt 0.3321 0.8424
vt 0.3326 0.8534
vt 0.3322 0.8594
vt 0.3313 0.8590
vt 0.3226 0.8172
vt 0.3234 0.8166
vt 0.3059 0.8110
vt 0.3072 0.8112
vt 0.3085 0.8114
vt 0.3117 0.8110
vt 0.3129 0.8115
vt 0.3141 0.8120
vt 0.3046 0.8167
vt 0.3054 0.8218
vt 0.3038 0.8117
vt 0.3048 0.8113
vt 0.2905 0.8113
vt 0.2916 0.8102
vt 0.3061 0.8307
vt 0.3068 0.8396
vt 0.3178 0.8249
vt 0.3169 0.8346
vt 0.3186 0.8153
vt 0.3221 0.8162
vt 0.3331 0.8559
vt 0.3335 0.8585
vt 0.3328 0.8590
vt 0.3288 0.7960
vt 0.3300 0.7961
vt 0.3312 0.7963
vt 0.3174 0.8048
vt 0.2886 0.8355
vt 0.2885 0.8452
vt 0.2887 0.8258
vt 0.3101 0.8112
vt 0.3237 0.7948
vt 0.3275 0.7956
vt 0.2844 0.7796
vt 0.2854 0.7783
vt 0.2833 0.7809
vt 0.2833 0.7753
vt 0.2822 0.7606
vt 0.2800 0.7610
vt 0.2844 0.7602
vt 0.2855 0.7645
vt 0.2968 0.7607
vt 0.2942 0.7607
vt 0.2994 0.7608
vt 0.2916 0.7605
vt 0.3014 0.7609
vt 0.3034 0.7610
vt 0.3031 0.7652
vt 0.3029 0.7694
vt 0.3034 0.7794
vt 0.3041 0.7810
vt 0.3026 0.7778
vt 0.3027 0.7736
vt 0.3292 0.7810
vt 0.2875 0.7774
vt 0.3231 0.7748
vt 0.3217 0.7693
vt 0.3244 0.7803
vt 0.3241 0.7875
vt 0.3200 0.7648
vt 0.3183 0.7602
vt 0.2981 0.7854
vt 0.2976 0.7943
vt 0.3268 0.7807
vt 0.2818 0.7878
vt 0.2850 0.7954
vt 0.2786 0.7802
vt 0.2820 0.7793
vt 0.2885 0.8173
vt 0.2882 0.8087
vt 0.2893 0.8100
vt 0.2868 0.8030
vt 0.2886 0.8105
vt 0.3158 0.7603
vt 0.3133 0.7605
vt 0.2842 0.7770
vt 0.2830 0.7757
vt 0.4764 0.1902
vt 0.4806 0.1886
vt 0.4848 0.1870
vt 0.4674 0.1991
vt 0.4680 0.1964
vt 0.4667 0.2018
vt 0.4674 0.2058
vt 0.4682 0.2098
vt 0.4327 0.1854
vt 0.4320 0.1819
vt 0.4334 0.1889
vt 0.4380 0.2016
vt 0.4350 0.1976
vt 0.4409 0.2055
vt 0.4157 0.1918
vt 0.4161 0.1889
vt 0.4142 0.2029
vt 0.4154 0.1819
vt 0.4189 0.1831
vt 0.4119 0.1806
vt 0.4079 0.1790
vt 0.4038 0.1773
vt 0.4548 0.1887
vt 0.4552 0.1916
vt 0.4545 0.1859
vt 0.4560 0.1832
vt 0.4576 0.1805
vt 0.4632 0.1744
vt 0.4649 0.1785
vt 0.4615 0.1703
vt 0.4116 0.2065
vt 0.4090 0.2101
vt 0.4212 0.1992
vt 0.4685 0.1797
vt 0.4720 0.1808
vt 0.4243 0.2131
vt 0.4307 0.2154
vt 0.4309 0.1972
vt 0.4269 0.1968
vt 0.4241 0.1980
vt 0.4342 0.1933
vt 0.4281 0.1809
vt 0.4243 0.1799
vt 0.4501 0.1918
vt 0.4450 0.1920
vt 0.4216 0.1815
vt 0.4340 0.1768
vt 0.4359 0.1718
vt 0.4643 0.1958
vt 0.4606 0.1953
vt 0.4579 0.1935
vt 0.4742 0.1855
vt 0.4177 0.2011
vt 0.4175 0.1860
vt 0.4613 0.1795
vt 0.4358 0.2104
vt 0.4764 0.1902
vt 0.4806 0.1886
vt 0.4848 0.1870
vt 0.4674 0.1991
vt 0.4680 0.1964
vt 0.4667 0.2018
vt 0.4674 0.2058
vt 0.4682 0.2098
vt 0.4327 0.1854
vt 0.4320 0.1819
vt 0.4334 0.1889
vt 0.4380 0.2016
vt 0.4350 0.1976
vt 0.4409 0.2055
vt 0.4157 0.1918
vt 0.4161 0.1889
vt 0.4142 0.2029
vt 0.4154 0.1819
vt 0.4189 0.1831
vt 0.4119 0.1806
vt 0.4079 0.1790
vt 0.4038 0.1773
vt 0.4548 0.1887
vt 0.4552 0.1916
vt 0.4545 0.1859
vt 0.4560 0.1832
vt 0.4576 0.1805
vt 0.4632 0.1744
vt 0.4649 0.1785
vt 0.4615 0.1703
vt 0.4116 0.2065
vt 0.4090 0.2101
vt 0.4212 0.1992
vt 0.4685 0.1797
vt 0.4720 0.1808
vt 0.4243 0.2131
vt 0.4307 0.2154
vt 0.4309 0.1972
vt 0.4269 0.1968
vt 0.4241 0.1980
vt 0.4342 0.1933
vt 0.4281 0.1809
vt 0.4243 0.1799
vt 0.4501 0.1918
vt 0.4450 0.1920
vt 0.4216 0.1815
vt 0.4340 0.1768
vt 0.4359 0.1718
vt 0.4643 0.1958
vt 0.4606 0.1953
vt 0.4579 0.1935
vt 0.4742 0.1855
vt 0.4177 0.2011
vt 0.4175 0.1860
vt 0.4613 0.1795
vt 0.4358 0.2104
vn 0.3477 0.6934 -0.6311
vn 0.3422 0.6945 -0.6329
vn 0.3492 0.7041 -0.6184
vn 0.5776 0.5401 -0.6121
vn 0.4597 0.3197 -0.8285
vn 0.3041 0.5879 -0.7496
vn 0.0737 0.4633 -0.8831
vn 0.1059 0.2929 -0.9503
vn -0.1407 0.1654 -0.9761
vn 0.0364 0.7137 -0.6995
vn -0.2564 0.6986 -0.6680
vn -0.1077 0.8780 -0.4663
vn -0.1928 0.3387 -0.9209
vn 0.0872 0.5905 -0.8023
vn -0.2025 0.4808 -0.8531
vn 0.3469 0.7283 -0.5910
vn 0.5070 0.6896 -0.5172
vn 0.4184 0.7642 -0.4908
vn 0.6148 0.6781 -0.4028
vn 0.2291 0.8275 -0.5126
vn -0.4402 -0.2972 -0.8473
vn -0.1626 -0.1658 -0.9727
vn -0.2788 -0.5044 -0.8172
vn -0.2596 0.0924 -0.9613
vn -0.0625 0.1570 -0.9856
vn -0.1054 0.0810 -0.9911
vn -0.5251 -0.5616 -0.6395
vn -0.5354 -0.6583 -0.5291
vn -0.2774 -0.8087 -0.5187
vn -0.5320 -0.6688 -0.5193
vn -0.7300 -0.3760 -0.5706
vn -0.8162 -0.4015 -0.4154
vn -0.7214 -0.1881 -0.6665
vn -0.7158 -0.5991 -0.3588
vn -0.6802 -0.5426 -0.4929
vn -0.7538 -0.5816 -0.3058
vn -0.5558 -0.0833 -0.8271
vn -0.3500 -0.0313 -0.9362
vn -0.3619 0.1154 -0.9250
vn -0.1686 0.1514 -0.9740
vn -0.6192 -0.1390 -0.7728
vn -0.0550 -0.9233 0.3802
vn 0.0409 -0.9935 0.1067
vn 0.1805 -0.9415 0.2848
vn 0.0357 -0.8269 0.5612
vn 0.2407 -0.5421 0.8051
vn 0.5562 -0.4841 0.6755
vn 0.4209 -0.1652 0.8919
vn -0.2752 -0.4136 0.8679
vn -0.3202 0.0228 0.9471
vn -0.4807 -0.3548 0.8019
vn 0.1375 -0.1534 0.9786
vn -0.0930 -0.4928 0.8651
vn -0.1044 -0.0714 0.9920
vn -0.3019 -0.8485 0.4345
vn -0.1140 -0.9630 0.2442
vn -0.1541 -0.9733 0.1702
vn -0.3720 -0.8925 0.2551
vn -0.2192 -0.9727 0.0757
vn -0.4433 -0.7078 0.5499
vn 0.7011 0.4254 0.5722
vn 0.8536 0.0658 0.5168
vn 0.9134 0.3308 0.2373
vn 0.7310 0.6174 0.2907
vn 0.7401 0.6546 0.1542
vn 0.8599 0.5075 -0.0552
vn 0.7499 0.6553 0.0908
vn 0.4508 0.7042 0.5485
vn 0.4255 0.7964 0.4298
vn 0.3633 0.6199 0.6955
vn 0.5531 0.8025 0.2239
vn 0.5452 0.7546 0.3651
vn 0.4806 0.8336 0.2721
vn 0.3459 0.4232 0.8374
vn 0.5884 0.1944 0.7848
vn 0.4391 -0.0755 0.8953
vn 0.2701 0.1079 0.9568
vn 0.3226 -0.2878 0.9017
vn 0.3266 0.4841 0.8118
vn -0.4339 0.8469 0.3074
vn -0.0356 0.9970 0.0687
vn -0.3094 0.9470 0.0862
vn -0.5915 0.7920 0.1514
vn -0.4888 0.8434 -0.2231
vn -0.6161 0.7873 -0.0255
vn -0.7938 0.4754 -0.3792
vn -0.5307 0.3442 -0.7745
vn -0.7718 0.1298 -0.6225
vn -0.9558 0.0035 -0.2939
vn -0.9321 0.3620 0.0076
vn -0.9449 0.2004 0.2589
vn -0.9336 -0.3458 0.0935
vn -0.9256 -0.0354 0.3769
vn -0.6045 0.6447 0.4679
vn -0.6141 0.7469 0.2550
vn -0.4862 0.3816 0.7861
vn -0.2086 0.1802 0.9613
vn -0.3824 0.4400 0.8125
vn 0.9450 -0.3234 -0.0483
vn 0.9154 -0.3739 0.1491
vn 0.8092 -0.5824 0.0771
vn 0.8547 -0.4775 -0.2037
vn 0.5276 -0.8347 -0.1579
vn 0.7778 -0.5586 -0.2882
vn 0.5671 -0.5968 -0.5676
vn 0.2984 -0.8912 -0.3417
vn 0.1330 -0.6751 -0.7256
vn 0.7938 -0.0793 -0.6030
vn 0.5775 0.0583 -0.8143
vn 0.7597 0.1699 -0.6277
vn 0.4369 -0.3078 -0.8452
vn 0.7779 -0.2210 -0.5883
vn 0.9478 -0.1508 -0.2809
vn 0.9150 -0.3887 -0.1084
vn 0.5401 0.6839 -0.4905
vn 0.8107 0.4262 -0.4014
vn 0.7184 0.6053 -0.3429
vn 0.3074 0.6876 -0.6578
vn 0.3301 0.6837 -0.6508
vn -0.3437 -0.7325 -0.5877
vn -0.6449 -0.3076 -0.6996
vn -0.4795 0.0106 -0.8775
vn -0.5481 -0.0338 -0.8358
vn -0.5604 -0.0412 -0.8272
vn -0.4785 0.0770 -0.8747
vn -0.0396 -0.9989 0.0258
vn 0.3958 -0.7842 0.4778
vn -0.2173 -0.7616 0.6105
vn 0.6213 -0.1911 0.7600
vn 0.8730 0.4848 0.0530
vn 0.4593 0.6354 0.6208
vn -0.5281 0.8463 -0.0694
vn -0.3911 0.7407 0.5462
vn -0.1684 0.9494 0.2649
vn -0.5078 0.6879 -0.5186
vn -0.6690 0.6653 0.3313
vn -0.9881 -0.1529 -0.0154
vn -0.6073 0.5961 0.5252
vn -0.6679 0.4600 0.5851
vn 0.6906 -0.7203 -0.0644
vn 0.9963 -0.0845 -0.0178
vn 0.8898 -0.2179 -0.4010
vn 0.5750 -0.0758 -0.8146
vn 0.9801 -0.0773 -0.1830
vn 0.9117 0.0256 -0.4100
vn 0.4218 -0.6010 -0.6789
vn 0.4184 -0.6007 -0.6813
vn 0.4236 -0.6172 -0.6631
vn 0.1425 -0.7653 -0.6277
vn 0.0343 -0.5484 -0.8355
vn 0.3485 -0.5177 -0.7813
vn 0.3830 -0.2449 -0.8907
vn 0.2103 -0.2100 -0.9548
vn 0.2560 0.0647 -0.9645
vn 0.6216 -0.3007 -0.7233
vn 0.7528 0.0034 -0.6583
vn 0.8287 -0.2390 -0.5060
vn 0.4345 0.0554 -0.8990
vn 0.4901 -0.3021 -0.8176
vn 0.5619 0.0273 -0.8268
vn 0.4526 -0.6153 -0.6454
vn 0.3018 -0.7670 -0.5662
vn 0.4363 -0.7188 -0.5412
vn 0.2220 -0.8619 -0.4559
vn 0.6129 -0.5508 -0.5666
vn 0.0129 0.5050 -0.8630
vn -0.0370 0.2079 -0.9775
vn -0.2638 0.4658 -0.8446
vn 0.2484 0.1986 -0.9481
vn 0.1803 -0.0033 -0.9836
vn 0.1335 0.0600 -0.9892
vn -0.1743 0.7180 -0.6739
vn -0.2584 0.7840 -0.5644
vn -0.5368 0.6259 -0.5659
vn -0.2759 0.7843 -0.5557
vn 0.1349 0.7940 -0.5928
vn 0.1657 0.8888 -0.4272
vn 0.3210 0.6692 -0.6702
vn -0.0977 0.9241 -0.3695
vn -0.0592 0.8531 -0.5184
vn -0.0496 0.9499 -0.3087
vn 0.2743 0.4927 -0.8259
vn 0.1897 0.3168 -0.9293
vn 0.3440 0.2704 -0.8992
vn 0.2575 0.0954 -0.9616
vn 0.2876 0.5568 -0.7793
vn -0.7255 0.5329 0.4355
vn -0.8758 0.4680 0.1183
vn -0.8953 0.3153 0.3147
vn -0.6684 0.4044 0.6243
vn -0.5089 0.0840 0.8567
vn -0.6463 -0.2467 0.7221
vn -0.2618 -0.2564 0.9304
vn -0.1031 0.4902 0.8655
vn 0.1826 0.3613 0.9144
vn 0.0648 0.6416 0.7643
vn -0.1088 -0.0059 0.9940
vn -0.2645 0.3634 0.8933
vn 0.0390 0.1710 0.9845
vn -0.4959 0.7015 0.5118
vn -0.7439 0.6030 0.2882
vn -0.7377 0.6418 0.2096
vn -0.5223 0.7925 0.3148
vn -0.7096 0.6965 0.1066
vn -0.2386 0.7466 0.6210
vn -0.0008 -0.7933 0.6089
vn -0.3626 -0.7799 0.5102
vn -0.1896 -0.9662 0.1744
vn 0.1263 -0.9474 0.2942
vn 0.1365 -0.9821 0.1301
vn -0.0543 -0.9878 -0.1461
vn 0.1131 -0.9917 0.0609
vn 0.3264 -0.7082 0.6260
vn 0.4241 -0.7595 0.4933
vn 0.2665 -0.5731 0.7750
vn 0.3774 -0.8926 0.2465
vn 0.3389 -0.8460 0.4116
vn 0.4460 -0.8394 0.3107
vn 0.1750 -0.4021 0.8987
vn -0.1026 -0.5360 0.8379
vn -0.2266 -0.2652 0.9372
vn 0.0064 -0.1926 0.9813
vn -0.3307 -0.0717 0.9410
vn 0.1840 -0.4313 0.8833
vn 0.9486 0.0418 0.3136
vn 0.9060 -0.4192 0.0579
vn 0.9919 -0.1117 0.0606
vn 0.9679 0.2253 0.1116
vn 0.9515 0.1589 -0.2636
vn 0.9662 0.2377 -0.0996
vn 0.8061 0.4512 -0.3828
vn 0.6443 0.3298 -0.6900
vn 0.6224 0.5466 -0.5602
vn 0.5763 0.7526 -0.3187
vn 0.7966 0.6010 -0.0659
vn 0.6310 0.7146 0.3020
vn 0.2139 0.9470 0.2397
vn 0.3422 0.7770 0.5284
vn 0.8205 0.2755 0.5009
vn 0.9343 0.2662 0.2373
vn 0.4915 0.3192 0.8103
vn 0.2049 0.1545 0.9665
vn 0.4885 0.2021 0.8489
vn -0.6617 -0.7312 -0.1659
vn -0.7371 -0.6734 0.0574
vn -0.8674 -0.4976 0.0112
vn -0.7640 -0.6025 -0.2307
vn -0.9754 -0.1115 -0.1903
vn -0.8237 -0.4813 -0.2998
vn -0.7652 -0.2522 -0.5923
vn -0.9160 0.1388 -0.3764
vn -0.6149 0.1889 -0.7656
vn -0.4172 -0.7061 -0.5721
vn -0.2306 -0.5482 -0.8039
vn -0.2453 -0.7712 -0.5875
vn -0.4387 -0.2648 -0.8587
vn -0.5112 -0.6241 -0.5909
vn -0.4967 -0.8116 -0.3077
vn -0.6974 -0.6934 -0.1811
vn 0.2741 -0.8061 -0.5244
vn -0.0876 -0.9224 -0.3763
vn 0.0825 -0.9252 -0.3704
vn 0.4415 -0.5620 -0.6994
vn 0.4297 -0.5718 -0.6988
vn -0.4322 0.6449 -0.6303
vn 0.1314 0.6786 -0.7227
vn 0.3168 0.4083 -0.8561
vn 0.3333 0.4628 -0.8214
vn 0.3638 0.4744 -0.8016
vn 0.3981 0.3694 -0.8397
vn -0.8402 0.5413 0.0333
vn -0.8520 0.0390 0.5221
vn -0.4340 0.5943 0.6771
vn -0.4349 -0.4031 0.8053
vn -0.0602 -0.9974 -0.0394
vn 0.2785 -0.6586 0.6990
vn 0.9811 0.1612 -0.1072
vn 0.8011 0.0513 0.5964
vn 0.9158 -0.2757 0.2922
vn 0.8375 0.2320 -0.4947
vn 0.9017 0.2934 0.3175
vn 0.4288 0.9032 -0.0213
vn 0.7703 0.3205 0.5513
vn 0.6387 0.4016 0.6563
vn -0.9392 -0.3250 -0.1110
vn -0.5032 -0.8488 -0.1621
vn -0.5392 -0.7476 -0.3877
vn -0.3187 -0.4930 -0.8096
vn -0.4595 -0.8390 -0.2914
vn -0.3893 -0.8440 -0.3689
vn 0.9656 -0.0886 -0.2445
vn 0.9631 -0.0962 -0.2513
vn 0.9355 -0.0859 0.3427
vn 0.9437 -0.0811 0.3208
vn 0.6581 0.7310 0.1804
vn 0.5612 0.4735 -0.6788
vn 0.8533 0.2504 -0.4573
vn 0.9050 0.3123 0.2887
vn 0.6197 -0.0252 0.7844
vn 0.5839 -0.0306 0.8113
vn 0.1808 0.0461 0.9824
vn 0.2645 0.0395 0.9636
vn -0.4041 0.1841 0.8960
vn -0.5165 0.2295 0.8250
vn -0.8881 0.3666 0.2772
vn -0.8964 0.2922 0.3333
vn -0.9406 -0.1566 -0.3012
vn -0.9594 -0.1185 -0.2561
vn -0.7585 -0.1214 -0.6403
vn -0.6749 -0.1371 -0.7251
vn 0.5654 -0.0465 0.8235
vn 0.5386 -0.1526 0.8286
vn -0.0070 0.0441 0.9990
vn 0.1062 0.0605 0.9925
vn 0.9592 -0.1116 -0.2597
vn 0.9307 -0.2379 -0.2779
vn 0.9054 -0.2485 0.3443
vn 0.9309 -0.1052 0.3497
vn -0.8299 0.4464 -0.3348
vn -0.8665 0.4061 0.2903
vn -0.9821 0.0169 0.1875
vn -0.7803 0.2213 -0.5849
vn 0.8669 -0.4037 -0.2924
vn 0.5617 -0.1843 -0.8066
vn 0.4430 -0.2636 -0.8569
vn 0.6922 -0.6305 -0.3513
vn -0.5521 0.2140 0.8059
vn -0.0180 -0.0458 0.9988
vn 0.0685 -0.2155 0.9741
vn -0.5003 -0.1734 0.8483
vn 0.0423 0.1146 -0.9925
vn -0.4493 0.3409 -0.8258
vn -0.2318 0.4043 -0.8848
vn 0.0439 0.1741 -0.9837
vn 0.4908 -0.2872 0.8226
vn 0.8403 -0.4367 0.3211
vn 0.6580 -0.7008 0.2757
vn 0.3597 -0.4506 0.8171
vn 0.0944 0.1798 -0.9792
vn -0.1426 0.6182 -0.7730
vn -0.1725 0.6712 -0.7209
vn 0.1124 0.1754 -0.9781
vn 0.2449 -0.6215 0.7441
vn 0.4530 -0.8674 0.2059
vn 0.4317 -0.8802 0.1971
vn 0.2273 -0.6480 0.7269
vn -0.3351 0.9151 -0.2242
vn -0.3856 0.8318 0.3994
vn -0.4360 0.8048 0.4027
vn -0.3871 0.9046 -0.1786
vn 0.4943 -0.7803 -0.3831
vn 0.3687 -0.3790 -0.8487
vn 0.3659 -0.3816 -0.8488
vn 0.4800 -0.7830 -0.3957
vn -0.8968 0.2445 -0.3689
vn -0.8726 0.3548 -0.3356
vn 0.9374 0.2434 0.2492
vn 0.8961 0.2021 -0.3952
vn 0.8855 0.1880 -0.4249
vn 0.9617 0.2199 0.1638
vn 0.1068 0.0671 -0.9920
vn -0.5150 0.1882 -0.8363
vn -0.5285 0.2712 -0.8044
vn 0.0599 0.0844 -0.9946
vn 0.3704 0.0904 -0.9245
vn 0.2171 0.0873 -0.9722
vn 0.6968 -0.0276 -0.7167
vn 0.7487 -0.0169 -0.6627
vn -0.2914 0.0191 -0.9564
vn -0.3122 0.0142 -0.9499
vn -0.5978 -0.0820 -0.7975
vn -0.2697 -0.0387 -0.9622
vn -0.2363 -0.0791 -0.9684
vn -0.7087 -0.0143 0.7054
vn -0.6787 -0.0136 0.7343
vn -0.9633 -0.0955 0.2508
vn -0.9708 -0.1055 0.2155
vn 0.1699 0.1766 0.9695
vn 0.3085 0.1567 0.9382
vn -0.2114 0.0784 0.9742
vn -0.3307 0.0825 0.9401
vn -0.0692 0.1413 0.9875
vn -0.1182 0.1451 0.9823
vn 0.3314 0.0940 0.9388
vn 0.3582 0.0917 0.9291
vn -0.1278 0.1049 0.9862
vn -0.0458 0.1170 0.9921
vn 0.3373 0.0692 0.9389
vn 0.4445 0.0564 -0.8940
vn 0.3076 0.0641 -0.9494
vn -0.0123 0.0038 -0.9999
vn 0.0845 -0.0278 -0.9960
vn 0.1184 0.1217 -0.9855
vn -0.1331 0.0604 -0.9893
vn 0.5037 0.0689 -0.8611
vn 0.4683 0.0763 -0.8803
vn 0.7966 0.0256 -0.6040
vn 0.8400 0.0599 -0.5393
vn 0.7045 0.0126 0.7096
vn 0.6668 -0.0022 0.7452
vn 0.9912 0.0108 -0.1317
vn 0.9774 -0.0361 -0.2085
vn 0.9507 -0.0475 0.3064
vn 0.9471 -0.0211 0.3203
vn -0.8063 0.1213 0.5789
vn -0.6794 0.1144 0.7248
vn -0.6103 0.0792 0.7882
vn -0.7852 0.0187 0.6189
vn -0.6348 0.1671 0.7544
vn -0.4152 0.1409 0.8988
vn -0.4721 0.1436 0.8697
vn 0.3989 0.1446 0.9055
vn 0.7797 0.1952 0.5949
vn 0.6949 0.2555 0.6722
vn 0.4470 0.1917 0.8738
vn 0.3935 0.0726 -0.9164
vn -0.1603 -0.0079 -0.9870
vn -0.5104 -0.1793 -0.8410
vn 0.1104 -0.2037 -0.9728
vn -0.6835 -0.0517 0.7281
vn -0.1449 0.0561 0.9879
vn -0.0794 0.0051 0.9968
vn -0.5903 -0.2386 0.7711
vn 0.9766 0.1955 0.0901
vn 0.8436 0.1526 -0.5148
vn 0.7606 -0.2368 -0.6045
vn 0.9863 0.0228 0.1634
vn 0.3462 0.7107 -0.6124
vn -0.2524 0.3893 -0.8859
vn -0.3053 0.4086 -0.8602
vn 0.4895 0.6056 -0.6274
vn -0.3334 0.4011 0.8532
vn -0.0716 -0.1541 0.9855
vn -0.0401 -0.2161 0.9755
vn -0.3297 0.3863 0.8615
vn 0.1170 0.1818 -0.9763
vn -0.1758 0.6703 -0.7210
vn -0.1499 0.6334 -0.7592
vn 0.1291 0.1620 -0.9783
vn 0.2227 -0.6459 0.7302
vn 0.4407 -0.8748 0.2012
vn 0.4504 -0.8771 0.1665
vn 0.2330 -0.6599 0.7143
vn -0.3949 0.8997 -0.1861
vn -0.4486 0.7956 0.4071
vn -0.4495 0.7904 0.4161
vn -0.3937 0.8984 -0.1947
vn 0.4961 -0.7717 -0.3980
vn 0.3777 -0.3691 -0.8492
vn 0.3957 -0.4087 -0.8225
vn 0.4987 -0.7713 -0.3955
vn -0.9697 -0.0945 0.2255
vn -0.6631 -0.0874 -0.7434
vn -0.8667 -0.1011 -0.4885
vn -0.9786 -0.2012 0.0428
vn -0.7315 -0.2530 -0.6331
vn -0.7682 -0.3917 -0.5064
vn -0.8558 -0.4916 0.1611
vn -0.8363 -0.5228 0.1653
vn -0.7989 -0.4503 -0.3988
vn 0.4406 0.2393 0.8652
vn 0.7153 0.4485 0.5358
vn 0.7581 0.4995 0.4192
vn 0.4167 0.2323 0.8789
vn -0.0406 -0.6296 -0.7758
vn -0.5340 -0.2508 -0.8074
vn -0.5104 -0.3124 -0.8012
vn 0.0601 -0.6643 -0.7450
vn 0.8019 0.5880 -0.1061
vn 0.5388 0.4758 -0.6952
vn 0.5056 0.4401 -0.7421
vn 0.7954 0.5744 -0.1936
vn -0.5633 -0.3637 0.7419
vn -0.0890 -0.0863 0.9923
vn -0.1677 -0.1549 0.9736
vn -0.5926 -0.4137 0.6911
vn -0.5836 -0.4687 0.6631
vn 0.1358 -0.4284 0.8933
vn 0.0900 -0.4434 0.8918
vn -0.5918 -0.4577 0.6635
vn -0.2638 0.4393 0.8588
vn -0.0155 -0.1358 0.9906
vn -0.0588 -0.1432 0.9879
vn -0.3223 0.4241 0.8463
vn -0.4814 -0.5734 0.6629
vn 0.0708 -0.3340 0.9399
vn 0.0505 -0.4099 0.9107
vn -0.5592 -0.5495 0.6208
vn 0.7575 -0.1557 0.6340
vn 0.9660 0.2571 -0.0270
vn 0.9729 0.2307 -0.0182
vn 0.7550 -0.1751 0.6320
vn -0.7568 -0.0857 -0.6480
vn -0.8864 -0.4629 -0.0032
vn -0.9237 -0.3826 0.0202
vn -0.8352 -0.0302 -0.5492
vn 0.5261 0.0693 0.8476
vn 0.7305 0.6524 0.2018
vn 0.9134 0.4029 0.0582
vn 0.6803 -0.0557 0.7308
vn 0.5432 0.5134 -0.6643
vn -0.2533 0.4502 -0.8562
vn -0.3141 0.4338 -0.8445
vn 0.5335 0.5043 -0.6790
vn -0.8752 0.0896 -0.4754
vn -0.9638 -0.2455 0.1044
vn -0.9617 -0.2395 0.1334
vn -0.8855 0.0959 -0.4546
vn -0.9152 0.2059 -0.3464
vn -0.6643 0.5940 0.4537
vn -0.6706 0.5827 0.4590
vn -0.9206 0.2089 -0.3299
vn 0.0476 0.1800 -0.9825
vn -0.4543 -0.1560 -0.8771
vn -0.4810 -0.1938 -0.8550
vn 0.0722 0.1761 -0.9817
vn -0.7368 0.2674 -0.6210
vn -0.3443 0.9385 0.0259
vn -0.6130 0.7142 0.3379
vn -0.8708 0.2486 -0.4241
vn 0.1057 -0.5666 -0.8172
vn -0.5433 -0.2529 -0.8005
vn -0.5644 -0.2336 -0.7918
vn 0.0984 -0.5525 -0.8277
vn 0.3350 0.6896 0.6421
vn 0.7446 0.2022 0.6361
vn 0.7950 0.0575 0.6039
vn 0.1435 0.6104 0.7789
vn 0.8924 -0.4308 0.1341
vn 0.5375 -0.7058 -0.4615
vn 0.5163 -0.7176 -0.4674
vn 0.8412 -0.5406 -0.0121
vn 0.8858 -0.4571 -0.0799
vn 0.5661 -0.6115 -0.5527
vn 0.5586 -0.6010 -0.5717
vn 0.8895 -0.4481 -0.0892
vn 0.0849 0.5079 0.8572
vn 0.7532 0.0755 0.6535
vn 0.7403 0.0871 0.6666
vn 0.0846 0.4962 0.8640
vn 0.3270 0.7496 -0.5754
vn 0.6546 0.6569 0.3741
vn -0.3331 0.2012 -0.9212
vn 0.1304 0.2416 0.9616
vn 0.0380 0.9250 0.3781
vn 0.0421 0.0016 -0.9991
vn -0.4205 -0.0711 -0.9045
vn -0.0092 0.8355 -0.5495
vn 0.7472 0.2097 0.6306
vn 0.4993 0.0889 -0.8618
vn -0.2823 0.6288 0.7245
vn -0.6421 0.3783 0.6668
vn 0.5421 0.3308 0.7725
vn -0.3148 0.1969 0.9285
vn -0.8489 0.1357 0.5108
vn -0.9670 -0.0292 0.2529
vn -0.6001 0.1782 0.7798
vn -0.5127 0.1682 0.8419
vn 0.9962 0.0133 -0.0865
vn 0.9401 -0.0233 0.3402
vn 0.8614 0.0604 -0.5043
vn 0.7119 0.0098 0.7022
vn 0.5149 0.0624 -0.8550
vn 0.0580 0.0464 -0.9972
vn 0.0709 0.0588 -0.9957
vn 0.1167 0.0939 -0.9887
vn 0.0208 0.3621 -0.9319
vn 0.1535 0.1417 -0.9779
vn -0.2727 0.1433 0.9514
vn 0.6751 0.2373 0.6985
vn 0.6524 -0.0387 -0.7568
vn 0.5959 -0.0949 -0.7975
vn -0.5260 0.8172 -0.2356
vn -0.9328 -0.1621 -0.3219
vn -0.2093 -0.9355 -0.2845
vn -0.2446 -0.9431 -0.2254
vn -0.2903 -0.9547 -0.0646
vn -0.0229 -0.2332 -0.9722
vn 0.0535 -0.2575 -0.9648
vn -0.1470 -0.1224 -0.9815
vn -0.3134 0.1300 -0.9407
vn -0.4690 0.4163 -0.7789
vn -0.9805 0.1896 -0.0516
vn -0.8675 0.4206 -0.2657
vn -0.9822 -0.0625 0.1771
vn -0.4851 -0.8646 0.1312
vn -0.6600 -0.5640 0.4963
vn 0.3225 0.5175 0.7926
vn 0.1999 0.7507 0.6297
vn 0.4759 -0.1852 0.8598
vn 0.0919 0.9948 -0.0435
vn -0.1759 0.9657 0.1910
vn 0.3242 0.9152 -0.2392
vn 0.4466 0.7547 -0.4807
vn 0.4911 0.5652 -0.6629
vn 0.6287 0.2134 -0.7478
vn 0.4850 0.2348 -0.8424
vn 0.8216 0.1568 -0.5481
vn 0.9160 0.0715 -0.3947
vn 0.9635 -0.1406 -0.2276
vn 0.7037 -0.6946 0.1496
vn 0.6352 -0.7518 -0.1768
vn 0.7231 -0.5920 0.3559
vn 0.6472 -0.4406 0.6221
vn 0.0943 -0.0973 0.9908
vn 0.4213 -0.9009 -0.1046
vn 0.1918 -0.9706 -0.1455
vn -0.4216 -0.2805 0.8623
vn -0.2583 -0.2459 0.9342
vn -0.1242 -0.1127 0.9858
vn -0.8826 -0.3298 0.3351
vn -0.7124 0.6131 -0.3415
vn -0.5038 0.8185 -0.2762
vn 0.5214 0.3677 -0.7700
vn -0.2997 0.9502 -0.0853
vn -0.6586 0.5098 -0.5535
vn 0.1709 0.0175 -0.9851
vn 0.2418 0.1109 -0.9640
vn 0.3506 0.1694 -0.9211
vn 0.0145 -0.9626 -0.2705
vn 0.1790 -0.1658 0.9698
vn 0.0395 0.8886 0.4569
vn 0.8524 -0.4772 -0.2137
vn 0.9244 0.2926 -0.2447
vn 0.9632 0.2524 -0.0921
vn 0.9738 0.2183 0.0634
vn 0.2209 0.0922 -0.9709
vn 0.2107 0.1835 -0.9602
vn 0.1765 -0.0900 -0.9802
vn 0.0367 -0.3797 -0.9244
vn -0.1344 -0.6559 -0.7428
vn 0.2946 -0.9552 -0.0296
vn 0.0540 -0.9701 -0.2365
vn 0.5049 -0.8432 0.1846
vn 0.9734 -0.0280 0.2276
vn 0.8012 -0.3269 0.5012
vn -0.5722 0.1515 0.8060
vn -0.7805 -0.2302 0.5813
vn -0.0546 0.6117 0.7892
vn -0.8730 -0.4823 -0.0725
vn -0.6929 -0.7104 0.1235
vn -0.9340 -0.2763 -0.2266
vn -0.8640 -0.1357 -0.4849
vn -0.7051 -0.0070 -0.7091
vn -0.3754 0.4516 -0.8094
vn -0.3684 0.2598 -0.8926
vn -0.4113 0.7106 -0.5709
vn -0.4027 0.8361 -0.3725
vn -0.2642 0.9453 -0.1912
vn 0.2520 0.9585 0.1335
vn 0.3420 0.9268 -0.1551
vn 0.1586 0.9369 0.3116
vn 0.0709 0.8349 0.5458
vn 0.1005 0.1737 0.9796
vn 0.5445 0.8339 -0.0896
vn 0.6998 0.7056 -0.1114
vn 0.5121 -0.2722 0.8146
vn 0.4199 -0.1540 0.8944
vn 0.2399 -0.0923 0.9664
vn 0.6865 -0.6399 0.3453
vn -0.1752 -0.9328 -0.3148
vn -0.4366 -0.8579 -0.2708
vn -0.5263 0.1459 -0.8377
vn -0.6228 -0.7750 -0.1072
vn -0.1202 -0.8543 -0.5057
vn -0.0736 0.1235 -0.9896
vn -0.1748 0.1229 -0.9769
vn -0.2618 0.1839 -0.9474
vn 0.7905 0.5750 -0.2110
vn 0.0788 0.3626 0.9286
vn -0.7802 -0.5410 0.3140
vn 0.0493 0.9835 -0.1743
usemtl None
s 1
f 1/1/1 231/2/2 277/3/3
f 3/4/4 544/5/5 603/6/6
f 5/7/7 496/8/8 443/9/9
f 7/10/10 330/11/11 379/12/12
f 5/7/7 206/13/13 494/14/14
f 7/10/10 420/15/15 330/11/11
f 1/1/1 262/16/16 231/2/2
f 2/17/17 366/18/18 205/19/19
f 7/10/10 379/12/12 474/20/20
f 13/21/21 442/22/22 493/23/23
f 16/24/24 202/25/25 438/26/26
f 13/27/21 493/28/23 594/29/27
f 17/30/28 223/31/29 268/32/30
f 20/33/31 489/34/32 313/35/33
f 17/30/28 482/36/34 320/37/35
f 20/33/31 361/38/36 489/34/32
f 13/21/21 507/39/37 536/40/38
f 16/24/24 429/41/39 424/42/40
f 20/43/31 313/44/33 211/45/41
f 25/46/42 481/47/43 225/48/44
f 25/46/42 225/48/44 270/49/45
f 27/50/46 534/51/47 592/52/48
f 30/53/49 596/54/50 433/55/51
f 27/50/46 363/56/52 210/57/53
f 30/53/49 488/58/54 596/54/50
f 25/46/42 369/59/55 549/60/56
f 34/61/57 337/62/58 341/63/59
f 30/53/49 433/55/51 199/64/60
f 35/65/61 504/66/62 422/67/63
f 35/65/61 422/67/63 579/68/64
f 37/69/65 311/70/66 419/71/67
f 39/72/68 204/73/69 358/74/70
f 37/69/65 525/75/71 476/76/72
f 39/77/68 192/78/73 204/79/69
f 35/65/61 255/80/74 296/81/75
f 42/82/76 516/83/77 564/84/78
f 39/72/68 358/74/70 469/85/79
f 43/86/80 427/87/81 221/88/82
f 44/89/83 574/90/84 473/91/85
f 45/92/86 216/93/87 179/94/88
f 45/95/86 284/96/89 309/97/90
f 46/98/91 559/99/92 461/100/93
f 44/101/83 460/102/94 418/103/95
f 31/104/96 371/105/97 287/106/98
f 47/107/99 292/108/100 512/109/101
f 48/110/102 543/111/103 253/112/104
f 49/113/105 386/114/106 321/115/107
f 50/116/108 238/117/109 344/118/110
f 49/119/105 431/120/111 532/121/112
f 48/122/102 511/123/113 201/124/114
f 3/4/4 381/125/115 588/126/116
f 2/17/17 205/19/19 264/127/117
f 1/1/1 277/3/3 376/128/118
f 1/1/1 376/128/118 490/129/119
f 5/7/7 443/9/9 206/13/13
f 1/1/1 490/129/119 262/16/16
f 13/21/21 536/40/38 442/22/22
f 16/24/24 424/42/40 202/25/25
f 17/30/28 377/130/120 223/31/29
f 13/27/21 594/29/27 283/131/121
f 17/30/28 268/32/30 482/36/34
f 13/21/21 283/132/121 507/39/37
f 16/24/24 185/133/122 429/41/39
f 24/134/123 428/135/124 384/136/125
f 25/46/42 549/60/56 481/47/43
f 34/61/57 341/63/59 459/137/126
f 27/50/46 372/138/127 534/51/47
f 25/46/42 270/49/45 430/139/128
f 27/50/46 592/52/48 363/56/52
f 25/46/42 430/139/128 369/59/55
f 35/65/61 296/81/75 504/66/62
f 42/82/76 564/84/78 242/140/129
f 37/69/65 480/141/130 311/70/66
f 35/65/61 579/68/64 244/142/131
f 37/69/65 419/71/67 525/75/71
f 35/65/61 244/142/131 255/80/74
f 44/89/83 418/143/95 263/144/132
f 43/145/80 252/146/133 558/147/134
f 43/86/80 558/148/134 427/87/81
f 44/89/83 263/144/132 574/90/84
f 45/92/86 417/149/135 216/93/87
f 44/101/83 473/150/85 404/151/136
f 45/95/86 179/152/88 284/96/89
f 46/98/91 342/153/137 559/99/92
f 44/101/83 404/151/136 460/102/94
f 43/145/80 397/154/138 252/146/133
f 46/98/91 461/100/93 567/155/139
f 48/110/102 201/156/114 557/157/140
f 47/107/99 338/158/141 292/108/100
f 48/110/102 557/157/140 543/111/103
f 48/122/102 253/159/104 580/160/142
f 49/119/105 321/161/107 431/120/111
f 50/116/108 441/162/143 238/117/109
f 48/122/102 580/160/142 511/123/113
f 47/163/99 568/164/144 338/165/141
f 50/116/108 344/118/110 380/166/145
f 51/167/146 426/168/147 585/169/148
f 53/170/149 316/171/150 479/172/151
f 55/173/152 584/174/153 209/175/154
f 57/176/155 533/177/156 261/178/157
f 55/173/152 403/179/158 360/180/159
f 57/176/155 208/181/160 533/177/156
f 51/167/146 566/182/161 426/168/147
f 52/183/162 466/184/163 395/185/164
f 57/176/155 261/178/157 359/186/165
f 63/187/166 219/188/167 364/189/168
f 66/190/169 448/191/170 222/192/171
f 63/193/166 364/194/168 267/195/172
f 67/196/173 509/197/174 561/198/175
f 70/199/176 560/200/177 182/201/178
f 67/196/173 335/202/179 387/203/180
f 70/199/176 233/204/181 560/200/177
f 63/187/166 334/205/182 325/206/183
f 66/190/169 227/207/184 229/208/185
f 70/209/176 182/210/178 269/211/186
f 75/212/187 537/213/188 506/214/189
f 75/212/187 506/214/189 553/215/190
f 77/216/191 184/217/192 232/218/193
f 80/219/194 452/220/195 454/221/196
f 77/216/191 400/222/197 503/223/198
f 80/219/194 505/224/199 452/220/195
f 75/212/187 455/225/200 471/226/201
f 84/227/202 248/228/203 251/229/204
f 80/219/194 454/221/196 495/230/205
f 85/231/206 399/232/207 177/233/208
f 85/231/206 177/233/208 230/234/209
f 87/235/210 282/236/211 203/237/212
f 89/238/213 392/239/214 451/240/215
f 87/235/210 308/241/216 332/242/217
f 89/243/213 416/244/218 392/245/214
f 85/231/206 545/246/219 258/247/220
f 92/248/221 487/249/222 478/250/223
f 89/238/213 451/240/215 329/251/224
f 93/252/225 207/253/226 436/254/227
f 94/255/228 260/256/229 551/257/230
f 95/258/231 423/259/232 303/260/233
f 95/261/231 407/262/234 286/263/235
f 96/264/236 472/265/237 578/266/238
f 94/267/228 586/268/239 181/269/240
f 81/270/241 449/271/242 432/272/243
f 97/273/244 213/274/245 421/275/246
f 98/276/247 450/277/248 348/278/249
f 99/279/250 502/280/251 391/281/252
f 100/282/253 389/283/254 501/284/255
f 99/285/250 228/286/256 195/287/257
f 98/288/247 408/289/258 517/290/259
f 53/170/149 483/291/260 484/292/261
f 52/183/162 395/185/164 362/293/262
f 51/167/146 585/169/148 250/294/263
f 51/167/146 250/294/263 356/295/264
f 55/173/152 209/175/154 403/179/158
f 51/167/146 356/295/264 566/182/161
f 63/187/166 325/206/183 219/188/167
f 66/190/169 229/208/185 448/191/170
f 67/196/173 458/296/265 509/197/174
f 63/193/166 267/195/172 542/297/266
f 67/196/173 561/198/175 335/202/179
f 63/187/166 542/298/266 334/205/182
f 66/190/169 275/299/267 227/207/184
f 74/300/268 485/301/269 236/302/270
f 75/212/187 471/226/201 537/213/188
f 84/227/202 251/229/204 583/303/271
f 77/216/191 235/304/272 184/217/192
f 75/212/187 553/215/190 281/305/273
f 77/216/191 232/218/193 400/222/197
f 75/212/187 281/305/273 455/225/200
f 85/231/206 258/247/220 399/232/207
f 92/248/221 478/250/223 355/306/274
f 87/235/210 546/307/275 282/236/211
f 85/231/206 230/234/209 540/308/276
f 87/235/210 203/237/212 308/241/216
f 85/231/206 540/308/276 545/246/219
f 94/255/228 181/309/240 582/310/277
f 93/311/225 547/312/278 447/313/279
f 93/252/225 447/314/279 207/253/226
f 94/255/228 582/310/277 260/256/229
f 95/258/231 214/315/280 423/259/232
f 94/267/228 551/316/230 176/317/281
f 95/261/231 303/318/233 407/262/234
f 96/264/236 247/319/282 472/265/237
f 94/267/228 176/317/281 586/268/239
f 93/311/225 317/320/283 547/312/278
f 96/264/236 578/266/238 477/321/284
f 98/276/247 517/322/259 440/323/285
f 97/273/244 218/324/286 213/274/245
f 98/276/247 440/323/285 450/277/248
f 98/288/247 348/325/249 295/326/287
f 99/285/250 391/327/252 228/286/256
f 100/282/253 604/328/288 389/283/254
f 98/288/247 295/326/287 408/289/258
f 97/329/244 437/330/289 218/331/286
f 100/282/253 501/284/255 520/332/290
f 672/333/291 565/334/292 103/335/293 406/336/294
f 671/337/295 345/338/296 107/339/297 189/340/298
f 670/341/299 541/342/300 109/343/301 294/344/302
f 669/345/303 402/346/304 112/347/305 180/348/306
f 668/349/307 351/350/308 115/351/309 196/352/310
f 667/353/311 519/354/312 111/355/313 240/356/314
f 666/357/315 302/358/316 117/359/317 529/360/318
f 665/361/319 259/362/320 120/363/321 470/364/322
f 664/365/323 607/366/324 122/367/325 354/368/326
f 663/369/327 590/370/328 124/371/329 499/372/330
f 662/373/331 347/374/332 121/375/333 524/376/334
f 661/377/335 446/378/336 123/379/337 198/380/338
f 660/381/339 346/382/340 125/383/341 305/384/342
f 659/385/343 457/386/344 127/387/345 415/388/346
f 658/389/347 577/390/348 130/391/349 528/392/350
f 657/393/351 401/394/352 126/395/353 575/396/354
f 656/397/355 180/348/306 112/347/305 314/398/356
f 655/399/357 278/400/358 131/401/359 475/402/360
f 654/403/361 523/404/362 119/405/363 570/406/364
f 653/407/365 600/408/366 102/409/367 299/410/368
f 652/411/369 226/412/370 116/413/371 598/414/372
f 651/415/373 598/416/372 116/417/371 196/418/310
f 650/419/374 224/420/375 114/421/376 521/422/377
f 649/423/378 453/424/379 138/425/380 573/426/381
f 648/427/382 411/428/383 141/429/384 304/430/385
f 647/431/386 200/432/387 110/433/388 294/344/302
f 646/434/389 508/435/390 135/436/391 246/437/392
f 645/438/393 414/439/394 135/440/391 508/441/390
f 644/442/395 388/443/396 101/444/397 353/445/398
f 643/446/399 601/447/400 110/433/388 304/430/385
f 642/448/401 188/449/402 104/450/403 191/451/404
f 641/452/405 194/453/406 137/454/407 597/455/408
f 640/456/409 194/453/406 139/457/410 531/458/411
f 639/459/412 550/460/413 144/461/414 190/462/415
f 638/463/416 425/464/417 146/465/418 297/466/419
f 637/467/420 396/468/421 145/469/422 239/470/423
f 636/471/424 375/472/425 147/473/426 464/474/427
f 635/475/428 394/476/429 149/477/430 343/478/431
f 634/479/432 554/480/433 151/481/434 243/482/435
f 633/483/436 187/484/437 153/485/438 569/486/439
f 632/487/440 301/488/441 155/489/442 374/490/443
f 631/491/444 318/492/445 152/493/446 193/494/447
f 630/495/448 245/496/449 154/497/450 300/498/451
f 114/421/376 352/499/452 351/350/308
f 629/500/453 254/501/454 148/502/455 563/503/456
f 628/504/457 331/505/458 156/506/459 405/507/460
f 627/508/461 212/509/462 158/510/463 515/511/464
f 626/512/465 323/513/466 160/514/467 183/515/468
f 625/516/469 288/517/470 163/518/471 197/519/472
f 624/520/473 373/521/474 159/522/475 289/523/476
f 623/524/477 234/525/478 166/526/479 498/527/480
f 622/528/481 298/529/482 128/530/483 357/531/484
f 621/532/485 535/533/486 165/534/487 393/535/488
f 620/536/489 492/537/490 168/538/491 444/539/492
f 619/540/493 378/541/494 164/542/495 581/543/496
f 618/544/497 324/545/498 150/546/499 530/547/500
f 617/548/501 439/549/502 169/550/503 178/551/504
f 616/552/505 272/553/506 167/554/507 279/555/508
f 615/556/509 285/557/510 171/558/511 333/559/512
f 614/560/513 606/561/514 157/562/515 522/563/516
f 613/564/517 326/565/518 170/566/519 572/567/520
f 612/568/521 468/569/522 172/570/523 383/571/524
f 611/572/525 409/573/526 174/574/527 539/575/528
f 610/576/529 273/577/530 161/578/531 217/579/532
f 609/580/533 266/581/534 173/582/535 382/583/536
f 608/584/537 497/585/538 175/586/539 595/587/540
f 285/557/510 608/584/537 595/587/540 171/558/511
f 170/566/519 539/575/528 608/584/537 285/557/510
f 539/575/528 174/574/527 497/585/538 608/584/537
f 497/585/538 609/580/533 382/583/536 175/586/539
f 174/574/527 217/579/532 609/580/533 497/585/538
f 217/579/532 161/578/531 266/581/534 609/580/533
f 409/573/526 610/576/529 217/579/532 174/574/527
f 144/588/414 464/589/427 610/576/529 409/573/526
f 464/589/427 147/590/426 273/577/530 610/576/529
f 326/565/518 611/572/525 539/575/528 170/566/519
f 162/591/541 593/592/542 611/572/525 326/565/518
f 593/592/542 144/588/414 409/573/526 611/572/525
f 266/593/534 612/568/521 383/571/524 173/594/535
f 161/595/531 183/515/468 612/568/521 266/593/534
f 183/515/468 160/514/467 468/569/522 612/568/521
f 323/513/466 613/564/517 572/567/520 160/514/467
f 146/596/418 367/597/543 613/564/517 323/513/466
f 367/597/543 162/591/541 326/565/518 613/564/517
f 288/517/470 614/560/513 522/563/516 163/518/471
f 162/598/541 367/599/543 614/560/513 288/517/470
f 367/599/543 146/465/418 606/561/514 614/560/513
f 468/569/522 615/556/509 333/559/512 172/570/523
f 160/514/467 572/567/520 615/556/509 468/569/522
f 572/567/520 170/566/519 285/557/510 615/556/509
f 439/549/502 616/552/505 279/555/508 169/550/503
f 149/477/430 581/543/496 616/552/505 439/549/502
f 581/543/496 164/542/495 272/553/506 616/552/505
f 492/537/490 617/548/501 178/551/504 168/538/491
f 150/546/499 343/478/431 617/548/501 492/537/490
f 343/478/431 149/477/430 439/549/502 617/548/501
f 535/533/486 618/544/497 530/547/500 165/534/487
f 124/600/329 463/601/544 618/544/497 535/533/486
f 463/601/544 129/602/545 324/545/498 618/544/497
f 394/476/429 619/540/493 581/543/496 149/477/430
f 121/603/333 470/604/322 619/540/493 394/476/429
f 470/604/322 120/605/321 378/541/494 619/540/493
f 234/525/478 620/536/489 444/539/492 166/526/479
f 165/534/487 530/547/500 620/536/489 234/525/478
f 530/547/500 150/546/499 492/537/490 620/536/489
f 378/606/494 621/532/485 393/535/488 164/607/495
f 120/608/321 499/609/330 621/532/485 378/606/494
f 499/609/330 124/600/329 535/533/486 621/532/485
f 577/390/348 622/528/481 357/531/484 130/391/349
f 129/610/545 463/611/544 622/528/481 577/390/348
f 463/611/544 124/371/329 298/529/482 622/528/481
f 272/612/506 623/524/477 498/527/480 167/613/507
f 164/607/495 393/535/488 623/524/477 272/612/506
f 393/535/488 165/534/487 234/525/478 623/524/477
f 331/614/458 624/520/473 289/523/476 156/615/459
f 148/616/455 239/470/423 624/520/473 331/614/458
f 239/470/423 145/469/422 373/521/474 624/520/473
f 212/509/462 625/516/469 197/519/472 158/510/463
f 144/461/414 593/617/542 625/516/469 212/509/462
f 593/617/542 162/598/541 288/517/470 625/516/469
f 273/618/530 626/512/465 183/515/468 161/595/531
f 147/619/426 297/620/419 626/512/465 273/618/530
f 297/620/419 146/596/418 323/513/466 626/512/465
f 373/521/474 627/508/461 515/511/464 159/522/475
f 145/469/422 190/462/415 627/508/461 373/521/474
f 190/462/415 144/461/414 212/509/462 627/508/461
f 606/561/514 628/504/457 405/507/460 157/562/515
f 146/465/418 563/503/456 628/504/457 606/561/514
f 563/503/456 148/502/455 331/505/458 628/504/457
f 425/464/417 629/500/453 563/503/456 146/465/418
f 136/621/546 445/622/547 629/500/453 425/464/417
f 445/622/547 115/623/309 254/501/454 629/500/453
f 351/350/308 254/624/454 115/351/309
f 351/350/308 352/499/452 254/624/454
f 352/499/452 148/616/455 254/624/454
f 301/488/441 630/495/448 300/498/451 155/489/442
f 127/387/345 575/396/354 630/495/448 301/488/441
f 575/396/354 126/395/353 245/496/449 630/495/448
f 187/625/437 631/491/444 193/494/447 153/626/438
f 125/627/341 528/392/350 631/491/444 187/625/437
f 528/392/350 130/391/349 318/492/445 631/491/444
f 554/480/433 632/487/440 374/490/443 151/481/434
f 128/530/483 415/388/346 632/487/440 554/480/433
f 415/388/346 127/387/345 301/488/441 632/487/440
f 245/496/449 633/483/436 569/486/439 154/497/450
f 126/395/353 305/384/342 633/483/436 245/496/449
f 305/384/342 125/383/341 187/484/437 633/483/436
f 318/492/445 634/479/432 243/482/435 152/493/446
f 130/391/349 357/531/484 634/479/432 318/492/445
f 357/531/484 128/530/483 554/480/433 634/479/432
f 324/545/498 635/475/428 343/478/431 150/546/499
f 129/602/545 562/628/548 635/475/428 324/545/498
f 562/628/548 121/603/333 394/476/429 635/475/428
f 550/460/413 636/471/424 464/474/427 144/461/414
f 132/629/549 475/402/360 636/471/424 550/460/413
f 475/402/360 131/401/359 375/472/425 636/471/424
f 352/499/452 637/467/420 239/470/423 148/616/455
f 114/421/376 224/420/375 637/467/420 352/499/452
f 224/420/375 138/425/380 396/468/421 637/467/420
f 375/472/425 638/463/416 297/466/419 147/473/426
f 131/401/359 241/630/550 638/463/416 375/472/425
f 241/630/550 136/621/546 425/464/417 638/463/416
f 396/468/421 639/459/412 190/462/415 145/469/422
f 138/425/380 453/424/379 639/459/412 396/468/421
f 453/424/379 132/629/549 550/460/413 639/459/412
f 398/631/551 640/456/409 531/458/411 105/632/552
f 108/633/553 293/634/554 640/456/409 398/631/551
f 293/634/554 137/454/407 194/453/406 640/456/409
f 435/635/555 641/452/405 597/455/408 113/636/556
f 140/637/557 465/638/558 641/452/405 435/635/555
f 465/638/558 139/457/410 194/453/406 641/452/405
f 518/639/559 642/448/401 191/451/404 143/640/560
f 142/641/561 353/445/398 642/448/401 518/639/559
f 353/445/398 101/444/397 188/449/402 642/448/401
f 410/642/562 643/446/399 304/430/385 141/429/384
f 143/640/560 191/451/404 643/446/399 410/642/562
f 191/451/404 104/450/403 601/447/400 643/446/399
f 456/643/563 644/442/395 353/445/398 142/641/561
f 134/644/564 350/645/565 644/442/395 456/643/563
f 350/645/565 133/646/566 388/443/396 644/442/395
f 345/647/296 645/438/393 508/441/390 107/648/297
f 106/649/567 280/650/568 645/438/393 345/647/296
f 280/650/568 133/646/566 414/439/394 645/438/393
f 241/630/550 646/434/389 246/437/392 136/621/546
f 131/401/359 278/400/358 646/434/389 241/630/550
f 278/400/358 107/651/297 508/435/390 646/434/389
f 339/652/569 647/431/386 294/344/302 109/343/301
f 105/632/552 531/458/411 647/431/386 339/652/569
f 531/458/411 139/457/410 200/432/387 647/431/386
f 200/432/387 648/427/382 304/430/385 110/433/388
f 139/457/410 465/638/558 648/427/382 200/432/387
f 465/638/558 140/637/557 411/428/383 648/427/382
f 293/653/554 649/423/378 573/426/381 137/654/407
f 108/655/553 548/656/570 649/423/378 293/653/554
f 548/656/570 132/629/549 453/424/379 649/423/378
f 597/657/408 650/419/374 521/422/377 113/658/556
f 137/654/407 573/426/381 650/419/374 597/657/408
f 573/426/381 138/425/380 224/420/375 650/419/374
f 445/622/547 651/415/373 196/418/310 115/623/309
f 136/621/546 246/437/392 651/415/373 445/622/547
f 246/437/392 135/436/391 598/416/372 651/415/373
f 414/439/394 652/411/369 598/414/372 135/440/391
f 133/646/566 350/645/565 652/411/369 414/439/394
f 350/645/565 134/644/564 226/412/370 652/411/369
f 388/443/396 653/407/365 299/410/368 101/444/397
f 133/646/566 280/650/568 653/407/365 388/443/396
f 280/650/568 106/649/567 600/408/366 653/407/365
f 368/659/571 654/403/361 570/406/364 118/660/572
f 102/409/367 600/408/366 654/403/361 368/659/571
f 600/408/366 106/649/567 523/404/362 654/403/361
f 548/656/570 655/399/357 475/402/360 132/629/549
f 108/655/553 189/661/298 655/399/357 548/656/570
f 189/661/298 107/651/297 278/400/358 655/399/357
f 523/662/362 656/397/355 314/398/356 119/663/363
f 106/664/567 513/665/573 656/397/355 523/662/362
f 513/665/573 105/632/552 180/348/306 656/397/355
f 457/386/344 657/393/351 575/396/354 127/387/345
f 123/379/337 354/368/326 657/393/351 457/386/344
f 354/368/326 122/367/325 401/394/352 657/393/351
f 346/666/340 658/389/347 528/392/350 125/627/341
f 121/667/333 562/668/548 658/389/347 346/666/340
f 562/668/548 129/610/545 577/390/348 658/389/347
f 298/529/482 659/385/343 415/388/346 128/530/483
f 124/371/329 198/380/338 659/385/343 298/529/482
f 198/380/338 123/379/337 457/386/344 659/385/343
f 401/394/352 660/381/339 305/384/342 126/395/353
f 122/367/325 524/376/334 660/381/339 401/394/352
f 524/376/334 121/375/333 346/382/340 660/381/339
f 590/370/328 661/377/335 198/380/338 124/371/329
f 111/355/313 519/354/312 661/377/335 590/370/328
f 519/354/312 117/359/317 446/378/336 661/377/335
f 607/366/324 662/373/331 524/376/334 122/367/325
f 118/660/572 570/406/364 662/373/331 607/366/324
f 570/406/364 119/405/363 347/374/332 662/373/331
f 259/362/320 663/369/327 499/372/330 120/363/321
f 112/347/305 402/346/304 663/369/327 259/362/320
f 402/346/304 111/355/313 590/370/328 663/369/327
f 446/378/336 664/365/323 354/368/326 123/379/337
f 117/359/317 302/358/316 664/365/323 446/378/336
f 302/358/316 118/660/572 607/366/324 664/365/323
f 347/669/332 665/361/319 470/364/322 121/670/333
f 119/663/363 314/398/356 665/361/319 347/669/332
f 314/398/356 112/347/305 259/362/320 665/361/319
f 565/334/292 666/357/315 529/360/318 103/335/293
f 102/409/367 368/659/571 666/357/315 565/334/292
f 368/659/571 118/660/572 302/358/316 666/357/315
f 541/342/300 667/353/311 240/356/314 109/343/301
f 103/335/293 529/360/318 667/353/311 541/342/300
f 529/360/318 117/359/317 519/354/312 667/353/311
f 412/671/574 668/349/307 196/352/310 116/672/371
f 113/658/556 521/422/377 668/349/307 412/671/574
f 521/422/377 114/421/376 351/350/308 668/349/307
f 339/652/569 669/345/303 180/348/306 105/632/552
f 109/343/301 240/356/314 669/345/303 339/652/569
f 240/356/314 111/355/313 402/346/304 669/345/303
f 601/447/400 670/341/299 294/344/302 110/433/388
f 104/450/403 406/336/294 670/341/299 601/447/400
f 406/336/294 103/335/293 541/342/300 670/341/299
f 398/673/551 671/337/295 189/340/298 108/674/553
f 105/632/552 513/665/573 671/337/295 398/673/551
f 513/665/573 106/664/567 345/338/296 671/337/295
f 188/449/402 672/333/291 406/336/294 104/450/403
f 101/444/397 299/410/368 672/333/291 188/449/402
f 299/410/368 102/409/367 565/334/292 672/333/291
f 520/332/290 484/292/261 88/675/575
f 520/332/290 501/284/255 484/292/261
f 501/284/255 53/170/149 484/292/261
f 218/331/286 602/676/576 86/677/577
f 218/331/286 437/330/289 602/676/576
f 437/330/289 88/675/575 602/676/576
f 408/289/258 520/332/290 88/675/575
f 408/289/258 295/326/287 520/332/290
f 295/326/287 100/282/253 520/332/290
f 389/283/254 514/678/578 54/679/579
f 389/283/254 604/328/288 514/678/578
f 604/328/288 64/680/580 514/678/578
f 228/286/256 265/681/581 64/680/580
f 228/286/256 391/327/252 265/681/581
f 391/327/252 65/682/582 265/681/581
f 295/326/287 195/287/257 100/282/253
f 295/326/287 348/325/249 195/287/257
f 348/325/249 99/285/250 195/287/257
f 450/277/248 605/683/583 68/684/584
f 450/277/248 440/323/285 605/683/583
f 440/323/285 76/685/585 605/683/583
f 213/274/245 467/686/586 78/687/587
f 213/274/245 218/324/286 467/686/586
f 218/324/286 86/688/577 467/686/586
f 440/323/285 421/275/246 76/685/585
f 440/323/285 517/322/259 421/275/246
f 517/322/259 97/273/244 421/275/246
f 477/321/284 390/689/588 81/270/241
f 477/321/284 578/266/238 390/689/588
f 578/266/238 82/690/589 390/689/588
f 547/312/278 432/272/243 91/691/590
f 547/312/278 317/320/283 432/272/243
f 317/320/283 81/270/241 432/272/243
f 586/268/239 477/321/284 81/270/241
f 586/268/239 176/317/281 477/321/284
f 176/317/281 96/264/236 477/321/284
f 472/265/237 340/692/591 73/693/592
f 472/265/237 247/319/282 340/692/591
f 247/319/282 71/694/593 340/692/591
f 407/262/234 291/695/594 71/694/593
f 407/262/234 303/318/233 291/695/594
f 303/318/233 72/696/595 291/695/594
f 176/317/281 286/263/235 96/264/236
f 176/317/281 551/316/230 286/263/235
f 551/316/230 95/261/231 286/263/235
f 423/259/232 315/697/596 60/698/597
f 423/259/232 214/315/280 315/697/596
f 214/315/280 58/699/598 315/697/596
f 260/256/229 365/700/599 58/699/598
f 260/256/229 582/310/277 365/700/599
f 582/310/277 59/701/600 365/700/599
f 207/253/226 589/702/601 61/703/602
f 207/253/226 447/314/279 589/702/601
f 447/314/279 90/704/603 589/702/601
f 447/313/279 336/705/604 90/706/603
f 447/313/279 547/312/278 336/705/604
f 547/312/278 91/691/590 336/705/604
f 582/310/277 436/254/227 59/701/600
f 582/310/277 181/309/240 436/254/227
f 181/309/240 93/252/225 436/254/227
f 545/246/219 329/251/224 83/707/605
f 545/246/219 540/308/276 329/251/224
f 540/308/276 89/238/213 329/251/224
f 308/241/216 319/708/606 61/703/602
f 308/241/216 203/237/212 319/708/606
f 203/237/212 62/709/607 319/708/606
f 540/308/276 332/710/217 89/238/213
f 540/308/276 230/234/209 332/710/217
f 230/234/209 87/711/210 332/710/217
f 282/236/211 602/676/576 88/675/575
f 282/236/211 546/307/275 602/676/576
f 546/307/275 86/677/577 602/676/576
f 355/306/274 556/712/608 78/687/587
f 355/306/274 478/250/223 556/712/608
f 478/250/223 79/713/609 556/712/608
f 399/232/207 355/306/274 78/687/587
f 399/232/207 258/247/220 355/306/274
f 258/247/220 92/248/221 355/306/274
f 455/225/200 495/230/205 73/693/592
f 455/225/200 281/305/273 495/230/205
f 281/305/273 80/219/194 495/230/205
f 400/222/197 186/714/610 83/707/605
f 400/222/197 232/218/193 186/714/610
f 232/218/193 79/713/609 186/714/610
f 281/305/273 503/223/198 80/219/194
f 281/305/273 553/215/190 503/223/198
f 553/215/190 77/216/191 503/223/198
f 184/217/192 274/715/611 78/687/587
f 184/217/192 235/304/272 274/715/611
f 235/304/272 76/685/585 274/715/611
f 583/303/271 237/716/612 68/684/584
f 583/303/271 251/229/204 237/716/612
f 251/229/204 69/717/613 237/716/612
f 537/213/188 583/303/271 68/684/584
f 537/213/188 471/226/201 583/303/271
f 471/226/201 84/227/202 583/303/271
f 236/302/270 328/718/614 60/698/597
f 236/302/270 485/301/269 328/718/614
f 485/301/269 72/719/595 328/718/614
f 227/207/184 236/302/270 60/698/597
f 227/207/184 275/299/267 236/302/270
f 275/299/267 74/300/268 236/302/270
f 334/205/182 269/211/186 74/300/268
f 334/205/182 542/298/266 269/211/186
f 542/298/266 70/209/176 269/211/186
f 335/202/179 552/720/615 73/693/592
f 335/202/179 561/198/175 552/720/615
f 561/198/175 69/717/613 552/720/615
f 542/297/266 387/203/180 70/199/176
f 542/297/266 267/195/172 387/203/180
f 267/195/172 67/196/173 387/203/180
f 509/197/174 290/721/616 68/684/584
f 509/197/174 458/296/265 290/721/616
f 458/296/265 65/722/582 290/721/616
f 448/191/170 527/723/617 54/679/579
f 448/191/170 229/208/185 527/723/617
f 229/208/185 56/724/618 527/723/617
f 219/188/167 222/192/171 64/680/580
f 219/188/167 325/206/183 222/192/171
f 325/206/183 66/190/169 222/192/171
f 566/182/161 359/186/165 61/703/602
f 566/182/161 356/295/264 359/186/165
f 356/295/264 57/176/155 359/186/165
f 403/179/158 510/725/619 60/698/597
f 403/179/158 209/175/154 510/725/619
f 209/175/154 56/724/618 510/725/619
f 356/295/264 360/180/159 57/176/155
f 356/295/264 250/294/263 360/180/159
f 250/294/263 55/173/152 360/180/159
f 250/294/263 479/172/151 55/173/152
f 250/294/263 585/169/148 479/172/151
f 585/169/148 53/170/149 479/172/151
f 362/293/262 576/726/620 88/675/575
f 362/293/262 395/185/164 576/726/620
f 395/185/164 62/709/607 576/726/620
f 484/292/261 362/293/262 88/675/575
f 484/292/261 483/291/260 362/293/262
f 483/291/260 52/183/162 362/293/262
f 517/290/259 437/330/289 97/329/244
f 517/290/259 408/289/258 437/330/289
f 408/289/258 88/675/575 437/330/289
f 195/287/257 604/328/288 100/282/253
f 195/287/257 228/286/256 604/328/288
f 228/286/256 64/680/580 604/328/288
f 501/284/255 316/171/150 53/170/149
f 501/284/255 389/283/254 316/171/150
f 389/283/254 54/679/579 316/171/150
f 391/281/252 290/721/616 65/722/582
f 391/281/252 502/280/251 290/721/616
f 502/280/251 68/684/584 290/721/616
f 348/278/249 502/280/251 99/279/250
f 348/278/249 450/277/248 502/280/251
f 450/277/248 68/684/584 502/280/251
f 421/275/246 274/715/611 76/685/585
f 421/275/246 213/274/245 274/715/611
f 213/274/245 78/687/587 274/715/611
f 432/272/243 215/727/621 91/691/590
f 432/272/243 449/271/242 215/727/621
f 449/271/242 83/707/605 215/727/621
f 181/269/240 317/320/283 93/311/225
f 181/269/240 586/268/239 317/320/283
f 586/268/239 81/270/241 317/320/283
f 578/266/238 349/728/622 82/690/589
f 578/266/238 472/265/237 349/728/622
f 472/265/237 73/693/592 349/728/622
f 286/263/235 247/319/282 96/264/236
f 286/263/235 407/262/234 247/319/282
f 407/262/234 71/694/593 247/319/282
f 303/260/233 328/718/614 72/719/595
f 303/260/233 423/259/232 328/718/614
f 423/259/232 60/698/597 328/718/614
f 551/257/230 214/315/280 95/258/231
f 551/257/230 260/256/229 214/315/280
f 260/256/229 58/699/598 214/315/280
f 436/254/227 587/729/623 59/701/600
f 436/254/227 207/253/226 587/729/623
f 207/253/226 61/703/602 587/729/623
f 329/251/224 215/727/621 83/707/605
f 329/251/224 451/240/215 215/727/621
f 451/240/215 91/691/590 215/727/621
f 478/250/223 186/714/610 79/713/609
f 478/250/223 487/249/222 186/714/610
f 487/249/222 83/707/605 186/714/610
f 258/247/220 487/249/222 92/248/221
f 258/247/220 545/246/219 487/249/222
f 545/246/219 83/707/605 487/249/222
f 392/245/214 589/702/601 90/704/603
f 392/245/214 416/244/218 589/702/601
f 416/244/218 61/703/602 589/702/601
f 332/242/217 416/244/218 89/243/213
f 332/242/217 308/241/216 416/244/218
f 308/241/216 61/703/602 416/244/218
f 451/240/215 336/705/604 91/691/590
f 451/240/215 392/239/214 336/705/604
f 392/239/214 90/706/603 336/705/604
f 203/237/212 576/726/620 62/709/607
f 203/237/212 282/236/211 576/726/620
f 282/236/211 88/675/575 576/726/620
f 230/234/209 546/730/275 87/711/210
f 230/234/209 177/233/208 546/730/275
f 177/233/208 86/688/577 546/730/275
f 177/233/208 467/686/586 86/688/577
f 177/233/208 399/232/207 467/686/586
f 399/232/207 78/687/587 467/686/586
f 495/230/205 349/728/622 73/693/592
f 495/230/205 454/221/196 349/728/622
f 454/221/196 82/690/589 349/728/622
f 251/229/204 552/720/615 69/717/613
f 251/229/204 248/228/203 552/720/615
f 248/228/203 73/693/592 552/720/615
f 471/226/201 248/228/203 84/227/202
f 471/226/201 455/225/200 248/228/203
f 455/225/200 73/693/592 248/228/203
f 452/220/195 449/271/242 81/270/241
f 452/220/195 505/224/199 449/271/242
f 505/224/199 83/707/605 449/271/242
f 503/223/198 505/224/199 80/219/194
f 503/223/198 400/222/197 505/224/199
f 400/222/197 83/707/605 505/224/199
f 454/221/196 390/689/588 82/690/589
f 454/221/196 452/220/195 390/689/588
f 452/220/195 81/270/241 390/689/588
f 232/218/193 556/712/608 79/713/609
f 232/218/193 184/217/192 556/712/608
f 184/217/192 78/687/587 556/712/608
f 553/215/190 235/304/272 77/216/191
f 553/215/190 506/214/189 235/304/272
f 506/214/189 76/685/585 235/304/272
f 506/214/189 605/683/583 76/685/585
f 506/214/189 537/213/188 605/683/583
f 537/213/188 68/684/584 605/683/583
f 269/211/186 485/301/269 74/300/268
f 269/211/186 182/210/178 485/301/269
f 182/210/178 72/719/595 485/301/269
f 229/208/185 510/725/619 56/724/618
f 229/208/185 227/207/184 510/725/619
f 227/207/184 60/698/597 510/725/619
f 325/206/183 275/299/267 66/190/169
f 325/206/183 334/205/182 275/299/267
f 334/205/182 74/300/268 275/299/267
f 560/200/177 340/692/591 71/694/593
f 560/200/177 233/204/181 340/692/591
f 233/204/181 73/693/592 340/692/591
f 387/203/180 233/204/181 70/199/176
f 387/203/180 335/202/179 233/204/181
f 335/202/179 73/693/592 233/204/181
f 182/201/178 291/695/594 72/696/595
f 182/201/178 560/200/177 291/695/594
f 560/200/177 71/694/593 291/695/594
f 561/198/175 237/716/612 69/717/613
f 561/198/175 509/197/174 237/716/612
f 509/197/174 68/684/584 237/716/612
f 267/195/172 458/296/265 67/196/173
f 267/195/172 364/194/168 458/296/265
f 364/194/168 65/722/582 458/296/265
f 222/192/171 514/678/578 64/680/580
f 222/192/171 448/191/170 514/678/578
f 448/191/170 54/679/579 514/678/578
f 364/189/168 265/681/581 65/682/582
f 364/189/168 219/188/167 265/681/581
f 219/188/167 64/680/580 265/681/581
f 359/186/165 587/729/623 61/703/602
f 359/186/165 261/178/157 587/729/623
f 261/178/157 59/701/600 587/729/623
f 395/185/164 319/708/606 62/709/607
f 395/185/164 466/184/163 319/708/606
f 466/184/163 61/703/602 319/708/606
f 426/168/147 466/184/163 52/183/162
f 426/168/147 566/182/161 466/184/163
f 566/182/161 61/703/602 466/184/163
f 533/177/156 315/697/596 58/699/598
f 533/177/156 208/181/160 315/697/596
f 208/181/160 60/698/597 315/697/596
f 360/180/159 208/181/160 57/176/155
f 360/180/159 403/179/158 208/181/160
f 403/179/158 60/698/597 208/181/160
f 261/178/157 365/700/599 59/701/600
f 261/178/157 533/177/156 365/700/599
f 533/177/156 58/699/598 365/700/599
f 209/175/154 527/723/617 56/724/618
f 209/175/154 584/174/153 527/723/617
f 584/174/153 54/679/579 527/723/617
f 479/172/151 584/174/153 55/173/152
f 479/172/151 316/171/150 584/174/153
f 316/171/150 54/679/579 584/174/153
f 585/169/148 483/291/260 53/170/149
f 585/169/148 426/168/147 483/291/260
f 426/168/147 52/183/162 483/291/260
f 380/166/145 588/126/116 38/731/624
f 380/166/145 344/118/110 588/126/116
f 344/118/110 3/4/4 588/126/116
f 338/165/141 413/732/625 36/733/626
f 338/165/141 568/164/144 413/732/625
f 568/164/144 38/731/624 413/732/625
f 511/123/113 380/166/145 38/731/624
f 511/123/113 580/160/142 380/166/145
f 580/160/142 50/116/108 380/166/145
f 238/117/109 307/734/627 4/735/628
f 238/117/109 441/162/143 307/734/627
f 441/162/143 14/736/629 307/734/627
f 431/120/111 599/737/630 14/736/629
f 431/120/111 321/161/107 599/737/630
f 321/161/107 15/738/631 599/737/630
f 580/160/142 532/121/112 50/116/108
f 580/160/142 253/159/104 532/121/112
f 253/159/104 49/119/105 532/121/112
f 543/111/103 306/739/632 18/740/633
f 543/111/103 557/157/140 306/739/632
f 557/157/140 26/741/634 306/739/632
f 292/108/100 555/742/635 28/743/636
f 292/108/100 338/158/141 555/742/635
f 338/158/141 36/744/626 555/742/635
f 557/157/140 512/109/101 26/741/634
f 557/157/140 201/156/114 512/109/101
f 201/156/114 47/107/99 512/109/101
f 567/155/139 327/745/637 31/104/96
f 567/155/139 461/100/93 327/745/637
f 461/100/93 32/746/638 327/745/637
f 252/146/133 287/106/98 41/747/639
f 252/146/133 397/154/138 287/106/98
f 397/154/138 31/104/96 287/106/98
f 460/102/94 567/155/139 31/104/96
f 460/102/94 404/151/136 567/155/139
f 404/151/136 46/98/91 567/155/139
f 559/99/92 486/748/640 23/749/641
f 559/99/92 342/153/137 486/748/640
f 342/153/137 21/750/642 486/748/640
f 284/96/89 434/751/643 21/750/642
f 284/96/89 179/152/88 434/751/643
f 179/152/88 22/752/644 434/751/643
f 404/151/136 309/97/90 46/98/91
f 404/151/136 473/150/85 309/97/90
f 473/150/85 45/95/86 309/97/90
f 216/93/87 526/753/645 10/754/646
f 216/93/87 417/149/135 526/753/645
f 417/149/135 8/755/647 526/753/645
f 574/90/84 276/756/648 8/755/647
f 574/90/84 263/144/132 276/756/648
f 263/144/132 9/757/649 276/756/648
f 427/87/81 249/758/650 11/759/651
f 427/87/81 558/148/134 249/758/650
f 558/148/134 40/760/652 249/758/650
f 558/147/134 256/761/653 40/762/652
f 558/147/134 252/146/133 256/761/653
f 252/146/133 41/747/639 256/761/653
f 263/144/132 221/88/82 9/757/649
f 263/144/132 418/143/95 221/88/82
f 418/143/95 43/86/80 221/88/82
f 255/80/74 469/85/79 33/763/654
f 255/80/74 244/142/131 469/85/79
f 244/142/131 39/72/68 469/85/79
f 525/75/71 538/764/655 11/759/651
f 525/75/71 419/71/67 538/764/655
f 419/71/67 12/765/656 538/764/655
f 244/142/131 476/766/72 39/72/68
f 244/142/131 579/68/64 476/766/72
f 579/68/64 37/767/65 476/766/72
f 311/70/66 413/732/625 38/731/624
f 311/70/66 480/141/130 413/732/625
f 480/141/130 36/733/626 413/732/625
f 242/140/129 491/768/657 28/743/636
f 242/140/129 564/84/78 491/768/657
f 564/84/78 29/769/658 491/768/657
f 504/66/62 242/140/129 28/743/636
f 504/66/62 296/81/75 242/140/129
f 296/81/75 42/82/76 242/140/129
f 369/59/55 199/64/60 23/749/641
f 369/59/55 430/139/128 199/64/60
f 430/139/128 30/53/49 199/64/60
f 363/56/52 591/770/659 33/763/654
f 363/56/52 592/52/48 591/770/659
f 592/52/48 29/769/658 591/770/659
f 430/139/128 210/57/53 30/53/49
f 430/139/128 270/49/45 210/57/53
f 270/49/45 27/50/46 210/57/53
f 534/51/47 220/771/660 28/743/636
f 534/51/47 372/138/127 220/771/660
f 372/138/127 26/741/634 220/771/660
f 459/137/126 370/772/661 18/740/633
f 459/137/126 341/63/59 370/772/661
f 341/63/59 19/773/662 370/772/661
f 481/47/43 459/137/126 18/740/633
f 481/47/43 549/60/56 459/137/126
f 549/60/56 34/61/57 459/137/126
f 384/136/125 500/774/663 10/754/646
f 384/136/125 428/135/124 500/774/663
f 428/135/124 22/775/644 500/774/663
f 429/41/39 384/136/125 10/754/646
f 429/41/39 185/133/122 384/136/125
f 185/133/122 24/134/123 384/136/125
f 507/39/37 211/45/41 24/134/123
f 507/39/37 283/132/121 211/45/41
f 283/132/121 20/43/31 211/45/41
f 482/36/34 257/776/664 23/749/641
f 482/36/34 268/32/30 257/776/664
f 268/32/30 19/773/662 257/776/664
f 283/131/121 320/37/35 20/33/31
f 283/131/121 594/29/27 320/37/35
f 594/29/27 17/30/28 320/37/35
f 223/31/29 385/777/665 18/740/633
f 223/31/29 377/130/120 385/777/665
f 377/130/120 15/778/631 385/777/665
f 202/25/25 322/779/666 4/735/628
f 202/25/25 424/42/40 322/779/666
f 424/42/40 6/780/667 322/779/666
f 442/22/22 438/26/26 14/736/629
f 442/22/22 536/40/38 438/26/26
f 536/40/38 16/24/24 438/26/26
f 262/16/16 474/20/20 11/759/651
f 262/16/16 490/129/119 474/20/20
f 490/129/119 7/10/10 474/20/20
f 206/13/13 312/781/668 10/754/646
f 206/13/13 443/9/9 312/781/668
f 443/9/9 6/780/667 312/781/668
f 490/129/119 494/14/14 7/10/10
f 490/129/119 376/128/118 494/14/14
f 376/128/118 5/7/7 494/14/14
f 376/128/118 603/6/6 5/7/7
f 376/128/118 277/3/3 603/6/6
f 277/3/3 3/4/4 603/6/6
f 264/127/117 462/782/669 38/731/624
f 264/127/117 205/19/19 462/782/669
f 205/19/19 12/765/656 462/782/669
f 588/126/116 264/127/117 38/731/624
f 588/126/116 381/125/115 264/127/117
f 381/125/115 2/17/17 264/127/117
f 201/124/114 568/164/144 47/163/99
f 201/124/114 511/123/113 568/164/144
f 511/123/113 38/731/624 568/164/144
f 532/121/112 441/162/143 50/116/108
f 532/121/112 431/120/111 441/162/143
f 431/120/111 14/736/629 441/162/143
f 344/118/110 544/5/5 3/4/4
f 344/118/110 238/117/109 544/5/5
f 238/117/109 4/735/628 544/5/5
f 321/115/107 385/777/665 15/778/631
f 321/115/107 386/114/106 385/777/665
f 386/114/106 18/740/633 385/777/665
f 253/112/104 386/114/106 49/113/105
f 253/112/104 543/111/103 386/114/106
f 543/111/103 18/740/633 386/114/106
f 512/109/101 220/771/660 26/741/634
f 512/109/101 292/108/100 220/771/660
f 292/108/100 28/743/636 220/771/660
f 287/106/98 571/783/670 41/747/639
f 287/106/98 371/105/97 571/783/670
f 371/105/97 33/763/654 571/783/670
f 418/103/95 397/154/138 43/145/80
f 418/103/95 460/102/94 397/154/138
f 460/102/94 31/104/96 397/154/138
f 461/100/93 310/784/671 32/746/638
f 461/100/93 559/99/92 310/784/671
f 559/99/92 23/749/641 310/784/671
f 309/97/90 342/153/137 46/98/91
f 309/97/90 284/96/89 342/153/137
f 284/96/89 21/750/642 342/153/137
f 179/94/88 500/774/663 22/775/644
f 179/94/88 216/93/87 500/774/663
f 216/93/87 10/754/646 500/774/663
f 473/91/85 417/149/135 45/92/86
f 473/91/85 574/90/84 417/149/135
f 574/90/84 8/755/647 417/149/135
f 221/88/82 271/785/672 9/757/649
f 221/88/82 427/87/81 271/785/672
f 427/87/81 11/759/651 271/785/672
f 469/85/79 571/783/670 33/763/654
f 469/85/79 358/74/70 571/783/670
f 358/74/70 41/747/639 571/783/670
f 564/84/78 591/770/659 29/769/658
f 564/84/78 516/83/77 591/770/659
f 516/83/77 33/763/654 591/770/659
f 296/81/75 516/83/77 42/82/76
f 296/81/75 255/80/74 516/83/77
f 255/80/74 33/763/654 516/83/77
f 204/79/69 249/758/650 40/760/652
f 204/79/69 192/78/73 249/758/650
f 192/78/73 11/759/651 249/758/650
f 476/76/72 192/78/73 39/77/68
f 476/76/72 525/75/71 192/78/73
f 525/75/71 11/759/651 192/78/73
f 358/74/70 256/761/653 41/747/639
f 358/74/70 204/73/69 256/761/653
f 204/73/69 40/762/652 256/761/653
f 419/71/67 462/782/669 12/765/656
f 419/71/67 311/70/66 462/782/669
f 311/70/66 38/731/624 462/782/669
f 579/68/64 480/786/130 37/767/65
f 579/68/64 422/67/63 480/786/130
f 422/67/63 36/744/626 480/786/130
f 422/67/63 555/742/635 36/744/626
f 422/67/63 504/66/62 555/742/635
f 504/66/62 28/743/636 555/742/635
f 199/64/60 310/784/671 23/749/641
f 199/64/60 433/55/51 310/784/671
f 433/55/51 32/746/638 310/784/671
f 341/63/59 257/776/664 19/773/662
f 341/63/59 337/62/58 257/776/664
f 337/62/58 23/749/641 257/776/664
f 549/60/56 337/62/58 34/61/57
f 549/60/56 369/59/55 337/62/58
f 369/59/55 23/749/641 337/62/58
f 596/54/50 371/105/97 31/104/96
f 596/54/50 488/58/54 371/105/97
f 488/58/54 33/763/654 371/105/97
f 210/57/53 488/58/54 30/53/49
f 210/57/53 363/56/52 488/58/54
f 363/56/52 33/763/654 488/58/54
f 433/55/51 327/745/637 32/746/638
f 433/55/51 596/54/50 327/745/637
f 596/54/50 31/104/96 327/745/637
f 592/52/48 491/768/657 29/769/658
f 592/52/48 534/51/47 491/768/657
f 534/51/47 28/743/636 491/768/657
f 270/49/45 372/138/127 27/50/46
f 270/49/45 225/48/44 372/138/127
f 225/48/44 26/741/634 372/138/127
f 225/48/44 306/739/632 26/741/634
f 225/48/44 481/47/43 306/739/632
f 481/47/43 18/740/633 306/739/632
f 211/45/41 428/135/124 24/134/123
f 211/45/41 313/44/33 428/135/124
f 313/44/33 22/775/644 428/135/124
f 424/42/40 312/781/668 6/780/667
f 424/42/40 429/41/39 312/781/668
f 429/41/39 10/754/646 312/781/668
f 536/40/38 185/133/122 16/24/24
f 536/40/38 507/39/37 185/133/122
f 507/39/37 24/134/123 185/133/122
f 489/34/32 486/748/640 21/750/642
f 489/34/32 361/38/36 486/748/640
f 361/38/36 23/749/641 486/748/640
f 320/37/35 361/38/36 20/33/31
f 320/37/35 482/36/34 361/38/36
f 482/36/34 23/749/641 361/38/36
f 313/35/33 434/751/643 22/752/644
f 313/35/33 489/34/32 434/751/643
f 489/34/32 21/750/642 434/751/643
f 268/32/30 370/772/661 19/773/662
f 268/32/30 223/31/29 370/772/661
f 223/31/29 18/740/633 370/772/661
f 594/29/27 377/130/120 17/30/28
f 594/29/27 493/28/23 377/130/120
f 493/28/23 15/778/631 377/130/120
f 438/26/26 307/734/627 14/736/629
f 438/26/26 202/25/25 307/734/627
f 202/25/25 4/735/628 307/734/627
f 493/23/23 599/737/630 15/738/631
f 493/23/23 442/22/22 599/737/630
f 442/22/22 14/736/629 599/737/630
f 474/20/20 271/785/672 11/759/651
f 474/20/20 379/12/12 271/785/672
f 379/12/12 9/757/649 271/785/672
f 205/19/19 538/764/655 12/765/656
f 205/19/19 366/18/18 538/764/655
f 366/18/18 11/759/651 538/764/655
f 231/2/2 366/18/18 2/17/17
f 231/2/2 262/16/16 366/18/18
f 262/16/16 11/759/651 366/18/18
f 330/11/11 526/753/645 8/755/647
f 330/11/11 420/15/15 526/753/645
f 420/15/15 10/754/646 526/753/645
f 494/14/14 420/15/15 7/10/10
f 494/14/14 206/13/13 420/15/15
f 206/13/13 10/754/646 420/15/15
f 379/12/12 276/756/648 9/757/649
f 379/12/12 330/11/11 276/756/648
f 330/11/11 8/755/647 276/756/648
f 443/9/9 322/779/666 6/780/667
f 443/9/9 496/8/8 322/779/666
f 496/8/8 4/735/628 322/779/666
f 603/6/6 496/8/8 5/7/7
f 603/6/6 544/5/5 496/8/8
f 544/5/5 4/735/628 496/8/8
f 277/3/3 381/125/115 3/4/4
f 277/3/3 231/2/2 381/125/115
f 231/2/2 2/17/17 381/125/115
